%!PS-Adobe-3.0 EPSF-3.0
%%Creator: (MATLAB, The Mathworks, Inc. Version 9.8.0.1451342 \(R2020a\) Update 5. Operating System: Windows 10)
%%Title: ./PRN19_xsum_noise_crosscorr.eps
%%CreationDate: 2020-09-15T21:59:46
%%Pages: (atend)
%%BoundingBox:    30    19   573   306
%%LanguageLevel: 2
%%EndComments
%%BeginProlog
%%BeginResource: procset (Apache XML Graphics Std ProcSet) 1.2 0
%%Version: 1.2 0
%%Copyright: (Copyright 2001-2003,2010 The Apache Software Foundation. License terms: http://www.apache.org/licenses/LICENSE-2.0)
/bd{bind def}bind def
/ld{load def}bd
/GR/grestore ld
/GS/gsave ld
/RM/rmoveto ld
/C/curveto ld
/t/show ld
/L/lineto ld
/ML/setmiterlimit ld
/CT/concat ld
/f/fill ld
/N/newpath ld
/S/stroke ld
/CC/setcmykcolor ld
/A/ashow ld
/cp/closepath ld
/RC/setrgbcolor ld
/LJ/setlinejoin ld
/GC/setgray ld
/LW/setlinewidth ld
/M/moveto ld
/re {4 2 roll M
1 index 0 rlineto
0 exch rlineto
neg 0 rlineto
cp } bd
/_ctm matrix def
/_tm matrix def
/BT { _ctm currentmatrix pop matrix _tm copy pop 0 0 moveto } bd
/ET { _ctm setmatrix } bd
/iTm { _ctm setmatrix _tm concat } bd
/Tm { _tm astore pop iTm 0 0 moveto } bd
/ux 0.0 def
/uy 0.0 def
/F {
  /Tp exch def
  /Tf exch def
  Tf findfont Tp scalefont setfont
  /cf Tf def  /cs Tp def
} bd
/ULS {currentpoint /uy exch def /ux exch def} bd
/ULE {
  /Tcx currentpoint pop def
  gsave
  newpath
  cf findfont cs scalefont dup
  /FontMatrix get 0 get /Ts exch def /FontInfo get dup
  /UnderlinePosition get Ts mul /To exch def
  /UnderlineThickness get Ts mul /Tt exch def
  ux uy To add moveto  Tcx uy To add lineto
  Tt setlinewidth stroke
  grestore
} bd
/OLE {
  /Tcx currentpoint pop def
  gsave
  newpath
  cf findfont cs scalefont dup
  /FontMatrix get 0 get /Ts exch def /FontInfo get dup
  /UnderlinePosition get Ts mul /To exch def
  /UnderlineThickness get Ts mul /Tt exch def
  ux uy To add cs add moveto Tcx uy To add cs add lineto
  Tt setlinewidth stroke
  grestore
} bd
/SOE {
  /Tcx currentpoint pop def
  gsave
  newpath
  cf findfont cs scalefont dup
  /FontMatrix get 0 get /Ts exch def /FontInfo get dup
  /UnderlinePosition get Ts mul /To exch def
  /UnderlineThickness get Ts mul /Tt exch def
  ux uy To add cs 10 mul 26 idiv add moveto Tcx uy To add cs 10 mul 26 idiv add lineto
  Tt setlinewidth stroke
  grestore
} bd
/QT {
/Y22 exch store
/X22 exch store
/Y21 exch store
/X21 exch store
currentpoint
/Y21 load 2 mul add 3 div exch
/X21 load 2 mul add 3 div exch
/X21 load 2 mul /X22 load add 3 div
/Y21 load 2 mul /Y22 load add 3 div
/X22 load /Y22 load curveto
} bd
/SSPD {
dup length /d exch dict def
{
/v exch def
/k exch def
currentpagedevice k known {
/cpdv currentpagedevice k get def
v cpdv ne {
/upd false def
/nullv v type /nulltype eq def
/nullcpdv cpdv type /nulltype eq def
nullv nullcpdv or
{
/upd true def
} {
/sametype v type cpdv type eq def
sametype {
v type /arraytype eq {
/vlen v length def
/cpdvlen cpdv length def
vlen cpdvlen eq {
0 1 vlen 1 sub {
/i exch def
/obj v i get def
/cpdobj cpdv i get def
obj cpdobj ne {
/upd true def
exit
} if
} for
} {
/upd true def
} ifelse
} {
v type /dicttype eq {
v {
/dv exch def
/dk exch def
/cpddv cpdv dk get def
dv cpddv ne {
/upd true def
exit
} if
} forall
} {
/upd true def
} ifelse
} ifelse
} if
} ifelse
upd true eq {
d k v put
} if
} if
} if
} forall
d length 0 gt {
d setpagedevice
} if
} bd
/RE { % /NewFontName [NewEncodingArray] /FontName RE -
  findfont dup length dict begin
  {
    1 index /FID ne
    {def} {pop pop} ifelse
  } forall
  /Encoding exch def
  /FontName 1 index def
  currentdict definefont pop
  end
} bind def
%%EndResource
%%BeginResource: procset (Apache XML Graphics EPS ProcSet) 1.0 0
%%Version: 1.0 0
%%Copyright: (Copyright 2002-2003 The Apache Software Foundation. License terms: http://www.apache.org/licenses/LICENSE-2.0)
/BeginEPSF { %def
/b4_Inc_state save def         % Save state for cleanup
/dict_count countdictstack def % Count objects on dict stack
/op_count count 1 sub def      % Count objects on operand stack
userdict begin                 % Push userdict on dict stack
/showpage { } def              % Redefine showpage, { } = null proc
0 setgray 0 setlinecap         % Prepare graphics state
1 setlinewidth 0 setlinejoin
10 setmiterlimit [ ] 0 setdash newpath
/languagelevel where           % If level not equal to 1 then
{pop languagelevel             % set strokeadjust and
1 ne                           % overprint to their defaults.
{false setstrokeadjust false setoverprint
} if
} if
} bd
/EndEPSF { %def
count op_count sub {pop} repeat            % Clean up stacks
countdictstack dict_count sub {end} repeat
b4_Inc_state restore
} bd
%%EndResource
%FOPBeginFontDict
%%IncludeResource: font Courier-Oblique
%%IncludeResource: font Courier-BoldOblique
%%IncludeResource: font Courier-Bold
%%IncludeResource: font ZapfDingbats
%%IncludeResource: font Symbol
%%IncludeResource: font Helvetica
%%IncludeResource: font Helvetica-Oblique
%%IncludeResource: font Helvetica-Bold
%%IncludeResource: font Helvetica-BoldOblique
%%IncludeResource: font Times-Roman
%%IncludeResource: font Times-Italic
%%IncludeResource: font Times-Bold
%%IncludeResource: font Times-BoldItalic
%%IncludeResource: font Courier
%FOPEndFontDict
%%BeginResource: encoding WinAnsiEncoding
/WinAnsiEncoding [
/.notdef /.notdef /.notdef /.notdef /.notdef
/.notdef /.notdef /.notdef /.notdef /.notdef
/.notdef /.notdef /.notdef /.notdef /.notdef
/.notdef /.notdef /.notdef /.notdef /.notdef
/.notdef /.notdef /.notdef /.notdef /.notdef
/.notdef /.notdef /.notdef /.notdef /.notdef
/.notdef /.notdef /space /exclam /quotedbl
/numbersign /dollar /percent /ampersand /quotesingle
/parenleft /parenright /asterisk /plus /comma
/hyphen /period /slash /zero /one
/two /three /four /five /six
/seven /eight /nine /colon /semicolon
/less /equal /greater /question /at
/A /B /C /D /E
/F /G /H /I /J
/K /L /M /N /O
/P /Q /R /S /T
/U /V /W /X /Y
/Z /bracketleft /backslash /bracketright /asciicircum
/underscore /quoteleft /a /b /c
/d /e /f /g /h
/i /j /k /l /m
/n /o /p /q /r
/s /t /u /v /w
/x /y /z /braceleft /bar
/braceright /asciitilde /bullet /Euro /bullet
/quotesinglbase /florin /quotedblbase /ellipsis /dagger
/daggerdbl /circumflex /perthousand /Scaron /guilsinglleft
/OE /bullet /Zcaron /bullet /bullet
/quoteleft /quoteright /quotedblleft /quotedblright /bullet
/endash /emdash /asciitilde /trademark /scaron
/guilsinglright /oe /bullet /zcaron /Ydieresis
/space /exclamdown /cent /sterling /currency
/yen /brokenbar /section /dieresis /copyright
/ordfeminine /guillemotleft /logicalnot /sfthyphen /registered
/macron /degree /plusminus /twosuperior /threesuperior
/acute /mu /paragraph /middot /cedilla
/onesuperior /ordmasculine /guillemotright /onequarter /onehalf
/threequarters /questiondown /Agrave /Aacute /Acircumflex
/Atilde /Adieresis /Aring /AE /Ccedilla
/Egrave /Eacute /Ecircumflex /Edieresis /Igrave
/Iacute /Icircumflex /Idieresis /Eth /Ntilde
/Ograve /Oacute /Ocircumflex /Otilde /Odieresis
/multiply /Oslash /Ugrave /Uacute /Ucircumflex
/Udieresis /Yacute /Thorn /germandbls /agrave
/aacute /acircumflex /atilde /adieresis /aring
/ae /ccedilla /egrave /eacute /ecircumflex
/edieresis /igrave /iacute /icircumflex /idieresis
/eth /ntilde /ograve /oacute /ocircumflex
/otilde /odieresis /divide /oslash /ugrave
/uacute /ucircumflex /udieresis /yacute /thorn
/ydieresis
] def
%%EndResource
%FOPBeginFontReencode
/Courier-Oblique findfont
dup length dict begin
  {1 index /FID ne {def} {pop pop} ifelse} forall
  /Encoding WinAnsiEncoding def
  currentdict
end
/Courier-Oblique exch definefont pop
/Courier-BoldOblique findfont
dup length dict begin
  {1 index /FID ne {def} {pop pop} ifelse} forall
  /Encoding WinAnsiEncoding def
  currentdict
end
/Courier-BoldOblique exch definefont pop
/Courier-Bold findfont
dup length dict begin
  {1 index /FID ne {def} {pop pop} ifelse} forall
  /Encoding WinAnsiEncoding def
  currentdict
end
/Courier-Bold exch definefont pop
/Helvetica findfont
dup length dict begin
  {1 index /FID ne {def} {pop pop} ifelse} forall
  /Encoding WinAnsiEncoding def
  currentdict
end
/Helvetica exch definefont pop
/Helvetica-Oblique findfont
dup length dict begin
  {1 index /FID ne {def} {pop pop} ifelse} forall
  /Encoding WinAnsiEncoding def
  currentdict
end
/Helvetica-Oblique exch definefont pop
/Helvetica-Bold findfont
dup length dict begin
  {1 index /FID ne {def} {pop pop} ifelse} forall
  /Encoding WinAnsiEncoding def
  currentdict
end
/Helvetica-Bold exch definefont pop
/Helvetica-BoldOblique findfont
dup length dict begin
  {1 index /FID ne {def} {pop pop} ifelse} forall
  /Encoding WinAnsiEncoding def
  currentdict
end
/Helvetica-BoldOblique exch definefont pop
/Times-Roman findfont
dup length dict begin
  {1 index /FID ne {def} {pop pop} ifelse} forall
  /Encoding WinAnsiEncoding def
  currentdict
end
/Times-Roman exch definefont pop
/Times-Italic findfont
dup length dict begin
  {1 index /FID ne {def} {pop pop} ifelse} forall
  /Encoding WinAnsiEncoding def
  currentdict
end
/Times-Italic exch definefont pop
/Times-Bold findfont
dup length dict begin
  {1 index /FID ne {def} {pop pop} ifelse} forall
  /Encoding WinAnsiEncoding def
  currentdict
end
/Times-Bold exch definefont pop
/Times-BoldItalic findfont
dup length dict begin
  {1 index /FID ne {def} {pop pop} ifelse} forall
  /Encoding WinAnsiEncoding def
  currentdict
end
/Times-BoldItalic exch definefont pop
/Courier findfont
dup length dict begin
  {1 index /FID ne {def} {pop pop} ifelse} forall
  /Encoding WinAnsiEncoding def
  currentdict
end
/Courier exch definefont pop
%FOPEndFontReencode
%%EndProlog
%%Page: 1 1
%%PageBoundingBox: 0 0 581 315
%%BeginPageSetup
[1 0 0 -1 0 315] CT
%%EndPageSetup
GS
[0.75 0 0 0.75 0 0] CT
1 GC
N
0 0 774 420 re
f
GR
GS
[0.75 0 0 0.75 0 0] CT
1 GC
N
0 0 774 420 re
f
GR
GS
[0.75 0 0 0.75 0 0] CT
1 GC
N
101 374 M
700 374 L
700 31 L
101 31 L
cp
f
GR
GS
[0.75 0 0 0.75 0 0] CT
0.149 GC
2 setlinecap
1 LJ
0.667 LW
N
101 374 M
700 374 L
S
GR
GS
[0.75 0 0 0.75 0 0] CT
0.149 GC
2 setlinecap
1 LJ
0.667 LW
N
101 31 M
700 31 L
S
GR
GS
[0.75 0 0 0.75 0 0] CT
0.149 GC
2 setlinecap
1 LJ
0.667 LW
N
150.917 374 M
150.917 368.01 L
S
GR
GS
[0.75 0 0 0.75 0 0] CT
0.149 GC
2 setlinecap
1 LJ
0.667 LW
N
250.75 374 M
250.75 368.01 L
S
GR
GS
[0.75 0 0 0.75 0 0] CT
0.149 GC
2 setlinecap
1 LJ
0.667 LW
N
350.583 374 M
350.583 368.01 L
S
GR
GS
[0.75 0 0 0.75 0 0] CT
0.149 GC
2 setlinecap
1 LJ
0.667 LW
N
450.417 374 M
450.417 368.01 L
S
GR
GS
[0.75 0 0 0.75 0 0] CT
0.149 GC
2 setlinecap
1 LJ
0.667 LW
N
550.25 374 M
550.25 368.01 L
S
GR
GS
[0.75 0 0 0.75 0 0] CT
0.149 GC
2 setlinecap
1 LJ
0.667 LW
N
650.083 374 M
650.083 368.01 L
S
GR
GS
[0.75 0 0 0.75 0 0] CT
0.149 GC
2 setlinecap
1 LJ
0.667 LW
N
150.917 31 M
150.917 36.99 L
S
GR
GS
[0.75 0 0 0.75 0 0] CT
0.149 GC
2 setlinecap
1 LJ
0.667 LW
N
250.75 31 M
250.75 36.99 L
S
GR
GS
[0.75 0 0 0.75 0 0] CT
0.149 GC
2 setlinecap
1 LJ
0.667 LW
N
350.583 31 M
350.583 36.99 L
S
GR
GS
[0.75 0 0 0.75 0 0] CT
0.149 GC
2 setlinecap
1 LJ
0.667 LW
N
450.417 31 M
450.417 36.99 L
S
GR
GS
[0.75 0 0 0.75 0 0] CT
0.149 GC
2 setlinecap
1 LJ
0.667 LW
N
550.25 31 M
550.25 36.99 L
S
GR
GS
[0.75 0 0 0.75 0 0] CT
0.149 GC
2 setlinecap
1 LJ
0.667 LW
N
650.083 31 M
650.083 36.99 L
S
GR
GS
[0.75 0 0 0.75 113.1875 284.50001] CT
0.149 GC
/Helvetica 13.333 F
GS
[1 0 0 1 0 0] CT
-4 14 moveto 
1 -1 scale
(0) t 
GR
GR
GS
[0.75 0 0 0.75 188.0625 284.50001] CT
0.149 GC
/Helvetica 13.333 F
GS
[1 0 0 1 0 0] CT
-11.5 14 moveto 
1 -1 scale
(200) t 
GR
GR
GS
[0.75 0 0 0.75 262.93751 284.50001] CT
0.149 GC
/Helvetica 13.333 F
GS
[1 0 0 1 0 0] CT
-11.5 14 moveto 
1 -1 scale
(400) t 
GR
GR
GS
[0.75 0 0 0.75 337.81249 284.50001] CT
0.149 GC
/Helvetica 13.333 F
GS
[1 0 0 1 0 0] CT
-11.5 14 moveto 
1 -1 scale
(600) t 
GR
GR
GS
[0.75 0 0 0.75 412.6875 284.50001] CT
0.149 GC
/Helvetica 13.333 F
GS
[1 0 0 1 0 0] CT
-11.5 14 moveto 
1 -1 scale
(800) t 
GR
GR
GS
[0.75 0 0 0.75 487.56248 284.50001] CT
0.149 GC
/Helvetica 13.333 F
GS
[1 0 0 1 0 0] CT
-15 14 moveto 
1 -1 scale
(1000) t 
GR
GR
GS
[0.75 0 0 0.75 0 0] CT
0.149 GC
2 setlinecap
1 LJ
0.667 LW
N
101 374 M
101 31 L
S
GR
GS
[0.75 0 0 0.75 0 0] CT
0.149 GC
2 setlinecap
1 LJ
0.667 LW
N
700 374 M
700 31 L
S
GR
GS
[0.75 0 0 0.75 0 0] CT
0.149 GC
2 setlinecap
1 LJ
0.667 LW
N
101 374 M
106.99 374 L
S
GR
GS
[0.75 0 0 0.75 0 0] CT
0.149 GC
2 setlinecap
1 LJ
0.667 LW
N
101 335.889 M
106.99 335.889 L
S
GR
GS
[0.75 0 0 0.75 0 0] CT
0.149 GC
2 setlinecap
1 LJ
0.667 LW
N
101 297.778 M
106.99 297.778 L
S
GR
GS
[0.75 0 0 0.75 0 0] CT
0.149 GC
2 setlinecap
1 LJ
0.667 LW
N
101 259.667 M
106.99 259.667 L
S
GR
GS
[0.75 0 0 0.75 0 0] CT
0.149 GC
2 setlinecap
1 LJ
0.667 LW
N
101 221.556 M
106.99 221.556 L
S
GR
GS
[0.75 0 0 0.75 0 0] CT
0.149 GC
2 setlinecap
1 LJ
0.667 LW
N
101 183.444 M
106.99 183.444 L
S
GR
GS
[0.75 0 0 0.75 0 0] CT
0.149 GC
2 setlinecap
1 LJ
0.667 LW
N
101 145.333 M
106.99 145.333 L
S
GR
GS
[0.75 0 0 0.75 0 0] CT
0.149 GC
2 setlinecap
1 LJ
0.667 LW
N
101 107.222 M
106.99 107.222 L
S
GR
GS
[0.75 0 0 0.75 0 0] CT
0.149 GC
2 setlinecap
1 LJ
0.667 LW
N
101 69.111 M
106.99 69.111 L
S
GR
GS
[0.75 0 0 0.75 0 0] CT
0.149 GC
2 setlinecap
1 LJ
0.667 LW
N
101 31 M
106.99 31 L
S
GR
GS
[0.75 0 0 0.75 0 0] CT
0.149 GC
2 setlinecap
1 LJ
0.667 LW
N
700 374 M
694.01 374 L
S
GR
GS
[0.75 0 0 0.75 0 0] CT
0.149 GC
2 setlinecap
1 LJ
0.667 LW
N
700 335.889 M
694.01 335.889 L
S
GR
GS
[0.75 0 0 0.75 0 0] CT
0.149 GC
2 setlinecap
1 LJ
0.667 LW
N
700 297.778 M
694.01 297.778 L
S
GR
GS
[0.75 0 0 0.75 0 0] CT
0.149 GC
2 setlinecap
1 LJ
0.667 LW
N
700 259.667 M
694.01 259.667 L
S
GR
GS
[0.75 0 0 0.75 0 0] CT
0.149 GC
2 setlinecap
1 LJ
0.667 LW
N
700 221.556 M
694.01 221.556 L
S
GR
GS
[0.75 0 0 0.75 0 0] CT
0.149 GC
2 setlinecap
1 LJ
0.667 LW
N
700 183.444 M
694.01 183.444 L
S
GR
GS
[0.75 0 0 0.75 0 0] CT
0.149 GC
2 setlinecap
1 LJ
0.667 LW
N
700 145.333 M
694.01 145.333 L
S
GR
GS
[0.75 0 0 0.75 0 0] CT
0.149 GC
2 setlinecap
1 LJ
0.667 LW
N
700 107.222 M
694.01 107.222 L
S
GR
GS
[0.75 0 0 0.75 0 0] CT
0.149 GC
2 setlinecap
1 LJ
0.667 LW
N
700 69.111 M
694.01 69.111 L
S
GR
GS
[0.75 0 0 0.75 0 0] CT
0.149 GC
2 setlinecap
1 LJ
0.667 LW
N
700 31 M
694.01 31 L
S
GR
GS
[0.75 0 0 0.75 71.75 280.5] CT
0.149 GC
/Helvetica 13.333 F
GS
[1 0 0 1 0 0] CT
-23 5.5 moveto 
1 -1 scale
(-0.6) t 
GR
GR
GS
[0.75 0 0 0.75 71.75 251.91666] CT
0.149 GC
/Helvetica 13.333 F
GS
[1 0 0 1 0 0] CT
-23 5.5 moveto 
1 -1 scale
(-0.4) t 
GR
GR
GS
[0.75 0 0 0.75 71.75 223.33333] CT
0.149 GC
/Helvetica 13.333 F
GS
[1 0 0 1 0 0] CT
-23 5.5 moveto 
1 -1 scale
(-0.2) t 
GR
GR
GS
[0.75 0 0 0.75 71.75 194.74999] CT
0.149 GC
/Helvetica 13.333 F
GS
[1 0 0 1 0 0] CT
-8 5.5 moveto 
1 -1 scale
(0) t 
GR
GR
GS
[0.75 0 0 0.75 71.75 166.16667] CT
0.149 GC
/Helvetica 13.333 F
GS
[1 0 0 1 0 0] CT
-19 5.5 moveto 
1 -1 scale
(0.2) t 
GR
GR
GS
[0.75 0 0 0.75 71.75 137.58333] CT
0.149 GC
/Helvetica 13.333 F
GS
[1 0 0 1 0 0] CT
-19 5.5 moveto 
1 -1 scale
(0.4) t 
GR
GR
GS
[0.75 0 0 0.75 71.75 109] CT
0.149 GC
/Helvetica 13.333 F
GS
[1 0 0 1 0 0] CT
-19 5.5 moveto 
1 -1 scale
(0.6) t 
GR
GR
GS
[0.75 0 0 0.75 71.75 80.41667] CT
0.149 GC
/Helvetica 13.333 F
GS
[1 0 0 1 0 0] CT
-19 5.5 moveto 
1 -1 scale
(0.8) t 
GR
GR
GS
[0.75 0 0 0.75 71.75 51.83334] CT
0.149 GC
/Helvetica 13.333 F
GS
[1 0 0 1 0 0] CT
-8 5.5 moveto 
1 -1 scale
(1) t 
GR
GR
GS
[0.75 0 0 0.75 71.75 23.24999] CT
0.149 GC
/Helvetica 13.333 F
GS
[1 0 0 1 0 0] CT
-19 5.5 moveto 
1 -1 scale
(1.2) t 
GR
GR
GS
[0.75 0 0 0.75 300.37527 21.18749] CT
/Helvetica-Bold 14.667 F
GS
[1 0 0 1 0 0] CT
-361 -4 moveto 
1 -1 scale
(PRN19 vs Sum of PRN19 \(delay 350\), PRN25 \(delay 905\), PRN05 \(delay 75\), and Noise Cross-Correlation) t 
GR
GR
GS
[0.75 0 0 0.75 0 0] CT
0 0.447 0.741 RC
1 LJ
0.667 LW
N
151.416 273.182 M
151.915 269.148 L
152.414 283.494 L
152.913 255.544 L
153.413 263.381 L
153.912 223.367 L
154.411 237.546 L
154.91 268.608 L
155.409 284.3 L
155.908 249.855 L
156.408 280.951 L
156.907 252.932 L
157.406 228.68 L
157.905 233.823 L
158.404 247.41 L
158.903 249.814 L
159.402 248.507 L
159.902 290.079 L
160.401 256.14 L
160.9 281.378 L
161.399 211.361 L
161.898 267.978 L
162.398 236.449 L
162.897 271.428 L
163.396 256.636 L
163.895 304.582 L
164.394 243.031 L
164.893 253.902 L
165.393 296.069 L
165.892 228.618 L
166.391 229.125 L
166.89 266.178 L
167.389 285.659 L
167.888 204.005 L
168.387 280.974 L
168.887 242.986 L
169.386 264.992 L
169.885 280.844 L
170.384 205.331 L
170.883 286.203 L
171.383 281.688 L
171.882 260.049 L
172.381 228.346 L
172.88 270.418 L
173.379 266.083 L
173.878 296.423 L
174.378 208.771 L
174.877 262.124 L
175.376 253.595 L
175.875 260.693 L
176.374 250.637 L
176.873 241.252 L
177.372 294.521 L
177.872 245.22 L
178.371 258.555 L
178.87 276.737 L
179.369 266.897 L
179.868 289.638 L
180.367 273.81 L
180.867 201.261 L
181.366 269.994 L
181.865 261.903 L
182.364 244.552 L
182.863 306.975 L
183.363 268.852 L
183.862 233.521 L
184.361 276.401 L
184.86 244.52 L
185.359 279.015 L
185.858 286.013 L
186.357 274.657 L
186.857 272.352 L
187.356 263.596 L
187.855 288.77 L
188.354 244.973 L
188.853 244.785 L
189.352 287.554 L
189.852 267.496 L
190.351 284.06 L
190.85 292.868 L
191.349 234.397 L
191.848 240.459 L
192.348 246.025 L
192.847 252.136 L
193.346 245.724 L
193.845 275.569 L
194.344 253.481 L
194.843 250.995 L
195.342 262.825 L
195.842 290.038 L
196.341 246.846 L
196.84 232.851 L
197.339 252.671 L
197.838 237.327 L
198.337 257.896 L
198.837 217.756 L
199.336 271.15 L
199.835 273.599 L
200.334 318.749 L
200.833 257.617 L
201.333 223.669 L
201.832 238.944 L
202.331 304.618 L
202.83 263.474 L
203.329 264 L
203.828 279.502 L
204.327 232.934 L
204.827 253.67 L
205.326 259.131 L
205.825 253.407 L
206.324 237.761 L
206.823 239.32 L
207.322 287.021 L
207.822 342.804 L
208.321 253.012 L
208.82 239.946 L
209.319 257.605 L
209.818 278.794 L
210.318 241.229 L
210.817 253.269 L
211.316 282.043 L
211.815 283.646 L
212.314 260.917 L
212.813 239.374 L
213.313 269.932 L
213.812 240.936 L
214.311 255.741 L
214.81 254.624 L
215.309 235.7 L
215.808 310.219 L
216.307 275.459 L
216.807 288.058 L
217.306 296.034 L
217.805 244.904 L
218.304 305.689 L
218.803 266.063 L
219.303 246.754 L
219.802 237.386 L
220.301 227.455 L
220.8 251.957 L
221.299 232.771 L
221.798 271.63 L
222.298 287.957 L
222.797 266.789 L
223.296 287.953 L
223.795 251.649 L
224.294 308.277 L
224.793 253.733 L
225.292 254.5 L
225.792 224.551 L
226.291 265.382 L
226.79 296.338 L
227.289 248.002 L
227.788 239.316 L
228.288 251.446 L
228.787 255.143 L
229.286 269.495 L
229.785 282.803 L
230.284 260.913 L
230.783 290.3 L
231.283 254.105 L
231.782 265.427 L
232.281 262.084 L
232.78 204.348 L
233.279 250.611 L
233.778 268.062 L
234.277 260.493 L
234.777 213.346 L
235.276 233.427 L
235.775 270.47 L
236.274 297.162 L
236.773 257.426 L
237.273 275.147 L
237.772 252.755 L
238.271 255.987 L
238.77 289.627 L
239.269 232.985 L
239.768 290.285 L
240.268 259.615 L
240.767 274.54 L
241.266 314.527 L
241.765 295.311 L
242.264 297.094 L
242.763 282.508 L
243.262 299.616 L
243.762 295.174 L
244.261 267.068 L
244.76 303.703 L
245.259 219.015 L
245.758 269.695 L
246.258 289.412 L
246.757 254.029 L
247.256 280.831 L
247.755 258.165 L
248.254 238.544 L
248.753 274.603 L
249.253 245.716 L
249.752 270.867 L
250.251 291.07 L
250.75 247.448 L
251.249 226.876 L
251.748 272.606 L
252.247 228.116 L
252.747 233.593 L
253.246 276.73 L
253.745 228.046 L
254.244 257.702 L
254.743 250.972 L
255.242 245.461 L
255.742 242.844 L
256.241 292.123 L
256.74 239.161 L
257.239 221.165 L
257.738 282.853 L
258.237 274.05 L
258.737 227.393 L
259.236 227.277 L
259.735 277.685 L
260.234 273.067 L
260.733 307.421 L
261.233 248.263 L
261.732 270.74 L
262.231 276.07 L
262.73 269.766 L
263.229 263.882 L
263.728 280.261 L
264.228 272.304 L
264.727 285.579 L
265.226 239.262 L
265.725 259.231 L
266.224 222.243 L
266.723 271.678 L
267.223 264.637 L
267.722 272.872 L
268.221 239.34 L
268.72 239.908 L
269.219 237.409 L
269.718 230.614 L
270.217 265.882 L
270.717 277.737 L
271.216 234.632 L
271.715 245.127 L
272.214 221.493 L
272.713 279.571 L
273.212 274.841 L
273.712 279.963 L
274.211 297.269 L
274.71 259.256 L
275.209 326.932 L
275.708 326.8 L
276.207 274.264 L
276.707 244.254 L
277.206 213.215 L
277.705 276.714 L
278.204 276.876 L
278.703 308.457 L
279.203 252.956 L
279.702 242.476 L
280.201 245.92 L
280.7 291.506 L
281.199 276.494 L
281.698 214.541 L
282.198 266.845 L
282.697 258.026 L
283.196 262.071 L
283.695 245.367 L
284.194 261.989 L
284.693 225.332 L
285.193 269.298 L
285.692 303.011 L
286.191 256.784 L
286.69 282.692 L
287.189 236.191 L
287.688 214.555 L
288.188 243.164 L
288.687 229.692 L
289.186 267.339 L
289.685 279.715 L
290.184 237.434 L
290.683 272.758 L
291.182 255.084 L
291.682 215.764 L
292.181 240.906 L
292.68 231.381 L
293.179 274.127 L
293.678 267.874 L
294.177 284.392 L
294.677 265.146 L
295.176 256.006 L
295.675 246.306 L
296.174 272.186 L
296.673 258.513 L
297.172 252.462 L
297.672 259.965 L
298.171 270.409 L
298.67 264.525 L
299.169 230.396 L
299.668 236.876 L
300.168 254.422 L
300.667 257.226 L
301.166 262.277 L
301.665 235.918 L
302.164 305.021 L
302.663 254.293 L
303.163 247.939 L
303.662 245.501 L
304.161 249.943 L
304.66 275.578 L
305.159 247.596 L
305.658 249.65 L
306.158 275.446 L
306.657 293.912 L
307.156 271.43 L
307.655 224.163 L
308.154 245.118 L
308.653 252.489 L
309.152 272.451 L
309.652 308.998 L
310.151 243.311 L
310.65 212.922 L
311.149 303.348 L
311.648 226.951 L
312.147 246.143 L
312.647 274.944 L
313.146 280.036 L
313.645 245.883 L
314.144 263.501 L
314.643 274.292 L
315.142 247.383 L
315.642 272.115 L
316.141 256.472 L
316.64 247.949 L
317.139 253.108 L
317.638 289.161 L
318.138 273.173 L
318.637 211.314 L
319.136 255.424 L
319.635 260.891 L
320.134 226.754 L
320.633 282.683 L
321.133 212.121 L
321.632 262.004 L
322.131 273.435 L
322.63 253.071 L
323.129 243.351 L
323.628 273.824 L
324.128 219.241 L
324.627 247.979 L
325.126 242.859 L
325.625 286.422 L
326.124 274.111 L
326.623 208.145 L
327.122 259.069 L
327.622 225.418 L
328.121 240.982 L
328.62 252.806 L
329.119 236.203 L
329.618 246.834 L
330.117 241.645 L
330.617 274.541 L
331.116 277.041 L
331.615 213.647 L
332.114 279.457 L
332.613 279.948 L
333.112 257.391 L
333.612 270.112 L
334.111 263.825 L
334.61 269.61 L
335.109 235.954 L
335.608 291.434 L
336.108 246.773 L
336.607 228.11 L
337.106 220.836 L
337.605 255.271 L
338.104 261.483 L
338.603 284.027 L
339.103 258.983 L
339.602 292.459 L
340.101 293.946 L
340.6 242.498 L
341.099 278.636 L
341.598 250.629 L
342.098 259.11 L
342.597 294.42 L
343.096 264.731 L
343.595 231.925 L
344.094 250.552 L
344.593 249.358 L
345.092 259.26 L
345.592 252.541 L
346.091 248.474 L
346.59 248.26 L
347.089 219.8 L
347.588 252.471 L
348.087 271.962 L
348.587 250.735 L
349.086 272.036 L
349.585 255.565 L
350.084 242.044 L
350.583 240.914 L
351.082 260.108 L
351.582 260.753 L
352.081 221.939 L
352.58 227.354 L
353.079 267.48 L
353.578 263.191 L
354.078 262.039 L
354.577 269.42 L
355.076 231.557 L
355.575 267.094 L
356.074 276.627 L
356.573 254.121 L
357.073 250.263 L
357.572 263.156 L
358.071 309.943 L
358.57 267.851 L
359.069 278.738 L
359.568 260.491 L
360.068 257.489 L
360.567 186.103 L
361.066 274.449 L
361.565 258.88 L
362.064 249.781 L
362.563 261.236 L
363.063 285.968 L
363.562 242.636 L
364.061 261.532 L
364.56 241.655 L
365.059 284.927 L
365.558 274.732 L
366.057 219.832 L
366.557 255.167 L
367.056 302.751 L
367.555 251.303 L
368.054 255.676 L
368.553 283.197 L
369.052 277.398 L
369.552 266.484 L
370.051 234.619 L
370.55 216.545 L
371.049 249.394 L
371.548 202.321 L
372.047 262.976 L
372.547 264.343 L
373.046 267.443 L
373.545 269.997 L
374.044 235.296 L
374.543 273.43 L
375.043 250.178 L
375.542 285.003 L
376.041 248.715 L
376.54 330.381 L
377.039 277.816 L
377.538 285.705 L
378.038 245.782 L
378.537 255.421 L
379.036 274.064 L
379.535 270.741 L
380.034 289.846 L
380.533 226.24 L
381.033 199.954 L
381.532 258.788 L
382.031 303.671 L
382.53 290.813 L
383.029 263.743 L
383.528 246.348 L
384.027 252.978 L
384.527 255.369 L
385.026 267.617 L
385.525 245.31 L
386.024 280.646 L
386.523 262.555 L
387.022 276.823 L
387.522 299.928 L
388.021 242.806 L
388.52 246.404 L
389.019 284.172 L
389.518 267.638 L
390.017 256.535 L
390.517 269.172 L
391.016 223.14 L
391.515 285.661 L
392.014 301.544 L
392.513 238.868 L
393.013 301.711 L
393.512 252.061 L
394.011 250.311 L
394.51 297.522 L
395.009 251.797 L
395.508 279.329 L
396.008 315.608 L
396.507 293.689 L
397.006 298.102 L
397.505 260.075 L
398.004 268.431 L
398.503 194.541 L
399.003 264.802 L
399.502 276.303 L
400.001 276.054 L
400.5 230.449 L
400.999 271.152 L
401.498 243.299 L
401.997 243.042 L
402.497 197.289 L
402.996 245.416 L
403.495 267.716 L
403.994 264.455 L
404.493 250.988 L
404.992 323.765 L
405.492 254.445 L
405.991 309.023 L
406.49 319.159 L
406.989 244.873 L
407.488 262.435 L
407.987 237.181 L
408.487 257.777 L
408.986 281.99 L
409.485 249.768 L
409.984 274.861 L
410.483 268.173 L
410.983 257.008 L
411.482 254.542 L
411.981 272.66 L
412.48 297.174 L
412.979 277.721 L
413.478 313.704 L
413.978 249.819 L
414.477 245.757 L
414.976 259.395 L
415.475 269.332 L
415.974 280.27 L
416.473 210.303 L
416.973 254.836 L
417.472 268.349 L
417.971 307.269 L
418.47 235.842 L
418.969 229.872 L
419.468 255.133 L
419.967 234.725 L
420.467 303.626 L
420.966 283.508 L
421.465 280.44 L
421.964 241.469 L
422.463 265.086 L
422.962 249.728 L
423.462 234.446 L
423.961 235.984 L
424.46 291.687 L
424.959 243.741 L
425.458 300.176 L
425.957 275.58 L
426.457 251.906 L
426.956 235.974 L
427.455 245.803 L
427.954 232.207 L
428.453 273.282 L
428.953 245.418 L
429.452 253.228 L
429.951 287.301 L
430.45 255.463 L
430.949 268.598 L
431.448 266.802 L
431.948 270.398 L
432.447 277.381 L
432.946 269.553 L
433.445 250.913 L
433.944 272.435 L
434.443 272.677 L
434.943 249.695 L
435.442 270.623 L
435.941 304.35 L
436.44 253.559 L
436.939 253.407 L
437.438 251.386 L
437.938 276.772 L
438.437 231.828 L
438.936 230.738 L
439.435 271.523 L
439.934 284.396 L
440.433 249.336 L
440.932 263.805 L
441.432 282.995 L
441.931 254.442 L
442.43 281.968 L
442.929 280.194 L
443.428 241.396 L
443.927 258.834 L
444.427 283.211 L
444.926 271.226 L
445.425 238.877 L
445.924 263.571 L
446.423 241.866 L
446.922 249.615 L
447.422 278.567 L
447.921 274.56 L
448.42 291.239 L
448.919 291.814 L
449.418 227.325 L
449.918 274.179 L
450.417 265.748 L
450.916 189.467 L
451.415 247.16 L
451.914 232.371 L
452.413 256.398 L
452.913 288.103 L
453.412 261.072 L
453.911 251.238 L
454.41 249.039 L
454.909 268.203 L
455.408 260.115 L
455.908 264.633 L
456.407 271.762 L
456.906 270.445 L
457.405 273.325 L
457.904 289.078 L
458.403 272.383 L
458.902 278.233 L
459.402 301.454 L
459.901 270.024 L
460.4 275.405 L
460.899 286.191 L
461.398 234.564 L
461.897 270.534 L
462.397 252.825 L
462.896 244.041 L
463.395 267.56 L
463.894 224.525 L
464.393 258.493 L
464.892 253.715 L
465.392 256.825 L
465.891 280.477 L
466.39 315.242 L
466.889 252.93 L
467.388 221.511 L
467.888 241.142 L
468.387 201.956 L
468.886 246.866 L
469.385 236.559 L
469.884 206.779 L
470.383 188.894 L
470.883 225.628 L
471.382 275.783 L
471.881 273.836 L
472.38 273.271 L
472.879 257.547 L
473.378 270.337 L
473.878 277.559 L
474.377 193.654 L
474.876 240.897 L
475.375 251.37 L
475.874 257.318 L
476.373 287.832 L
476.872 290.597 L
477.372 291.675 L
477.871 301.236 L
478.37 288.014 L
478.869 313.52 L
479.368 284.522 L
479.867 234.83 L
480.367 249.351 L
480.866 279.682 L
481.365 288.916 L
481.864 291.572 L
482.363 268.509 L
482.862 252.499 L
483.362 245.728 L
483.861 276.586 L
484.36 271.906 L
484.859 244.277 L
485.358 297.303 L
485.858 260.436 L
486.357 242.379 L
486.856 307.487 L
487.355 72.566 L
487.854 266.52 L
488.353 276.834 L
488.853 274.338 L
489.352 279.333 L
489.851 286.385 L
490.35 244.329 L
490.849 298.866 L
491.348 243.601 L
491.848 262.972 L
492.347 252.913 L
492.846 217.112 L
493.345 257.13 L
493.844 248.458 L
494.343 252.553 L
494.842 270.838 L
495.342 290.013 L
495.841 251.417 L
496.34 258.998 L
496.839 255.077 L
497.338 225.403 L
497.837 270.606 L
498.337 322.188 L
498.836 248.339 L
499.335 248.89 L
499.834 270.744 L
500.333 235.384 L
500.832 287.718 L
501.332 285.367 L
501.831 237.509 L
502.33 283.065 L
502.829 225.167 L
503.328 276.683 L
503.828 265.498 L
504.327 259.251 L
504.826 258.62 L
505.325 270.333 L
505.824 267.792 L
506.323 185.561 L
506.823 246.77 L
507.322 220.003 L
507.821 241.94 L
508.32 274.573 L
508.819 261.809 L
509.318 209.223 L
509.818 254.754 L
510.317 253.859 L
510.816 282.917 L
511.315 273.324 L
511.814 248.874 L
512.313 279.372 L
512.813 271.758 L
513.312 258.715 L
513.811 305.745 L
514.31 243.318 L
514.809 231.447 L
515.308 324.951 L
515.807 239.669 L
516.307 264.108 L
516.806 258.309 L
517.305 246.759 L
517.804 249.621 L
518.303 229.112 L
518.802 256.379 L
519.302 254.138 L
519.801 255.29 L
520.3 232.295 L
520.799 273.84 L
521.298 217.172 L
521.797 306.367 L
522.297 253.07 L
522.796 260.05 L
523.295 244.305 L
523.794 246.284 L
524.293 262.816 L
524.792 217.905 L
525.292 249.43 L
525.791 257.902 L
526.29 276.242 L
526.789 254.947 L
527.288 265.848 L
527.787 239.879 L
528.287 267.209 L
528.786 270.889 L
529.285 249.963 L
529.784 235.598 L
530.283 262.796 L
530.782 210.399 L
531.282 273.059 L
531.781 270.437 L
532.28 231.6 L
532.779 286.405 L
533.278 271.074 L
533.778 271.586 L
534.277 246.526 L
534.776 257.597 L
535.275 231.711 L
535.774 304.294 L
536.273 250.564 L
536.773 220.38 L
537.272 256.989 L
537.771 238.702 L
538.27 250.199 L
538.769 305.912 L
539.268 271.976 L
539.768 254.781 L
540.267 254.173 L
540.766 190.932 L
541.265 256.969 L
541.764 286.457 L
542.263 251.885 L
542.763 258.411 L
543.262 216.263 L
543.761 236.836 L
544.26 247.082 L
544.759 274.549 L
545.258 241.823 L
545.758 254.137 L
546.257 275.181 L
546.756 250.231 L
547.255 267.12 L
547.754 246.579 L
548.253 247.109 L
548.753 224.357 L
549.252 275.94 L
549.751 254.679 L
550.25 300.518 L
550.749 249.018 L
551.248 281.103 L
551.747 291.066 L
552.247 285.837 L
552.746 273.168 L
553.245 223.667 L
553.744 205.403 L
554.243 246.738 L
554.742 223.596 L
555.242 249.203 L
555.741 221.163 L
556.24 198.193 L
556.739 307.363 L
557.238 264.631 L
557.737 269.217 L
558.237 278.586 L
558.736 266.712 L
559.235 239.798 L
559.734 237.849 L
560.233 262.336 L
560.732 221.359 L
561.232 258.804 L
561.731 206.641 L
562.23 237.533 L
562.729 305.19 L
563.228 216.807 L
563.727 296.895 L
564.227 275.992 L
564.726 283.559 L
565.225 210.312 L
565.724 248.799 L
566.223 203.187 L
566.722 279.535 L
567.222 252.068 L
567.721 264.479 L
568.22 276.222 L
568.719 281.281 L
569.218 219.226 L
569.718 268.479 L
570.217 264.299 L
570.716 263.221 L
571.215 253.502 L
571.714 279.8 L
572.213 236.364 L
572.713 228.784 L
573.212 250.116 L
573.711 253.683 L
574.21 256.536 L
574.709 271.975 L
575.208 292.076 L
575.708 293.463 L
576.207 291.212 L
576.706 243.52 L
577.205 219.784 L
577.704 254.344 L
578.203 231.932 L
578.703 277.333 L
579.202 264.367 L
579.701 300.065 L
580.2 284.326 L
580.699 264.085 L
581.198 260.352 L
581.698 250.749 L
582.197 238.13 L
582.696 265.363 L
583.195 248.764 L
583.694 236.886 L
584.193 249.515 L
584.693 213.973 L
585.192 214.348 L
585.691 253.073 L
586.19 221.063 L
586.689 262.889 L
587.188 223.405 L
587.688 233.357 L
588.187 260.189 L
588.686 275.541 L
589.185 253.938 L
589.684 259.271 L
590.183 242.201 L
590.682 253.648 L
591.182 246.008 L
591.681 285.754 L
592.18 290.422 L
592.679 257.398 L
593.178 280.464 L
593.677 254.638 L
594.177 247.108 L
594.676 291.957 L
595.175 257.308 L
595.674 286.066 L
596.173 282.243 L
596.672 260.58 L
597.172 229.495 L
597.671 265.27 L
598.17 272.576 L
598.669 277.235 L
599.168 256.293 L
599.667 272.194 L
600.167 297.407 L
600.666 259.676 L
601.165 236.695 L
601.664 233.781 L
602.163 232.552 L
602.662 255.879 L
603.162 242.188 L
603.661 253.908 L
604.16 262.477 L
604.659 247.578 L
605.158 277.706 L
605.657 203.967 L
606.157 306.824 L
606.656 245.615 L
607.155 265.766 L
607.654 232.532 L
608.153 243.939 L
608.653 255.209 L
609.152 289.017 L
609.651 211.098 L
610.15 279.105 L
610.649 262.66 L
611.148 255.706 L
611.648 304.11 L
612.147 285.137 L
612.646 260.031 L
613.145 287.434 L
613.644 249.017 L
614.143 259.643 L
614.643 277.366 L
615.142 256.439 L
615.641 232.416 L
616.14 234.434 L
616.639 265.157 L
617.138 279.608 L
617.638 277.675 L
618.137 242.182 L
618.636 244.428 L
619.135 265.763 L
619.634 231.865 L
620.133 278.262 L
620.633 252.856 L
621.132 215.956 L
621.631 249.2 L
622.13 272.695 L
622.629 251 L
623.128 224.877 L
623.628 301.711 L
624.127 271.244 L
624.626 303.291 L
625.125 279.129 L
625.624 266.07 L
626.123 247.294 L
626.622 263.568 L
627.122 284.434 L
627.621 278.012 L
628.12 283.859 L
628.619 264.202 L
629.118 245.865 L
629.617 250.094 L
630.117 236.377 L
630.616 270.711 L
631.115 291.378 L
631.614 266.249 L
632.113 248.649 L
632.612 272.209 L
633.112 245.152 L
633.611 228.912 L
634.11 192.888 L
634.609 206.82 L
635.108 286.293 L
635.607 287.873 L
636.107 244.168 L
636.606 260.965 L
637.105 269.945 L
637.604 276.039 L
638.103 280.376 L
638.602 254.524 L
639.102 277.793 L
639.601 233.344 L
640.1 255.817 L
640.599 280.899 L
641.098 250.282 L
641.597 238.489 L
642.097 307.581 L
642.596 253.213 L
643.095 316.553 L
643.594 253.993 L
644.093 269.273 L
644.593 248.482 L
645.092 240.454 L
645.591 203.253 L
646.09 268.18 L
646.589 238.609 L
647.088 210.372 L
647.588 309.479 L
648.087 267.505 L
648.586 271.921 L
649.085 325.407 L
649.584 262.982 L
650.083 249.748 L
650.583 255.007 L
651.082 254.844 L
651.581 283.504 L
652.08 195.999 L
652.579 227.589 L
653.078 277.887 L
653.578 310.928 L
654.077 266.957 L
654.576 243.837 L
655.075 248.247 L
655.574 260.181 L
656.073 276.251 L
656.573 234.613 L
657.072 223.531 L
657.571 269.73 L
658.07 297.986 L
658.569 218.732 L
659.068 277.511 L
659.568 263.124 L
660.067 271.453 L
660.566 269.641 L
661.065 276.993 L
661.564 295.794 L
S
GR
%%Trailer
%%Pages: 1
%%EOF
