%!PS-Adobe-3.0 EPSF-3.0
%%Creator: (MATLAB, The Mathworks, Inc. Version 9.8.0.1451342 \(R2020a\) Update 5. Operating System: Windows 10)
%%Title: ./PRN19_PRN25_crosscorr.eps
%%CreationDate: 2020-09-15T21:37:10
%%Pages: (atend)
%%BoundingBox:     0     0   381   306
%%LanguageLevel: 2
%%EndComments
%%BeginProlog
%%BeginResource: procset (Apache XML Graphics Std ProcSet) 1.2 0
%%Version: 1.2 0
%%Copyright: (Copyright 2001-2003,2010 The Apache Software Foundation. License terms: http://www.apache.org/licenses/LICENSE-2.0)
/bd{bind def}bind def
/ld{load def}bd
/GR/grestore ld
/GS/gsave ld
/RM/rmoveto ld
/C/curveto ld
/t/show ld
/L/lineto ld
/ML/setmiterlimit ld
/CT/concat ld
/f/fill ld
/N/newpath ld
/S/stroke ld
/CC/setcmykcolor ld
/A/ashow ld
/cp/closepath ld
/RC/setrgbcolor ld
/LJ/setlinejoin ld
/GC/setgray ld
/LW/setlinewidth ld
/M/moveto ld
/re {4 2 roll M
1 index 0 rlineto
0 exch rlineto
neg 0 rlineto
cp } bd
/_ctm matrix def
/_tm matrix def
/BT { _ctm currentmatrix pop matrix _tm copy pop 0 0 moveto } bd
/ET { _ctm setmatrix } bd
/iTm { _ctm setmatrix _tm concat } bd
/Tm { _tm astore pop iTm 0 0 moveto } bd
/ux 0.0 def
/uy 0.0 def
/F {
  /Tp exch def
  /Tf exch def
  Tf findfont Tp scalefont setfont
  /cf Tf def  /cs Tp def
} bd
/ULS {currentpoint /uy exch def /ux exch def} bd
/ULE {
  /Tcx currentpoint pop def
  gsave
  newpath
  cf findfont cs scalefont dup
  /FontMatrix get 0 get /Ts exch def /FontInfo get dup
  /UnderlinePosition get Ts mul /To exch def
  /UnderlineThickness get Ts mul /Tt exch def
  ux uy To add moveto  Tcx uy To add lineto
  Tt setlinewidth stroke
  grestore
} bd
/OLE {
  /Tcx currentpoint pop def
  gsave
  newpath
  cf findfont cs scalefont dup
  /FontMatrix get 0 get /Ts exch def /FontInfo get dup
  /UnderlinePosition get Ts mul /To exch def
  /UnderlineThickness get Ts mul /Tt exch def
  ux uy To add cs add moveto Tcx uy To add cs add lineto
  Tt setlinewidth stroke
  grestore
} bd
/SOE {
  /Tcx currentpoint pop def
  gsave
  newpath
  cf findfont cs scalefont dup
  /FontMatrix get 0 get /Ts exch def /FontInfo get dup
  /UnderlinePosition get Ts mul /To exch def
  /UnderlineThickness get Ts mul /Tt exch def
  ux uy To add cs 10 mul 26 idiv add moveto Tcx uy To add cs 10 mul 26 idiv add lineto
  Tt setlinewidth stroke
  grestore
} bd
/QT {
/Y22 exch store
/X22 exch store
/Y21 exch store
/X21 exch store
currentpoint
/Y21 load 2 mul add 3 div exch
/X21 load 2 mul add 3 div exch
/X21 load 2 mul /X22 load add 3 div
/Y21 load 2 mul /Y22 load add 3 div
/X22 load /Y22 load curveto
} bd
/SSPD {
dup length /d exch dict def
{
/v exch def
/k exch def
currentpagedevice k known {
/cpdv currentpagedevice k get def
v cpdv ne {
/upd false def
/nullv v type /nulltype eq def
/nullcpdv cpdv type /nulltype eq def
nullv nullcpdv or
{
/upd true def
} {
/sametype v type cpdv type eq def
sametype {
v type /arraytype eq {
/vlen v length def
/cpdvlen cpdv length def
vlen cpdvlen eq {
0 1 vlen 1 sub {
/i exch def
/obj v i get def
/cpdobj cpdv i get def
obj cpdobj ne {
/upd true def
exit
} if
} for
} {
/upd true def
} ifelse
} {
v type /dicttype eq {
v {
/dv exch def
/dk exch def
/cpddv cpdv dk get def
dv cpddv ne {
/upd true def
exit
} if
} forall
} {
/upd true def
} ifelse
} ifelse
} if
} ifelse
upd true eq {
d k v put
} if
} if
} if
} forall
d length 0 gt {
d setpagedevice
} if
} bd
/RE { % /NewFontName [NewEncodingArray] /FontName RE -
  findfont dup length dict begin
  {
    1 index /FID ne
    {def} {pop pop} ifelse
  } forall
  /Encoding exch def
  /FontName 1 index def
  currentdict definefont pop
  end
} bind def
%%EndResource
%%BeginResource: procset (Apache XML Graphics EPS ProcSet) 1.0 0
%%Version: 1.0 0
%%Copyright: (Copyright 2002-2003 The Apache Software Foundation. License terms: http://www.apache.org/licenses/LICENSE-2.0)
/BeginEPSF { %def
/b4_Inc_state save def         % Save state for cleanup
/dict_count countdictstack def % Count objects on dict stack
/op_count count 1 sub def      % Count objects on operand stack
userdict begin                 % Push userdict on dict stack
/showpage { } def              % Redefine showpage, { } = null proc
0 setgray 0 setlinecap         % Prepare graphics state
1 setlinewidth 0 setlinejoin
10 setmiterlimit [ ] 0 setdash newpath
/languagelevel where           % If level not equal to 1 then
{pop languagelevel             % set strokeadjust and
1 ne                           % overprint to their defaults.
{false setstrokeadjust false setoverprint
} if
} if
} bd
/EndEPSF { %def
count op_count sub {pop} repeat            % Clean up stacks
countdictstack dict_count sub {end} repeat
b4_Inc_state restore
} bd
%%EndResource
%FOPBeginFontDict
%%IncludeResource: font Courier-Oblique
%%IncludeResource: font Courier-BoldOblique
%%IncludeResource: font Courier-Bold
%%IncludeResource: font ZapfDingbats
%%IncludeResource: font Symbol
%%IncludeResource: font Helvetica
%%IncludeResource: font Helvetica-Oblique
%%IncludeResource: font Helvetica-Bold
%%IncludeResource: font Helvetica-BoldOblique
%%IncludeResource: font Times-Roman
%%IncludeResource: font Times-Italic
%%IncludeResource: font Times-Bold
%%IncludeResource: font Times-BoldItalic
%%IncludeResource: font Courier
%FOPEndFontDict
%%BeginResource: encoding WinAnsiEncoding
/WinAnsiEncoding [
/.notdef /.notdef /.notdef /.notdef /.notdef
/.notdef /.notdef /.notdef /.notdef /.notdef
/.notdef /.notdef /.notdef /.notdef /.notdef
/.notdef /.notdef /.notdef /.notdef /.notdef
/.notdef /.notdef /.notdef /.notdef /.notdef
/.notdef /.notdef /.notdef /.notdef /.notdef
/.notdef /.notdef /space /exclam /quotedbl
/numbersign /dollar /percent /ampersand /quotesingle
/parenleft /parenright /asterisk /plus /comma
/hyphen /period /slash /zero /one
/two /three /four /five /six
/seven /eight /nine /colon /semicolon
/less /equal /greater /question /at
/A /B /C /D /E
/F /G /H /I /J
/K /L /M /N /O
/P /Q /R /S /T
/U /V /W /X /Y
/Z /bracketleft /backslash /bracketright /asciicircum
/underscore /quoteleft /a /b /c
/d /e /f /g /h
/i /j /k /l /m
/n /o /p /q /r
/s /t /u /v /w
/x /y /z /braceleft /bar
/braceright /asciitilde /bullet /Euro /bullet
/quotesinglbase /florin /quotedblbase /ellipsis /dagger
/daggerdbl /circumflex /perthousand /Scaron /guilsinglleft
/OE /bullet /Zcaron /bullet /bullet
/quoteleft /quoteright /quotedblleft /quotedblright /bullet
/endash /emdash /asciitilde /trademark /scaron
/guilsinglright /oe /bullet /zcaron /Ydieresis
/space /exclamdown /cent /sterling /currency
/yen /brokenbar /section /dieresis /copyright
/ordfeminine /guillemotleft /logicalnot /sfthyphen /registered
/macron /degree /plusminus /twosuperior /threesuperior
/acute /mu /paragraph /middot /cedilla
/onesuperior /ordmasculine /guillemotright /onequarter /onehalf
/threequarters /questiondown /Agrave /Aacute /Acircumflex
/Atilde /Adieresis /Aring /AE /Ccedilla
/Egrave /Eacute /Ecircumflex /Edieresis /Igrave
/Iacute /Icircumflex /Idieresis /Eth /Ntilde
/Ograve /Oacute /Ocircumflex /Otilde /Odieresis
/multiply /Oslash /Ugrave /Uacute /Ucircumflex
/Udieresis /Yacute /Thorn /germandbls /agrave
/aacute /acircumflex /atilde /adieresis /aring
/ae /ccedilla /egrave /eacute /ecircumflex
/edieresis /igrave /iacute /icircumflex /idieresis
/eth /ntilde /ograve /oacute /ocircumflex
/otilde /odieresis /divide /oslash /ugrave
/uacute /ucircumflex /udieresis /yacute /thorn
/ydieresis
] def
%%EndResource
%FOPBeginFontReencode
/Courier-Oblique findfont
dup length dict begin
  {1 index /FID ne {def} {pop pop} ifelse} forall
  /Encoding WinAnsiEncoding def
  currentdict
end
/Courier-Oblique exch definefont pop
/Courier-BoldOblique findfont
dup length dict begin
  {1 index /FID ne {def} {pop pop} ifelse} forall
  /Encoding WinAnsiEncoding def
  currentdict
end
/Courier-BoldOblique exch definefont pop
/Courier-Bold findfont
dup length dict begin
  {1 index /FID ne {def} {pop pop} ifelse} forall
  /Encoding WinAnsiEncoding def
  currentdict
end
/Courier-Bold exch definefont pop
/Helvetica findfont
dup length dict begin
  {1 index /FID ne {def} {pop pop} ifelse} forall
  /Encoding WinAnsiEncoding def
  currentdict
end
/Helvetica exch definefont pop
/Helvetica-Oblique findfont
dup length dict begin
  {1 index /FID ne {def} {pop pop} ifelse} forall
  /Encoding WinAnsiEncoding def
  currentdict
end
/Helvetica-Oblique exch definefont pop
/Helvetica-Bold findfont
dup length dict begin
  {1 index /FID ne {def} {pop pop} ifelse} forall
  /Encoding WinAnsiEncoding def
  currentdict
end
/Helvetica-Bold exch definefont pop
/Helvetica-BoldOblique findfont
dup length dict begin
  {1 index /FID ne {def} {pop pop} ifelse} forall
  /Encoding WinAnsiEncoding def
  currentdict
end
/Helvetica-BoldOblique exch definefont pop
/Times-Roman findfont
dup length dict begin
  {1 index /FID ne {def} {pop pop} ifelse} forall
  /Encoding WinAnsiEncoding def
  currentdict
end
/Times-Roman exch definefont pop
/Times-Italic findfont
dup length dict begin
  {1 index /FID ne {def} {pop pop} ifelse} forall
  /Encoding WinAnsiEncoding def
  currentdict
end
/Times-Italic exch definefont pop
/Times-Bold findfont
dup length dict begin
  {1 index /FID ne {def} {pop pop} ifelse} forall
  /Encoding WinAnsiEncoding def
  currentdict
end
/Times-Bold exch definefont pop
/Times-BoldItalic findfont
dup length dict begin
  {1 index /FID ne {def} {pop pop} ifelse} forall
  /Encoding WinAnsiEncoding def
  currentdict
end
/Times-BoldItalic exch definefont pop
/Courier findfont
dup length dict begin
  {1 index /FID ne {def} {pop pop} ifelse} forall
  /Encoding WinAnsiEncoding def
  currentdict
end
/Courier exch definefont pop
%FOPEndFontReencode
%%EndProlog
%%Page: 1 1
%%PageBoundingBox: 0 0 420 315
%%BeginPageSetup
[1 0 0 -1 0 315] CT
%%EndPageSetup
GS
[0.75 0 0 0.75 0 0] CT
1 GC
N
0 0 560 420 re
f
GR
GS
[0.75 0 0 0.75 0 0] CT
1 GC
N
0 0 560 420 re
f
GR
GS
[0.75 0 0 0.75 0 0] CT
1 GC
N
73 374 M
507 374 L
507 31 L
73 31 L
cp
f
GR
GS
[0.75 0 0 0.75 0 0] CT
0.149 GC
2 setlinecap
1 LJ
0.667 LW
N
73 374 M
507 374 L
S
GR
GS
[0.75 0 0 0.75 0 0] CT
0.149 GC
2 setlinecap
1 LJ
0.667 LW
N
73 31 M
507 31 L
S
GR
GS
[0.75 0 0 0.75 0 0] CT
0.149 GC
2 setlinecap
1 LJ
0.667 LW
N
109.167 374 M
109.167 369.66 L
S
GR
GS
[0.75 0 0 0.75 0 0] CT
0.149 GC
2 setlinecap
1 LJ
0.667 LW
N
181.5 374 M
181.5 369.66 L
S
GR
GS
[0.75 0 0 0.75 0 0] CT
0.149 GC
2 setlinecap
1 LJ
0.667 LW
N
253.833 374 M
253.833 369.66 L
S
GR
GS
[0.75 0 0 0.75 0 0] CT
0.149 GC
2 setlinecap
1 LJ
0.667 LW
N
326.167 374 M
326.167 369.66 L
S
GR
GS
[0.75 0 0 0.75 0 0] CT
0.149 GC
2 setlinecap
1 LJ
0.667 LW
N
398.5 374 M
398.5 369.66 L
S
GR
GS
[0.75 0 0 0.75 0 0] CT
0.149 GC
2 setlinecap
1 LJ
0.667 LW
N
470.833 374 M
470.833 369.66 L
S
GR
GS
[0.75 0 0 0.75 0 0] CT
0.149 GC
2 setlinecap
1 LJ
0.667 LW
N
109.167 31 M
109.167 35.34 L
S
GR
GS
[0.75 0 0 0.75 0 0] CT
0.149 GC
2 setlinecap
1 LJ
0.667 LW
N
181.5 31 M
181.5 35.34 L
S
GR
GS
[0.75 0 0 0.75 0 0] CT
0.149 GC
2 setlinecap
1 LJ
0.667 LW
N
253.833 31 M
253.833 35.34 L
S
GR
GS
[0.75 0 0 0.75 0 0] CT
0.149 GC
2 setlinecap
1 LJ
0.667 LW
N
326.167 31 M
326.167 35.34 L
S
GR
GS
[0.75 0 0 0.75 0 0] CT
0.149 GC
2 setlinecap
1 LJ
0.667 LW
N
398.5 31 M
398.5 35.34 L
S
GR
GS
[0.75 0 0 0.75 0 0] CT
0.149 GC
2 setlinecap
1 LJ
0.667 LW
N
470.833 31 M
470.833 35.34 L
S
GR
GS
[0.75 0 0 0.75 81.875 284.50001] CT
0.149 GC
/Helvetica 13.333 F
GS
[1 0 0 1 0 0] CT
-4 14 moveto 
1 -1 scale
(0) t 
GR
GR
GS
[0.75 0 0 0.75 136.125 284.50001] CT
0.149 GC
/Helvetica 13.333 F
GS
[1 0 0 1 0 0] CT
-11.5 14 moveto 
1 -1 scale
(200) t 
GR
GR
GS
[0.75 0 0 0.75 190.375 284.50001] CT
0.149 GC
/Helvetica 13.333 F
GS
[1 0 0 1 0 0] CT
-11.5 14 moveto 
1 -1 scale
(400) t 
GR
GR
GS
[0.75 0 0 0.75 244.62499 284.50001] CT
0.149 GC
/Helvetica 13.333 F
GS
[1 0 0 1 0 0] CT
-11.5 14 moveto 
1 -1 scale
(600) t 
GR
GR
GS
[0.75 0 0 0.75 298.875 284.50001] CT
0.149 GC
/Helvetica 13.333 F
GS
[1 0 0 1 0 0] CT
-11.5 14 moveto 
1 -1 scale
(800) t 
GR
GR
GS
[0.75 0 0 0.75 353.12501 284.50001] CT
0.149 GC
/Helvetica 13.333 F
GS
[1 0 0 1 0 0] CT
-15 14 moveto 
1 -1 scale
(1000) t 
GR
GR
GS
[0.75 0 0 0.75 217.50016 298.24999] CT
0.149 GC
/Helvetica 14.667 F
GS
[1 0 0 1 0 0] CT
-62.5 15 moveto 
1 -1 scale
(Code Delay \(chips\)) t 
GR
GR
GS
[0.75 0 0 0.75 0 0] CT
0.149 GC
2 setlinecap
1 LJ
0.667 LW
N
73 374 M
73 31 L
S
GR
GS
[0.75 0 0 0.75 0 0] CT
0.149 GC
2 setlinecap
1 LJ
0.667 LW
N
507 374 M
507 31 L
S
GR
GS
[0.75 0 0 0.75 0 0] CT
0.149 GC
2 setlinecap
1 LJ
0.667 LW
N
73 374 M
77.34 374 L
S
GR
GS
[0.75 0 0 0.75 0 0] CT
0.149 GC
2 setlinecap
1 LJ
0.667 LW
N
73 325 M
77.34 325 L
S
GR
GS
[0.75 0 0 0.75 0 0] CT
0.149 GC
2 setlinecap
1 LJ
0.667 LW
N
73 276 M
77.34 276 L
S
GR
GS
[0.75 0 0 0.75 0 0] CT
0.149 GC
2 setlinecap
1 LJ
0.667 LW
N
73 227 M
77.34 227 L
S
GR
GS
[0.75 0 0 0.75 0 0] CT
0.149 GC
2 setlinecap
1 LJ
0.667 LW
N
73 178 M
77.34 178 L
S
GR
GS
[0.75 0 0 0.75 0 0] CT
0.149 GC
2 setlinecap
1 LJ
0.667 LW
N
73 129 M
77.34 129 L
S
GR
GS
[0.75 0 0 0.75 0 0] CT
0.149 GC
2 setlinecap
1 LJ
0.667 LW
N
73 80 M
77.34 80 L
S
GR
GS
[0.75 0 0 0.75 0 0] CT
0.149 GC
2 setlinecap
1 LJ
0.667 LW
N
73 31 M
77.34 31 L
S
GR
GS
[0.75 0 0 0.75 0 0] CT
0.149 GC
2 setlinecap
1 LJ
0.667 LW
N
507 374 M
502.66 374 L
S
GR
GS
[0.75 0 0 0.75 0 0] CT
0.149 GC
2 setlinecap
1 LJ
0.667 LW
N
507 325 M
502.66 325 L
S
GR
GS
[0.75 0 0 0.75 0 0] CT
0.149 GC
2 setlinecap
1 LJ
0.667 LW
N
507 276 M
502.66 276 L
S
GR
GS
[0.75 0 0 0.75 0 0] CT
0.149 GC
2 setlinecap
1 LJ
0.667 LW
N
507 227 M
502.66 227 L
S
GR
GS
[0.75 0 0 0.75 0 0] CT
0.149 GC
2 setlinecap
1 LJ
0.667 LW
N
507 178 M
502.66 178 L
S
GR
GS
[0.75 0 0 0.75 0 0] CT
0.149 GC
2 setlinecap
1 LJ
0.667 LW
N
507 129 M
502.66 129 L
S
GR
GS
[0.75 0 0 0.75 0 0] CT
0.149 GC
2 setlinecap
1 LJ
0.667 LW
N
507 80 M
502.66 80 L
S
GR
GS
[0.75 0 0 0.75 0 0] CT
0.149 GC
2 setlinecap
1 LJ
0.667 LW
N
507 31 M
502.66 31 L
S
GR
GS
[0.75 0 0 0.75 50.75 280.5] CT
0.149 GC
/Helvetica 13.333 F
GS
[1 0 0 1 0 0] CT
-23 5.5 moveto 
1 -1 scale
(-0.2) t 
GR
GR
GS
[0.75 0 0 0.75 50.75 243.75] CT
0.149 GC
/Helvetica 13.333 F
GS
[1 0 0 1 0 0] CT
-8 5.5 moveto 
1 -1 scale
(0) t 
GR
GR
GS
[0.75 0 0 0.75 50.75 207] CT
0.149 GC
/Helvetica 13.333 F
GS
[1 0 0 1 0 0] CT
-19 5.5 moveto 
1 -1 scale
(0.2) t 
GR
GR
GS
[0.75 0 0 0.75 50.75 170.25] CT
0.149 GC
/Helvetica 13.333 F
GS
[1 0 0 1 0 0] CT
-19 5.5 moveto 
1 -1 scale
(0.4) t 
GR
GR
GS
[0.75 0 0 0.75 50.75 133.5] CT
0.149 GC
/Helvetica 13.333 F
GS
[1 0 0 1 0 0] CT
-19 5.5 moveto 
1 -1 scale
(0.6) t 
GR
GR
GS
[0.75 0 0 0.75 50.75 96.75] CT
0.149 GC
/Helvetica 13.333 F
GS
[1 0 0 1 0 0] CT
-19 5.5 moveto 
1 -1 scale
(0.8) t 
GR
GR
GS
[0.75 0 0 0.75 50.75 60] CT
0.149 GC
/Helvetica 13.333 F
GS
[1 0 0 1 0 0] CT
-8 5.5 moveto 
1 -1 scale
(1) t 
GR
GR
GS
[0.75 0 0 0.75 50.75 23.24999] CT
0.149 GC
/Helvetica 13.333 F
GS
[1 0 0 1 0 0] CT
-19 5.5 moveto 
1 -1 scale
(1.2) t 
GR
GR
GS
[0 -0.75 0.75 0 30.5 151.87487] CT
0.149 GC
/Helvetica 14.667 F
GS
[1 0 0 1 0 0] CT
-36 -4 moveto 
1 -1 scale
(Correlation) t 
GR
GR
GS
[0.75 0 0 0.75 217.50021 21.18749] CT
/Helvetica-Bold 14.667 F
GS
[1 0 0 1 0 0] CT
-124 -4 moveto 
1 -1 scale
(PRN19 vs PRN25 Cross-Correlation) t 
GR
GR
GS
[0.75 0 0 0.75 0 0] CT
0 0.447 0.741 RC
1 LJ
0.667 LW
N
109.528 325.24 M
109.89 325.24 L
110.252 325.24 L
110.613 309.912 L
110.975 325.24 L
111.337 325.24 L
111.698 325.24 L
112.06 325.24 L
112.422 325.24 L
112.783 325.24 L
113.145 325.24 L
113.507 340.567 L
113.868 340.567 L
114.23 325.24 L
114.592 325.24 L
114.953 325.24 L
115.315 325.24 L
115.677 325.24 L
116.038 325.24 L
116.4 340.567 L
116.762 340.567 L
117.123 340.567 L
117.485 325.24 L
117.847 325.24 L
118.208 325.24 L
118.57 325.24 L
118.932 325.24 L
119.293 309.912 L
119.655 325.24 L
120.017 325.24 L
120.378 325.24 L
120.74 325.24 L
121.102 325.24 L
121.463 325.24 L
121.825 325.24 L
122.187 325.24 L
122.548 325.24 L
122.91 325.24 L
123.272 325.24 L
123.633 340.567 L
123.995 325.24 L
124.357 309.912 L
124.718 325.24 L
125.08 309.912 L
125.442 325.24 L
125.803 309.912 L
126.165 325.24 L
126.527 325.24 L
126.888 325.24 L
127.25 325.24 L
127.612 325.24 L
127.973 325.24 L
128.335 325.24 L
128.697 325.24 L
129.058 325.24 L
129.42 325.24 L
129.782 325.24 L
130.143 325.24 L
130.505 325.24 L
130.867 325.24 L
131.228 325.24 L
131.59 325.24 L
131.952 325.24 L
132.313 340.567 L
132.675 340.567 L
133.037 325.24 L
133.398 325.24 L
133.76 325.24 L
134.122 325.24 L
134.483 340.567 L
134.845 325.24 L
135.207 325.24 L
135.568 325.24 L
135.93 325.24 L
136.292 340.567 L
136.653 325.24 L
137.015 325.24 L
137.377 325.24 L
137.738 325.24 L
138.1 325.24 L
138.462 325.24 L
138.823 325.24 L
139.185 325.24 L
139.547 325.24 L
139.908 325.24 L
140.27 325.24 L
140.632 325.24 L
140.993 309.912 L
141.355 325.24 L
141.717 325.24 L
142.078 325.24 L
142.44 325.24 L
142.802 325.24 L
143.163 325.24 L
143.525 325.24 L
143.887 325.24 L
144.248 325.24 L
144.61 309.912 L
144.972 325.24 L
145.333 340.567 L
145.695 325.24 L
146.057 325.24 L
146.418 325.24 L
146.78 325.24 L
147.142 325.24 L
147.503 325.24 L
147.865 325.24 L
148.227 325.24 L
148.588 340.567 L
148.95 325.24 L
149.312 325.24 L
149.673 325.24 L
150.035 325.24 L
150.397 309.912 L
150.758 325.24 L
151.12 325.24 L
151.482 309.912 L
151.843 325.24 L
152.205 325.24 L
152.567 325.24 L
152.928 309.912 L
153.29 325.24 L
153.652 325.24 L
154.013 325.24 L
154.375 325.24 L
154.737 325.24 L
155.098 325.24 L
155.46 325.24 L
155.822 325.24 L
156.183 325.24 L
156.545 325.24 L
156.907 325.24 L
157.268 325.24 L
157.63 325.24 L
157.992 325.24 L
158.353 340.567 L
158.715 340.567 L
159.077 325.24 L
159.438 325.24 L
159.8 325.24 L
160.162 325.24 L
160.523 325.24 L
160.885 325.24 L
161.247 325.24 L
161.608 325.24 L
161.97 309.912 L
162.332 325.24 L
162.693 325.24 L
163.055 340.567 L
163.417 325.24 L
163.778 340.567 L
164.14 325.24 L
164.502 325.24 L
164.863 325.24 L
165.225 325.24 L
165.587 309.912 L
165.948 325.24 L
166.31 325.24 L
166.672 325.24 L
167.033 325.24 L
167.395 309.912 L
167.757 325.24 L
168.118 325.24 L
168.48 325.24 L
168.842 325.24 L
169.203 309.912 L
169.565 325.24 L
169.927 325.24 L
170.288 325.24 L
170.65 325.24 L
171.012 325.24 L
171.373 325.24 L
171.735 340.567 L
172.097 309.912 L
172.458 340.567 L
172.82 325.24 L
173.182 325.24 L
173.543 325.24 L
173.905 309.912 L
174.267 325.24 L
174.628 325.24 L
174.99 325.24 L
175.352 325.24 L
175.713 325.24 L
176.075 325.24 L
176.437 325.24 L
176.798 309.912 L
177.16 309.912 L
177.522 309.912 L
177.883 325.24 L
178.245 340.567 L
178.607 309.912 L
178.968 325.24 L
179.33 325.24 L
179.692 325.24 L
180.053 325.24 L
180.415 325.24 L
180.777 325.24 L
181.138 325.24 L
181.5 325.24 L
181.862 325.24 L
182.223 325.24 L
182.585 340.567 L
182.947 325.24 L
183.308 340.567 L
183.67 325.24 L
184.032 325.24 L
184.393 325.24 L
184.755 325.24 L
185.117 325.24 L
185.478 325.24 L
185.84 325.24 L
186.202 325.24 L
186.563 325.24 L
186.925 325.24 L
187.287 325.24 L
187.648 340.567 L
188.01 325.24 L
188.372 325.24 L
188.733 325.24 L
189.095 309.912 L
189.457 340.567 L
189.818 309.912 L
190.18 325.24 L
190.542 309.912 L
190.903 340.567 L
191.265 325.24 L
191.627 309.912 L
191.988 309.912 L
192.35 325.24 L
192.712 325.24 L
193.073 325.24 L
193.435 325.24 L
193.797 309.912 L
194.158 325.24 L
194.52 309.912 L
194.882 325.24 L
195.243 325.24 L
195.605 325.24 L
195.967 325.24 L
196.328 325.24 L
196.69 325.24 L
197.052 340.567 L
197.413 309.912 L
197.775 325.24 L
198.137 325.24 L
198.498 325.24 L
198.86 325.24 L
199.222 325.24 L
199.583 340.567 L
199.945 325.24 L
200.307 325.24 L
200.668 325.24 L
201.03 309.912 L
201.392 325.24 L
201.753 340.567 L
202.115 325.24 L
202.477 325.24 L
202.838 325.24 L
203.2 325.24 L
203.562 325.24 L
203.923 325.24 L
204.285 340.567 L
204.647 309.912 L
205.008 340.567 L
205.37 325.24 L
205.732 309.912 L
206.093 325.24 L
206.455 325.24 L
206.817 325.24 L
207.178 325.24 L
207.54 340.567 L
207.902 340.567 L
208.263 325.24 L
208.625 325.24 L
208.987 325.24 L
209.348 309.912 L
209.71 325.24 L
210.072 325.24 L
210.433 325.24 L
210.795 309.912 L
211.157 325.24 L
211.518 325.24 L
211.88 340.567 L
212.242 325.24 L
212.603 325.24 L
212.965 309.912 L
213.327 325.24 L
213.688 325.24 L
214.05 325.24 L
214.412 325.24 L
214.773 325.24 L
215.135 325.24 L
215.497 340.567 L
215.858 325.24 L
216.22 325.24 L
216.582 325.24 L
216.943 325.24 L
217.305 325.24 L
217.667 325.24 L
218.028 325.24 L
218.39 309.912 L
218.752 325.24 L
219.113 325.24 L
219.475 340.567 L
219.837 325.24 L
220.198 340.567 L
220.56 325.24 L
220.922 325.24 L
221.283 325.24 L
221.645 340.567 L
222.007 325.24 L
222.368 325.24 L
222.73 325.24 L
223.092 325.24 L
223.453 325.24 L
223.815 325.24 L
224.177 325.24 L
224.538 340.567 L
224.9 340.567 L
225.262 309.912 L
225.623 340.567 L
225.985 325.24 L
226.347 325.24 L
226.708 325.24 L
227.07 309.912 L
227.432 325.24 L
227.793 325.24 L
228.155 325.24 L
228.517 325.24 L
228.878 340.567 L
229.24 325.24 L
229.602 325.24 L
229.963 325.24 L
230.325 309.912 L
230.687 325.24 L
231.048 325.24 L
231.41 325.24 L
231.772 325.24 L
232.133 340.567 L
232.495 325.24 L
232.857 325.24 L
233.218 325.24 L
233.58 325.24 L
233.942 325.24 L
234.303 340.567 L
234.665 340.567 L
235.027 325.24 L
235.388 309.912 L
235.75 325.24 L
236.112 325.24 L
236.473 309.912 L
236.835 309.912 L
237.197 325.24 L
237.558 325.24 L
237.92 325.24 L
238.282 340.567 L
238.643 325.24 L
239.005 325.24 L
239.367 325.24 L
239.728 325.24 L
240.09 309.912 L
240.452 325.24 L
240.813 325.24 L
241.175 325.24 L
241.537 325.24 L
241.898 340.567 L
242.26 309.912 L
242.622 325.24 L
242.983 325.24 L
243.345 340.567 L
243.707 325.24 L
244.068 340.567 L
244.43 325.24 L
244.792 325.24 L
245.153 325.24 L
245.515 325.24 L
245.877 309.912 L
246.238 325.24 L
246.6 325.24 L
246.962 325.24 L
247.323 340.567 L
247.685 340.567 L
248.047 325.24 L
248.408 325.24 L
248.77 325.24 L
249.132 325.24 L
249.493 325.24 L
249.855 325.24 L
250.217 325.24 L
250.578 340.567 L
250.94 325.24 L
251.302 325.24 L
251.663 309.912 L
252.025 325.24 L
252.387 325.24 L
252.748 325.24 L
253.11 325.24 L
253.472 325.24 L
253.833 325.24 L
254.195 340.567 L
254.557 325.24 L
254.918 325.24 L
255.28 325.24 L
255.642 340.567 L
256.003 325.24 L
256.365 325.24 L
256.727 340.567 L
257.088 325.24 L
257.45 309.912 L
257.812 325.24 L
258.173 340.567 L
258.535 309.912 L
258.897 325.24 L
259.258 325.24 L
259.62 309.912 L
259.982 325.24 L
260.343 325.24 L
260.705 309.912 L
261.067 325.24 L
261.428 325.24 L
261.79 325.24 L
262.152 325.24 L
262.513 340.567 L
262.875 325.24 L
263.237 325.24 L
263.598 325.24 L
263.96 325.24 L
264.322 325.24 L
264.683 325.24 L
265.045 325.24 L
265.407 325.24 L
265.768 325.24 L
266.13 325.24 L
266.492 325.24 L
266.853 325.24 L
267.215 309.912 L
267.577 325.24 L
267.938 325.24 L
268.3 325.24 L
268.662 325.24 L
269.023 340.567 L
269.385 325.24 L
269.747 325.24 L
270.108 325.24 L
270.47 340.567 L
270.832 340.567 L
271.193 325.24 L
271.555 340.567 L
271.917 325.24 L
272.278 325.24 L
272.64 309.912 L
273.002 325.24 L
273.363 325.24 L
273.725 325.24 L
274.087 325.24 L
274.448 340.567 L
274.81 325.24 L
275.172 325.24 L
275.533 340.567 L
275.895 325.24 L
276.257 325.24 L
276.618 309.912 L
276.98 325.24 L
277.342 325.24 L
277.703 325.24 L
278.065 325.24 L
278.427 325.24 L
278.788 325.24 L
279.15 325.24 L
279.512 325.24 L
279.873 325.24 L
280.235 325.24 L
280.597 309.912 L
280.958 325.24 L
281.32 325.24 L
281.682 325.24 L
282.043 325.24 L
282.405 325.24 L
282.767 325.24 L
283.128 325.24 L
283.49 325.24 L
283.852 325.24 L
284.213 325.24 L
284.575 309.912 L
284.937 309.912 L
285.298 325.24 L
285.66 325.24 L
286.022 325.24 L
286.383 325.24 L
286.745 325.24 L
287.107 325.24 L
287.468 325.24 L
287.83 325.24 L
288.192 325.24 L
288.553 340.567 L
288.915 325.24 L
289.277 325.24 L
289.638 325.24 L
290 325.24 L
290.362 325.24 L
290.723 325.24 L
291.085 340.567 L
291.447 325.24 L
291.808 325.24 L
292.17 325.24 L
292.532 325.24 L
292.893 325.24 L
293.255 325.24 L
293.617 340.567 L
293.978 325.24 L
294.34 309.912 L
294.702 340.567 L
295.063 340.567 L
295.425 325.24 L
295.787 309.912 L
296.148 325.24 L
296.51 325.24 L
296.872 325.24 L
297.233 325.24 L
297.595 309.912 L
297.957 325.24 L
298.318 325.24 L
298.68 325.24 L
299.042 325.24 L
299.403 325.24 L
299.765 309.912 L
300.127 340.567 L
300.488 325.24 L
300.85 325.24 L
301.212 309.912 L
301.573 325.24 L
301.935 309.912 L
302.297 325.24 L
302.658 325.24 L
303.02 325.24 L
303.382 340.567 L
303.743 325.24 L
304.105 340.567 L
304.467 325.24 L
304.828 325.24 L
305.19 325.24 L
305.552 325.24 L
305.913 325.24 L
306.275 325.24 L
306.637 325.24 L
306.998 325.24 L
307.36 325.24 L
307.722 325.24 L
308.083 325.24 L
308.445 309.912 L
308.807 325.24 L
309.168 309.912 L
309.53 325.24 L
309.892 340.567 L
310.253 309.912 L
310.615 325.24 L
310.977 340.567 L
311.338 309.912 L
311.7 325.24 L
312.062 325.24 L
312.423 309.912 L
312.785 340.567 L
313.147 325.24 L
313.508 340.567 L
313.87 325.24 L
314.232 309.912 L
314.593 340.567 L
314.955 309.912 L
315.317 325.24 L
315.678 325.24 L
316.04 325.24 L
316.402 325.24 L
316.763 325.24 L
317.125 340.567 L
317.487 325.24 L
317.848 325.24 L
318.21 340.567 L
318.572 340.567 L
318.933 325.24 L
319.295 325.24 L
319.657 325.24 L
320.018 340.567 L
320.38 325.24 L
320.742 309.912 L
321.103 325.24 L
321.465 325.24 L
321.827 325.24 L
322.188 325.24 L
322.55 325.24 L
322.912 325.24 L
323.273 325.24 L
323.635 325.24 L
323.997 325.24 L
324.358 309.912 L
324.72 325.24 L
325.082 309.912 L
325.443 325.24 L
325.805 325.24 L
326.167 309.912 L
326.528 309.912 L
326.89 325.24 L
327.252 325.24 L
327.613 325.24 L
327.975 325.24 L
328.337 309.912 L
328.698 325.24 L
329.06 340.567 L
329.422 340.567 L
329.783 325.24 L
330.145 325.24 L
330.507 340.567 L
330.868 325.24 L
331.23 325.24 L
331.592 340.567 L
331.953 325.24 L
332.315 325.24 L
332.677 325.24 L
333.038 325.24 L
333.4 325.24 L
333.762 325.24 L
334.123 309.912 L
334.485 325.24 L
334.847 325.24 L
335.208 325.24 L
335.57 309.912 L
335.932 325.24 L
336.293 325.24 L
336.655 309.912 L
337.017 325.24 L
337.378 309.912 L
337.74 325.24 L
338.102 340.567 L
338.463 325.24 L
338.825 325.24 L
339.187 325.24 L
339.548 309.912 L
339.91 325.24 L
340.272 340.567 L
340.633 325.24 L
340.995 309.912 L
341.357 325.24 L
341.718 325.24 L
342.08 340.567 L
342.442 325.24 L
342.803 325.24 L
343.165 325.24 L
343.527 340.567 L
343.888 340.567 L
344.25 340.567 L
344.612 325.24 L
344.973 325.24 L
345.335 340.567 L
345.697 325.24 L
346.058 325.24 L
346.42 325.24 L
346.782 309.912 L
347.143 325.24 L
347.505 325.24 L
347.867 309.912 L
348.228 309.912 L
348.59 325.24 L
348.952 309.912 L
349.313 325.24 L
349.675 325.24 L
350.037 325.24 L
350.398 309.912 L
350.76 309.912 L
351.122 325.24 L
351.483 309.912 L
351.845 325.24 L
352.207 325.24 L
352.568 325.24 L
352.93 309.912 L
353.292 325.24 L
353.653 325.24 L
354.015 340.567 L
354.377 325.24 L
354.738 325.24 L
355.1 325.24 L
355.462 325.24 L
355.823 325.24 L
356.185 325.24 L
356.547 325.24 L
356.908 325.24 L
357.27 309.912 L
357.632 309.912 L
357.993 325.24 L
358.355 325.24 L
358.717 325.24 L
359.078 325.24 L
359.44 340.567 L
359.802 325.24 L
360.163 325.24 L
360.525 325.24 L
360.887 325.24 L
361.248 325.24 L
361.61 325.24 L
361.972 325.24 L
362.333 325.24 L
362.695 325.24 L
363.057 325.24 L
363.418 325.24 L
363.78 325.24 L
364.142 325.24 L
364.503 325.24 L
364.865 325.24 L
365.227 325.24 L
365.588 325.24 L
365.95 325.24 L
366.312 325.24 L
366.673 309.912 L
367.035 325.24 L
367.397 325.24 L
367.758 325.24 L
368.12 325.24 L
368.482 325.24 L
368.843 309.912 L
369.205 325.24 L
369.567 325.24 L
369.928 325.24 L
370.29 325.24 L
370.652 325.24 L
371.013 325.24 L
371.375 309.912 L
371.737 325.24 L
372.098 325.24 L
372.46 325.24 L
372.822 325.24 L
373.183 325.24 L
373.545 325.24 L
373.907 325.24 L
374.268 325.24 L
374.63 325.24 L
374.992 325.24 L
375.353 309.912 L
375.715 325.24 L
376.077 325.24 L
376.438 325.24 L
376.8 325.24 L
377.162 325.24 L
377.523 325.24 L
377.885 340.567 L
378.247 325.24 L
378.608 325.24 L
378.97 325.24 L
379.332 325.24 L
379.693 325.24 L
380.055 309.912 L
380.417 340.567 L
380.778 325.24 L
381.14 309.912 L
381.502 325.24 L
381.863 340.567 L
382.225 325.24 L
382.587 325.24 L
382.948 309.912 L
383.31 325.24 L
383.672 325.24 L
384.033 325.24 L
384.395 309.912 L
384.757 325.24 L
385.118 325.24 L
385.48 325.24 L
385.842 325.24 L
386.203 325.24 L
386.565 325.24 L
386.927 325.24 L
387.288 325.24 L
387.65 325.24 L
388.012 325.24 L
388.373 325.24 L
388.735 340.567 L
389.097 325.24 L
389.458 340.567 L
389.82 325.24 L
390.182 325.24 L
390.543 325.24 L
390.905 340.567 L
391.267 325.24 L
391.628 325.24 L
391.99 325.24 L
392.352 325.24 L
392.713 325.24 L
393.075 309.912 L
393.437 309.912 L
393.798 325.24 L
394.16 325.24 L
394.522 325.24 L
394.883 340.567 L
395.245 309.912 L
395.607 325.24 L
395.968 325.24 L
396.33 309.912 L
396.692 325.24 L
397.053 325.24 L
397.415 309.912 L
397.777 325.24 L
398.138 340.567 L
398.5 325.24 L
398.862 325.24 L
399.223 325.24 L
399.585 325.24 L
399.947 325.24 L
400.308 309.912 L
400.67 325.24 L
401.032 325.24 L
401.393 325.24 L
401.755 325.24 L
402.117 325.24 L
402.478 325.24 L
402.84 325.24 L
403.202 325.24 L
403.563 325.24 L
403.925 325.24 L
404.287 325.24 L
404.648 325.24 L
405.01 325.24 L
405.372 325.24 L
405.733 325.24 L
406.095 340.567 L
406.457 325.24 L
406.818 309.912 L
407.18 325.24 L
407.542 325.24 L
407.903 325.24 L
408.265 325.24 L
408.627 325.24 L
408.988 325.24 L
409.35 340.567 L
409.712 340.567 L
410.073 325.24 L
410.435 325.24 L
410.797 325.24 L
411.158 340.567 L
411.52 309.912 L
411.882 340.567 L
412.243 325.24 L
412.605 325.24 L
412.967 325.24 L
413.328 325.24 L
413.69 309.912 L
414.052 325.24 L
414.413 325.24 L
414.775 309.912 L
415.137 309.912 L
415.498 340.567 L
415.86 340.567 L
416.222 309.912 L
416.583 325.24 L
416.945 309.912 L
417.307 325.24 L
417.668 325.24 L
418.03 325.24 L
418.392 325.24 L
418.753 325.24 L
419.115 325.24 L
419.477 309.912 L
419.838 309.912 L
420.2 325.24 L
420.562 325.24 L
420.923 325.24 L
421.285 325.24 L
421.647 325.24 L
422.008 325.24 L
422.37 325.24 L
422.732 325.24 L
423.093 325.24 L
423.455 309.912 L
423.817 325.24 L
424.178 309.912 L
424.54 340.567 L
424.902 325.24 L
425.263 309.912 L
425.625 325.24 L
425.987 325.24 L
426.348 325.24 L
426.71 325.24 L
427.072 325.24 L
427.433 340.567 L
427.795 325.24 L
428.157 309.912 L
428.518 325.24 L
428.88 325.24 L
429.242 325.24 L
429.603 325.24 L
429.965 325.24 L
430.327 325.24 L
430.688 340.567 L
431.05 325.24 L
431.412 309.912 L
431.773 309.912 L
432.135 325.24 L
432.497 309.912 L
432.858 309.912 L
433.22 340.567 L
433.582 325.24 L
433.943 325.24 L
434.305 325.24 L
434.667 325.24 L
435.028 325.24 L
435.39 325.24 L
435.752 325.24 L
436.113 325.24 L
436.475 340.567 L
436.837 325.24 L
437.198 340.567 L
437.56 325.24 L
437.922 325.24 L
438.283 325.24 L
438.645 325.24 L
439.007 325.24 L
439.368 325.24 L
439.73 325.24 L
440.092 325.24 L
440.453 325.24 L
440.815 325.24 L
441.177 309.912 L
441.538 309.912 L
441.9 325.24 L
442.262 325.24 L
442.623 325.24 L
442.985 325.24 L
443.347 325.24 L
443.708 340.567 L
444.07 325.24 L
444.432 309.912 L
444.793 325.24 L
445.155 325.24 L
445.517 325.24 L
445.878 325.24 L
446.24 325.24 L
446.602 325.24 L
446.963 309.912 L
447.325 309.912 L
447.687 325.24 L
448.048 325.24 L
448.41 325.24 L
448.772 309.912 L
449.133 325.24 L
449.495 325.24 L
449.857 325.24 L
450.218 325.24 L
450.58 325.24 L
450.942 325.24 L
451.303 325.24 L
451.665 340.567 L
452.027 325.24 L
452.388 325.24 L
452.75 325.24 L
453.112 325.24 L
453.473 309.912 L
453.835 325.24 L
454.197 340.567 L
454.558 309.912 L
454.92 325.24 L
455.282 325.24 L
455.643 340.567 L
456.005 309.912 L
456.367 325.24 L
456.728 325.24 L
457.09 325.24 L
457.452 325.24 L
457.813 325.24 L
458.175 309.912 L
458.537 325.24 L
458.898 325.24 L
459.26 325.24 L
459.622 325.24 L
459.983 325.24 L
460.345 325.24 L
460.707 325.24 L
461.068 340.567 L
461.43 340.567 L
461.792 325.24 L
462.153 325.24 L
462.515 325.24 L
462.877 325.24 L
463.238 325.24 L
463.6 325.24 L
463.962 325.24 L
464.323 325.24 L
464.685 325.24 L
465.047 325.24 L
465.408 309.912 L
465.77 340.567 L
466.132 325.24 L
466.493 325.24 L
466.855 309.912 L
467.217 325.24 L
467.578 309.912 L
467.94 325.24 L
468.302 309.912 L
468.663 325.24 L
469.025 325.24 L
469.387 325.24 L
469.748 325.24 L
470.11 325.24 L
470.472 325.24 L
470.833 340.567 L
471.195 309.912 L
471.557 325.24 L
471.918 325.24 L
472.28 340.567 L
472.642 325.24 L
473.003 309.912 L
473.365 309.912 L
473.727 340.567 L
474.088 325.24 L
474.45 325.24 L
474.812 325.24 L
475.173 309.912 L
475.535 325.24 L
475.897 325.24 L
476.258 325.24 L
476.62 309.912 L
476.982 325.24 L
477.343 340.567 L
477.705 325.24 L
478.067 325.24 L
478.428 325.24 L
478.79 340.567 L
479.152 325.24 L
S
GR
GS
[0.75 0 0 0.75 0 315] CT
0.502 GC
N
2.667 0 M
2.667 -1.473 1.473 -2.667 0 -2.667 C
-1.473 -2.667 -2.667 -1.473 -2.667 0 C
-2.667 1.473 -1.473 2.667 0 2.667 C
1.473 2.667 2.667 1.473 2.667 0 C
cp
f
GR
GS
[0.75 0 0 0.75 0 315] CT
1 1 0.863 RC
N
0 -2.667 M
1.473 -2.667 2.667 -1.473 2.667 0 C
2.667 0 L
2.667 1.473 1.473 2.667 0 2.667 C
-1.473 2.667 -2.667 1.473 -2.667 0 C
-2.667 -1.473 -1.473 -2.667 0 -2.667 C
cp
0 -4 M
-2.209 -4 -4 -2.209 -4 0 C
-4 2.209 -2.209 4 0 4 C
2.209 4 4 2.209 4 0 C
4 0 L
4 -2.209 2.209 -4 0 -4 C
cp
f
GR
%%Trailer
%%Pages: 1
%%EOF
