%!PS-Adobe-3.0 EPSF-3.0
%%Creator: (MATLAB, The Mathworks, Inc. Version 9.8.0.1451342 \(R2020a\) Update 5. Operating System: Windows 10)
%%Title: ./PRN19_xsum_crosscorr.eps
%%CreationDate: 2020-09-15T21:49:52
%%Pages: (atend)
%%BoundingBox:    36    12   542   384
%%LanguageLevel: 2
%%EndComments
%%BeginProlog
%%BeginResource: procset (Apache XML Graphics Std ProcSet) 1.2 0
%%Version: 1.2 0
%%Copyright: (Copyright 2001-2003,2010 The Apache Software Foundation. License terms: http://www.apache.org/licenses/LICENSE-2.0)
/bd{bind def}bind def
/ld{load def}bd
/GR/grestore ld
/GS/gsave ld
/RM/rmoveto ld
/C/curveto ld
/t/show ld
/L/lineto ld
/ML/setmiterlimit ld
/CT/concat ld
/f/fill ld
/N/newpath ld
/S/stroke ld
/CC/setcmykcolor ld
/A/ashow ld
/cp/closepath ld
/RC/setrgbcolor ld
/LJ/setlinejoin ld
/GC/setgray ld
/LW/setlinewidth ld
/M/moveto ld
/re {4 2 roll M
1 index 0 rlineto
0 exch rlineto
neg 0 rlineto
cp } bd
/_ctm matrix def
/_tm matrix def
/BT { _ctm currentmatrix pop matrix _tm copy pop 0 0 moveto } bd
/ET { _ctm setmatrix } bd
/iTm { _ctm setmatrix _tm concat } bd
/Tm { _tm astore pop iTm 0 0 moveto } bd
/ux 0.0 def
/uy 0.0 def
/F {
  /Tp exch def
  /Tf exch def
  Tf findfont Tp scalefont setfont
  /cf Tf def  /cs Tp def
} bd
/ULS {currentpoint /uy exch def /ux exch def} bd
/ULE {
  /Tcx currentpoint pop def
  gsave
  newpath
  cf findfont cs scalefont dup
  /FontMatrix get 0 get /Ts exch def /FontInfo get dup
  /UnderlinePosition get Ts mul /To exch def
  /UnderlineThickness get Ts mul /Tt exch def
  ux uy To add moveto  Tcx uy To add lineto
  Tt setlinewidth stroke
  grestore
} bd
/OLE {
  /Tcx currentpoint pop def
  gsave
  newpath
  cf findfont cs scalefont dup
  /FontMatrix get 0 get /Ts exch def /FontInfo get dup
  /UnderlinePosition get Ts mul /To exch def
  /UnderlineThickness get Ts mul /Tt exch def
  ux uy To add cs add moveto Tcx uy To add cs add lineto
  Tt setlinewidth stroke
  grestore
} bd
/SOE {
  /Tcx currentpoint pop def
  gsave
  newpath
  cf findfont cs scalefont dup
  /FontMatrix get 0 get /Ts exch def /FontInfo get dup
  /UnderlinePosition get Ts mul /To exch def
  /UnderlineThickness get Ts mul /Tt exch def
  ux uy To add cs 10 mul 26 idiv add moveto Tcx uy To add cs 10 mul 26 idiv add lineto
  Tt setlinewidth stroke
  grestore
} bd
/QT {
/Y22 exch store
/X22 exch store
/Y21 exch store
/X21 exch store
currentpoint
/Y21 load 2 mul add 3 div exch
/X21 load 2 mul add 3 div exch
/X21 load 2 mul /X22 load add 3 div
/Y21 load 2 mul /Y22 load add 3 div
/X22 load /Y22 load curveto
} bd
/SSPD {
dup length /d exch dict def
{
/v exch def
/k exch def
currentpagedevice k known {
/cpdv currentpagedevice k get def
v cpdv ne {
/upd false def
/nullv v type /nulltype eq def
/nullcpdv cpdv type /nulltype eq def
nullv nullcpdv or
{
/upd true def
} {
/sametype v type cpdv type eq def
sametype {
v type /arraytype eq {
/vlen v length def
/cpdvlen cpdv length def
vlen cpdvlen eq {
0 1 vlen 1 sub {
/i exch def
/obj v i get def
/cpdobj cpdv i get def
obj cpdobj ne {
/upd true def
exit
} if
} for
} {
/upd true def
} ifelse
} {
v type /dicttype eq {
v {
/dv exch def
/dk exch def
/cpddv cpdv dk get def
dv cpddv ne {
/upd true def
exit
} if
} forall
} {
/upd true def
} ifelse
} ifelse
} if
} ifelse
upd true eq {
d k v put
} if
} if
} if
} forall
d length 0 gt {
d setpagedevice
} if
} bd
/RE { % /NewFontName [NewEncodingArray] /FontName RE -
  findfont dup length dict begin
  {
    1 index /FID ne
    {def} {pop pop} ifelse
  } forall
  /Encoding exch def
  /FontName 1 index def
  currentdict definefont pop
  end
} bind def
%%EndResource
%%BeginResource: procset (Apache XML Graphics EPS ProcSet) 1.0 0
%%Version: 1.0 0
%%Copyright: (Copyright 2002-2003 The Apache Software Foundation. License terms: http://www.apache.org/licenses/LICENSE-2.0)
/BeginEPSF { %def
/b4_Inc_state save def         % Save state for cleanup
/dict_count countdictstack def % Count objects on dict stack
/op_count count 1 sub def      % Count objects on operand stack
userdict begin                 % Push userdict on dict stack
/showpage { } def              % Redefine showpage, { } = null proc
0 setgray 0 setlinecap         % Prepare graphics state
1 setlinewidth 0 setlinejoin
10 setmiterlimit [ ] 0 setdash newpath
/languagelevel where           % If level not equal to 1 then
{pop languagelevel             % set strokeadjust and
1 ne                           % overprint to their defaults.
{false setstrokeadjust false setoverprint
} if
} if
} bd
/EndEPSF { %def
count op_count sub {pop} repeat            % Clean up stacks
countdictstack dict_count sub {end} repeat
b4_Inc_state restore
} bd
%%EndResource
%FOPBeginFontDict
%%IncludeResource: font Courier-Oblique
%%IncludeResource: font Courier-BoldOblique
%%IncludeResource: font Courier-Bold
%%IncludeResource: font ZapfDingbats
%%IncludeResource: font Symbol
%%IncludeResource: font Helvetica
%%IncludeResource: font Helvetica-Oblique
%%IncludeResource: font Helvetica-Bold
%%IncludeResource: font Helvetica-BoldOblique
%%IncludeResource: font Times-Roman
%%IncludeResource: font Times-Italic
%%IncludeResource: font Times-Bold
%%IncludeResource: font Times-BoldItalic
%%IncludeResource: font Courier
%FOPEndFontDict
%%BeginResource: encoding WinAnsiEncoding
/WinAnsiEncoding [
/.notdef /.notdef /.notdef /.notdef /.notdef
/.notdef /.notdef /.notdef /.notdef /.notdef
/.notdef /.notdef /.notdef /.notdef /.notdef
/.notdef /.notdef /.notdef /.notdef /.notdef
/.notdef /.notdef /.notdef /.notdef /.notdef
/.notdef /.notdef /.notdef /.notdef /.notdef
/.notdef /.notdef /space /exclam /quotedbl
/numbersign /dollar /percent /ampersand /quotesingle
/parenleft /parenright /asterisk /plus /comma
/hyphen /period /slash /zero /one
/two /three /four /five /six
/seven /eight /nine /colon /semicolon
/less /equal /greater /question /at
/A /B /C /D /E
/F /G /H /I /J
/K /L /M /N /O
/P /Q /R /S /T
/U /V /W /X /Y
/Z /bracketleft /backslash /bracketright /asciicircum
/underscore /quoteleft /a /b /c
/d /e /f /g /h
/i /j /k /l /m
/n /o /p /q /r
/s /t /u /v /w
/x /y /z /braceleft /bar
/braceright /asciitilde /bullet /Euro /bullet
/quotesinglbase /florin /quotedblbase /ellipsis /dagger
/daggerdbl /circumflex /perthousand /Scaron /guilsinglleft
/OE /bullet /Zcaron /bullet /bullet
/quoteleft /quoteright /quotedblleft /quotedblright /bullet
/endash /emdash /asciitilde /trademark /scaron
/guilsinglright /oe /bullet /zcaron /Ydieresis
/space /exclamdown /cent /sterling /currency
/yen /brokenbar /section /dieresis /copyright
/ordfeminine /guillemotleft /logicalnot /sfthyphen /registered
/macron /degree /plusminus /twosuperior /threesuperior
/acute /mu /paragraph /middot /cedilla
/onesuperior /ordmasculine /guillemotright /onequarter /onehalf
/threequarters /questiondown /Agrave /Aacute /Acircumflex
/Atilde /Adieresis /Aring /AE /Ccedilla
/Egrave /Eacute /Ecircumflex /Edieresis /Igrave
/Iacute /Icircumflex /Idieresis /Eth /Ntilde
/Ograve /Oacute /Ocircumflex /Otilde /Odieresis
/multiply /Oslash /Ugrave /Uacute /Ucircumflex
/Udieresis /Yacute /Thorn /germandbls /agrave
/aacute /acircumflex /atilde /adieresis /aring
/ae /ccedilla /egrave /eacute /ecircumflex
/edieresis /igrave /iacute /icircumflex /idieresis
/eth /ntilde /ograve /oacute /ocircumflex
/otilde /odieresis /divide /oslash /ugrave
/uacute /ucircumflex /udieresis /yacute /thorn
/ydieresis
] def
%%EndResource
%FOPBeginFontReencode
/Courier-Oblique findfont
dup length dict begin
  {1 index /FID ne {def} {pop pop} ifelse} forall
  /Encoding WinAnsiEncoding def
  currentdict
end
/Courier-Oblique exch definefont pop
/Courier-BoldOblique findfont
dup length dict begin
  {1 index /FID ne {def} {pop pop} ifelse} forall
  /Encoding WinAnsiEncoding def
  currentdict
end
/Courier-BoldOblique exch definefont pop
/Courier-Bold findfont
dup length dict begin
  {1 index /FID ne {def} {pop pop} ifelse} forall
  /Encoding WinAnsiEncoding def
  currentdict
end
/Courier-Bold exch definefont pop
/Helvetica findfont
dup length dict begin
  {1 index /FID ne {def} {pop pop} ifelse} forall
  /Encoding WinAnsiEncoding def
  currentdict
end
/Helvetica exch definefont pop
/Helvetica-Oblique findfont
dup length dict begin
  {1 index /FID ne {def} {pop pop} ifelse} forall
  /Encoding WinAnsiEncoding def
  currentdict
end
/Helvetica-Oblique exch definefont pop
/Helvetica-Bold findfont
dup length dict begin
  {1 index /FID ne {def} {pop pop} ifelse} forall
  /Encoding WinAnsiEncoding def
  currentdict
end
/Helvetica-Bold exch definefont pop
/Helvetica-BoldOblique findfont
dup length dict begin
  {1 index /FID ne {def} {pop pop} ifelse} forall
  /Encoding WinAnsiEncoding def
  currentdict
end
/Helvetica-BoldOblique exch definefont pop
/Times-Roman findfont
dup length dict begin
  {1 index /FID ne {def} {pop pop} ifelse} forall
  /Encoding WinAnsiEncoding def
  currentdict
end
/Times-Roman exch definefont pop
/Times-Italic findfont
dup length dict begin
  {1 index /FID ne {def} {pop pop} ifelse} forall
  /Encoding WinAnsiEncoding def
  currentdict
end
/Times-Italic exch definefont pop
/Times-Bold findfont
dup length dict begin
  {1 index /FID ne {def} {pop pop} ifelse} forall
  /Encoding WinAnsiEncoding def
  currentdict
end
/Times-Bold exch definefont pop
/Times-BoldItalic findfont
dup length dict begin
  {1 index /FID ne {def} {pop pop} ifelse} forall
  /Encoding WinAnsiEncoding def
  currentdict
end
/Times-BoldItalic exch definefont pop
/Courier findfont
dup length dict begin
  {1 index /FID ne {def} {pop pop} ifelse} forall
  /Encoding WinAnsiEncoding def
  currentdict
end
/Courier exch definefont pop
%FOPEndFontReencode
%%EndProlog
%%Page: 1 1
%%PageBoundingBox: 0 0 557 401
%%BeginPageSetup
[1 0 0 -1 0 401] CT
%%EndPageSetup
GS
[0.75 0 0 0.75 0 0.5] CT
1 GC
N
0 0 742 534 re
f
GR
GS
[0.75 0 0 0.75 0 0.5] CT
1 GC
N
0 0 742 534 re
f
GR
GS
[0.75 0 0 0.75 0 0.5] CT
1 GC
N
96 475 M
672 475 L
672 40 L
96 40 L
cp
f
GR
GS
[0.75 0 0 0.75 0 0.5] CT
0.149 GC
2 setlinecap
1 LJ
0.667 LW
N
96 475 M
672 475 L
S
GR
GS
[0.75 0 0 0.75 0 0.5] CT
0.149 GC
2 setlinecap
1 LJ
0.667 LW
N
96 40 M
672 40 L
S
GR
GS
[0.75 0 0 0.75 0 0.5] CT
0.149 GC
2 setlinecap
1 LJ
0.667 LW
N
144 475 M
144 469.24 L
S
GR
GS
[0.75 0 0 0.75 0 0.5] CT
0.149 GC
2 setlinecap
1 LJ
0.667 LW
N
240 475 M
240 469.24 L
S
GR
GS
[0.75 0 0 0.75 0 0.5] CT
0.149 GC
2 setlinecap
1 LJ
0.667 LW
N
336 475 M
336 469.24 L
S
GR
GS
[0.75 0 0 0.75 0 0.5] CT
0.149 GC
2 setlinecap
1 LJ
0.667 LW
N
432 475 M
432 469.24 L
S
GR
GS
[0.75 0 0 0.75 0 0.5] CT
0.149 GC
2 setlinecap
1 LJ
0.667 LW
N
528 475 M
528 469.24 L
S
GR
GS
[0.75 0 0 0.75 0 0.5] CT
0.149 GC
2 setlinecap
1 LJ
0.667 LW
N
624 475 M
624 469.24 L
S
GR
GS
[0.75 0 0 0.75 0 0.5] CT
0.149 GC
2 setlinecap
1 LJ
0.667 LW
N
144 40 M
144 45.76 L
S
GR
GS
[0.75 0 0 0.75 0 0.5] CT
0.149 GC
2 setlinecap
1 LJ
0.667 LW
N
240 40 M
240 45.76 L
S
GR
GS
[0.75 0 0 0.75 0 0.5] CT
0.149 GC
2 setlinecap
1 LJ
0.667 LW
N
336 40 M
336 45.76 L
S
GR
GS
[0.75 0 0 0.75 0 0.5] CT
0.149 GC
2 setlinecap
1 LJ
0.667 LW
N
432 40 M
432 45.76 L
S
GR
GS
[0.75 0 0 0.75 0 0.5] CT
0.149 GC
2 setlinecap
1 LJ
0.667 LW
N
528 40 M
528 45.76 L
S
GR
GS
[0.75 0 0 0.75 0 0.5] CT
0.149 GC
2 setlinecap
1 LJ
0.667 LW
N
624 40 M
624 45.76 L
S
GR
GS
[0.75 0 0 0.75 108 360.75001] CT
0.149 GC
/Helvetica 13.333 F
GS
[1 0 0 1 0 0] CT
-4 14 moveto 
1 -1 scale
(0) t 
GR
GR
GS
[0.75 0 0 0.75 180 360.75001] CT
0.149 GC
/Helvetica 13.333 F
GS
[1 0 0 1 0 0] CT
-11.5 14 moveto 
1 -1 scale
(200) t 
GR
GR
GS
[0.75 0 0 0.75 252 360.75001] CT
0.149 GC
/Helvetica 13.333 F
GS
[1 0 0 1 0 0] CT
-11.5 14 moveto 
1 -1 scale
(400) t 
GR
GR
GS
[0.75 0 0 0.75 324 360.75001] CT
0.149 GC
/Helvetica 13.333 F
GS
[1 0 0 1 0 0] CT
-11.5 14 moveto 
1 -1 scale
(600) t 
GR
GR
GS
[0.75 0 0 0.75 396 360.75001] CT
0.149 GC
/Helvetica 13.333 F
GS
[1 0 0 1 0 0] CT
-11.5 14 moveto 
1 -1 scale
(800) t 
GR
GR
GS
[0.75 0 0 0.75 468 360.75001] CT
0.149 GC
/Helvetica 13.333 F
GS
[1 0 0 1 0 0] CT
-15 14 moveto 
1 -1 scale
(1000) t 
GR
GR
GS
[0.75 0 0 0.75 288.00021 374.49999] CT
0.149 GC
/Helvetica 14.667 F
GS
[1 0 0 1 0 0] CT
-62.5 15 moveto 
1 -1 scale
(Code Delay \(chips\)) t 
GR
GR
GS
[0.75 0 0 0.75 0 0.5] CT
0.149 GC
2 setlinecap
1 LJ
0.667 LW
N
96 475 M
96 40 L
S
GR
GS
[0.75 0 0 0.75 0 0.5] CT
0.149 GC
2 setlinecap
1 LJ
0.667 LW
N
672 475 M
672 40 L
S
GR
GS
[0.75 0 0 0.75 0 0.5] CT
0.149 GC
2 setlinecap
1 LJ
0.667 LW
N
96 475 M
101.76 475 L
S
GR
GS
[0.75 0 0 0.75 0 0.5] CT
0.149 GC
2 setlinecap
1 LJ
0.667 LW
N
96 412.857 M
101.76 412.857 L
S
GR
GS
[0.75 0 0 0.75 0 0.5] CT
0.149 GC
2 setlinecap
1 LJ
0.667 LW
N
96 350.714 M
101.76 350.714 L
S
GR
GS
[0.75 0 0 0.75 0 0.5] CT
0.149 GC
2 setlinecap
1 LJ
0.667 LW
N
96 288.571 M
101.76 288.571 L
S
GR
GS
[0.75 0 0 0.75 0 0.5] CT
0.149 GC
2 setlinecap
1 LJ
0.667 LW
N
96 226.429 M
101.76 226.429 L
S
GR
GS
[0.75 0 0 0.75 0 0.5] CT
0.149 GC
2 setlinecap
1 LJ
0.667 LW
N
96 164.286 M
101.76 164.286 L
S
GR
GS
[0.75 0 0 0.75 0 0.5] CT
0.149 GC
2 setlinecap
1 LJ
0.667 LW
N
96 102.143 M
101.76 102.143 L
S
GR
GS
[0.75 0 0 0.75 0 0.5] CT
0.149 GC
2 setlinecap
1 LJ
0.667 LW
N
96 40 M
101.76 40 L
S
GR
GS
[0.75 0 0 0.75 0 0.5] CT
0.149 GC
2 setlinecap
1 LJ
0.667 LW
N
672 475 M
666.24 475 L
S
GR
GS
[0.75 0 0 0.75 0 0.5] CT
0.149 GC
2 setlinecap
1 LJ
0.667 LW
N
672 412.857 M
666.24 412.857 L
S
GR
GS
[0.75 0 0 0.75 0 0.5] CT
0.149 GC
2 setlinecap
1 LJ
0.667 LW
N
672 350.714 M
666.24 350.714 L
S
GR
GS
[0.75 0 0 0.75 0 0.5] CT
0.149 GC
2 setlinecap
1 LJ
0.667 LW
N
672 288.571 M
666.24 288.571 L
S
GR
GS
[0.75 0 0 0.75 0 0.5] CT
0.149 GC
2 setlinecap
1 LJ
0.667 LW
N
672 226.429 M
666.24 226.429 L
S
GR
GS
[0.75 0 0 0.75 0 0.5] CT
0.149 GC
2 setlinecap
1 LJ
0.667 LW
N
672 164.286 M
666.24 164.286 L
S
GR
GS
[0.75 0 0 0.75 0 0.5] CT
0.149 GC
2 setlinecap
1 LJ
0.667 LW
N
672 102.143 M
666.24 102.143 L
S
GR
GS
[0.75 0 0 0.75 0 0.5] CT
0.149 GC
2 setlinecap
1 LJ
0.667 LW
N
672 40 M
666.24 40 L
S
GR
GS
[0.75 0 0 0.75 68 356.75] CT
0.149 GC
/Helvetica 13.333 F
GS
[1 0 0 1 0 0] CT
-23 5.5 moveto 
1 -1 scale
(-0.2) t 
GR
GR
GS
[0.75 0 0 0.75 68 310.14286] CT
0.149 GC
/Helvetica 13.333 F
GS
[1 0 0 1 0 0] CT
-8 5.5 moveto 
1 -1 scale
(0) t 
GR
GR
GS
[0.75 0 0 0.75 68 263.53572] CT
0.149 GC
/Helvetica 13.333 F
GS
[1 0 0 1 0 0] CT
-19 5.5 moveto 
1 -1 scale
(0.2) t 
GR
GR
GS
[0.75 0 0 0.75 68 216.92858] CT
0.149 GC
/Helvetica 13.333 F
GS
[1 0 0 1 0 0] CT
-19 5.5 moveto 
1 -1 scale
(0.4) t 
GR
GR
GS
[0.75 0 0 0.75 68 170.32142] CT
0.149 GC
/Helvetica 13.333 F
GS
[1 0 0 1 0 0] CT
-19 5.5 moveto 
1 -1 scale
(0.6) t 
GR
GR
GS
[0.75 0 0 0.75 68 123.71428] CT
0.149 GC
/Helvetica 13.333 F
GS
[1 0 0 1 0 0] CT
-19 5.5 moveto 
1 -1 scale
(0.8) t 
GR
GR
GS
[0.75 0 0 0.75 68 77.10715] CT
0.149 GC
/Helvetica 13.333 F
GS
[1 0 0 1 0 0] CT
-8 5.5 moveto 
1 -1 scale
(1) t 
GR
GR
GS
[0.75 0 0 0.75 68 30.49999] CT
0.149 GC
/Helvetica 13.333 F
GS
[1 0 0 1 0 0] CT
-19 5.5 moveto 
1 -1 scale
(1.2) t 
GR
GR
GS
[0 -0.75 0.75 0 47.75 193.62484] CT
0.149 GC
/Helvetica 14.667 F
GS
[1 0 0 1 0 0] CT
-36 -4 moveto 
1 -1 scale
(Correlation) t 
GR
GR
GS
[0.75 0 0 0.75 288.00027 28.43749] CT
/Helvetica-Bold 14.667 F
GS
[1 0 0 1 0 0] CT
-337 -4 moveto 
1 -1 scale
(PRN19 vs Sum of PRN19 \(delay 350\), PRN25 \(delay 905\), and PRN05 \(delay 75\) Cross-Correlation) t 
GR
GR
GS
[0.75 0 0 0.75 0 0.5] CT
0 0.447 0.741 RC
1 LJ
0.667 LW
N
144.48 413.768 M
144.96 433.207 L
145.44 413.768 L
145.92 433.207 L
146.4 394.33 L
146.88 394.33 L
147.36 413.768 L
147.84 433.207 L
148.32 433.207 L
148.8 413.768 L
149.28 394.33 L
149.76 413.768 L
150.24 413.768 L
150.72 413.768 L
151.2 413.768 L
151.68 394.33 L
152.16 413.768 L
152.64 413.768 L
153.12 394.33 L
153.6 433.207 L
154.08 394.33 L
154.56 394.33 L
155.04 413.768 L
155.52 413.768 L
156 413.768 L
156.48 413.768 L
156.96 433.207 L
157.44 394.33 L
157.92 413.768 L
158.4 413.768 L
158.88 413.768 L
159.36 433.207 L
159.84 433.207 L
160.32 374.891 L
160.8 413.768 L
161.28 433.207 L
161.76 413.768 L
162.24 413.768 L
162.72 394.33 L
163.2 413.768 L
163.68 394.33 L
164.16 433.207 L
164.64 413.768 L
165.12 394.33 L
165.6 413.768 L
166.08 413.768 L
166.56 394.33 L
167.04 413.768 L
167.52 433.207 L
168 394.33 L
168.48 413.768 L
168.96 413.768 L
169.44 433.207 L
169.92 355.452 L
170.4 433.207 L
170.88 433.207 L
171.36 394.33 L
171.84 413.768 L
172.32 413.768 L
172.8 374.891 L
173.28 413.768 L
173.76 433.207 L
174.24 413.768 L
174.72 413.768 L
175.2 433.207 L
175.68 433.207 L
176.16 433.207 L
176.64 433.207 L
177.12 413.768 L
177.6 413.768 L
178.08 433.207 L
178.56 413.768 L
179.04 413.768 L
179.52 413.768 L
180 413.768 L
180.48 433.207 L
180.96 394.33 L
181.44 413.768 L
181.92 413.768 L
182.4 394.33 L
182.88 433.207 L
183.36 413.768 L
183.84 394.33 L
184.32 394.33 L
184.8 413.768 L
185.28 394.33 L
185.76 394.33 L
186.24 394.33 L
186.72 413.768 L
187.2 413.768 L
187.68 413.768 L
188.16 433.207 L
188.64 413.768 L
189.12 413.768 L
189.6 433.207 L
190.08 374.891 L
190.56 433.207 L
191.04 433.207 L
191.52 433.207 L
192 413.768 L
192.48 374.891 L
192.96 413.768 L
193.44 452.646 L
193.92 433.207 L
194.4 413.768 L
194.88 413.768 L
195.36 374.891 L
195.84 413.768 L
196.32 413.768 L
196.8 413.768 L
197.28 374.891 L
197.76 394.33 L
198.24 452.646 L
198.72 433.207 L
199.2 394.33 L
199.68 394.33 L
200.16 433.207 L
200.64 413.768 L
201.12 413.768 L
201.6 413.768 L
202.08 413.768 L
202.56 394.33 L
203.04 413.768 L
203.52 433.207 L
204 413.768 L
204.48 394.33 L
204.96 394.33 L
205.44 413.768 L
205.92 413.768 L
206.4 452.646 L
206.88 433.207 L
207.36 413.768 L
207.84 433.207 L
208.32 413.768 L
208.8 413.768 L
209.28 394.33 L
209.76 433.207 L
210.24 433.207 L
210.72 433.207 L
211.2 433.207 L
211.68 394.33 L
212.16 413.768 L
212.64 433.207 L
213.12 433.207 L
213.6 413.768 L
214.08 394.33 L
214.56 433.207 L
215.04 394.33 L
215.52 413.768 L
216 413.768 L
216.48 394.33 L
216.96 413.768 L
217.44 413.768 L
217.92 413.768 L
218.4 413.768 L
218.88 394.33 L
219.36 413.768 L
219.84 452.646 L
220.32 413.768 L
220.8 413.768 L
221.28 394.33 L
221.76 413.768 L
222.24 433.207 L
222.72 413.768 L
223.2 413.768 L
223.68 394.33 L
224.16 413.768 L
224.64 433.207 L
225.12 394.33 L
225.6 433.207 L
226.08 413.768 L
226.56 413.768 L
227.04 433.207 L
227.52 394.33 L
228 394.33 L
228.48 413.768 L
228.96 374.891 L
229.44 413.768 L
229.92 413.768 L
230.4 433.207 L
230.88 433.207 L
231.36 452.646 L
231.84 433.207 L
232.32 394.33 L
232.8 413.768 L
233.28 433.207 L
233.76 394.33 L
234.24 452.646 L
234.72 394.33 L
235.2 413.768 L
235.68 433.207 L
236.16 413.768 L
236.64 433.207 L
237.12 413.768 L
237.6 413.768 L
238.08 433.207 L
238.56 394.33 L
239.04 413.768 L
239.52 413.768 L
240 394.33 L
240.48 413.768 L
240.96 433.207 L
241.44 394.33 L
241.92 413.768 L
242.4 433.207 L
242.88 413.768 L
243.36 413.768 L
243.84 413.768 L
244.32 413.768 L
244.8 374.891 L
245.28 433.207 L
245.76 433.207 L
246.24 413.768 L
246.72 413.768 L
247.2 433.207 L
247.68 394.33 L
248.16 413.768 L
248.64 452.646 L
249.12 413.768 L
249.6 413.768 L
250.08 413.768 L
250.56 433.207 L
251.04 413.768 L
251.52 394.33 L
252 413.768 L
252.48 413.768 L
252.96 433.207 L
253.44 433.207 L
253.92 394.33 L
254.4 413.768 L
254.88 433.207 L
255.36 394.33 L
255.84 413.768 L
256.32 413.768 L
256.8 394.33 L
257.28 413.768 L
257.76 413.768 L
258.24 394.33 L
258.72 394.33 L
259.2 413.768 L
259.68 413.768 L
260.16 394.33 L
260.64 394.33 L
261.12 413.768 L
261.6 413.768 L
262.08 413.768 L
262.56 413.768 L
263.04 394.33 L
263.52 433.207 L
264 394.33 L
264.48 413.768 L
264.96 413.768 L
265.44 413.768 L
265.92 433.207 L
266.4 433.207 L
266.88 413.768 L
267.36 433.207 L
267.84 413.768 L
268.32 413.768 L
268.8 433.207 L
269.28 433.207 L
269.76 413.768 L
270.24 452.646 L
270.72 394.33 L
271.2 413.768 L
271.68 433.207 L
272.16 433.207 L
272.64 374.891 L
273.12 452.646 L
273.6 433.207 L
274.08 394.33 L
274.56 413.768 L
275.04 413.768 L
275.52 394.33 L
276 413.768 L
276.48 394.33 L
276.96 433.207 L
277.44 394.33 L
277.92 394.33 L
278.4 413.768 L
278.88 413.768 L
279.36 413.768 L
279.84 413.768 L
280.32 394.33 L
280.8 413.768 L
281.28 374.891 L
281.76 413.768 L
282.24 433.207 L
282.72 413.768 L
283.2 413.768 L
283.68 413.768 L
284.16 394.33 L
284.64 433.207 L
285.12 413.768 L
285.6 433.207 L
286.08 413.768 L
286.56 374.891 L
287.04 433.207 L
287.52 413.768 L
288 433.207 L
288.48 413.768 L
288.96 433.207 L
289.44 433.207 L
289.92 413.768 L
290.4 394.33 L
290.88 394.33 L
291.36 394.33 L
291.84 413.768 L
292.32 413.768 L
292.8 394.33 L
293.28 433.207 L
293.76 413.768 L
294.24 413.768 L
294.72 394.33 L
295.2 394.33 L
295.68 413.768 L
296.16 394.33 L
296.64 413.768 L
297.12 413.768 L
297.6 394.33 L
298.08 433.207 L
298.56 394.33 L
299.04 433.207 L
299.52 413.768 L
300 394.33 L
300.48 394.33 L
300.96 433.207 L
301.44 413.768 L
301.92 413.768 L
302.4 413.768 L
302.88 413.768 L
303.36 413.768 L
303.84 413.768 L
304.32 433.207 L
304.8 433.207 L
305.28 394.33 L
305.76 413.768 L
306.24 433.207 L
306.72 413.768 L
307.2 433.207 L
307.68 374.891 L
308.16 433.207 L
308.64 394.33 L
309.12 413.768 L
309.6 433.207 L
310.08 374.891 L
310.56 394.33 L
311.04 413.768 L
311.52 394.33 L
312 413.768 L
312.48 413.768 L
312.96 374.891 L
313.44 413.768 L
313.92 374.891 L
314.4 433.207 L
314.88 413.768 L
315.36 394.33 L
315.84 433.207 L
316.32 394.33 L
316.8 433.207 L
317.28 433.207 L
317.76 394.33 L
318.24 413.768 L
318.72 413.768 L
319.2 413.768 L
319.68 413.768 L
320.16 413.768 L
320.64 433.207 L
321.12 394.33 L
321.6 433.207 L
322.08 394.33 L
322.56 374.891 L
323.04 433.207 L
323.52 433.207 L
324 413.768 L
324.48 413.768 L
324.96 413.768 L
325.44 413.768 L
325.92 394.33 L
326.4 413.768 L
326.88 413.768 L
327.36 355.452 L
327.84 433.207 L
328.32 413.768 L
328.8 394.33 L
329.28 433.207 L
329.76 413.768 L
330.24 413.768 L
330.72 433.207 L
331.2 433.207 L
331.68 452.646 L
332.16 413.768 L
332.64 413.768 L
333.12 413.768 L
333.6 394.33 L
334.08 433.207 L
334.56 413.768 L
335.04 413.768 L
335.52 394.33 L
336 413.768 L
336.48 413.768 L
336.96 433.207 L
337.44 374.891 L
337.92 413.768 L
338.4 394.33 L
338.88 413.768 L
339.36 413.768 L
339.84 394.33 L
340.32 413.768 L
340.8 433.207 L
341.28 394.33 L
341.76 452.646 L
342.24 394.33 L
342.72 413.768 L
343.2 452.646 L
343.68 413.768 L
344.16 413.768 L
344.64 413.768 L
345.12 394.33 L
345.6 374.891 L
346.08 413.768 L
346.56 413.768 L
347.04 433.207 L
347.52 413.768 L
348 433.207 L
348.48 413.768 L
348.96 413.768 L
349.44 433.207 L
349.92 394.33 L
350.4 413.768 L
350.88 413.768 L
351.36 413.768 L
351.84 433.207 L
352.32 413.768 L
352.8 413.768 L
353.28 413.768 L
353.76 433.207 L
354.24 433.207 L
354.72 394.33 L
355.2 413.768 L
355.68 394.33 L
356.16 374.891 L
356.64 413.768 L
357.12 394.33 L
357.6 413.768 L
358.08 413.768 L
358.56 413.768 L
359.04 413.768 L
359.52 433.207 L
360 413.768 L
360.48 413.768 L
360.96 413.768 L
361.44 394.33 L
361.92 433.207 L
362.4 413.768 L
362.88 394.33 L
363.36 433.207 L
363.84 433.207 L
364.32 433.207 L
364.8 413.768 L
365.28 413.768 L
365.76 433.207 L
366.24 433.207 L
366.72 433.207 L
367.2 433.207 L
367.68 394.33 L
368.16 394.33 L
368.64 394.33 L
369.12 413.768 L
369.6 394.33 L
370.08 355.452 L
370.56 433.207 L
371.04 433.207 L
371.52 433.207 L
372 433.207 L
372.48 374.891 L
372.96 413.768 L
373.44 394.33 L
373.92 394.33 L
374.4 394.33 L
374.88 413.768 L
375.36 413.768 L
375.84 433.207 L
376.32 413.768 L
376.8 452.646 L
377.28 374.891 L
377.76 433.207 L
378.24 433.207 L
378.72 413.768 L
379.2 413.768 L
379.68 433.207 L
380.16 394.33 L
380.64 433.207 L
381.12 413.768 L
381.6 413.768 L
382.08 374.891 L
382.56 433.207 L
383.04 452.646 L
383.52 413.768 L
384 413.768 L
384.48 433.207 L
384.96 413.768 L
385.44 394.33 L
385.92 374.891 L
386.4 413.768 L
386.88 433.207 L
387.36 413.768 L
387.84 433.207 L
388.32 452.646 L
388.8 413.768 L
389.28 413.768 L
389.76 413.768 L
390.24 394.33 L
390.72 413.768 L
391.2 394.33 L
391.68 433.207 L
392.16 413.768 L
392.64 394.33 L
393.12 433.207 L
393.6 413.768 L
394.08 433.207 L
394.56 413.768 L
395.04 433.207 L
395.52 413.768 L
396 394.33 L
396.48 472.084 L
396.96 413.768 L
397.44 374.891 L
397.92 413.768 L
398.4 452.646 L
398.88 394.33 L
399.36 413.768 L
399.84 413.768 L
400.32 413.768 L
400.8 413.768 L
401.28 413.768 L
401.76 413.768 L
402.24 394.33 L
402.72 394.33 L
403.2 433.207 L
403.68 413.768 L
404.16 433.207 L
404.64 413.768 L
405.12 374.891 L
405.6 413.768 L
406.08 413.768 L
406.56 413.768 L
407.04 413.768 L
407.52 374.891 L
408 413.768 L
408.48 433.207 L
408.96 413.768 L
409.44 413.768 L
409.92 394.33 L
410.4 394.33 L
410.88 452.646 L
411.36 413.768 L
411.84 413.768 L
412.32 413.768 L
412.8 413.768 L
413.28 433.207 L
413.76 413.768 L
414.24 413.768 L
414.72 433.207 L
415.2 433.207 L
415.68 413.768 L
416.16 413.768 L
416.64 413.768 L
417.12 433.207 L
417.6 394.33 L
418.08 433.207 L
418.56 433.207 L
419.04 394.33 L
419.52 433.207 L
420 433.207 L
420.48 394.33 L
420.96 394.33 L
421.44 433.207 L
421.92 413.768 L
422.4 413.768 L
422.88 413.768 L
423.36 433.207 L
423.84 413.768 L
424.32 413.768 L
424.8 413.768 L
425.28 394.33 L
425.76 413.768 L
426.24 433.207 L
426.72 413.768 L
427.2 413.768 L
427.68 413.768 L
428.16 394.33 L
428.64 394.33 L
429.12 433.207 L
429.6 433.207 L
430.08 433.207 L
430.56 413.768 L
431.04 413.768 L
431.52 413.768 L
432 413.768 L
432.48 374.891 L
432.96 394.33 L
433.44 394.33 L
433.92 394.33 L
434.4 413.768 L
434.88 394.33 L
435.36 413.768 L
435.84 413.768 L
436.32 394.33 L
436.8 413.768 L
437.28 413.768 L
437.76 394.33 L
438.24 413.768 L
438.72 433.207 L
439.2 413.768 L
439.68 394.33 L
440.16 394.33 L
440.64 433.207 L
441.12 413.768 L
441.6 413.768 L
442.08 433.207 L
442.56 413.768 L
443.04 433.207 L
443.52 413.768 L
444 394.33 L
444.48 413.768 L
444.96 394.33 L
445.44 433.207 L
445.92 413.768 L
446.4 413.768 L
446.88 452.646 L
447.36 433.207 L
447.84 413.768 L
448.32 394.33 L
448.8 394.33 L
449.28 394.33 L
449.76 394.33 L
450.24 394.33 L
450.72 374.891 L
451.2 413.768 L
451.68 413.768 L
452.16 413.768 L
452.64 413.768 L
453.12 452.646 L
453.6 394.33 L
454.08 413.768 L
454.56 433.207 L
455.04 394.33 L
455.52 374.891 L
456 394.33 L
456.48 394.33 L
456.96 433.207 L
457.44 413.768 L
457.92 433.207 L
458.4 452.646 L
458.88 413.768 L
459.36 452.646 L
459.84 413.768 L
460.32 413.768 L
460.8 413.768 L
461.28 413.768 L
461.76 433.207 L
462.24 413.768 L
462.72 394.33 L
463.2 433.207 L
463.68 413.768 L
464.16 433.207 L
464.64 433.207 L
465.12 374.891 L
465.6 433.207 L
466.08 355.452 L
466.56 433.207 L
467.04 433.207 L
467.52 83.312 L
468 413.768 L
468.48 452.646 L
468.96 355.452 L
469.44 433.207 L
469.92 413.768 L
470.4 394.33 L
470.88 452.646 L
471.36 413.768 L
471.84 433.207 L
472.32 394.33 L
472.8 394.33 L
473.28 433.207 L
473.76 394.33 L
474.24 433.207 L
474.72 413.768 L
475.2 413.768 L
475.68 433.207 L
476.16 413.768 L
476.64 452.646 L
477.12 413.768 L
477.6 413.768 L
478.08 472.084 L
478.56 433.207 L
479.04 413.768 L
479.52 413.768 L
480 394.33 L
480.48 452.646 L
480.96 413.768 L
481.44 394.33 L
481.92 433.207 L
482.4 413.768 L
482.88 413.768 L
483.36 413.768 L
483.84 413.768 L
484.32 374.891 L
484.8 413.768 L
485.28 413.768 L
485.76 413.768 L
486.24 394.33 L
486.72 394.33 L
487.2 394.33 L
487.68 413.768 L
488.16 433.207 L
488.64 374.891 L
489.12 394.33 L
489.6 413.768 L
490.08 413.768 L
490.56 433.207 L
491.04 374.891 L
491.52 394.33 L
492 413.768 L
492.48 413.768 L
492.96 433.207 L
493.44 413.768 L
493.92 394.33 L
494.4 472.084 L
494.88 394.33 L
495.36 413.768 L
495.84 433.207 L
496.32 394.33 L
496.8 394.33 L
497.28 394.33 L
497.76 413.768 L
498.24 433.207 L
498.72 413.768 L
499.2 394.33 L
499.68 413.768 L
500.16 394.33 L
500.64 413.768 L
501.12 394.33 L
501.6 413.768 L
502.08 394.33 L
502.56 374.891 L
503.04 413.768 L
503.52 394.33 L
504 413.768 L
504.48 433.207 L
504.96 413.768 L
505.44 413.768 L
505.92 433.207 L
506.4 394.33 L
506.88 413.768 L
507.36 433.207 L
507.84 413.768 L
508.32 394.33 L
508.8 433.207 L
509.28 413.768 L
509.76 413.768 L
510.24 413.768 L
510.72 413.768 L
511.2 433.207 L
511.68 452.646 L
512.16 433.207 L
512.64 413.768 L
513.12 413.768 L
513.6 413.768 L
514.08 413.768 L
514.56 394.33 L
515.04 394.33 L
515.52 413.768 L
516 394.33 L
516.48 413.768 L
516.96 433.207 L
517.44 394.33 L
517.92 413.768 L
518.4 413.768 L
518.88 394.33 L
519.36 433.207 L
519.84 433.207 L
520.32 413.768 L
520.8 413.768 L
521.28 394.33 L
521.76 413.768 L
522.24 394.33 L
522.72 413.768 L
523.2 413.768 L
523.68 413.768 L
524.16 413.768 L
524.64 413.768 L
525.12 394.33 L
525.6 433.207 L
526.08 413.768 L
526.56 394.33 L
527.04 413.768 L
527.52 394.33 L
528 433.207 L
528.48 394.33 L
528.96 413.768 L
529.44 433.207 L
529.92 374.891 L
530.4 394.33 L
530.88 413.768 L
531.36 374.891 L
531.84 413.768 L
532.32 394.33 L
532.8 433.207 L
533.28 413.768 L
533.76 394.33 L
534.24 394.33 L
534.72 413.768 L
535.2 413.768 L
535.68 413.768 L
536.16 413.768 L
536.64 433.207 L
537.12 413.768 L
537.6 394.33 L
538.08 413.768 L
538.56 433.207 L
539.04 394.33 L
539.52 413.768 L
540 413.768 L
540.48 433.207 L
540.96 433.207 L
541.44 433.207 L
541.92 413.768 L
542.4 374.891 L
542.88 413.768 L
543.36 433.207 L
543.84 413.768 L
544.32 413.768 L
544.8 413.768 L
545.28 413.768 L
545.76 413.768 L
546.24 413.768 L
546.72 413.768 L
547.2 413.768 L
547.68 394.33 L
548.16 433.207 L
548.64 394.33 L
549.12 394.33 L
549.6 413.768 L
550.08 413.768 L
550.56 413.768 L
551.04 413.768 L
551.52 433.207 L
552 413.768 L
552.48 433.207 L
552.96 433.207 L
553.44 413.768 L
553.92 394.33 L
554.4 394.33 L
554.88 374.891 L
555.36 413.768 L
555.84 413.768 L
556.32 374.891 L
556.8 433.207 L
557.28 433.207 L
557.76 413.768 L
558.24 452.646 L
558.72 413.768 L
559.2 394.33 L
559.68 413.768 L
560.16 394.33 L
560.64 433.207 L
561.12 374.891 L
561.6 374.891 L
562.08 433.207 L
562.56 394.33 L
563.04 413.768 L
563.52 413.768 L
564 374.891 L
564.48 433.207 L
564.96 394.33 L
565.44 394.33 L
565.92 394.33 L
566.4 413.768 L
566.88 413.768 L
567.36 394.33 L
567.84 413.768 L
568.32 413.768 L
568.8 413.768 L
569.28 452.646 L
569.76 413.768 L
570.24 433.207 L
570.72 433.207 L
571.2 413.768 L
571.68 452.646 L
572.16 413.768 L
572.64 433.207 L
573.12 433.207 L
573.6 413.768 L
574.08 413.768 L
574.56 433.207 L
575.04 413.768 L
575.52 433.207 L
576 433.207 L
576.48 394.33 L
576.96 413.768 L
577.44 394.33 L
577.92 394.33 L
578.4 413.768 L
578.88 394.33 L
579.36 413.768 L
579.84 433.207 L
580.32 374.891 L
580.8 413.768 L
581.28 413.768 L
581.76 394.33 L
582.24 413.768 L
582.72 413.768 L
583.2 394.33 L
583.68 413.768 L
584.16 433.207 L
584.64 413.768 L
585.12 413.768 L
585.6 433.207 L
586.08 413.768 L
586.56 413.768 L
587.04 413.768 L
587.52 413.768 L
588 413.768 L
588.48 413.768 L
588.96 374.891 L
589.44 394.33 L
589.92 433.207 L
590.4 413.768 L
590.88 394.33 L
591.36 413.768 L
591.84 433.207 L
592.32 413.768 L
592.8 413.768 L
593.28 433.207 L
593.76 394.33 L
594.24 413.768 L
594.72 433.207 L
595.2 413.768 L
595.68 374.891 L
596.16 394.33 L
596.64 394.33 L
597.12 394.33 L
597.6 394.33 L
598.08 413.768 L
598.56 413.768 L
599.04 433.207 L
599.52 433.207 L
600 413.768 L
600.48 413.768 L
600.96 413.768 L
601.44 413.768 L
601.92 394.33 L
602.4 433.207 L
602.88 413.768 L
603.36 433.207 L
603.84 413.768 L
604.32 433.207 L
604.8 394.33 L
605.28 413.768 L
605.76 433.207 L
606.24 394.33 L
606.72 413.768 L
607.2 433.207 L
607.68 413.768 L
608.16 374.891 L
608.64 394.33 L
609.12 394.33 L
609.6 413.768 L
610.08 413.768 L
610.56 413.768 L
611.04 413.768 L
611.52 413.768 L
612 433.207 L
612.48 374.891 L
612.96 394.33 L
613.44 433.207 L
613.92 374.891 L
614.4 413.768 L
614.88 413.768 L
615.36 413.768 L
615.84 413.768 L
616.32 413.768 L
616.8 413.768 L
617.28 413.768 L
617.76 413.768 L
618.24 433.207 L
618.72 355.452 L
619.2 452.646 L
619.68 413.768 L
620.16 394.33 L
620.64 413.768 L
621.12 374.891 L
621.6 433.207 L
622.08 433.207 L
622.56 413.768 L
623.04 433.207 L
623.52 394.33 L
624 394.33 L
624.48 433.207 L
624.96 394.33 L
625.44 413.768 L
625.92 374.891 L
626.4 394.33 L
626.88 433.207 L
627.36 433.207 L
627.84 413.768 L
628.32 394.33 L
628.8 394.33 L
629.28 433.207 L
629.76 394.33 L
630.24 413.768 L
630.72 433.207 L
631.2 394.33 L
631.68 413.768 L
632.16 413.768 L
632.64 413.768 L
633.12 413.768 L
633.6 413.768 L
634.08 433.207 L
634.56 413.768 L
635.04 433.207 L
S
GR
%%Trailer
%%Pages: 1
%%EOF
