%!PS-Adobe-3.0 EPSF-3.0
%%Creator: (MATLAB, The Mathworks, Inc. Version 9.8.0.1451342 \(R2020a\) Update 5. Operating System: Windows 10)
%%Title: ./xsum_noise_subplots.eps
%%CreationDate: 2020-09-15T21:54:34
%%Pages: (atend)
%%BoundingBox:    38     8   381   306
%%LanguageLevel: 2
%%EndComments
%%BeginProlog
%%BeginResource: procset (Apache XML Graphics Std ProcSet) 1.2 0
%%Version: 1.2 0
%%Copyright: (Copyright 2001-2003,2010 The Apache Software Foundation. License terms: http://www.apache.org/licenses/LICENSE-2.0)
/bd{bind def}bind def
/ld{load def}bd
/GR/grestore ld
/GS/gsave ld
/RM/rmoveto ld
/C/curveto ld
/t/show ld
/L/lineto ld
/ML/setmiterlimit ld
/CT/concat ld
/f/fill ld
/N/newpath ld
/S/stroke ld
/CC/setcmykcolor ld
/A/ashow ld
/cp/closepath ld
/RC/setrgbcolor ld
/LJ/setlinejoin ld
/GC/setgray ld
/LW/setlinewidth ld
/M/moveto ld
/re {4 2 roll M
1 index 0 rlineto
0 exch rlineto
neg 0 rlineto
cp } bd
/_ctm matrix def
/_tm matrix def
/BT { _ctm currentmatrix pop matrix _tm copy pop 0 0 moveto } bd
/ET { _ctm setmatrix } bd
/iTm { _ctm setmatrix _tm concat } bd
/Tm { _tm astore pop iTm 0 0 moveto } bd
/ux 0.0 def
/uy 0.0 def
/F {
  /Tp exch def
  /Tf exch def
  Tf findfont Tp scalefont setfont
  /cf Tf def  /cs Tp def
} bd
/ULS {currentpoint /uy exch def /ux exch def} bd
/ULE {
  /Tcx currentpoint pop def
  gsave
  newpath
  cf findfont cs scalefont dup
  /FontMatrix get 0 get /Ts exch def /FontInfo get dup
  /UnderlinePosition get Ts mul /To exch def
  /UnderlineThickness get Ts mul /Tt exch def
  ux uy To add moveto  Tcx uy To add lineto
  Tt setlinewidth stroke
  grestore
} bd
/OLE {
  /Tcx currentpoint pop def
  gsave
  newpath
  cf findfont cs scalefont dup
  /FontMatrix get 0 get /Ts exch def /FontInfo get dup
  /UnderlinePosition get Ts mul /To exch def
  /UnderlineThickness get Ts mul /Tt exch def
  ux uy To add cs add moveto Tcx uy To add cs add lineto
  Tt setlinewidth stroke
  grestore
} bd
/SOE {
  /Tcx currentpoint pop def
  gsave
  newpath
  cf findfont cs scalefont dup
  /FontMatrix get 0 get /Ts exch def /FontInfo get dup
  /UnderlinePosition get Ts mul /To exch def
  /UnderlineThickness get Ts mul /Tt exch def
  ux uy To add cs 10 mul 26 idiv add moveto Tcx uy To add cs 10 mul 26 idiv add lineto
  Tt setlinewidth stroke
  grestore
} bd
/QT {
/Y22 exch store
/X22 exch store
/Y21 exch store
/X21 exch store
currentpoint
/Y21 load 2 mul add 3 div exch
/X21 load 2 mul add 3 div exch
/X21 load 2 mul /X22 load add 3 div
/Y21 load 2 mul /Y22 load add 3 div
/X22 load /Y22 load curveto
} bd
/SSPD {
dup length /d exch dict def
{
/v exch def
/k exch def
currentpagedevice k known {
/cpdv currentpagedevice k get def
v cpdv ne {
/upd false def
/nullv v type /nulltype eq def
/nullcpdv cpdv type /nulltype eq def
nullv nullcpdv or
{
/upd true def
} {
/sametype v type cpdv type eq def
sametype {
v type /arraytype eq {
/vlen v length def
/cpdvlen cpdv length def
vlen cpdvlen eq {
0 1 vlen 1 sub {
/i exch def
/obj v i get def
/cpdobj cpdv i get def
obj cpdobj ne {
/upd true def
exit
} if
} for
} {
/upd true def
} ifelse
} {
v type /dicttype eq {
v {
/dv exch def
/dk exch def
/cpddv cpdv dk get def
dv cpddv ne {
/upd true def
exit
} if
} forall
} {
/upd true def
} ifelse
} ifelse
} if
} ifelse
upd true eq {
d k v put
} if
} if
} if
} forall
d length 0 gt {
d setpagedevice
} if
} bd
/RE { % /NewFontName [NewEncodingArray] /FontName RE -
  findfont dup length dict begin
  {
    1 index /FID ne
    {def} {pop pop} ifelse
  } forall
  /Encoding exch def
  /FontName 1 index def
  currentdict definefont pop
  end
} bind def
%%EndResource
%%BeginResource: procset (Apache XML Graphics EPS ProcSet) 1.0 0
%%Version: 1.0 0
%%Copyright: (Copyright 2002-2003 The Apache Software Foundation. License terms: http://www.apache.org/licenses/LICENSE-2.0)
/BeginEPSF { %def
/b4_Inc_state save def         % Save state for cleanup
/dict_count countdictstack def % Count objects on dict stack
/op_count count 1 sub def      % Count objects on operand stack
userdict begin                 % Push userdict on dict stack
/showpage { } def              % Redefine showpage, { } = null proc
0 setgray 0 setlinecap         % Prepare graphics state
1 setlinewidth 0 setlinejoin
10 setmiterlimit [ ] 0 setdash newpath
/languagelevel where           % If level not equal to 1 then
{pop languagelevel             % set strokeadjust and
1 ne                           % overprint to their defaults.
{false setstrokeadjust false setoverprint
} if
} if
} bd
/EndEPSF { %def
count op_count sub {pop} repeat            % Clean up stacks
countdictstack dict_count sub {end} repeat
b4_Inc_state restore
} bd
%%EndResource
%FOPBeginFontDict
%%IncludeResource: font Courier-Oblique
%%IncludeResource: font Courier-BoldOblique
%%IncludeResource: font Courier-Bold
%%IncludeResource: font ZapfDingbats
%%IncludeResource: font Symbol
%%IncludeResource: font Helvetica
%%IncludeResource: font Helvetica-Oblique
%%IncludeResource: font Helvetica-Bold
%%IncludeResource: font Helvetica-BoldOblique
%%IncludeResource: font Times-Roman
%%IncludeResource: font Times-Italic
%%IncludeResource: font Times-Bold
%%IncludeResource: font Times-BoldItalic
%%IncludeResource: font Courier
%FOPEndFontDict
%%BeginResource: encoding WinAnsiEncoding
/WinAnsiEncoding [
/.notdef /.notdef /.notdef /.notdef /.notdef
/.notdef /.notdef /.notdef /.notdef /.notdef
/.notdef /.notdef /.notdef /.notdef /.notdef
/.notdef /.notdef /.notdef /.notdef /.notdef
/.notdef /.notdef /.notdef /.notdef /.notdef
/.notdef /.notdef /.notdef /.notdef /.notdef
/.notdef /.notdef /space /exclam /quotedbl
/numbersign /dollar /percent /ampersand /quotesingle
/parenleft /parenright /asterisk /plus /comma
/hyphen /period /slash /zero /one
/two /three /four /five /six
/seven /eight /nine /colon /semicolon
/less /equal /greater /question /at
/A /B /C /D /E
/F /G /H /I /J
/K /L /M /N /O
/P /Q /R /S /T
/U /V /W /X /Y
/Z /bracketleft /backslash /bracketright /asciicircum
/underscore /quoteleft /a /b /c
/d /e /f /g /h
/i /j /k /l /m
/n /o /p /q /r
/s /t /u /v /w
/x /y /z /braceleft /bar
/braceright /asciitilde /bullet /Euro /bullet
/quotesinglbase /florin /quotedblbase /ellipsis /dagger
/daggerdbl /circumflex /perthousand /Scaron /guilsinglleft
/OE /bullet /Zcaron /bullet /bullet
/quoteleft /quoteright /quotedblleft /quotedblright /bullet
/endash /emdash /asciitilde /trademark /scaron
/guilsinglright /oe /bullet /zcaron /Ydieresis
/space /exclamdown /cent /sterling /currency
/yen /brokenbar /section /dieresis /copyright
/ordfeminine /guillemotleft /logicalnot /sfthyphen /registered
/macron /degree /plusminus /twosuperior /threesuperior
/acute /mu /paragraph /middot /cedilla
/onesuperior /ordmasculine /guillemotright /onequarter /onehalf
/threequarters /questiondown /Agrave /Aacute /Acircumflex
/Atilde /Adieresis /Aring /AE /Ccedilla
/Egrave /Eacute /Ecircumflex /Edieresis /Igrave
/Iacute /Icircumflex /Idieresis /Eth /Ntilde
/Ograve /Oacute /Ocircumflex /Otilde /Odieresis
/multiply /Oslash /Ugrave /Uacute /Ucircumflex
/Udieresis /Yacute /Thorn /germandbls /agrave
/aacute /acircumflex /atilde /adieresis /aring
/ae /ccedilla /egrave /eacute /ecircumflex
/edieresis /igrave /iacute /icircumflex /idieresis
/eth /ntilde /ograve /oacute /ocircumflex
/otilde /odieresis /divide /oslash /ugrave
/uacute /ucircumflex /udieresis /yacute /thorn
/ydieresis
] def
%%EndResource
%FOPBeginFontReencode
/Courier-Oblique findfont
dup length dict begin
  {1 index /FID ne {def} {pop pop} ifelse} forall
  /Encoding WinAnsiEncoding def
  currentdict
end
/Courier-Oblique exch definefont pop
/Courier-BoldOblique findfont
dup length dict begin
  {1 index /FID ne {def} {pop pop} ifelse} forall
  /Encoding WinAnsiEncoding def
  currentdict
end
/Courier-BoldOblique exch definefont pop
/Courier-Bold findfont
dup length dict begin
  {1 index /FID ne {def} {pop pop} ifelse} forall
  /Encoding WinAnsiEncoding def
  currentdict
end
/Courier-Bold exch definefont pop
/Helvetica findfont
dup length dict begin
  {1 index /FID ne {def} {pop pop} ifelse} forall
  /Encoding WinAnsiEncoding def
  currentdict
end
/Helvetica exch definefont pop
/Helvetica-Oblique findfont
dup length dict begin
  {1 index /FID ne {def} {pop pop} ifelse} forall
  /Encoding WinAnsiEncoding def
  currentdict
end
/Helvetica-Oblique exch definefont pop
/Helvetica-Bold findfont
dup length dict begin
  {1 index /FID ne {def} {pop pop} ifelse} forall
  /Encoding WinAnsiEncoding def
  currentdict
end
/Helvetica-Bold exch definefont pop
/Helvetica-BoldOblique findfont
dup length dict begin
  {1 index /FID ne {def} {pop pop} ifelse} forall
  /Encoding WinAnsiEncoding def
  currentdict
end
/Helvetica-BoldOblique exch definefont pop
/Times-Roman findfont
dup length dict begin
  {1 index /FID ne {def} {pop pop} ifelse} forall
  /Encoding WinAnsiEncoding def
  currentdict
end
/Times-Roman exch definefont pop
/Times-Italic findfont
dup length dict begin
  {1 index /FID ne {def} {pop pop} ifelse} forall
  /Encoding WinAnsiEncoding def
  currentdict
end
/Times-Italic exch definefont pop
/Times-Bold findfont
dup length dict begin
  {1 index /FID ne {def} {pop pop} ifelse} forall
  /Encoding WinAnsiEncoding def
  currentdict
end
/Times-Bold exch definefont pop
/Times-BoldItalic findfont
dup length dict begin
  {1 index /FID ne {def} {pop pop} ifelse} forall
  /Encoding WinAnsiEncoding def
  currentdict
end
/Times-BoldItalic exch definefont pop
/Courier findfont
dup length dict begin
  {1 index /FID ne {def} {pop pop} ifelse} forall
  /Encoding WinAnsiEncoding def
  currentdict
end
/Courier exch definefont pop
%FOPEndFontReencode
%%EndProlog
%%Page: 1 1
%%PageBoundingBox: 0 0 420 315
%%BeginPageSetup
[1 0 0 -1 0 315] CT
%%EndPageSetup
GS
[0.75 0 0 0.75 0 0] CT
1 GC
N
0 0 560 420 re
f
GR
GS
[0.75 0 0 0.75 0 0] CT
1 GC
N
0 0 560 420 re
f
GR
GS
[0.75 0 0 0.75 0 0] CT
1 GC
N
73 175 M
260 175 L
260 35 L
73 35 L
cp
f
GR
GS
[0.75 0 0 0.75 0 0] CT
0.149 GC
2 setlinecap
1 LJ
0.667 LW
N
73 175 M
260 175 L
S
GR
GS
[0.75 0 0 0.75 0 0] CT
0.149 GC
2 setlinecap
1 LJ
0.667 LW
N
73 35 M
260 35 L
S
GR
GS
[0.75 0 0 0.75 0 0] CT
0.149 GC
2 setlinecap
1 LJ
0.667 LW
N
88.583 175 M
88.583 173.13 L
S
GR
GS
[0.75 0 0 0.75 0 0] CT
0.149 GC
2 setlinecap
1 LJ
0.667 LW
N
166.5 175 M
166.5 173.13 L
S
GR
GS
[0.75 0 0 0.75 0 0] CT
0.149 GC
2 setlinecap
1 LJ
0.667 LW
N
244.417 175 M
244.417 173.13 L
S
GR
GS
[0.75 0 0 0.75 0 0] CT
0.149 GC
2 setlinecap
1 LJ
0.667 LW
N
88.583 35 M
88.583 36.87 L
S
GR
GS
[0.75 0 0 0.75 0 0] CT
0.149 GC
2 setlinecap
1 LJ
0.667 LW
N
166.5 35 M
166.5 36.87 L
S
GR
GS
[0.75 0 0 0.75 0 0] CT
0.149 GC
2 setlinecap
1 LJ
0.667 LW
N
244.417 35 M
244.417 36.87 L
S
GR
GS
[0.75 0 0 0.75 66.4375 134.05] CT
0.149 GC
/Helvetica 12 F
GS
[1 0 0 1 0 0] CT
-3.5 13 moveto 
1 -1 scale
(0) t 
GR
GR
GS
[0.75 0 0 0.75 124.875 134.05] CT
0.149 GC
/Helvetica 12 F
GS
[1 0 0 1 0 0] CT
-10.5 13 moveto 
1 -1 scale
(500) t 
GR
GR
GS
[0.75 0 0 0.75 183.3125 134.05] CT
0.149 GC
/Helvetica 12 F
GS
[1 0 0 1 0 0] CT
-13.5 13 moveto 
1 -1 scale
(1000) t 
GR
GR
GS
[0.75 0 0 0.75 124.87507 146.55] CT
0.149 GC
/Helvetica 13.2 F
GS
[1 0 0 1 0 0] CT
-52 14 moveto 
1 -1 scale
(PRN19 delay 350) t 
GR
GR
GS
[0.75 0 0 0.75 0 0] CT
0.149 GC
2 setlinecap
1 LJ
0.667 LW
N
73 175 M
73 35 L
S
GR
GS
[0.75 0 0 0.75 0 0] CT
0.149 GC
2 setlinecap
1 LJ
0.667 LW
N
260 175 M
260 35 L
S
GR
GS
[0.75 0 0 0.75 0 0] CT
0.149 GC
2 setlinecap
1 LJ
0.667 LW
N
73 151.667 M
74.87 151.667 L
S
GR
GS
[0.75 0 0 0.75 0 0] CT
0.149 GC
2 setlinecap
1 LJ
0.667 LW
N
73 105 M
74.87 105 L
S
GR
GS
[0.75 0 0 0.75 0 0] CT
0.149 GC
2 setlinecap
1 LJ
0.667 LW
N
73 58.333 M
74.87 58.333 L
S
GR
GS
[0.75 0 0 0.75 0 0] CT
0.149 GC
2 setlinecap
1 LJ
0.667 LW
N
260 151.667 M
258.13 151.667 L
S
GR
GS
[0.75 0 0 0.75 0 0] CT
0.149 GC
2 setlinecap
1 LJ
0.667 LW
N
260 105 M
258.13 105 L
S
GR
GS
[0.75 0 0 0.75 0 0] CT
0.149 GC
2 setlinecap
1 LJ
0.667 LW
N
260 58.333 M
258.13 58.333 L
S
GR
GS
[0.75 0 0 0.75 51.95 113.75] CT
0.149 GC
/Helvetica 12 F
GS
[1 0 0 1 0 0] CT
-18 5 moveto 
1 -1 scale
(-10) t 
GR
GR
GS
[0.75 0 0 0.75 51.95 78.75] CT
0.149 GC
/Helvetica 12 F
GS
[1 0 0 1 0 0] CT
-7 5 moveto 
1 -1 scale
(0) t 
GR
GR
GS
[0.75 0 0 0.75 51.95 43.75] CT
0.149 GC
/Helvetica 12 F
GS
[1 0 0 1 0 0] CT
-14 5 moveto 
1 -1 scale
(10) t 
GR
GR
GS
[0.75 0 0 0.75 0 0] CT
0 0.447 0.741 RC
1 LJ
0.667 LW
N
88.739 100.333 M
88.895 100.333 L
89.051 100.333 L
89.207 109.667 L
89.363 100.333 L
89.518 109.667 L
89.674 109.667 L
89.83 109.667 L
89.986 109.667 L
90.142 100.333 L
90.298 100.333 L
90.453 100.333 L
90.609 109.667 L
90.765 100.333 L
90.921 100.333 L
91.077 109.667 L
91.232 109.667 L
91.388 109.667 L
91.544 109.667 L
91.7 109.667 L
91.856 100.333 L
92.012 109.667 L
92.168 100.333 L
92.323 100.333 L
92.479 100.333 L
92.635 109.667 L
92.791 109.667 L
92.947 100.333 L
93.103 109.667 L
93.258 109.667 L
93.414 109.667 L
93.57 109.667 L
93.726 109.667 L
93.882 100.333 L
94.037 109.667 L
94.193 100.333 L
94.349 100.333 L
94.505 100.333 L
94.661 100.333 L
94.817 100.333 L
94.973 100.333 L
95.128 100.333 L
95.284 100.333 L
95.44 109.667 L
95.596 100.333 L
95.752 100.333 L
95.908 100.333 L
96.063 100.333 L
96.219 100.333 L
96.375 100.333 L
96.531 109.667 L
96.687 100.333 L
96.842 100.333 L
96.998 100.333 L
97.154 109.667 L
97.31 100.333 L
97.466 100.333 L
97.622 109.667 L
97.777 100.333 L
97.933 100.333 L
98.089 109.667 L
98.245 109.667 L
98.401 109.667 L
98.557 109.667 L
98.713 100.333 L
98.868 109.667 L
99.024 109.667 L
99.18 109.667 L
99.336 100.333 L
99.492 100.333 L
99.647 109.667 L
99.803 100.333 L
99.959 109.667 L
100.115 109.667 L
100.271 109.667 L
100.427 109.667 L
100.582 109.667 L
100.738 100.333 L
100.894 109.667 L
101.05 109.667 L
101.206 109.667 L
101.362 109.667 L
101.518 100.333 L
101.673 100.333 L
101.829 100.333 L
101.985 100.333 L
102.141 109.667 L
102.297 100.333 L
102.452 109.667 L
102.608 109.667 L
102.764 100.333 L
102.92 109.667 L
103.076 100.333 L
103.232 100.333 L
103.387 109.667 L
103.543 100.333 L
103.699 109.667 L
103.855 100.333 L
104.011 109.667 L
104.167 109.667 L
104.323 109.667 L
104.478 100.333 L
104.634 109.667 L
104.79 100.333 L
104.946 100.333 L
105.102 109.667 L
105.257 100.333 L
105.413 100.333 L
105.569 100.333 L
105.725 100.333 L
105.881 100.333 L
106.037 109.667 L
106.192 109.667 L
106.348 109.667 L
106.504 109.667 L
106.66 100.333 L
106.816 109.667 L
106.972 100.333 L
107.128 109.667 L
107.283 109.667 L
107.439 109.667 L
107.595 100.333 L
107.751 109.667 L
107.907 100.333 L
108.063 100.333 L
108.218 100.333 L
108.374 100.333 L
108.53 109.667 L
108.686 109.667 L
108.842 109.667 L
108.997 109.667 L
109.153 100.333 L
109.309 109.667 L
109.465 109.667 L
109.621 100.333 L
109.777 100.333 L
109.933 109.667 L
110.088 109.667 L
110.244 109.667 L
110.4 109.667 L
110.556 100.333 L
110.712 100.333 L
110.868 109.667 L
111.023 100.333 L
111.179 100.333 L
111.335 100.333 L
111.491 109.667 L
111.647 109.667 L
111.802 109.667 L
111.958 100.333 L
112.114 100.333 L
112.27 100.333 L
112.426 109.667 L
112.582 109.667 L
112.738 109.667 L
112.893 100.333 L
113.049 100.333 L
113.205 100.333 L
113.361 100.333 L
113.517 100.333 L
113.673 109.667 L
113.828 109.667 L
113.984 109.667 L
114.14 100.333 L
114.296 109.667 L
114.452 109.667 L
114.607 100.333 L
114.763 109.667 L
114.919 100.333 L
115.075 109.667 L
115.231 109.667 L
115.387 109.667 L
115.543 100.333 L
115.698 100.333 L
115.854 109.667 L
116.01 100.333 L
116.166 109.667 L
116.322 109.667 L
116.478 100.333 L
116.633 100.333 L
116.789 100.333 L
116.945 100.333 L
117.101 100.333 L
117.257 100.333 L
117.412 100.333 L
117.568 100.333 L
117.724 109.667 L
117.88 109.667 L
118.036 109.667 L
118.192 109.667 L
118.348 109.667 L
118.503 100.333 L
118.659 109.667 L
118.815 100.333 L
118.971 100.333 L
119.127 109.667 L
119.283 100.333 L
119.438 100.333 L
119.594 109.667 L
119.75 100.333 L
119.906 109.667 L
120.062 100.333 L
120.217 109.667 L
120.373 109.667 L
120.529 100.333 L
120.685 100.333 L
120.841 109.667 L
120.997 109.667 L
121.152 100.333 L
121.308 109.667 L
121.464 100.333 L
121.62 109.667 L
121.776 109.667 L
121.932 100.333 L
122.088 109.667 L
122.243 109.667 L
122.399 109.667 L
122.555 100.333 L
122.711 100.333 L
122.867 109.667 L
123.022 100.333 L
123.178 109.667 L
123.334 100.333 L
123.49 100.333 L
123.646 100.333 L
123.802 109.667 L
123.957 109.667 L
124.113 109.667 L
124.269 100.333 L
124.425 109.667 L
124.581 100.333 L
124.737 100.333 L
124.893 100.333 L
125.048 100.333 L
125.204 100.333 L
125.36 109.667 L
125.516 109.667 L
125.672 100.333 L
125.827 100.333 L
125.983 109.667 L
126.139 100.333 L
126.295 109.667 L
126.451 100.333 L
126.607 109.667 L
126.762 109.667 L
126.918 100.333 L
127.074 100.333 L
127.23 109.667 L
127.386 109.667 L
127.542 109.667 L
127.698 109.667 L
127.853 100.333 L
128.009 100.333 L
128.165 109.667 L
128.321 109.667 L
128.477 100.333 L
128.633 100.333 L
128.788 100.333 L
128.944 109.667 L
129.1 100.333 L
129.256 109.667 L
129.412 109.667 L
129.568 109.667 L
129.723 100.333 L
129.879 109.667 L
130.035 109.667 L
130.191 109.667 L
130.347 100.333 L
130.503 100.333 L
130.658 109.667 L
130.814 109.667 L
130.97 109.667 L
131.126 100.333 L
131.282 100.333 L
131.438 109.667 L
131.593 109.667 L
131.749 100.333 L
131.905 100.333 L
132.061 109.667 L
132.217 109.667 L
132.372 100.333 L
132.528 100.333 L
132.684 100.333 L
132.84 109.667 L
132.996 109.667 L
133.152 100.333 L
133.307 100.333 L
133.463 100.333 L
133.619 100.333 L
133.775 100.333 L
133.931 109.667 L
134.087 100.333 L
134.242 100.333 L
134.398 109.667 L
134.554 109.667 L
134.71 100.333 L
134.866 109.667 L
135.022 109.667 L
135.178 100.333 L
135.333 109.667 L
135.489 100.333 L
135.645 100.333 L
135.801 109.667 L
135.957 109.667 L
136.113 100.333 L
136.268 100.333 L
136.424 100.333 L
136.58 100.333 L
136.736 100.333 L
136.892 109.667 L
137.048 109.667 L
137.203 100.333 L
137.359 109.667 L
137.515 109.667 L
137.671 100.333 L
137.827 100.333 L
137.982 109.667 L
138.138 109.667 L
138.294 100.333 L
138.45 100.333 L
138.606 100.333 L
138.762 100.333 L
138.917 100.333 L
139.073 109.667 L
139.229 109.667 L
139.385 100.333 L
139.541 109.667 L
139.697 109.667 L
139.852 109.667 L
140.008 100.333 L
140.164 100.333 L
140.32 109.667 L
140.476 100.333 L
140.632 109.667 L
140.788 100.333 L
140.943 100.333 L
141.099 109.667 L
141.255 109.667 L
141.411 100.333 L
141.567 109.667 L
141.723 100.333 L
141.878 109.667 L
142.034 100.333 L
142.19 109.667 L
142.346 109.667 L
142.502 109.667 L
142.658 100.333 L
142.813 109.667 L
142.969 100.333 L
143.125 100.333 L
143.281 100.333 L
143.437 100.333 L
143.592 100.333 L
143.748 100.333 L
143.904 109.667 L
144.06 100.333 L
144.216 109.667 L
144.372 100.333 L
144.527 100.333 L
144.683 109.667 L
144.839 109.667 L
144.995 100.333 L
145.151 109.667 L
145.307 109.667 L
145.462 100.333 L
145.618 100.333 L
145.774 100.333 L
145.93 109.667 L
146.086 109.667 L
146.242 100.333 L
146.398 109.667 L
146.553 109.667 L
146.709 109.667 L
146.865 109.667 L
147.021 109.667 L
147.177 100.333 L
147.333 100.333 L
147.488 109.667 L
147.644 109.667 L
147.8 100.333 L
147.956 109.667 L
148.112 109.667 L
148.268 109.667 L
148.423 100.333 L
148.579 100.333 L
148.735 109.667 L
148.891 100.333 L
149.047 100.333 L
149.202 100.333 L
149.358 100.333 L
149.514 109.667 L
149.67 109.667 L
149.826 100.333 L
149.982 109.667 L
150.137 109.667 L
150.293 100.333 L
150.449 109.667 L
150.605 100.333 L
150.761 109.667 L
150.917 109.667 L
151.072 109.667 L
151.228 100.333 L
151.384 109.667 L
151.54 109.667 L
151.696 100.333 L
151.852 109.667 L
152.008 109.667 L
152.163 100.333 L
152.319 109.667 L
152.475 109.667 L
152.631 100.333 L
152.787 109.667 L
152.943 100.333 L
153.098 109.667 L
153.254 109.667 L
153.41 100.333 L
153.566 100.333 L
153.722 109.667 L
153.878 100.333 L
154.033 100.333 L
154.189 100.333 L
154.345 109.667 L
154.501 109.667 L
154.657 100.333 L
154.813 100.333 L
154.968 100.333 L
155.124 100.333 L
155.28 109.667 L
155.436 100.333 L
155.592 100.333 L
155.747 100.333 L
155.903 109.667 L
156.059 109.667 L
156.215 100.333 L
156.371 109.667 L
156.527 109.667 L
156.682 100.333 L
156.838 109.667 L
156.994 109.667 L
157.15 109.667 L
157.306 100.333 L
157.462 100.333 L
157.617 109.667 L
157.773 109.667 L
157.929 109.667 L
158.085 109.667 L
158.241 109.667 L
158.397 100.333 L
158.553 109.667 L
158.708 100.333 L
158.864 100.333 L
159.02 100.333 L
159.176 100.333 L
159.332 109.667 L
159.488 100.333 L
159.643 100.333 L
159.799 109.667 L
159.955 109.667 L
160.111 100.333 L
160.267 109.667 L
160.423 109.667 L
160.578 109.667 L
160.734 109.667 L
160.89 109.667 L
161.046 109.667 L
161.202 100.333 L
161.357 109.667 L
161.513 109.667 L
161.669 100.333 L
161.825 109.667 L
161.981 109.667 L
162.137 100.333 L
162.292 109.667 L
162.448 100.333 L
162.604 100.333 L
162.76 109.667 L
162.916 100.333 L
163.072 100.333 L
163.227 100.333 L
163.383 109.667 L
163.539 100.333 L
163.695 100.333 L
163.851 109.667 L
164.007 100.333 L
164.163 109.667 L
164.318 100.333 L
164.474 100.333 L
164.63 109.667 L
164.786 100.333 L
164.942 109.667 L
165.098 109.667 L
165.253 100.333 L
165.409 109.667 L
165.565 109.667 L
165.721 100.333 L
165.877 109.667 L
166.033 109.667 L
166.188 109.667 L
166.344 109.667 L
166.5 109.667 L
166.656 109.667 L
166.812 100.333 L
166.967 109.667 L
167.123 100.333 L
167.279 100.333 L
167.435 109.667 L
167.591 109.667 L
167.747 109.667 L
167.902 109.667 L
168.058 100.333 L
168.214 109.667 L
168.37 100.333 L
168.526 100.333 L
168.682 109.667 L
168.837 109.667 L
168.993 100.333 L
169.149 100.333 L
169.305 109.667 L
169.461 100.333 L
169.617 100.333 L
169.773 109.667 L
169.928 109.667 L
170.084 100.333 L
170.24 100.333 L
170.396 109.667 L
170.552 109.667 L
170.708 109.667 L
170.863 100.333 L
171.019 100.333 L
171.175 109.667 L
171.331 100.333 L
171.487 109.667 L
171.643 109.667 L
171.798 100.333 L
171.954 109.667 L
172.11 109.667 L
172.266 100.333 L
172.422 109.667 L
172.577 100.333 L
172.733 100.333 L
172.889 109.667 L
173.045 109.667 L
173.201 109.667 L
173.357 100.333 L
173.512 109.667 L
173.668 109.667 L
173.824 109.667 L
173.98 109.667 L
174.136 100.333 L
174.292 100.333 L
174.447 100.333 L
174.603 100.333 L
174.759 100.333 L
174.915 100.333 L
175.071 100.333 L
175.227 109.667 L
175.383 100.333 L
175.538 109.667 L
175.694 100.333 L
175.85 100.333 L
176.006 100.333 L
176.162 100.333 L
176.318 109.667 L
176.473 109.667 L
176.629 109.667 L
176.785 100.333 L
176.941 109.667 L
177.097 109.667 L
177.253 100.333 L
177.408 109.667 L
177.564 100.333 L
177.72 109.667 L
177.876 109.667 L
178.032 109.667 L
178.188 100.333 L
178.343 100.333 L
178.499 109.667 L
178.655 109.667 L
178.811 109.667 L
178.967 100.333 L
179.122 100.333 L
179.278 109.667 L
179.434 109.667 L
179.59 109.667 L
179.746 100.333 L
179.902 100.333 L
180.057 109.667 L
180.213 100.333 L
180.369 100.333 L
180.525 100.333 L
180.681 100.333 L
180.837 100.333 L
180.992 109.667 L
181.148 100.333 L
181.304 100.333 L
181.46 109.667 L
181.616 100.333 L
181.772 109.667 L
181.928 109.667 L
182.083 100.333 L
182.239 100.333 L
182.395 100.333 L
182.551 109.667 L
182.707 109.667 L
182.863 109.667 L
183.018 100.333 L
183.174 109.667 L
183.33 100.333 L
183.486 109.667 L
183.642 109.667 L
183.798 100.333 L
183.953 100.333 L
184.109 109.667 L
184.265 109.667 L
184.421 109.667 L
184.577 109.667 L
184.732 109.667 L
184.888 109.667 L
185.044 109.667 L
185.2 109.667 L
185.356 109.667 L
185.512 100.333 L
185.667 100.333 L
185.823 100.333 L
185.979 109.667 L
186.135 100.333 L
186.291 100.333 L
186.447 109.667 L
186.602 100.333 L
186.758 100.333 L
186.914 100.333 L
187.07 109.667 L
187.226 109.667 L
187.382 100.333 L
187.538 100.333 L
187.693 109.667 L
187.849 100.333 L
188.005 100.333 L
188.161 109.667 L
188.317 100.333 L
188.473 100.333 L
188.628 109.667 L
188.784 109.667 L
188.94 109.667 L
189.096 109.667 L
189.252 109.667 L
189.408 100.333 L
189.563 109.667 L
189.719 109.667 L
189.875 100.333 L
190.031 100.333 L
190.187 109.667 L
190.342 109.667 L
190.498 100.333 L
190.654 109.667 L
190.81 100.333 L
190.966 100.333 L
191.122 100.333 L
191.277 100.333 L
191.433 100.333 L
191.589 109.667 L
191.745 109.667 L
191.901 109.667 L
192.057 109.667 L
192.212 109.667 L
192.368 100.333 L
192.524 109.667 L
192.68 109.667 L
192.836 100.333 L
192.992 109.667 L
193.148 109.667 L
193.303 109.667 L
193.459 109.667 L
193.615 100.333 L
193.771 100.333 L
193.927 100.333 L
194.083 109.667 L
194.238 109.667 L
194.394 100.333 L
194.55 100.333 L
194.706 109.667 L
194.862 100.333 L
195.018 100.333 L
195.173 109.667 L
195.329 100.333 L
195.485 109.667 L
195.641 100.333 L
195.797 100.333 L
195.952 109.667 L
196.108 100.333 L
196.264 100.333 L
196.42 109.667 L
196.576 109.667 L
196.732 109.667 L
196.887 100.333 L
197.043 100.333 L
197.199 109.667 L
197.355 109.667 L
197.511 100.333 L
197.667 100.333 L
197.822 109.667 L
197.978 109.667 L
198.134 109.667 L
198.29 109.667 L
198.446 100.333 L
198.602 109.667 L
198.758 109.667 L
198.913 100.333 L
199.069 109.667 L
199.225 100.333 L
199.381 100.333 L
199.537 109.667 L
199.693 109.667 L
199.848 109.667 L
200.004 109.667 L
200.16 100.333 L
200.316 100.333 L
200.472 109.667 L
200.628 100.333 L
200.783 100.333 L
200.939 109.667 L
201.095 100.333 L
201.251 100.333 L
201.407 100.333 L
201.563 109.667 L
201.718 100.333 L
201.874 100.333 L
202.03 109.667 L
202.186 109.667 L
202.342 109.667 L
202.497 109.667 L
202.653 100.333 L
202.809 109.667 L
202.965 109.667 L
203.121 100.333 L
203.277 100.333 L
203.432 100.333 L
203.588 100.333 L
203.744 109.667 L
203.9 109.667 L
204.056 100.333 L
204.212 100.333 L
204.367 100.333 L
204.523 109.667 L
204.679 109.667 L
204.835 100.333 L
204.991 100.333 L
205.147 109.667 L
205.303 100.333 L
205.458 109.667 L
205.614 100.333 L
205.77 109.667 L
205.926 109.667 L
206.082 109.667 L
206.238 109.667 L
206.393 109.667 L
206.549 100.333 L
206.705 100.333 L
206.861 109.667 L
207.017 109.667 L
207.173 100.333 L
207.328 100.333 L
207.484 109.667 L
207.64 109.667 L
207.796 109.667 L
207.952 109.667 L
208.107 109.667 L
208.263 109.667 L
208.419 109.667 L
208.575 109.667 L
208.731 100.333 L
208.887 100.333 L
209.042 100.333 L
209.198 109.667 L
209.354 109.667 L
209.51 100.333 L
209.666 109.667 L
209.822 109.667 L
209.977 109.667 L
210.133 100.333 L
210.289 109.667 L
210.445 100.333 L
210.601 100.333 L
210.757 100.333 L
210.913 109.667 L
211.068 100.333 L
211.224 100.333 L
211.38 109.667 L
211.536 109.667 L
211.692 100.333 L
211.848 109.667 L
212.003 109.667 L
212.159 109.667 L
212.315 100.333 L
212.471 109.667 L
212.627 100.333 L
212.783 100.333 L
212.938 100.333 L
213.094 109.667 L
213.25 109.667 L
213.406 109.667 L
213.562 109.667 L
213.717 109.667 L
213.873 100.333 L
214.029 109.667 L
214.185 100.333 L
214.341 109.667 L
214.497 100.333 L
214.652 100.333 L
214.808 100.333 L
214.964 109.667 L
215.12 109.667 L
215.276 100.333 L
215.432 100.333 L
215.587 100.333 L
215.743 100.333 L
215.899 100.333 L
216.055 109.667 L
216.211 100.333 L
216.367 100.333 L
216.523 109.667 L
216.678 100.333 L
216.834 109.667 L
216.99 100.333 L
217.146 100.333 L
217.302 100.333 L
217.458 109.667 L
217.613 109.667 L
217.769 109.667 L
217.925 100.333 L
218.081 109.667 L
218.237 100.333 L
218.393 109.667 L
218.548 100.333 L
218.704 109.667 L
218.86 100.333 L
219.016 109.667 L
219.172 100.333 L
219.327 100.333 L
219.483 100.333 L
219.639 100.333 L
219.795 100.333 L
219.951 100.333 L
220.107 109.667 L
220.262 100.333 L
220.418 109.667 L
220.574 109.667 L
220.73 109.667 L
220.886 100.333 L
221.042 109.667 L
221.197 109.667 L
221.353 109.667 L
221.509 100.333 L
221.665 100.333 L
221.821 100.333 L
221.977 100.333 L
222.133 100.333 L
222.288 109.667 L
222.444 109.667 L
222.6 100.333 L
222.756 109.667 L
222.912 100.333 L
223.068 100.333 L
223.223 109.667 L
223.379 109.667 L
223.535 100.333 L
223.691 100.333 L
223.847 100.333 L
224.003 100.333 L
224.158 100.333 L
224.314 109.667 L
224.47 100.333 L
224.626 109.667 L
224.782 100.333 L
224.938 100.333 L
225.093 100.333 L
225.249 100.333 L
225.405 100.333 L
225.561 100.333 L
225.717 109.667 L
225.872 100.333 L
226.028 100.333 L
226.184 109.667 L
226.34 100.333 L
226.496 100.333 L
226.652 109.667 L
226.807 100.333 L
226.963 100.333 L
227.119 109.667 L
227.275 100.333 L
227.431 109.667 L
227.587 100.333 L
227.742 109.667 L
227.898 100.333 L
228.054 100.333 L
228.21 109.667 L
228.366 109.667 L
228.522 100.333 L
228.678 109.667 L
228.833 109.667 L
228.989 109.667 L
229.145 100.333 L
229.301 109.667 L
229.457 109.667 L
229.613 100.333 L
229.768 100.333 L
229.924 109.667 L
230.08 109.667 L
230.236 109.667 L
230.392 100.333 L
230.548 100.333 L
230.703 100.333 L
230.859 100.333 L
231.015 100.333 L
231.171 100.333 L
231.327 109.667 L
231.482 109.667 L
231.638 109.667 L
231.794 109.667 L
231.95 100.333 L
232.106 109.667 L
232.262 100.333 L
232.417 100.333 L
232.573 109.667 L
232.729 100.333 L
232.885 100.333 L
233.041 100.333 L
233.197 100.333 L
233.352 109.667 L
233.508 100.333 L
233.664 100.333 L
233.82 100.333 L
233.976 100.333 L
234.132 100.333 L
234.288 109.667 L
234.443 100.333 L
234.599 109.667 L
234.755 109.667 L
234.911 100.333 L
235.067 100.333 L
235.223 100.333 L
235.378 109.667 L
235.534 100.333 L
235.69 109.667 L
235.846 109.667 L
236.002 100.333 L
236.158 100.333 L
236.313 109.667 L
236.469 100.333 L
236.625 100.333 L
236.781 100.333 L
236.937 100.333 L
237.092 100.333 L
237.248 109.667 L
237.404 100.333 L
237.56 100.333 L
237.716 109.667 L
237.872 109.667 L
238.027 100.333 L
238.183 100.333 L
238.339 109.667 L
238.495 109.667 L
238.651 109.667 L
238.807 109.667 L
238.962 109.667 L
239.118 109.667 L
239.274 100.333 L
239.43 109.667 L
239.586 100.333 L
239.742 109.667 L
239.898 109.667 L
240.053 109.667 L
240.209 109.667 L
240.365 100.333 L
240.521 109.667 L
240.677 100.333 L
240.833 109.667 L
240.988 109.667 L
241.144 100.333 L
241.3 109.667 L
241.456 109.667 L
241.612 100.333 L
241.768 100.333 L
241.923 100.333 L
242.079 109.667 L
242.235 109.667 L
242.391 100.333 L
242.547 109.667 L
242.702 100.333 L
242.858 100.333 L
243.014 109.667 L
243.17 100.333 L
243.326 109.667 L
243.482 100.333 L
243.637 100.333 L
243.793 109.667 L
243.949 109.667 L
244.105 109.667 L
244.261 100.333 L
244.417 100.333 L
244.572 109.667 L
244.728 100.333 L
244.884 100.333 L
245.04 100.333 L
245.196 100.333 L
245.352 109.667 L
245.508 100.333 L
245.663 100.333 L
245.819 109.667 L
245.975 100.333 L
246.131 109.667 L
246.287 100.333 L
246.443 100.333 L
246.598 109.667 L
246.754 109.667 L
246.91 100.333 L
247.066 109.667 L
247.222 100.333 L
247.378 109.667 L
247.533 100.333 L
247.689 109.667 L
247.845 109.667 L
248.001 109.667 L
S
GR
GS
[0.75 0 0 0.75 0 0] CT
1 GC
N
319 175 M
507 175 L
507 35 L
319 35 L
cp
f
GR
GS
[0.75 0 0 0.75 0 0] CT
0.149 GC
2 setlinecap
1 LJ
0.667 LW
N
319 175 M
507 175 L
S
GR
GS
[0.75 0 0 0.75 0 0] CT
0.149 GC
2 setlinecap
1 LJ
0.667 LW
N
319 35 M
507 35 L
S
GR
GS
[0.75 0 0 0.75 0 0] CT
0.149 GC
2 setlinecap
1 LJ
0.667 LW
N
334.667 175 M
334.667 173.12 L
S
GR
GS
[0.75 0 0 0.75 0 0] CT
0.149 GC
2 setlinecap
1 LJ
0.667 LW
N
413 175 M
413 173.12 L
S
GR
GS
[0.75 0 0 0.75 0 0] CT
0.149 GC
2 setlinecap
1 LJ
0.667 LW
N
491.333 175 M
491.333 173.12 L
S
GR
GS
[0.75 0 0 0.75 0 0] CT
0.149 GC
2 setlinecap
1 LJ
0.667 LW
N
334.667 35 M
334.667 36.88 L
S
GR
GS
[0.75 0 0 0.75 0 0] CT
0.149 GC
2 setlinecap
1 LJ
0.667 LW
N
413 35 M
413 36.88 L
S
GR
GS
[0.75 0 0 0.75 0 0] CT
0.149 GC
2 setlinecap
1 LJ
0.667 LW
N
491.333 35 M
491.333 36.88 L
S
GR
GS
[0.75 0 0 0.75 250.99999 134.05] CT
0.149 GC
/Helvetica 12 F
GS
[1 0 0 1 0 0] CT
-3.5 13 moveto 
1 -1 scale
(0) t 
GR
GR
GS
[0.75 0 0 0.75 309.75 134.05] CT
0.149 GC
/Helvetica 12 F
GS
[1 0 0 1 0 0] CT
-10.5 13 moveto 
1 -1 scale
(500) t 
GR
GR
GS
[0.75 0 0 0.75 368.50001 134.05] CT
0.149 GC
/Helvetica 12 F
GS
[1 0 0 1 0 0] CT
-13.5 13 moveto 
1 -1 scale
(1000) t 
GR
GR
GS
[0.75 0 0 0.75 309.75007 146.55] CT
0.149 GC
/Helvetica 13.2 F
GS
[1 0 0 1 0 0] CT
-52 14 moveto 
1 -1 scale
(PRN25 delay 905) t 
GR
GR
GS
[0.75 0 0 0.75 0 0] CT
0.149 GC
2 setlinecap
1 LJ
0.667 LW
N
319 175 M
319 35 L
S
GR
GS
[0.75 0 0 0.75 0 0] CT
0.149 GC
2 setlinecap
1 LJ
0.667 LW
N
507 175 M
507 35 L
S
GR
GS
[0.75 0 0 0.75 0 0] CT
0.149 GC
2 setlinecap
1 LJ
0.667 LW
N
319 151.667 M
320.88 151.667 L
S
GR
GS
[0.75 0 0 0.75 0 0] CT
0.149 GC
2 setlinecap
1 LJ
0.667 LW
N
319 105 M
320.88 105 L
S
GR
GS
[0.75 0 0 0.75 0 0] CT
0.149 GC
2 setlinecap
1 LJ
0.667 LW
N
319 58.333 M
320.88 58.333 L
S
GR
GS
[0.75 0 0 0.75 0 0] CT
0.149 GC
2 setlinecap
1 LJ
0.667 LW
N
507 151.667 M
505.12 151.667 L
S
GR
GS
[0.75 0 0 0.75 0 0] CT
0.149 GC
2 setlinecap
1 LJ
0.667 LW
N
507 105 M
505.12 105 L
S
GR
GS
[0.75 0 0 0.75 0 0] CT
0.149 GC
2 setlinecap
1 LJ
0.667 LW
N
507 58.333 M
505.12 58.333 L
S
GR
GS
[0.75 0 0 0.75 236.45 113.75] CT
0.149 GC
/Helvetica 12 F
GS
[1 0 0 1 0 0] CT
-18 5 moveto 
1 -1 scale
(-10) t 
GR
GR
GS
[0.75 0 0 0.75 236.45 78.75] CT
0.149 GC
/Helvetica 12 F
GS
[1 0 0 1 0 0] CT
-7 5 moveto 
1 -1 scale
(0) t 
GR
GR
GS
[0.75 0 0 0.75 236.45 43.75] CT
0.149 GC
/Helvetica 12 F
GS
[1 0 0 1 0 0] CT
-14 5 moveto 
1 -1 scale
(10) t 
GR
GR
GS
[0.75 0 0 0.75 0 0] CT
0 0.447 0.741 RC
1 LJ
0.667 LW
N
334.823 100.333 M
334.98 100.333 L
335.137 100.333 L
335.293 109.667 L
335.45 109.667 L
335.607 100.333 L
335.763 100.333 L
335.92 100.333 L
336.077 109.667 L
336.233 100.333 L
336.39 100.333 L
336.547 100.333 L
336.703 109.667 L
336.86 100.333 L
337.017 109.667 L
337.173 100.333 L
337.33 100.333 L
337.487 100.333 L
337.643 109.667 L
337.8 100.333 L
337.957 100.333 L
338.113 100.333 L
338.27 100.333 L
338.427 109.667 L
338.583 109.667 L
338.74 109.667 L
338.897 100.333 L
339.053 109.667 L
339.21 100.333 L
339.367 100.333 L
339.523 100.333 L
339.68 109.667 L
339.837 109.667 L
339.993 100.333 L
340.15 109.667 L
340.307 109.667 L
340.463 109.667 L
340.62 100.333 L
340.777 100.333 L
340.933 100.333 L
341.09 100.333 L
341.247 100.333 L
341.403 109.667 L
341.56 109.667 L
341.717 109.667 L
341.873 109.667 L
342.03 100.333 L
342.187 100.333 L
342.343 109.667 L
342.5 109.667 L
342.657 109.667 L
342.813 100.333 L
342.97 100.333 L
343.127 100.333 L
343.283 100.333 L
343.44 109.667 L
343.597 100.333 L
343.753 109.667 L
343.91 109.667 L
344.067 100.333 L
344.223 100.333 L
344.38 109.667 L
344.537 109.667 L
344.693 109.667 L
344.85 109.667 L
345.007 109.667 L
345.163 109.667 L
345.32 109.667 L
345.477 109.667 L
345.633 109.667 L
345.79 109.667 L
345.947 109.667 L
346.103 109.667 L
346.26 109.667 L
346.417 109.667 L
346.573 109.667 L
346.73 109.667 L
346.887 100.333 L
347.043 109.667 L
347.2 100.333 L
347.357 100.333 L
347.513 100.333 L
347.67 109.667 L
347.827 100.333 L
347.983 100.333 L
348.14 100.333 L
348.297 109.667 L
348.453 109.667 L
348.61 100.333 L
348.767 109.667 L
348.923 100.333 L
349.08 109.667 L
349.237 100.333 L
349.393 100.333 L
349.55 109.667 L
349.707 100.333 L
349.863 109.667 L
350.02 100.333 L
350.177 109.667 L
350.333 109.667 L
350.49 100.333 L
350.647 100.333 L
350.803 109.667 L
350.96 109.667 L
351.117 109.667 L
351.273 100.333 L
351.43 109.667 L
351.587 109.667 L
351.743 100.333 L
351.9 100.333 L
352.057 109.667 L
352.213 100.333 L
352.37 100.333 L
352.527 109.667 L
352.683 100.333 L
352.84 109.667 L
352.997 109.667 L
353.153 109.667 L
353.31 100.333 L
353.467 100.333 L
353.623 100.333 L
353.78 100.333 L
353.937 100.333 L
354.093 109.667 L
354.25 109.667 L
354.407 109.667 L
354.563 100.333 L
354.72 100.333 L
354.877 100.333 L
355.033 100.333 L
355.19 109.667 L
355.347 100.333 L
355.503 109.667 L
355.66 109.667 L
355.817 109.667 L
355.973 109.667 L
356.13 109.667 L
356.287 100.333 L
356.443 100.333 L
356.6 109.667 L
356.757 100.333 L
356.913 109.667 L
357.07 100.333 L
357.227 109.667 L
357.383 100.333 L
357.54 100.333 L
357.697 100.333 L
357.853 109.667 L
358.01 100.333 L
358.167 109.667 L
358.323 109.667 L
358.48 100.333 L
358.637 100.333 L
358.793 100.333 L
358.95 100.333 L
359.107 100.333 L
359.263 100.333 L
359.42 100.333 L
359.577 100.333 L
359.733 100.333 L
359.89 109.667 L
360.047 100.333 L
360.203 109.667 L
360.36 109.667 L
360.517 100.333 L
360.673 109.667 L
360.83 109.667 L
360.987 109.667 L
361.143 100.333 L
361.3 100.333 L
361.457 100.333 L
361.613 100.333 L
361.77 100.333 L
361.927 109.667 L
362.083 109.667 L
362.24 109.667 L
362.397 100.333 L
362.553 109.667 L
362.71 109.667 L
362.867 109.667 L
363.023 109.667 L
363.18 100.333 L
363.337 109.667 L
363.493 100.333 L
363.65 100.333 L
363.807 109.667 L
363.963 109.667 L
364.12 109.667 L
364.277 100.333 L
364.433 100.333 L
364.59 109.667 L
364.747 109.667 L
364.903 109.667 L
365.06 100.333 L
365.217 100.333 L
365.373 100.333 L
365.53 100.333 L
365.687 100.333 L
365.843 109.667 L
366 100.333 L
366.157 109.667 L
366.313 100.333 L
366.47 109.667 L
366.627 109.667 L
366.783 100.333 L
366.94 100.333 L
367.097 109.667 L
367.253 100.333 L
367.41 100.333 L
367.567 100.333 L
367.723 109.667 L
367.88 100.333 L
368.037 109.667 L
368.193 100.333 L
368.35 109.667 L
368.507 100.333 L
368.663 100.333 L
368.82 100.333 L
368.977 109.667 L
369.133 100.333 L
369.29 109.667 L
369.447 100.333 L
369.603 100.333 L
369.76 100.333 L
369.917 100.333 L
370.073 100.333 L
370.23 100.333 L
370.387 109.667 L
370.543 100.333 L
370.7 100.333 L
370.857 100.333 L
371.013 109.667 L
371.17 100.333 L
371.327 109.667 L
371.483 109.667 L
371.64 109.667 L
371.797 109.667 L
371.953 109.667 L
372.11 100.333 L
372.267 109.667 L
372.423 109.667 L
372.58 100.333 L
372.737 109.667 L
372.893 109.667 L
373.05 109.667 L
373.207 100.333 L
373.363 100.333 L
373.52 100.333 L
373.677 100.333 L
373.833 100.333 L
373.99 109.667 L
374.147 100.333 L
374.303 100.333 L
374.46 100.333 L
374.617 109.667 L
374.773 109.667 L
374.93 109.667 L
375.087 100.333 L
375.243 100.333 L
375.4 109.667 L
375.557 109.667 L
375.713 100.333 L
375.87 100.333 L
376.027 100.333 L
376.183 100.333 L
376.34 109.667 L
376.497 109.667 L
376.653 100.333 L
376.81 100.333 L
376.967 100.333 L
377.123 109.667 L
377.28 100.333 L
377.437 100.333 L
377.593 100.333 L
377.75 109.667 L
377.907 109.667 L
378.063 109.667 L
378.22 100.333 L
378.377 109.667 L
378.533 100.333 L
378.69 100.333 L
378.847 100.333 L
379.003 109.667 L
379.16 100.333 L
379.317 109.667 L
379.473 100.333 L
379.63 100.333 L
379.787 109.667 L
379.943 100.333 L
380.1 109.667 L
380.257 100.333 L
380.413 109.667 L
380.57 109.667 L
380.727 109.667 L
380.883 109.667 L
381.04 100.333 L
381.197 109.667 L
381.353 100.333 L
381.51 100.333 L
381.667 109.667 L
381.823 109.667 L
381.98 109.667 L
382.137 100.333 L
382.293 109.667 L
382.45 109.667 L
382.607 100.333 L
382.763 100.333 L
382.92 100.333 L
383.077 109.667 L
383.233 100.333 L
383.39 100.333 L
383.547 100.333 L
383.703 109.667 L
383.86 100.333 L
384.017 109.667 L
384.173 100.333 L
384.33 109.667 L
384.487 100.333 L
384.643 100.333 L
384.8 109.667 L
384.957 109.667 L
385.113 109.667 L
385.27 109.667 L
385.427 109.667 L
385.583 100.333 L
385.74 100.333 L
385.897 109.667 L
386.053 109.667 L
386.21 100.333 L
386.367 109.667 L
386.523 109.667 L
386.68 100.333 L
386.837 109.667 L
386.993 109.667 L
387.15 109.667 L
387.307 100.333 L
387.463 100.333 L
387.62 100.333 L
387.777 109.667 L
387.933 100.333 L
388.09 109.667 L
388.247 100.333 L
388.403 100.333 L
388.56 109.667 L
388.717 109.667 L
388.873 109.667 L
389.03 100.333 L
389.187 100.333 L
389.343 100.333 L
389.5 100.333 L
389.657 109.667 L
389.813 109.667 L
389.97 100.333 L
390.127 109.667 L
390.283 100.333 L
390.44 100.333 L
390.597 109.667 L
390.753 100.333 L
390.91 100.333 L
391.067 100.333 L
391.223 109.667 L
391.38 100.333 L
391.537 109.667 L
391.693 100.333 L
391.85 100.333 L
392.007 109.667 L
392.163 100.333 L
392.32 109.667 L
392.477 109.667 L
392.633 109.667 L
392.79 100.333 L
392.947 109.667 L
393.103 100.333 L
393.26 100.333 L
393.417 109.667 L
393.573 109.667 L
393.73 109.667 L
393.887 109.667 L
394.043 109.667 L
394.2 100.333 L
394.357 100.333 L
394.513 100.333 L
394.67 109.667 L
394.827 109.667 L
394.983 109.667 L
395.14 109.667 L
395.297 100.333 L
395.453 100.333 L
395.61 109.667 L
395.767 109.667 L
395.923 100.333 L
396.08 109.667 L
396.237 100.333 L
396.393 100.333 L
396.55 109.667 L
396.707 109.667 L
396.863 100.333 L
397.02 109.667 L
397.177 109.667 L
397.333 100.333 L
397.49 100.333 L
397.647 100.333 L
397.803 109.667 L
397.96 100.333 L
398.117 109.667 L
398.273 109.667 L
398.43 109.667 L
398.587 100.333 L
398.743 109.667 L
398.9 109.667 L
399.057 100.333 L
399.213 109.667 L
399.37 109.667 L
399.527 100.333 L
399.683 109.667 L
399.84 100.333 L
399.997 109.667 L
400.153 100.333 L
400.31 100.333 L
400.467 100.333 L
400.623 109.667 L
400.78 100.333 L
400.937 109.667 L
401.093 100.333 L
401.25 109.667 L
401.407 100.333 L
401.563 100.333 L
401.72 100.333 L
401.877 109.667 L
402.033 100.333 L
402.19 100.333 L
402.347 100.333 L
402.503 109.667 L
402.66 100.333 L
402.817 100.333 L
402.973 109.667 L
403.13 100.333 L
403.287 109.667 L
403.443 109.667 L
403.6 100.333 L
403.757 109.667 L
403.913 100.333 L
404.07 109.667 L
404.227 109.667 L
404.383 100.333 L
404.54 100.333 L
404.697 100.333 L
404.853 109.667 L
405.01 100.333 L
405.167 109.667 L
405.323 109.667 L
405.48 100.333 L
405.637 100.333 L
405.793 100.333 L
405.95 109.667 L
406.107 109.667 L
406.263 109.667 L
406.42 109.667 L
406.577 109.667 L
406.733 109.667 L
406.89 100.333 L
407.047 100.333 L
407.203 109.667 L
407.36 109.667 L
407.517 100.333 L
407.673 100.333 L
407.83 109.667 L
407.987 100.333 L
408.143 100.333 L
408.3 100.333 L
408.457 109.667 L
408.613 100.333 L
408.77 100.333 L
408.927 109.667 L
409.083 109.667 L
409.24 109.667 L
409.397 109.667 L
409.553 100.333 L
409.71 109.667 L
409.867 100.333 L
410.023 100.333 L
410.18 100.333 L
410.337 109.667 L
410.493 100.333 L
410.65 109.667 L
410.807 109.667 L
410.963 100.333 L
411.12 100.333 L
411.277 100.333 L
411.433 109.667 L
411.59 109.667 L
411.747 100.333 L
411.903 100.333 L
412.06 100.333 L
412.217 100.333 L
412.373 109.667 L
412.53 100.333 L
412.687 100.333 L
412.843 100.333 L
413 109.667 L
413.157 109.667 L
413.313 109.667 L
413.47 100.333 L
413.627 109.667 L
413.783 100.333 L
413.94 109.667 L
414.097 100.333 L
414.253 100.333 L
414.41 109.667 L
414.567 100.333 L
414.723 109.667 L
414.88 100.333 L
415.037 109.667 L
415.193 100.333 L
415.35 100.333 L
415.507 100.333 L
415.663 100.333 L
415.82 100.333 L
415.977 100.333 L
416.133 100.333 L
416.29 100.333 L
416.447 109.667 L
416.603 100.333 L
416.76 109.667 L
416.917 109.667 L
417.073 109.667 L
417.23 109.667 L
417.387 109.667 L
417.543 100.333 L
417.7 109.667 L
417.857 100.333 L
418.013 109.667 L
418.17 109.667 L
418.327 109.667 L
418.483 109.667 L
418.64 100.333 L
418.797 100.333 L
418.953 109.667 L
419.11 109.667 L
419.267 100.333 L
419.423 100.333 L
419.58 109.667 L
419.737 109.667 L
419.893 100.333 L
420.05 100.333 L
420.207 109.667 L
420.363 109.667 L
420.52 100.333 L
420.677 109.667 L
420.833 100.333 L
420.99 109.667 L
421.147 109.667 L
421.303 100.333 L
421.46 100.333 L
421.617 100.333 L
421.773 109.667 L
421.93 100.333 L
422.087 100.333 L
422.243 100.333 L
422.4 100.333 L
422.557 100.333 L
422.713 109.667 L
422.87 100.333 L
423.027 100.333 L
423.183 100.333 L
423.34 109.667 L
423.497 100.333 L
423.653 100.333 L
423.81 109.667 L
423.967 100.333 L
424.123 109.667 L
424.28 109.667 L
424.437 109.667 L
424.593 109.667 L
424.75 109.667 L
424.907 100.333 L
425.063 109.667 L
425.22 109.667 L
425.377 100.333 L
425.533 100.333 L
425.69 109.667 L
425.847 100.333 L
426.003 109.667 L
426.16 109.667 L
426.317 100.333 L
426.473 100.333 L
426.63 109.667 L
426.787 109.667 L
426.943 100.333 L
427.1 109.667 L
427.257 100.333 L
427.413 100.333 L
427.57 100.333 L
427.727 109.667 L
427.883 100.333 L
428.04 109.667 L
428.197 100.333 L
428.353 109.667 L
428.51 109.667 L
428.667 100.333 L
428.823 100.333 L
428.98 100.333 L
429.137 109.667 L
429.293 109.667 L
429.45 100.333 L
429.607 100.333 L
429.763 109.667 L
429.92 100.333 L
430.077 109.667 L
430.233 100.333 L
430.39 109.667 L
430.547 109.667 L
430.703 109.667 L
430.86 109.667 L
431.017 100.333 L
431.173 109.667 L
431.33 109.667 L
431.487 100.333 L
431.643 100.333 L
431.8 100.333 L
431.957 100.333 L
432.113 100.333 L
432.27 109.667 L
432.427 100.333 L
432.583 100.333 L
432.74 100.333 L
432.897 109.667 L
433.053 109.667 L
433.21 109.667 L
433.367 109.667 L
433.523 100.333 L
433.68 109.667 L
433.837 109.667 L
433.993 100.333 L
434.15 100.333 L
434.307 100.333 L
434.463 100.333 L
434.62 100.333 L
434.777 109.667 L
434.933 109.667 L
435.09 109.667 L
435.247 109.667 L
435.403 109.667 L
435.56 109.667 L
435.717 109.667 L
435.873 100.333 L
436.03 109.667 L
436.187 109.667 L
436.343 109.667 L
436.5 109.667 L
436.657 100.333 L
436.813 109.667 L
436.97 109.667 L
437.127 100.333 L
437.283 100.333 L
437.44 100.333 L
437.597 109.667 L
437.753 109.667 L
437.91 109.667 L
438.067 100.333 L
438.223 100.333 L
438.38 109.667 L
438.537 109.667 L
438.693 109.667 L
438.85 100.333 L
439.007 100.333 L
439.163 100.333 L
439.32 109.667 L
439.477 100.333 L
439.633 100.333 L
439.79 100.333 L
439.947 100.333 L
440.103 109.667 L
440.26 109.667 L
440.417 109.667 L
440.573 109.667 L
440.73 109.667 L
440.887 100.333 L
441.043 100.333 L
441.2 100.333 L
441.357 109.667 L
441.513 100.333 L
441.67 109.667 L
441.827 109.667 L
441.983 100.333 L
442.14 109.667 L
442.297 109.667 L
442.453 109.667 L
442.61 109.667 L
442.767 109.667 L
442.923 100.333 L
443.08 100.333 L
443.237 100.333 L
443.393 109.667 L
443.55 109.667 L
443.707 109.667 L
443.863 100.333 L
444.02 100.333 L
444.177 109.667 L
444.333 109.667 L
444.49 100.333 L
444.647 100.333 L
444.803 109.667 L
444.96 100.333 L
445.117 109.667 L
445.273 100.333 L
445.43 109.667 L
445.587 100.333 L
445.743 100.333 L
445.9 109.667 L
446.057 100.333 L
446.213 109.667 L
446.37 100.333 L
446.527 100.333 L
446.683 100.333 L
446.84 100.333 L
446.997 109.667 L
447.153 109.667 L
447.31 109.667 L
447.467 100.333 L
447.623 109.667 L
447.78 109.667 L
447.937 109.667 L
448.093 100.333 L
448.25 109.667 L
448.407 109.667 L
448.563 109.667 L
448.72 100.333 L
448.877 109.667 L
449.033 100.333 L
449.19 109.667 L
449.347 100.333 L
449.503 109.667 L
449.66 109.667 L
449.817 109.667 L
449.973 100.333 L
450.13 100.333 L
450.287 100.333 L
450.443 100.333 L
450.6 109.667 L
450.757 100.333 L
450.913 109.667 L
451.07 109.667 L
451.227 109.667 L
451.383 100.333 L
451.54 109.667 L
451.697 109.667 L
451.853 109.667 L
452.01 100.333 L
452.167 109.667 L
452.323 109.667 L
452.48 100.333 L
452.637 109.667 L
452.793 109.667 L
452.95 100.333 L
453.107 109.667 L
453.263 100.333 L
453.42 109.667 L
453.577 100.333 L
453.733 109.667 L
453.89 100.333 L
454.047 100.333 L
454.203 109.667 L
454.36 100.333 L
454.517 100.333 L
454.673 100.333 L
454.83 109.667 L
454.987 109.667 L
455.143 100.333 L
455.3 109.667 L
455.457 109.667 L
455.613 100.333 L
455.77 109.667 L
455.927 109.667 L
456.083 109.667 L
456.24 109.667 L
456.397 109.667 L
456.553 109.667 L
456.71 109.667 L
456.867 100.333 L
457.023 100.333 L
457.18 109.667 L
457.337 109.667 L
457.493 100.333 L
457.65 109.667 L
457.807 100.333 L
457.963 100.333 L
458.12 109.667 L
458.277 109.667 L
458.433 100.333 L
458.59 100.333 L
458.747 100.333 L
458.903 100.333 L
459.06 109.667 L
459.217 109.667 L
459.373 109.667 L
459.53 100.333 L
459.687 109.667 L
459.843 109.667 L
460 109.667 L
460.157 100.333 L
460.313 109.667 L
460.47 109.667 L
460.627 100.333 L
460.783 100.333 L
460.94 100.333 L
461.097 100.333 L
461.253 109.667 L
461.41 109.667 L
461.567 109.667 L
461.723 109.667 L
461.88 100.333 L
462.037 100.333 L
462.193 109.667 L
462.35 109.667 L
462.507 109.667 L
462.663 109.667 L
462.82 109.667 L
462.977 100.333 L
463.133 100.333 L
463.29 109.667 L
463.447 100.333 L
463.603 109.667 L
463.76 109.667 L
463.917 109.667 L
464.073 109.667 L
464.23 100.333 L
464.387 109.667 L
464.543 109.667 L
464.7 100.333 L
464.857 100.333 L
465.013 109.667 L
465.17 100.333 L
465.327 109.667 L
465.483 109.667 L
465.64 109.667 L
465.797 100.333 L
465.953 109.667 L
466.11 109.667 L
466.267 109.667 L
466.423 100.333 L
466.58 100.333 L
466.737 109.667 L
466.893 109.667 L
467.05 109.667 L
467.207 100.333 L
467.363 100.333 L
467.52 100.333 L
467.677 100.333 L
467.833 109.667 L
467.99 109.667 L
468.147 100.333 L
468.303 109.667 L
468.46 100.333 L
468.617 109.667 L
468.773 100.333 L
468.93 100.333 L
469.087 100.333 L
469.243 109.667 L
469.4 100.333 L
469.557 100.333 L
469.713 100.333 L
469.87 109.667 L
470.027 109.667 L
470.183 109.667 L
470.34 100.333 L
470.497 100.333 L
470.653 109.667 L
470.81 109.667 L
470.967 100.333 L
471.123 100.333 L
471.28 109.667 L
471.437 109.667 L
471.593 109.667 L
471.75 109.667 L
471.907 100.333 L
472.063 109.667 L
472.22 109.667 L
472.377 100.333 L
472.533 100.333 L
472.69 100.333 L
472.847 109.667 L
473.003 109.667 L
473.16 100.333 L
473.317 100.333 L
473.473 100.333 L
473.63 100.333 L
473.787 100.333 L
473.943 100.333 L
474.1 100.333 L
474.257 109.667 L
474.413 100.333 L
474.57 109.667 L
474.727 109.667 L
474.883 100.333 L
475.04 109.667 L
475.197 109.667 L
475.353 109.667 L
475.51 109.667 L
475.667 109.667 L
475.823 100.333 L
475.98 109.667 L
476.137 109.667 L
476.293 109.667 L
476.45 109.667 L
476.607 109.667 L
476.763 100.333 L
476.92 109.667 L
477.077 109.667 L
477.233 109.667 L
477.39 109.667 L
477.547 100.333 L
477.703 100.333 L
477.86 109.667 L
478.017 100.333 L
478.173 109.667 L
478.33 100.333 L
478.487 109.667 L
478.643 109.667 L
478.8 100.333 L
478.957 109.667 L
479.113 109.667 L
479.27 100.333 L
479.427 100.333 L
479.583 109.667 L
479.74 100.333 L
479.897 100.333 L
480.053 100.333 L
480.21 100.333 L
480.367 109.667 L
480.523 100.333 L
480.68 109.667 L
480.837 100.333 L
480.993 109.667 L
481.15 100.333 L
481.307 109.667 L
481.463 109.667 L
481.62 100.333 L
481.777 109.667 L
481.933 100.333 L
482.09 109.667 L
482.247 100.333 L
482.403 100.333 L
482.56 100.333 L
482.717 100.333 L
482.873 109.667 L
483.03 109.667 L
483.187 109.667 L
483.343 100.333 L
483.5 100.333 L
483.657 109.667 L
483.813 100.333 L
483.97 109.667 L
484.127 100.333 L
484.283 100.333 L
484.44 109.667 L
484.597 109.667 L
484.753 109.667 L
484.91 100.333 L
485.067 109.667 L
485.223 100.333 L
485.38 109.667 L
485.537 109.667 L
485.693 100.333 L
485.85 100.333 L
486.007 109.667 L
486.163 100.333 L
486.32 100.333 L
486.477 100.333 L
486.633 109.667 L
486.79 100.333 L
486.947 100.333 L
487.103 100.333 L
487.26 109.667 L
487.417 100.333 L
487.573 100.333 L
487.73 100.333 L
487.887 109.667 L
488.043 100.333 L
488.2 100.333 L
488.357 100.333 L
488.513 109.667 L
488.67 109.667 L
488.827 109.667 L
488.983 100.333 L
489.14 109.667 L
489.297 100.333 L
489.453 100.333 L
489.61 100.333 L
489.767 100.333 L
489.923 109.667 L
490.08 109.667 L
490.237 100.333 L
490.393 100.333 L
490.55 100.333 L
490.707 109.667 L
490.863 100.333 L
491.02 100.333 L
491.177 109.667 L
491.333 100.333 L
491.49 109.667 L
491.647 100.333 L
491.803 109.667 L
491.96 109.667 L
492.117 109.667 L
492.273 100.333 L
492.43 109.667 L
492.587 109.667 L
492.743 109.667 L
492.9 100.333 L
493.057 109.667 L
493.213 100.333 L
493.37 100.333 L
493.527 100.333 L
493.683 109.667 L
493.84 109.667 L
493.997 109.667 L
494.153 100.333 L
494.31 109.667 L
494.467 109.667 L
494.623 100.333 L
494.78 100.333 L
494.937 100.333 L
S
GR
GS
[0.75 0 0 0.75 0 0] CT
1 GC
N
73 372 M
260 372 L
260 232 L
73 232 L
cp
f
GR
GS
[0.75 0 0 0.75 0 0] CT
0.149 GC
2 setlinecap
1 LJ
0.667 LW
N
73 372 M
260 372 L
S
GR
GS
[0.75 0 0 0.75 0 0] CT
0.149 GC
2 setlinecap
1 LJ
0.667 LW
N
73 232 M
260 232 L
S
GR
GS
[0.75 0 0 0.75 0 0] CT
0.149 GC
2 setlinecap
1 LJ
0.667 LW
N
88.583 372 M
88.583 370.13 L
S
GR
GS
[0.75 0 0 0.75 0 0] CT
0.149 GC
2 setlinecap
1 LJ
0.667 LW
N
166.5 372 M
166.5 370.13 L
S
GR
GS
[0.75 0 0 0.75 0 0] CT
0.149 GC
2 setlinecap
1 LJ
0.667 LW
N
244.417 372 M
244.417 370.13 L
S
GR
GS
[0.75 0 0 0.75 0 0] CT
0.149 GC
2 setlinecap
1 LJ
0.667 LW
N
88.583 232 M
88.583 233.87 L
S
GR
GS
[0.75 0 0 0.75 0 0] CT
0.149 GC
2 setlinecap
1 LJ
0.667 LW
N
166.5 232 M
166.5 233.87 L
S
GR
GS
[0.75 0 0 0.75 0 0] CT
0.149 GC
2 setlinecap
1 LJ
0.667 LW
N
244.417 232 M
244.417 233.87 L
S
GR
GS
[0.75 0 0 0.75 66.4375 281.8] CT
0.149 GC
/Helvetica 12 F
GS
[1 0 0 1 0 0] CT
-3.5 13 moveto 
1 -1 scale
(0) t 
GR
GR
GS
[0.75 0 0 0.75 124.875 281.8] CT
0.149 GC
/Helvetica 12 F
GS
[1 0 0 1 0 0] CT
-10.5 13 moveto 
1 -1 scale
(500) t 
GR
GR
GS
[0.75 0 0 0.75 183.3125 281.8] CT
0.149 GC
/Helvetica 12 F
GS
[1 0 0 1 0 0] CT
-13.5 13 moveto 
1 -1 scale
(1000) t 
GR
GR
GS
[0.75 0 0 0.75 124.87507 294.3] CT
0.149 GC
/Helvetica 13.2 F
GS
[1 0 0 1 0 0] CT
-48.5 14 moveto 
1 -1 scale
(PRN05 delay 75) t 
GR
GR
GS
[0.75 0 0 0.75 0 0] CT
0.149 GC
2 setlinecap
1 LJ
0.667 LW
N
73 372 M
73 232 L
S
GR
GS
[0.75 0 0 0.75 0 0] CT
0.149 GC
2 setlinecap
1 LJ
0.667 LW
N
260 372 M
260 232 L
S
GR
GS
[0.75 0 0 0.75 0 0] CT
0.149 GC
2 setlinecap
1 LJ
0.667 LW
N
73 348.667 M
74.87 348.667 L
S
GR
GS
[0.75 0 0 0.75 0 0] CT
0.149 GC
2 setlinecap
1 LJ
0.667 LW
N
73 302 M
74.87 302 L
S
GR
GS
[0.75 0 0 0.75 0 0] CT
0.149 GC
2 setlinecap
1 LJ
0.667 LW
N
73 255.333 M
74.87 255.333 L
S
GR
GS
[0.75 0 0 0.75 0 0] CT
0.149 GC
2 setlinecap
1 LJ
0.667 LW
N
260 348.667 M
258.13 348.667 L
S
GR
GS
[0.75 0 0 0.75 0 0] CT
0.149 GC
2 setlinecap
1 LJ
0.667 LW
N
260 302 M
258.13 302 L
S
GR
GS
[0.75 0 0 0.75 0 0] CT
0.149 GC
2 setlinecap
1 LJ
0.667 LW
N
260 255.333 M
258.13 255.333 L
S
GR
GS
[0.75 0 0 0.75 51.95 261.49999] CT
0.149 GC
/Helvetica 12 F
GS
[1 0 0 1 0 0] CT
-18 5 moveto 
1 -1 scale
(-10) t 
GR
GR
GS
[0.75 0 0 0.75 51.95 226.5] CT
0.149 GC
/Helvetica 12 F
GS
[1 0 0 1 0 0] CT
-7 5 moveto 
1 -1 scale
(0) t 
GR
GR
GS
[0.75 0 0 0.75 51.95 191.5] CT
0.149 GC
/Helvetica 12 F
GS
[1 0 0 1 0 0] CT
-14 5 moveto 
1 -1 scale
(10) t 
GR
GR
GS
[0.75 0 0 0.75 0 0] CT
0 0.447 0.741 RC
1 LJ
0.667 LW
N
88.739 306.667 M
88.895 297.333 L
89.051 297.333 L
89.207 297.333 L
89.363 306.667 L
89.518 306.667 L
89.674 297.333 L
89.83 306.667 L
89.986 306.667 L
90.142 306.667 L
90.298 297.333 L
90.453 306.667 L
90.609 297.333 L
90.765 297.333 L
90.921 306.667 L
91.077 306.667 L
91.232 297.333 L
91.388 306.667 L
91.544 306.667 L
91.7 297.333 L
91.856 297.333 L
92.012 297.333 L
92.168 306.667 L
92.323 297.333 L
92.479 306.667 L
92.635 297.333 L
92.791 297.333 L
92.947 297.333 L
93.103 297.333 L
93.258 306.667 L
93.414 297.333 L
93.57 297.333 L
93.726 306.667 L
93.882 306.667 L
94.037 297.333 L
94.193 306.667 L
94.349 306.667 L
94.505 297.333 L
94.661 306.667 L
94.817 306.667 L
94.973 306.667 L
95.128 306.667 L
95.284 297.333 L
95.44 297.333 L
95.596 306.667 L
95.752 306.667 L
95.908 306.667 L
96.063 306.667 L
96.219 306.667 L
96.375 306.667 L
96.531 306.667 L
96.687 306.667 L
96.842 297.333 L
96.998 297.333 L
97.154 297.333 L
97.31 306.667 L
97.466 306.667 L
97.622 306.667 L
97.777 306.667 L
97.933 306.667 L
98.089 306.667 L
98.245 297.333 L
98.401 297.333 L
98.557 297.333 L
98.713 306.667 L
98.868 306.667 L
99.024 297.333 L
99.18 297.333 L
99.336 297.333 L
99.492 297.333 L
99.647 306.667 L
99.803 297.333 L
99.959 297.333 L
100.115 297.333 L
100.271 297.333 L
100.427 306.667 L
100.582 297.333 L
100.738 306.667 L
100.894 306.667 L
101.05 297.333 L
101.206 306.667 L
101.362 306.667 L
101.518 297.333 L
101.673 297.333 L
101.829 306.667 L
101.985 297.333 L
102.141 297.333 L
102.297 306.667 L
102.452 297.333 L
102.608 297.333 L
102.764 297.333 L
102.92 306.667 L
103.076 297.333 L
103.232 297.333 L
103.387 306.667 L
103.543 306.667 L
103.699 297.333 L
103.855 306.667 L
104.011 297.333 L
104.167 297.333 L
104.323 306.667 L
104.478 297.333 L
104.634 297.333 L
104.79 297.333 L
104.946 297.333 L
105.102 306.667 L
105.257 306.667 L
105.413 297.333 L
105.569 297.333 L
105.725 297.333 L
105.881 297.333 L
106.037 306.667 L
106.192 297.333 L
106.348 297.333 L
106.504 297.333 L
106.66 306.667 L
106.816 306.667 L
106.972 297.333 L
107.128 306.667 L
107.283 306.667 L
107.439 297.333 L
107.595 297.333 L
107.751 306.667 L
107.907 297.333 L
108.063 297.333 L
108.218 306.667 L
108.374 297.333 L
108.53 297.333 L
108.686 306.667 L
108.842 306.667 L
108.997 297.333 L
109.153 297.333 L
109.309 297.333 L
109.465 306.667 L
109.621 306.667 L
109.777 306.667 L
109.933 297.333 L
110.088 306.667 L
110.244 306.667 L
110.4 306.667 L
110.556 306.667 L
110.712 306.667 L
110.868 306.667 L
111.023 306.667 L
111.179 297.333 L
111.335 306.667 L
111.491 306.667 L
111.647 297.333 L
111.802 306.667 L
111.958 306.667 L
112.114 297.333 L
112.27 306.667 L
112.426 297.333 L
112.582 306.667 L
112.738 306.667 L
112.893 306.667 L
113.049 297.333 L
113.205 297.333 L
113.361 297.333 L
113.517 297.333 L
113.673 297.333 L
113.828 297.333 L
113.984 297.333 L
114.14 297.333 L
114.296 306.667 L
114.452 306.667 L
114.607 306.667 L
114.763 306.667 L
114.919 297.333 L
115.075 297.333 L
115.231 297.333 L
115.387 306.667 L
115.543 306.667 L
115.698 297.333 L
115.854 306.667 L
116.01 297.333 L
116.166 297.333 L
116.322 306.667 L
116.478 297.333 L
116.633 297.333 L
116.789 306.667 L
116.945 297.333 L
117.101 306.667 L
117.257 306.667 L
117.412 306.667 L
117.568 297.333 L
117.724 297.333 L
117.88 297.333 L
118.036 306.667 L
118.192 306.667 L
118.348 297.333 L
118.503 297.333 L
118.659 297.333 L
118.815 306.667 L
118.971 297.333 L
119.127 297.333 L
119.283 297.333 L
119.438 306.667 L
119.594 297.333 L
119.75 306.667 L
119.906 306.667 L
120.062 306.667 L
120.217 297.333 L
120.373 297.333 L
120.529 306.667 L
120.685 297.333 L
120.841 297.333 L
120.997 297.333 L
121.152 306.667 L
121.308 306.667 L
121.464 306.667 L
121.62 297.333 L
121.776 306.667 L
121.932 297.333 L
122.088 306.667 L
122.243 306.667 L
122.399 306.667 L
122.555 306.667 L
122.711 306.667 L
122.867 306.667 L
123.022 297.333 L
123.178 306.667 L
123.334 297.333 L
123.49 297.333 L
123.646 306.667 L
123.802 297.333 L
123.957 306.667 L
124.113 306.667 L
124.269 306.667 L
124.425 306.667 L
124.581 297.333 L
124.737 306.667 L
124.893 306.667 L
125.048 297.333 L
125.204 297.333 L
125.36 306.667 L
125.516 297.333 L
125.672 306.667 L
125.827 297.333 L
125.983 297.333 L
126.139 297.333 L
126.295 297.333 L
126.451 306.667 L
126.607 306.667 L
126.762 306.667 L
126.918 297.333 L
127.074 297.333 L
127.23 297.333 L
127.386 297.333 L
127.542 297.333 L
127.698 297.333 L
127.853 306.667 L
128.009 306.667 L
128.165 306.667 L
128.321 297.333 L
128.477 306.667 L
128.633 306.667 L
128.788 297.333 L
128.944 297.333 L
129.1 306.667 L
129.256 306.667 L
129.412 297.333 L
129.568 297.333 L
129.723 306.667 L
129.879 306.667 L
130.035 306.667 L
130.191 306.667 L
130.347 306.667 L
130.503 306.667 L
130.658 306.667 L
130.814 297.333 L
130.97 306.667 L
131.126 297.333 L
131.282 297.333 L
131.438 297.333 L
131.593 297.333 L
131.749 297.333 L
131.905 297.333 L
132.061 297.333 L
132.217 297.333 L
132.372 297.333 L
132.528 306.667 L
132.684 306.667 L
132.84 297.333 L
132.996 297.333 L
133.152 306.667 L
133.307 306.667 L
133.463 306.667 L
133.619 297.333 L
133.775 306.667 L
133.931 297.333 L
134.087 297.333 L
134.242 306.667 L
134.398 306.667 L
134.554 297.333 L
134.71 306.667 L
134.866 297.333 L
135.022 297.333 L
135.178 297.333 L
135.333 297.333 L
135.489 297.333 L
135.645 306.667 L
135.801 306.667 L
135.957 297.333 L
136.113 306.667 L
136.268 306.667 L
136.424 297.333 L
136.58 306.667 L
136.736 306.667 L
136.892 297.333 L
137.048 306.667 L
137.203 297.333 L
137.359 306.667 L
137.515 297.333 L
137.671 306.667 L
137.827 306.667 L
137.982 297.333 L
138.138 297.333 L
138.294 297.333 L
138.45 297.333 L
138.606 297.333 L
138.762 306.667 L
138.917 297.333 L
139.073 306.667 L
139.229 297.333 L
139.385 306.667 L
139.541 297.333 L
139.697 297.333 L
139.852 306.667 L
140.008 306.667 L
140.164 297.333 L
140.32 306.667 L
140.476 297.333 L
140.632 297.333 L
140.788 306.667 L
140.943 297.333 L
141.099 306.667 L
141.255 306.667 L
141.411 297.333 L
141.567 306.667 L
141.723 306.667 L
141.878 297.333 L
142.034 297.333 L
142.19 306.667 L
142.346 306.667 L
142.502 306.667 L
142.658 306.667 L
142.813 306.667 L
142.969 306.667 L
143.125 306.667 L
143.281 297.333 L
143.437 297.333 L
143.592 306.667 L
143.748 306.667 L
143.904 306.667 L
144.06 306.667 L
144.216 306.667 L
144.372 306.667 L
144.527 297.333 L
144.683 306.667 L
144.839 297.333 L
144.995 297.333 L
145.151 297.333 L
145.307 306.667 L
145.462 297.333 L
145.618 297.333 L
145.774 306.667 L
145.93 297.333 L
146.086 306.667 L
146.242 306.667 L
146.398 306.667 L
146.553 306.667 L
146.709 297.333 L
146.865 306.667 L
147.021 306.667 L
147.177 306.667 L
147.333 297.333 L
147.488 297.333 L
147.644 297.333 L
147.8 297.333 L
147.956 306.667 L
148.112 297.333 L
148.268 297.333 L
148.423 306.667 L
148.579 297.333 L
148.735 297.333 L
148.891 306.667 L
149.047 297.333 L
149.202 306.667 L
149.358 306.667 L
149.514 306.667 L
149.67 297.333 L
149.826 297.333 L
149.982 306.667 L
150.137 297.333 L
150.293 297.333 L
150.449 306.667 L
150.605 306.667 L
150.761 306.667 L
150.917 306.667 L
151.072 297.333 L
151.228 297.333 L
151.384 297.333 L
151.54 306.667 L
151.696 297.333 L
151.852 306.667 L
152.008 306.667 L
152.163 297.333 L
152.319 306.667 L
152.475 306.667 L
152.631 306.667 L
152.787 306.667 L
152.943 297.333 L
153.098 297.333 L
153.254 297.333 L
153.41 306.667 L
153.566 306.667 L
153.722 306.667 L
153.878 306.667 L
154.033 297.333 L
154.189 297.333 L
154.345 306.667 L
154.501 306.667 L
154.657 297.333 L
154.813 297.333 L
154.968 306.667 L
155.124 306.667 L
155.28 306.667 L
155.436 297.333 L
155.592 306.667 L
155.747 306.667 L
155.903 306.667 L
156.059 306.667 L
156.215 297.333 L
156.371 306.667 L
156.527 297.333 L
156.682 306.667 L
156.838 306.667 L
156.994 297.333 L
157.15 306.667 L
157.306 306.667 L
157.462 306.667 L
157.617 306.667 L
157.773 306.667 L
157.929 297.333 L
158.085 306.667 L
158.241 306.667 L
158.397 297.333 L
158.553 297.333 L
158.708 306.667 L
158.864 297.333 L
159.02 306.667 L
159.176 306.667 L
159.332 297.333 L
159.488 306.667 L
159.643 297.333 L
159.799 306.667 L
159.955 306.667 L
160.111 306.667 L
160.267 297.333 L
160.423 306.667 L
160.578 297.333 L
160.734 297.333 L
160.89 306.667 L
161.046 297.333 L
161.202 297.333 L
161.357 306.667 L
161.513 297.333 L
161.669 306.667 L
161.825 297.333 L
161.981 306.667 L
162.137 297.333 L
162.292 306.667 L
162.448 297.333 L
162.604 306.667 L
162.76 297.333 L
162.916 306.667 L
163.072 306.667 L
163.227 306.667 L
163.383 297.333 L
163.539 297.333 L
163.695 297.333 L
163.851 306.667 L
164.007 297.333 L
164.163 306.667 L
164.318 297.333 L
164.474 297.333 L
164.63 297.333 L
164.786 306.667 L
164.942 297.333 L
165.098 297.333 L
165.253 297.333 L
165.409 306.667 L
165.565 306.667 L
165.721 306.667 L
165.877 306.667 L
166.033 297.333 L
166.188 306.667 L
166.344 297.333 L
166.5 297.333 L
166.656 306.667 L
166.812 306.667 L
166.967 297.333 L
167.123 306.667 L
167.279 297.333 L
167.435 306.667 L
167.591 297.333 L
167.747 306.667 L
167.902 297.333 L
168.058 297.333 L
168.214 297.333 L
168.37 297.333 L
168.526 297.333 L
168.682 297.333 L
168.837 297.333 L
168.993 297.333 L
169.149 297.333 L
169.305 306.667 L
169.461 306.667 L
169.617 306.667 L
169.773 297.333 L
169.928 306.667 L
170.084 306.667 L
170.24 297.333 L
170.396 297.333 L
170.552 297.333 L
170.708 297.333 L
170.863 297.333 L
171.019 297.333 L
171.175 306.667 L
171.331 306.667 L
171.487 297.333 L
171.643 306.667 L
171.798 306.667 L
171.954 297.333 L
172.11 306.667 L
172.266 306.667 L
172.422 297.333 L
172.577 306.667 L
172.733 306.667 L
172.889 306.667 L
173.045 306.667 L
173.201 306.667 L
173.357 306.667 L
173.512 306.667 L
173.668 297.333 L
173.824 297.333 L
173.98 306.667 L
174.136 297.333 L
174.292 297.333 L
174.447 306.667 L
174.603 297.333 L
174.759 297.333 L
174.915 297.333 L
175.071 306.667 L
175.227 306.667 L
175.383 306.667 L
175.538 306.667 L
175.694 297.333 L
175.85 306.667 L
176.006 297.333 L
176.162 306.667 L
176.318 297.333 L
176.473 297.333 L
176.629 297.333 L
176.785 297.333 L
176.941 306.667 L
177.097 297.333 L
177.253 297.333 L
177.408 306.667 L
177.564 297.333 L
177.72 297.333 L
177.876 297.333 L
178.032 297.333 L
178.188 297.333 L
178.343 306.667 L
178.499 306.667 L
178.655 306.667 L
178.811 306.667 L
178.967 297.333 L
179.122 306.667 L
179.278 306.667 L
179.434 297.333 L
179.59 297.333 L
179.746 306.667 L
179.902 306.667 L
180.057 297.333 L
180.213 297.333 L
180.369 297.333 L
180.525 306.667 L
180.681 297.333 L
180.837 297.333 L
180.992 297.333 L
181.148 297.333 L
181.304 306.667 L
181.46 306.667 L
181.616 306.667 L
181.772 297.333 L
181.928 297.333 L
182.083 297.333 L
182.239 297.333 L
182.395 297.333 L
182.551 306.667 L
182.707 297.333 L
182.863 306.667 L
183.018 297.333 L
183.174 306.667 L
183.33 297.333 L
183.486 306.667 L
183.642 306.667 L
183.798 297.333 L
183.953 297.333 L
184.109 297.333 L
184.265 306.667 L
184.421 297.333 L
184.577 306.667 L
184.732 306.667 L
184.888 297.333 L
185.044 297.333 L
185.2 297.333 L
185.356 306.667 L
185.512 297.333 L
185.667 306.667 L
185.823 306.667 L
185.979 306.667 L
186.135 306.667 L
186.291 306.667 L
186.447 297.333 L
186.602 297.333 L
186.758 297.333 L
186.914 306.667 L
187.07 297.333 L
187.226 306.667 L
187.382 306.667 L
187.538 297.333 L
187.693 297.333 L
187.849 297.333 L
188.005 306.667 L
188.161 306.667 L
188.317 297.333 L
188.473 297.333 L
188.628 297.333 L
188.784 297.333 L
188.94 297.333 L
189.096 306.667 L
189.252 297.333 L
189.408 306.667 L
189.563 306.667 L
189.719 306.667 L
189.875 297.333 L
190.031 297.333 L
190.187 297.333 L
190.342 306.667 L
190.498 297.333 L
190.654 297.333 L
190.81 297.333 L
190.966 297.333 L
191.122 306.667 L
191.277 306.667 L
191.433 306.667 L
191.589 297.333 L
191.745 297.333 L
191.901 297.333 L
192.057 306.667 L
192.212 306.667 L
192.368 306.667 L
192.524 297.333 L
192.68 306.667 L
192.836 306.667 L
192.992 297.333 L
193.148 306.667 L
193.303 306.667 L
193.459 306.667 L
193.615 306.667 L
193.771 297.333 L
193.927 306.667 L
194.083 297.333 L
194.238 297.333 L
194.394 297.333 L
194.55 306.667 L
194.706 297.333 L
194.862 297.333 L
195.018 297.333 L
195.173 306.667 L
195.329 297.333 L
195.485 297.333 L
195.641 306.667 L
195.797 306.667 L
195.952 297.333 L
196.108 306.667 L
196.264 306.667 L
196.42 297.333 L
196.576 306.667 L
196.732 306.667 L
196.887 297.333 L
197.043 297.333 L
197.199 306.667 L
197.355 306.667 L
197.511 297.333 L
197.667 297.333 L
197.822 306.667 L
197.978 306.667 L
198.134 306.667 L
198.29 306.667 L
198.446 306.667 L
198.602 306.667 L
198.758 297.333 L
198.913 297.333 L
199.069 306.667 L
199.225 297.333 L
199.381 297.333 L
199.537 306.667 L
199.693 297.333 L
199.848 306.667 L
200.004 306.667 L
200.16 306.667 L
200.316 297.333 L
200.472 297.333 L
200.628 297.333 L
200.783 306.667 L
200.939 297.333 L
201.095 306.667 L
201.251 297.333 L
201.407 297.333 L
201.563 297.333 L
201.718 306.667 L
201.874 297.333 L
202.03 306.667 L
202.186 297.333 L
202.342 306.667 L
202.497 306.667 L
202.653 306.667 L
202.809 297.333 L
202.965 297.333 L
203.121 297.333 L
203.277 306.667 L
203.432 306.667 L
203.588 306.667 L
203.744 306.667 L
203.9 306.667 L
204.056 306.667 L
204.212 297.333 L
204.367 297.333 L
204.523 306.667 L
204.679 297.333 L
204.835 306.667 L
204.991 306.667 L
205.147 306.667 L
205.303 306.667 L
205.458 297.333 L
205.614 297.333 L
205.77 297.333 L
205.926 306.667 L
206.082 306.667 L
206.238 306.667 L
206.393 306.667 L
206.549 297.333 L
206.705 306.667 L
206.861 297.333 L
207.017 306.667 L
207.173 297.333 L
207.328 306.667 L
207.484 306.667 L
207.64 306.667 L
207.796 306.667 L
207.952 306.667 L
208.107 306.667 L
208.263 297.333 L
208.419 297.333 L
208.575 297.333 L
208.731 297.333 L
208.887 297.333 L
209.042 297.333 L
209.198 306.667 L
209.354 306.667 L
209.51 297.333 L
209.666 297.333 L
209.822 306.667 L
209.977 297.333 L
210.133 297.333 L
210.289 297.333 L
210.445 297.333 L
210.601 306.667 L
210.757 297.333 L
210.913 297.333 L
211.068 306.667 L
211.224 297.333 L
211.38 306.667 L
211.536 297.333 L
211.692 306.667 L
211.848 297.333 L
212.003 306.667 L
212.159 297.333 L
212.315 306.667 L
212.471 306.667 L
212.627 297.333 L
212.783 306.667 L
212.938 306.667 L
213.094 306.667 L
213.25 297.333 L
213.406 297.333 L
213.562 306.667 L
213.717 306.667 L
213.873 306.667 L
214.029 306.667 L
214.185 306.667 L
214.341 306.667 L
214.497 306.667 L
214.652 306.667 L
214.808 297.333 L
214.964 297.333 L
215.12 306.667 L
215.276 306.667 L
215.432 297.333 L
215.587 306.667 L
215.743 306.667 L
215.899 297.333 L
216.055 306.667 L
216.211 297.333 L
216.367 306.667 L
216.523 297.333 L
216.678 297.333 L
216.834 297.333 L
216.99 306.667 L
217.146 297.333 L
217.302 306.667 L
217.458 306.667 L
217.613 297.333 L
217.769 297.333 L
217.925 297.333 L
218.081 297.333 L
218.237 297.333 L
218.393 306.667 L
218.548 306.667 L
218.704 297.333 L
218.86 306.667 L
219.016 306.667 L
219.172 297.333 L
219.327 297.333 L
219.483 306.667 L
219.639 306.667 L
219.795 297.333 L
219.951 297.333 L
220.107 306.667 L
220.262 297.333 L
220.418 306.667 L
220.574 306.667 L
220.73 297.333 L
220.886 306.667 L
221.042 297.333 L
221.197 306.667 L
221.353 306.667 L
221.509 306.667 L
221.665 297.333 L
221.821 297.333 L
221.977 306.667 L
222.133 297.333 L
222.288 306.667 L
222.444 297.333 L
222.6 306.667 L
222.756 297.333 L
222.912 306.667 L
223.068 306.667 L
223.223 297.333 L
223.379 297.333 L
223.535 297.333 L
223.691 297.333 L
223.847 306.667 L
224.003 306.667 L
224.158 306.667 L
224.314 306.667 L
224.47 306.667 L
224.626 306.667 L
224.782 297.333 L
224.938 297.333 L
225.093 297.333 L
225.249 297.333 L
225.405 297.333 L
225.561 306.667 L
225.717 306.667 L
225.872 297.333 L
226.028 306.667 L
226.184 306.667 L
226.34 306.667 L
226.496 297.333 L
226.652 297.333 L
226.807 297.333 L
226.963 306.667 L
227.119 297.333 L
227.275 306.667 L
227.431 297.333 L
227.587 306.667 L
227.742 297.333 L
227.898 306.667 L
228.054 297.333 L
228.21 297.333 L
228.366 306.667 L
228.522 306.667 L
228.678 306.667 L
228.833 297.333 L
228.989 306.667 L
229.145 297.333 L
229.301 297.333 L
229.457 297.333 L
229.613 306.667 L
229.768 306.667 L
229.924 297.333 L
230.08 297.333 L
230.236 297.333 L
230.392 297.333 L
230.548 306.667 L
230.703 297.333 L
230.859 306.667 L
231.015 297.333 L
231.171 297.333 L
231.327 306.667 L
231.482 297.333 L
231.638 306.667 L
231.794 297.333 L
231.95 306.667 L
232.106 306.667 L
232.262 297.333 L
232.417 297.333 L
232.573 306.667 L
232.729 297.333 L
232.885 306.667 L
233.041 306.667 L
233.197 306.667 L
233.352 306.667 L
233.508 306.667 L
233.664 297.333 L
233.82 306.667 L
233.976 306.667 L
234.132 297.333 L
234.288 297.333 L
234.443 306.667 L
234.599 297.333 L
234.755 306.667 L
234.911 297.333 L
235.067 306.667 L
235.223 306.667 L
235.378 297.333 L
235.534 297.333 L
235.69 297.333 L
235.846 306.667 L
236.002 306.667 L
236.158 297.333 L
236.313 306.667 L
236.469 297.333 L
236.625 306.667 L
236.781 306.667 L
236.937 297.333 L
237.092 306.667 L
237.248 297.333 L
237.404 297.333 L
237.56 306.667 L
237.716 297.333 L
237.872 297.333 L
238.027 306.667 L
238.183 306.667 L
238.339 306.667 L
238.495 297.333 L
238.651 306.667 L
238.807 306.667 L
238.962 306.667 L
239.118 297.333 L
239.274 297.333 L
239.43 306.667 L
239.586 297.333 L
239.742 297.333 L
239.898 306.667 L
240.053 306.667 L
240.209 306.667 L
240.365 297.333 L
240.521 306.667 L
240.677 297.333 L
240.833 306.667 L
240.988 297.333 L
241.144 297.333 L
241.3 297.333 L
241.456 306.667 L
241.612 306.667 L
241.768 306.667 L
241.923 297.333 L
242.079 297.333 L
242.235 297.333 L
242.391 297.333 L
242.547 306.667 L
242.702 297.333 L
242.858 306.667 L
243.014 297.333 L
243.17 306.667 L
243.326 297.333 L
243.482 297.333 L
243.637 297.333 L
243.793 306.667 L
243.949 297.333 L
244.105 297.333 L
244.261 297.333 L
244.417 297.333 L
244.572 297.333 L
244.728 306.667 L
244.884 306.667 L
245.04 297.333 L
245.196 297.333 L
245.352 306.667 L
245.508 297.333 L
245.663 297.333 L
245.819 297.333 L
245.975 297.333 L
246.131 297.333 L
246.287 306.667 L
246.443 297.333 L
246.598 306.667 L
246.754 297.333 L
246.91 306.667 L
247.066 306.667 L
247.222 306.667 L
247.378 297.333 L
247.533 297.333 L
247.689 297.333 L
247.845 297.333 L
248.001 297.333 L
S
GR
GS
[0.75 0 0 0.75 0 0] CT
1 GC
N
319 372 M
507 372 L
507 232 L
319 232 L
cp
f
GR
GS
[0.75 0 0 0.75 0 0] CT
0.149 GC
2 setlinecap
1 LJ
0.667 LW
N
319 372 M
507 372 L
S
GR
GS
[0.75 0 0 0.75 0 0] CT
0.149 GC
2 setlinecap
1 LJ
0.667 LW
N
319 232 M
507 232 L
S
GR
GS
[0.75 0 0 0.75 0 0] CT
0.149 GC
2 setlinecap
1 LJ
0.667 LW
N
334.667 372 M
334.667 370.12 L
S
GR
GS
[0.75 0 0 0.75 0 0] CT
0.149 GC
2 setlinecap
1 LJ
0.667 LW
N
413 372 M
413 370.12 L
S
GR
GS
[0.75 0 0 0.75 0 0] CT
0.149 GC
2 setlinecap
1 LJ
0.667 LW
N
491.333 372 M
491.333 370.12 L
S
GR
GS
[0.75 0 0 0.75 0 0] CT
0.149 GC
2 setlinecap
1 LJ
0.667 LW
N
334.667 232 M
334.667 233.88 L
S
GR
GS
[0.75 0 0 0.75 0 0] CT
0.149 GC
2 setlinecap
1 LJ
0.667 LW
N
413 232 M
413 233.88 L
S
GR
GS
[0.75 0 0 0.75 0 0] CT
0.149 GC
2 setlinecap
1 LJ
0.667 LW
N
491.333 232 M
491.333 233.88 L
S
GR
GS
[0.75 0 0 0.75 250.99999 281.8] CT
0.149 GC
/Helvetica 12 F
GS
[1 0 0 1 0 0] CT
-3.5 13 moveto 
1 -1 scale
(0) t 
GR
GR
GS
[0.75 0 0 0.75 309.75 281.8] CT
0.149 GC
/Helvetica 12 F
GS
[1 0 0 1 0 0] CT
-10.5 13 moveto 
1 -1 scale
(500) t 
GR
GR
GS
[0.75 0 0 0.75 368.50001 281.8] CT
0.149 GC
/Helvetica 12 F
GS
[1 0 0 1 0 0] CT
-13.5 13 moveto 
1 -1 scale
(1000) t 
GR
GR
GS
[0.75 0 0 0.75 309.75007 294.3] CT
0.149 GC
/Helvetica 13.2 F
GS
[1 0 0 1 0 0] CT
-44 14 moveto 
1 -1 scale
(Random Noise) t 
GR
GR
GS
[0.75 0 0 0.75 0 0] CT
0.149 GC
2 setlinecap
1 LJ
0.667 LW
N
319 372 M
319 232 L
S
GR
GS
[0.75 0 0 0.75 0 0] CT
0.149 GC
2 setlinecap
1 LJ
0.667 LW
N
507 372 M
507 232 L
S
GR
GS
[0.75 0 0 0.75 0 0] CT
0.149 GC
2 setlinecap
1 LJ
0.667 LW
N
319 348.667 M
320.88 348.667 L
S
GR
GS
[0.75 0 0 0.75 0 0] CT
0.149 GC
2 setlinecap
1 LJ
0.667 LW
N
319 302 M
320.88 302 L
S
GR
GS
[0.75 0 0 0.75 0 0] CT
0.149 GC
2 setlinecap
1 LJ
0.667 LW
N
319 255.333 M
320.88 255.333 L
S
GR
GS
[0.75 0 0 0.75 0 0] CT
0.149 GC
2 setlinecap
1 LJ
0.667 LW
N
507 348.667 M
505.12 348.667 L
S
GR
GS
[0.75 0 0 0.75 0 0] CT
0.149 GC
2 setlinecap
1 LJ
0.667 LW
N
507 302 M
505.12 302 L
S
GR
GS
[0.75 0 0 0.75 0 0] CT
0.149 GC
2 setlinecap
1 LJ
0.667 LW
N
507 255.333 M
505.12 255.333 L
S
GR
GS
[0.75 0 0 0.75 236.45 261.49999] CT
0.149 GC
/Helvetica 12 F
GS
[1 0 0 1 0 0] CT
-18 5 moveto 
1 -1 scale
(-10) t 
GR
GR
GS
[0.75 0 0 0.75 236.45 226.5] CT
0.149 GC
/Helvetica 12 F
GS
[1 0 0 1 0 0] CT
-7 5 moveto 
1 -1 scale
(0) t 
GR
GR
GS
[0.75 0 0 0.75 236.45 191.5] CT
0.149 GC
/Helvetica 12 F
GS
[1 0 0 1 0 0] CT
-14 5 moveto 
1 -1 scale
(10) t 
GR
GR
GS
[0.75 0 0 0.75 0 0] CT
0 0.447 0.741 RC
1 LJ
0.667 LW
N
334.823 326.41 M
334.98 310.094 L
335.137 295.604 L
335.293 235.203 L
335.45 250.304 L
335.607 327.198 L
335.763 245.348 L
335.92 288.459 L
336.077 303.177 L
336.233 288.658 L
336.39 305.826 L
336.547 304.317 L
336.703 274.192 L
336.86 275.698 L
337.017 275.546 L
337.173 289.465 L
337.33 324.54 L
337.487 288.612 L
337.643 271.569 L
337.8 292.874 L
337.957 282.686 L
338.113 288.431 L
338.27 307.664 L
338.427 296.514 L
338.583 316.696 L
338.74 285.417 L
338.897 323.412 L
339.053 321.952 L
339.21 317.111 L
339.367 356.96 L
339.523 275.15 L
339.68 295.93 L
339.837 316.092 L
339.993 276.421 L
340.15 333.948 L
340.307 303.909 L
340.463 306.507 L
340.62 296.041 L
340.777 296.16 L
340.933 318.144 L
341.09 302.561 L
341.247 305.078 L
341.403 290.283 L
341.56 281.592 L
341.717 281.294 L
341.873 318.122 L
342.03 300.556 L
342.187 324.664 L
342.343 322.785 L
342.5 302.128 L
342.657 273.391 L
342.813 316.367 L
342.97 295.068 L
343.127 306.211 L
343.283 281.143 L
343.44 322.329 L
343.597 301.392 L
343.753 291.686 L
343.91 281.455 L
344.067 273.175 L
344.223 300.396 L
344.38 329.843 L
344.537 315.856 L
344.693 321.816 L
344.85 258.125 L
345.007 313.491 L
345.163 288.036 L
345.32 305.592 L
345.477 285.413 L
345.633 316.277 L
345.79 328.176 L
345.947 328.551 L
346.103 292.887 L
346.26 305.311 L
346.417 305.66 L
346.573 275.506 L
346.73 296.557 L
346.887 298.308 L
347.043 272.363 L
347.2 317.017 L
347.357 288.996 L
347.513 286.412 L
347.67 306.549 L
347.827 297.974 L
347.983 323.762 L
348.14 323.428 L
348.297 300.042 L
348.453 288.518 L
348.61 253.738 L
348.767 314.449 L
348.923 298.503 L
349.08 303.54 L
349.237 338.083 L
349.393 310.194 L
349.55 335.501 L
349.707 286.313 L
349.863 318.577 L
350.02 300.132 L
350.177 312.165 L
350.333 296.334 L
350.49 313.206 L
350.647 292.854 L
350.803 288.199 L
350.96 270.045 L
351.117 305.624 L
351.273 341.916 L
351.43 317.672 L
351.587 276.714 L
351.743 322.014 L
351.9 284.062 L
352.057 299.684 L
352.213 275.182 L
352.37 338.603 L
352.527 305.69 L
352.683 324.546 L
352.84 247.717 L
352.997 286.596 L
353.153 276.259 L
353.31 321.753 L
353.467 310.747 L
353.623 307.086 L
353.78 281.496 L
353.937 307.187 L
354.093 288.905 L
354.25 340.301 L
354.407 308.605 L
354.563 317.374 L
354.72 331.438 L
354.877 292.518 L
355.033 296.736 L
355.19 301.375 L
355.347 326.895 L
355.503 280.953 L
355.66 295.463 L
355.817 307.583 L
355.973 301.573 L
356.13 306.891 L
356.287 334.671 L
356.443 307.332 L
356.6 317.519 L
356.757 320.279 L
356.913 323.586 L
357.07 311.96 L
357.227 339.383 L
357.383 284.001 L
357.54 292.292 L
357.697 302.374 L
357.853 302.649 L
358.01 316.899 L
358.167 282.985 L
358.323 304.487 L
358.48 315.338 L
358.637 276.774 L
358.793 306.196 L
358.95 312.995 L
359.107 307.483 L
359.263 317.828 L
359.42 322.909 L
359.577 254.848 L
359.733 271.097 L
359.89 296.259 L
360.047 325.466 L
360.203 318.155 L
360.36 305.295 L
360.517 287.227 L
360.673 326.864 L
360.83 345.491 L
360.987 329.05 L
361.143 295.774 L
361.3 294.695 L
361.457 293.569 L
361.613 304.432 L
361.77 298.571 L
361.927 310.888 L
362.083 285.909 L
362.24 327.418 L
362.397 293.506 L
362.553 317.843 L
362.71 308.251 L
362.867 291.681 L
363.023 282.604 L
363.18 322.863 L
363.337 278.468 L
363.493 289.677 L
363.65 303.267 L
363.807 305.644 L
363.963 306.062 L
364.12 307.658 L
364.277 301.57 L
364.433 301.043 L
364.59 286.58 L
364.747 273.496 L
364.903 293.284 L
365.06 305.915 L
365.217 290.33 L
365.373 298.58 L
365.53 321.222 L
365.687 284.281 L
365.843 296.268 L
366 299.477 L
366.157 292.382 L
366.313 297.12 L
366.47 319.574 L
366.627 305.03 L
366.783 304.726 L
366.94 311.931 L
367.097 270.601 L
367.253 318.347 L
367.41 311.031 L
367.567 315.291 L
367.723 323.919 L
367.88 305.588 L
368.037 307.116 L
368.193 273.439 L
368.35 306.648 L
368.507 321.865 L
368.663 272.069 L
368.82 278.953 L
368.977 306.286 L
369.133 330.115 L
369.29 310.3 L
369.447 304.911 L
369.603 296.847 L
369.76 306.875 L
369.917 293.723 L
370.073 294.685 L
370.23 325.346 L
370.387 319.695 L
370.543 315.834 L
370.7 311.479 L
370.857 307.984 L
371.013 301.767 L
371.17 358.545 L
371.327 310.531 L
371.483 278.808 L
371.64 321.912 L
371.797 284.57 L
371.953 295.461 L
372.11 302.541 L
372.267 298.594 L
372.423 331.214 L
372.58 303.578 L
372.737 272.06 L
372.893 300.164 L
373.05 301.228 L
373.207 315.704 L
373.363 302.575 L
373.52 297.663 L
373.677 294.041 L
373.833 308.959 L
373.99 306.414 L
374.147 264.224 L
374.303 344.156 L
374.46 260.384 L
374.617 295.699 L
374.773 283.332 L
374.93 333.064 L
375.087 313.014 L
375.243 307.191 L
375.4 294.109 L
375.557 333.177 L
375.713 293.196 L
375.87 324.64 L
376.027 300.764 L
376.183 289.823 L
376.34 295.895 L
376.497 281.791 L
376.653 283.22 L
376.81 314.15 L
376.967 297.202 L
377.123 319.628 L
377.28 326.673 L
377.437 284.737 L
377.593 301.999 L
377.75 303.025 L
377.907 284.992 L
378.063 290.901 L
378.22 295.463 L
378.377 278.662 L
378.533 284.644 L
378.69 297.524 L
378.847 314.887 L
379.003 314.162 L
379.16 279.747 L
379.317 332.087 L
379.473 302.457 L
379.63 338.378 L
379.787 282.951 L
379.943 285.915 L
380.1 301.978 L
380.257 303.322 L
380.413 348.411 L
380.57 291.151 L
380.727 342.925 L
380.883 345.293 L
381.04 300.508 L
381.197 319.705 L
381.353 294.319 L
381.51 289.363 L
381.667 285.989 L
381.823 314.902 L
381.98 293.612 L
382.137 300.122 L
382.293 286.58 L
382.45 291.992 L
382.607 285.239 L
382.763 304.463 L
382.92 304.748 L
383.077 283.188 L
383.233 341.642 L
383.39 311.419 L
383.547 325.718 L
383.703 309.142 L
383.86 289.891 L
384.017 286.586 L
384.173 320.946 L
384.33 310.793 L
384.487 299.442 L
384.643 307.448 L
384.8 296.366 L
384.957 294.535 L
385.113 319.359 L
385.27 305.301 L
385.427 341.799 L
385.583 280.62 L
385.74 313.743 L
385.897 324.472 L
386.053 306.74 L
386.21 328.668 L
386.367 302.389 L
386.523 312.466 L
386.68 261.348 L
386.837 280.749 L
386.993 348.609 L
387.15 293.762 L
387.307 328.099 L
387.463 306.761 L
387.62 298.931 L
387.777 288.042 L
387.933 307.097 L
388.09 272.576 L
388.247 310.978 L
388.403 295.886 L
388.56 289.592 L
388.717 300.41 L
388.873 285.556 L
389.03 295.967 L
389.187 316.637 L
389.343 335.7 L
389.5 267.306 L
389.657 313.285 L
389.813 300.071 L
389.97 291.488 L
390.127 299.88 L
390.283 318.888 L
390.44 310.731 L
390.597 304.331 L
390.753 274.393 L
390.91 318.069 L
391.067 287.353 L
391.223 296.239 L
391.38 306.365 L
391.537 321.73 L
391.693 307.304 L
391.85 303.618 L
392.007 329.429 L
392.163 298.413 L
392.32 317.349 L
392.477 303.759 L
392.633 295.724 L
392.79 318.887 L
392.947 307.381 L
393.103 295.465 L
393.26 336.269 L
393.417 282.662 L
393.573 256.743 L
393.73 284.091 L
393.887 307.894 L
394.043 293.999 L
394.2 321.338 L
394.357 266.947 L
394.513 284.44 L
394.67 287.303 L
394.827 318.35 L
394.983 296.028 L
395.14 312.422 L
395.297 307.813 L
395.453 312.64 L
395.61 321.147 L
395.767 318.963 L
395.923 305.918 L
396.08 333.712 L
396.237 290.658 L
396.393 304.199 L
396.55 288.949 L
396.707 296.967 L
396.863 292.773 L
397.02 329.685 L
397.177 321.045 L
397.333 310.344 L
397.49 299.953 L
397.647 280.93 L
397.803 307.413 L
397.96 278.451 L
398.117 293.125 L
398.273 280.083 L
398.43 299.63 L
398.587 314.261 L
398.743 329.653 L
398.9 299.098 L
399.057 286.72 L
399.213 307.462 L
399.37 312.095 L
399.527 307.761 L
399.683 322.47 L
399.84 311.203 L
399.997 305.374 L
400.153 301.144 L
400.31 303.191 L
400.467 290.588 L
400.623 299.959 L
400.78 268.138 L
400.937 296.176 L
401.093 268.316 L
401.25 315.498 L
401.407 292.171 L
401.563 306.858 L
401.72 290.797 L
401.877 290.913 L
402.033 342.806 L
402.19 326.771 L
402.347 328.899 L
402.503 294.499 L
402.66 274.556 L
402.817 308.101 L
402.973 286.837 L
403.13 291.817 L
403.287 321.63 L
403.443 294.581 L
403.6 316.035 L
403.757 273.696 L
403.913 302.608 L
404.07 271.461 L
404.227 309.934 L
404.383 290.997 L
404.54 303.172 L
404.697 339.743 L
404.853 320.333 L
405.01 290.566 L
405.167 303.025 L
405.323 322.883 L
405.48 313.692 L
405.637 297.342 L
405.793 320.536 L
405.95 283.801 L
406.107 313.96 L
406.263 268.235 L
406.42 322.158 L
406.577 298.282 L
406.733 330.392 L
406.89 315.508 L
407.047 313.074 L
407.203 294.508 L
407.36 284.414 L
407.517 296.391 L
407.673 308.964 L
407.83 286.778 L
407.987 287.087 L
408.143 299.756 L
408.3 291.337 L
408.457 294.294 L
408.613 320.423 L
408.77 287.821 L
408.927 314.268 L
409.083 313.273 L
409.24 298.697 L
409.397 307.74 L
409.553 304.461 L
409.71 290.887 L
409.867 282.459 L
410.023 305.695 L
410.18 295.883 L
410.337 306.448 L
410.493 297.714 L
410.65 293.787 L
410.807 313.515 L
410.963 296.87 L
411.12 290.779 L
411.277 300.277 L
411.433 269.71 L
411.59 313.36 L
411.747 315.758 L
411.903 334.664 L
412.06 285.004 L
412.217 285.814 L
412.373 303.491 L
412.53 285.228 L
412.687 298.571 L
412.843 296.572 L
413 299.892 L
413.157 293.788 L
413.313 300.102 L
413.47 249.97 L
413.627 323.778 L
413.783 336.614 L
413.94 323.293 L
414.097 322.409 L
414.253 310.094 L
414.41 305.145 L
414.567 306.079 L
414.723 291.895 L
414.88 294.734 L
415.037 287.977 L
415.193 268.806 L
415.35 279.169 L
415.507 325.954 L
415.663 345.474 L
415.82 285.164 L
415.977 336.265 L
416.133 300.754 L
416.29 301.338 L
416.447 260.426 L
416.603 303.292 L
416.76 311.47 L
416.917 297.598 L
417.073 297.412 L
417.23 300.692 L
417.387 313.36 L
417.543 324.822 L
417.7 296.092 L
417.857 327.067 L
418.013 321.267 L
418.17 277.151 L
418.327 309.82 L
418.483 304.619 L
418.64 285.203 L
418.797 307.602 L
418.953 282.785 L
419.11 308.441 L
419.267 283.094 L
419.423 290.252 L
419.58 305.976 L
419.737 318.16 L
419.893 321.471 L
420.05 307.041 L
420.207 310.179 L
420.363 309.629 L
420.52 283.641 L
420.677 307.557 L
420.833 280.651 L
420.99 311.924 L
421.147 283.845 L
421.303 311.749 L
421.46 298.704 L
421.617 283.88 L
421.773 309.727 L
421.93 310.181 L
422.087 264.603 L
422.243 284.248 L
422.4 310.064 L
422.557 289.886 L
422.713 308.721 L
422.87 288.823 L
423.027 275.571 L
423.183 331.951 L
423.34 282.795 L
423.497 274.785 L
423.653 301.114 L
423.81 269.403 L
423.967 299.099 L
424.123 325.093 L
424.28 342.945 L
424.437 308.224 L
424.593 288.681 L
424.75 296.075 L
424.907 294.279 L
425.063 312.772 L
425.22 299.312 L
425.377 332.588 L
425.533 316.188 L
425.69 317.284 L
425.847 292.298 L
426.003 302.264 L
426.16 323.57 L
426.317 302.178 L
426.473 314.876 L
426.63 314.445 L
426.787 285.869 L
426.943 299.883 L
427.1 294.564 L
427.257 285.499 L
427.413 298.635 L
427.57 291.717 L
427.727 289.251 L
427.883 280.149 L
428.04 293.117 L
428.197 275.638 L
428.353 301.578 L
428.51 302.894 L
428.667 270.242 L
428.823 311.515 L
428.98 302.053 L
429.137 284.829 L
429.293 299.204 L
429.45 275.775 L
429.607 282.696 L
429.763 296.557 L
429.92 316.517 L
430.077 291.422 L
430.233 327.809 L
430.39 297.436 L
430.547 286.909 L
430.703 298.023 L
430.86 285.579 L
431.017 263.941 L
431.173 284.753 L
431.33 297.018 L
431.487 290.022 L
431.643 294.058 L
431.8 326.542 L
431.957 309.773 L
432.113 279.139 L
432.27 302.814 L
432.427 291.128 L
432.583 320.788 L
432.74 300.796 L
432.897 290.795 L
433.053 327.415 L
433.21 295.512 L
433.367 305.394 L
433.523 319.538 L
433.68 302.701 L
433.837 337.398 L
433.993 341.722 L
434.15 323.969 L
434.307 320.49 L
434.463 323.897 L
434.62 334.208 L
434.777 296.62 L
434.933 331.758 L
435.09 299.943 L
435.247 287.308 L
435.403 302.042 L
435.56 300.262 L
435.717 309.059 L
435.873 329.677 L
436.03 302.818 L
436.187 284.065 L
436.343 269.553 L
436.5 310.031 L
436.657 332.377 L
436.813 298.895 L
436.97 294.976 L
437.127 306.236 L
437.283 323.446 L
437.44 264.212 L
437.597 346.044 L
437.753 311.519 L
437.91 326.67 L
438.067 313.874 L
438.223 296.067 L
438.38 299.423 L
438.537 315.267 L
438.693 287.496 L
438.85 290.382 L
439.007 289.916 L
439.163 309.945 L
439.32 282.426 L
439.477 289.667 L
439.633 255.17 L
439.79 282.149 L
439.947 280.404 L
440.103 301.011 L
440.26 326.05 L
440.417 308.929 L
440.573 316.145 L
440.73 312.527 L
440.887 291.637 L
441.043 312.393 L
441.2 318.709 L
441.357 309.641 L
441.513 305.003 L
441.67 294.359 L
441.827 319.783 L
441.983 296.077 L
442.14 300.544 L
442.297 277.278 L
442.453 305.979 L
442.61 304.51 L
442.767 323.865 L
442.923 327.858 L
443.08 296.204 L
443.237 306.657 L
443.393 292.597 L
443.55 318.663 L
443.707 266.374 L
443.863 299.718 L
444.02 282.455 L
444.177 306.236 L
444.333 305.033 L
444.49 289.119 L
444.647 291.626 L
444.803 322.911 L
444.96 330.61 L
445.117 322.494 L
445.273 328.428 L
445.43 300.888 L
445.587 309.677 L
445.743 308.87 L
445.9 327.405 L
446.057 287.448 L
446.213 293.798 L
446.37 303.673 L
446.527 282.938 L
446.683 318.314 L
446.84 294.259 L
446.997 295.496 L
447.153 295.481 L
447.31 315.613 L
447.467 295.899 L
447.623 311.611 L
447.78 318.734 L
447.937 324.461 L
448.093 282.627 L
448.25 317.791 L
448.407 305.228 L
448.563 324.561 L
448.72 307.546 L
448.877 362.331 L
449.033 322.29 L
449.19 328.627 L
449.347 320.936 L
449.503 305.981 L
449.66 308.073 L
449.817 265.705 L
449.973 312.673 L
450.13 306.667 L
450.287 331.294 L
450.443 310.911 L
450.6 326.976 L
450.757 301.434 L
450.913 286.076 L
451.07 294.454 L
451.227 315.078 L
451.383 332.437 L
451.54 274.746 L
451.697 263.733 L
451.853 299.751 L
452.01 320.478 L
452.167 279.642 L
452.323 313.063 L
452.48 310.77 L
452.637 285.454 L
452.793 327.857 L
452.95 338.526 L
453.107 294.147 L
453.263 294.52 L
453.42 300.224 L
453.577 292.729 L
453.733 281.798 L
453.89 283.885 L
454.047 312.613 L
454.203 286.881 L
454.36 298.766 L
454.517 311.437 L
454.673 324.275 L
454.83 289.923 L
454.987 308.601 L
455.143 301.133 L
455.3 316.802 L
455.457 330.943 L
455.613 298.797 L
455.77 303.16 L
455.927 279.618 L
456.083 287.035 L
456.24 282.338 L
456.397 315.979 L
456.553 319.478 L
456.71 325.69 L
456.867 292.704 L
457.023 249.937 L
457.18 288.419 L
457.337 316.431 L
457.493 286.383 L
457.65 323.062 L
457.807 328.59 L
457.963 288.608 L
458.12 316.521 L
458.277 296.102 L
458.433 275.745 L
458.59 294.512 L
458.747 284.646 L
458.903 331.975 L
459.06 289.651 L
459.217 262.081 L
459.373 291.899 L
459.53 330.763 L
459.687 305.792 L
459.843 311.333 L
460 294.85 L
460.157 294.309 L
460.313 294.431 L
460.47 308.791 L
460.627 313.186 L
460.783 313.006 L
460.94 286.067 L
461.097 336.589 L
461.253 305.87 L
461.41 296.953 L
461.567 314.185 L
461.723 293.092 L
461.88 303.331 L
462.037 319.515 L
462.193 298.988 L
462.35 307.006 L
462.507 309.651 L
462.663 315.278 L
462.82 300.853 L
462.977 336.461 L
463.133 309.436 L
463.29 312.146 L
463.447 319.022 L
463.603 289.816 L
463.76 315.706 L
463.917 291.908 L
464.073 283.784 L
464.23 304.928 L
464.387 296.814 L
464.543 290.062 L
464.7 303.512 L
464.857 291.904 L
465.013 325.568 L
465.17 281.272 L
465.327 320.472 L
465.483 336.138 L
465.64 276.156 L
465.797 303.171 L
465.953 293.62 L
466.11 308.781 L
466.267 321.051 L
466.423 359.362 L
466.58 290.309 L
466.737 307.351 L
466.893 305.684 L
467.05 294.429 L
467.207 328.495 L
467.363 315.616 L
467.52 280.583 L
467.677 290.84 L
467.833 325.917 L
467.99 343.128 L
468.147 312.663 L
468.303 298.005 L
468.46 284.409 L
468.617 300.25 L
468.773 322.95 L
468.93 296.285 L
469.087 323.884 L
469.243 319.938 L
469.4 314.203 L
469.557 324.949 L
469.713 307.058 L
469.87 318.799 L
470.027 307.333 L
470.183 310.632 L
470.34 309.649 L
470.497 311.399 L
470.653 278.978 L
470.81 290.608 L
470.967 300.897 L
471.123 329.383 L
471.28 332.348 L
471.437 338.675 L
471.593 253.37 L
471.75 283.849 L
471.907 297.203 L
472.063 320.186 L
472.22 323.399 L
472.377 291.777 L
472.533 272.785 L
472.69 333.609 L
472.847 310.389 L
473.003 303.573 L
473.16 339.184 L
473.317 286.297 L
473.473 309.74 L
473.63 266.306 L
473.787 309.297 L
473.943 294.362 L
474.1 323.325 L
474.257 313.664 L
474.413 323.816 L
474.57 294.672 L
474.727 277.699 L
474.883 313.081 L
475.04 293.854 L
475.197 311.415 L
475.353 300.094 L
475.51 279.67 L
475.667 299.755 L
475.823 321.354 L
475.98 317.999 L
476.137 305.171 L
476.293 305.578 L
476.45 318.162 L
476.607 298.628 L
476.763 278.358 L
476.92 306.689 L
477.077 305.819 L
477.233 343.095 L
477.39 316.458 L
477.547 328.008 L
477.703 309.21 L
477.86 292.189 L
478.017 273.566 L
478.173 268.428 L
478.33 304.182 L
478.487 307.977 L
478.643 286.74 L
478.8 292.85 L
478.957 287.715 L
479.113 287.472 L
479.27 329.632 L
479.427 291.913 L
479.583 303.709 L
479.74 316.191 L
479.897 314.947 L
480.053 278.079 L
480.21 317.115 L
480.367 325.087 L
480.523 297.993 L
480.68 264.466 L
480.837 301.523 L
480.993 296.245 L
481.15 319.514 L
481.307 270.748 L
481.463 299.667 L
481.62 292.105 L
481.777 319.772 L
481.933 286.058 L
482.09 294.736 L
482.247 323.579 L
482.403 301.258 L
482.56 310.411 L
482.717 299.961 L
482.873 306.677 L
483.03 305.545 L
483.187 321.281 L
483.343 308.035 L
483.5 287.691 L
483.657 269.433 L
483.813 323.663 L
483.97 257.622 L
484.127 273.513 L
484.283 298.855 L
484.44 307.623 L
484.597 315.042 L
484.753 286.455 L
484.91 314.966 L
485.067 310.622 L
485.223 285.506 L
485.38 293.862 L
485.537 285.261 L
485.693 292.578 L
485.85 309.483 L
486.007 311.592 L
486.163 287.134 L
486.32 314.529 L
486.477 279.849 L
486.633 287.24 L
486.79 296.629 L
486.947 301.94 L
487.103 295.175 L
487.26 236.169 L
487.417 304.099 L
487.573 331.056 L
487.73 266.251 L
487.887 290.616 L
488.043 314.094 L
488.2 253.143 L
488.357 291.716 L
488.513 296.508 L
488.67 316.52 L
488.827 321.879 L
488.983 335.01 L
489.14 309.895 L
489.297 321.658 L
489.453 289.909 L
489.61 307.929 L
489.767 268.979 L
489.923 273.802 L
490.08 298.938 L
490.237 307.278 L
490.393 280.493 L
490.55 323.401 L
490.707 289.424 L
490.863 314.49 L
491.02 309.473 L
491.177 314.54 L
491.333 291.255 L
491.49 316.524 L
491.647 321.853 L
491.803 291.678 L
491.96 309.904 L
492.117 295.25 L
492.273 308.569 L
492.43 296.969 L
492.587 349.87 L
492.743 293.304 L
492.9 267.4 L
493.057 282.6 L
493.213 284.997 L
493.37 306.475 L
493.527 298.621 L
493.683 297.441 L
493.84 300.201 L
493.997 317.502 L
494.153 308.575 L
494.31 305.262 L
494.467 310.972 L
494.623 286.379 L
494.78 254.617 L
494.937 326.702 L
S
GR
GS
[0.75 0 0 0.75 210 21.5] CT
/Helvetica 17.333 F
GS
[1 0 0 1 0 0] CT
-166.5 -4 moveto 
1 -1 scale
(Various Delayed PRNs and Receiver Noise) t 
GR
GR
%%Trailer
%%Pages: 1
%%EOF
