%!PS-Adobe-3.0 EPSF-3.0
%%Creator: (MATLAB, The Mathworks, Inc. Version 9.9.0.1467703 \(R2020b\). Operating System: Windows 10)
%%Title: C:/Users/timji/Documents/School/Colorado/ASEN5090/asen-5090/Homework4/plots/prn05_nist_range.eps
%%CreationDate: 2020-10-05T20:47:46
%%Pages: (atend)
%%BoundingBox:     0     0   420   315
%%LanguageLevel: 3
%%EndComments
%%BeginProlog
%%BeginResource: procset (Apache XML Graphics Std ProcSet) 1.2 0
%%Version: 1.2 0
%%Copyright: (Copyright 2001-2003,2010 The Apache Software Foundation. License terms: http://www.apache.org/licenses/LICENSE-2.0)
/bd{bind def}bind def
/ld{load def}bd
/GR/grestore ld
/GS/gsave ld
/RM/rmoveto ld
/C/curveto ld
/t/show ld
/L/lineto ld
/ML/setmiterlimit ld
/CT/concat ld
/f/fill ld
/N/newpath ld
/S/stroke ld
/CC/setcmykcolor ld
/A/ashow ld
/cp/closepath ld
/RC/setrgbcolor ld
/LJ/setlinejoin ld
/GC/setgray ld
/LW/setlinewidth ld
/M/moveto ld
/re {4 2 roll M
1 index 0 rlineto
0 exch rlineto
neg 0 rlineto
cp } bd
/_ctm matrix def
/_tm matrix def
/BT { _ctm currentmatrix pop matrix _tm copy pop 0 0 moveto } bd
/ET { _ctm setmatrix } bd
/iTm { _ctm setmatrix _tm concat } bd
/Tm { _tm astore pop iTm 0 0 moveto } bd
/ux 0.0 def
/uy 0.0 def
/F {
  /Tp exch def
  /Tf exch def
  Tf findfont Tp scalefont setfont
  /cf Tf def  /cs Tp def
} bd
/ULS {currentpoint /uy exch def /ux exch def} bd
/ULE {
  /Tcx currentpoint pop def
  gsave
  newpath
  cf findfont cs scalefont dup
  /FontMatrix get 0 get /Ts exch def /FontInfo get dup
  /UnderlinePosition get Ts mul /To exch def
  /UnderlineThickness get Ts mul /Tt exch def
  ux uy To add moveto  Tcx uy To add lineto
  Tt setlinewidth stroke
  grestore
} bd
/OLE {
  /Tcx currentpoint pop def
  gsave
  newpath
  cf findfont cs scalefont dup
  /FontMatrix get 0 get /Ts exch def /FontInfo get dup
  /UnderlinePosition get Ts mul /To exch def
  /UnderlineThickness get Ts mul /Tt exch def
  ux uy To add cs add moveto Tcx uy To add cs add lineto
  Tt setlinewidth stroke
  grestore
} bd
/SOE {
  /Tcx currentpoint pop def
  gsave
  newpath
  cf findfont cs scalefont dup
  /FontMatrix get 0 get /Ts exch def /FontInfo get dup
  /UnderlinePosition get Ts mul /To exch def
  /UnderlineThickness get Ts mul /Tt exch def
  ux uy To add cs 10 mul 26 idiv add moveto Tcx uy To add cs 10 mul 26 idiv add lineto
  Tt setlinewidth stroke
  grestore
} bd
/QT {
/Y22 exch store
/X22 exch store
/Y21 exch store
/X21 exch store
currentpoint
/Y21 load 2 mul add 3 div exch
/X21 load 2 mul add 3 div exch
/X21 load 2 mul /X22 load add 3 div
/Y21 load 2 mul /Y22 load add 3 div
/X22 load /Y22 load curveto
} bd
/SSPD {
dup length /d exch dict def
{
/v exch def
/k exch def
currentpagedevice k known {
/cpdv currentpagedevice k get def
v cpdv ne {
/upd false def
/nullv v type /nulltype eq def
/nullcpdv cpdv type /nulltype eq def
nullv nullcpdv or
{
/upd true def
} {
/sametype v type cpdv type eq def
sametype {
v type /arraytype eq {
/vlen v length def
/cpdvlen cpdv length def
vlen cpdvlen eq {
0 1 vlen 1 sub {
/i exch def
/obj v i get def
/cpdobj cpdv i get def
obj cpdobj ne {
/upd true def
exit
} if
} for
} {
/upd true def
} ifelse
} {
v type /dicttype eq {
v {
/dv exch def
/dk exch def
/cpddv cpdv dk get def
dv cpddv ne {
/upd true def
exit
} if
} forall
} {
/upd true def
} ifelse
} ifelse
} if
} ifelse
upd true eq {
d k v put
} if
} if
} if
} forall
d length 0 gt {
d setpagedevice
} if
} bd
/RE { % /NewFontName [NewEncodingArray] /FontName RE -
  findfont dup length dict begin
  {
    1 index /FID ne
    {def} {pop pop} ifelse
  } forall
  /Encoding exch def
  /FontName 1 index def
  currentdict definefont pop
  end
} bind def
%%EndResource
%%BeginResource: procset (Apache XML Graphics EPS ProcSet) 1.0 0
%%Version: 1.0 0
%%Copyright: (Copyright 2002-2003 The Apache Software Foundation. License terms: http://www.apache.org/licenses/LICENSE-2.0)
/BeginEPSF { %def
/b4_Inc_state save def         % Save state for cleanup
/dict_count countdictstack def % Count objects on dict stack
/op_count count 1 sub def      % Count objects on operand stack
userdict begin                 % Push userdict on dict stack
/showpage { } def              % Redefine showpage, { } = null proc
0 setgray 0 setlinecap         % Prepare graphics state
1 setlinewidth 0 setlinejoin
10 setmiterlimit [ ] 0 setdash newpath
/languagelevel where           % If level not equal to 1 then
{pop languagelevel             % set strokeadjust and
1 ne                           % overprint to their defaults.
{false setstrokeadjust false setoverprint
} if
} if
} bd
/EndEPSF { %def
count op_count sub {pop} repeat            % Clean up stacks
countdictstack dict_count sub {end} repeat
b4_Inc_state restore
} bd
%%EndResource
%FOPBeginFontDict
%%IncludeResource: font Courier-Oblique
%%IncludeResource: font Courier-BoldOblique
%%IncludeResource: font Courier-Bold
%%IncludeResource: font ZapfDingbats
%%IncludeResource: font Symbol
%%IncludeResource: font Helvetica
%%IncludeResource: font Helvetica-Oblique
%%IncludeResource: font Helvetica-Bold
%%IncludeResource: font Helvetica-BoldOblique
%%IncludeResource: font Times-Roman
%%IncludeResource: font Times-Italic
%%IncludeResource: font Times-Bold
%%IncludeResource: font Times-BoldItalic
%%IncludeResource: font Courier
%FOPEndFontDict
%%BeginResource: encoding WinAnsiEncoding
/WinAnsiEncoding [
/.notdef /.notdef /.notdef /.notdef /.notdef
/.notdef /.notdef /.notdef /.notdef /.notdef
/.notdef /.notdef /.notdef /.notdef /.notdef
/.notdef /.notdef /.notdef /.notdef /.notdef
/.notdef /.notdef /.notdef /.notdef /.notdef
/.notdef /.notdef /.notdef /.notdef /.notdef
/.notdef /.notdef /space /exclam /quotedbl
/numbersign /dollar /percent /ampersand /quotesingle
/parenleft /parenright /asterisk /plus /comma
/hyphen /period /slash /zero /one
/two /three /four /five /six
/seven /eight /nine /colon /semicolon
/less /equal /greater /question /at
/A /B /C /D /E
/F /G /H /I /J
/K /L /M /N /O
/P /Q /R /S /T
/U /V /W /X /Y
/Z /bracketleft /backslash /bracketright /asciicircum
/underscore /quoteleft /a /b /c
/d /e /f /g /h
/i /j /k /l /m
/n /o /p /q /r
/s /t /u /v /w
/x /y /z /braceleft /bar
/braceright /asciitilde /bullet /Euro /bullet
/quotesinglbase /florin /quotedblbase /ellipsis /dagger
/daggerdbl /circumflex /perthousand /Scaron /guilsinglleft
/OE /bullet /Zcaron /bullet /bullet
/quoteleft /quoteright /quotedblleft /quotedblright /bullet
/endash /emdash /asciitilde /trademark /scaron
/guilsinglright /oe /bullet /zcaron /Ydieresis
/space /exclamdown /cent /sterling /currency
/yen /brokenbar /section /dieresis /copyright
/ordfeminine /guillemotleft /logicalnot /sfthyphen /registered
/macron /degree /plusminus /twosuperior /threesuperior
/acute /mu /paragraph /middot /cedilla
/onesuperior /ordmasculine /guillemotright /onequarter /onehalf
/threequarters /questiondown /Agrave /Aacute /Acircumflex
/Atilde /Adieresis /Aring /AE /Ccedilla
/Egrave /Eacute /Ecircumflex /Edieresis /Igrave
/Iacute /Icircumflex /Idieresis /Eth /Ntilde
/Ograve /Oacute /Ocircumflex /Otilde /Odieresis
/multiply /Oslash /Ugrave /Uacute /Ucircumflex
/Udieresis /Yacute /Thorn /germandbls /agrave
/aacute /acircumflex /atilde /adieresis /aring
/ae /ccedilla /egrave /eacute /ecircumflex
/edieresis /igrave /iacute /icircumflex /idieresis
/eth /ntilde /ograve /oacute /ocircumflex
/otilde /odieresis /divide /oslash /ugrave
/uacute /ucircumflex /udieresis /yacute /thorn
/ydieresis
] def
%%EndResource
%FOPBeginFontReencode
/Courier-Oblique findfont
dup length dict begin
  {1 index /FID ne {def} {pop pop} ifelse} forall
  /Encoding WinAnsiEncoding def
  currentdict
end
/Courier-Oblique exch definefont pop
/Courier-BoldOblique findfont
dup length dict begin
  {1 index /FID ne {def} {pop pop} ifelse} forall
  /Encoding WinAnsiEncoding def
  currentdict
end
/Courier-BoldOblique exch definefont pop
/Courier-Bold findfont
dup length dict begin
  {1 index /FID ne {def} {pop pop} ifelse} forall
  /Encoding WinAnsiEncoding def
  currentdict
end
/Courier-Bold exch definefont pop
/Helvetica findfont
dup length dict begin
  {1 index /FID ne {def} {pop pop} ifelse} forall
  /Encoding WinAnsiEncoding def
  currentdict
end
/Helvetica exch definefont pop
/Helvetica-Oblique findfont
dup length dict begin
  {1 index /FID ne {def} {pop pop} ifelse} forall
  /Encoding WinAnsiEncoding def
  currentdict
end
/Helvetica-Oblique exch definefont pop
/Helvetica-Bold findfont
dup length dict begin
  {1 index /FID ne {def} {pop pop} ifelse} forall
  /Encoding WinAnsiEncoding def
  currentdict
end
/Helvetica-Bold exch definefont pop
/Helvetica-BoldOblique findfont
dup length dict begin
  {1 index /FID ne {def} {pop pop} ifelse} forall
  /Encoding WinAnsiEncoding def
  currentdict
end
/Helvetica-BoldOblique exch definefont pop
/Times-Roman findfont
dup length dict begin
  {1 index /FID ne {def} {pop pop} ifelse} forall
  /Encoding WinAnsiEncoding def
  currentdict
end
/Times-Roman exch definefont pop
/Times-Italic findfont
dup length dict begin
  {1 index /FID ne {def} {pop pop} ifelse} forall
  /Encoding WinAnsiEncoding def
  currentdict
end
/Times-Italic exch definefont pop
/Times-Bold findfont
dup length dict begin
  {1 index /FID ne {def} {pop pop} ifelse} forall
  /Encoding WinAnsiEncoding def
  currentdict
end
/Times-Bold exch definefont pop
/Times-BoldItalic findfont
dup length dict begin
  {1 index /FID ne {def} {pop pop} ifelse} forall
  /Encoding WinAnsiEncoding def
  currentdict
end
/Times-BoldItalic exch definefont pop
/Courier findfont
dup length dict begin
  {1 index /FID ne {def} {pop pop} ifelse} forall
  /Encoding WinAnsiEncoding def
  currentdict
end
/Courier exch definefont pop
%FOPEndFontReencode
%%EndProlog
%%Page: 1 1
%%PageBoundingBox: 0 0 420 315
%%BeginPageSetup
[1 0 0 -1 0 315] CT
%%EndPageSetup
GS
[0.75 0 0 0.75 0 0] CT
1 GC
N
0 0 560 420 re
f
GR
GS
[0.75 0 0 0.75 0 0] CT
1 GC
N
0 0 560 420 re
f
GR
GS
[0.75 0 0 0.75 0 0] CT
1 GC
N
73 374 M
507 374 L
507 31 L
73 31 L
cp
f
GR
GS
[0.75 0 0 0.75 0 0] CT
0.149 GC
2 setlinecap
1 LJ
0.667 LW
N
73 374 M
507 374 L
S
GR
GS
[0.75 0 0 0.75 0 0] CT
0.149 GC
2 setlinecap
1 LJ
0.667 LW
N
73 31 M
507 31 L
S
GR
GS
[0.75 0 0 0.75 0 0] CT
0.149 GC
2 setlinecap
1 LJ
0.667 LW
N
73 374 M
73 369.66 L
S
GR
GS
[0.75 0 0 0.75 0 0] CT
0.149 GC
2 setlinecap
1 LJ
0.667 LW
N
163.417 374 M
163.417 369.66 L
S
GR
GS
[0.75 0 0 0.75 0 0] CT
0.149 GC
2 setlinecap
1 LJ
0.667 LW
N
253.833 374 M
253.833 369.66 L
S
GR
GS
[0.75 0 0 0.75 0 0] CT
0.149 GC
2 setlinecap
1 LJ
0.667 LW
N
344.25 374 M
344.25 369.66 L
S
GR
GS
[0.75 0 0 0.75 0 0] CT
0.149 GC
2 setlinecap
1 LJ
0.667 LW
N
434.667 374 M
434.667 369.66 L
S
GR
GS
[0.75 0 0 0.75 0 0] CT
0.149 GC
2 setlinecap
1 LJ
0.667 LW
N
73 31 M
73 35.34 L
S
GR
GS
[0.75 0 0 0.75 0 0] CT
0.149 GC
2 setlinecap
1 LJ
0.667 LW
N
163.417 31 M
163.417 35.34 L
S
GR
GS
[0.75 0 0 0.75 0 0] CT
0.149 GC
2 setlinecap
1 LJ
0.667 LW
N
253.833 31 M
253.833 35.34 L
S
GR
GS
[0.75 0 0 0.75 0 0] CT
0.149 GC
2 setlinecap
1 LJ
0.667 LW
N
344.25 31 M
344.25 35.34 L
S
GR
GS
[0.75 0 0 0.75 0 0] CT
0.149 GC
2 setlinecap
1 LJ
0.667 LW
N
434.667 31 M
434.667 35.34 L
S
GR
GS
[0.75 0 0 0.75 54.75 284.50001] CT
0.149 GC
/Helvetica 13.333 F
GS
[1 0 0 1 0 0] CT
-4 14 moveto 
1 -1 scale
(0) t 
GR
GR
GS
[0.75 0 0 0.75 122.5625 284.50001] CT
0.149 GC
/Helvetica 13.333 F
GS
[1 0 0 1 0 0] CT
-4 14 moveto 
1 -1 scale
(5) t 
GR
GR
GS
[0.75 0 0 0.75 190.375 284.50001] CT
0.149 GC
/Helvetica 13.333 F
GS
[1 0 0 1 0 0] CT
-7.5 14 moveto 
1 -1 scale
(10) t 
GR
GR
GS
[0.75 0 0 0.75 258.1875 284.50001] CT
0.149 GC
/Helvetica 13.333 F
GS
[1 0 0 1 0 0] CT
-7.5 14 moveto 
1 -1 scale
(15) t 
GR
GR
GS
[0.75 0 0 0.75 325.99999 284.50001] CT
0.149 GC
/Helvetica 13.333 F
GS
[1 0 0 1 0 0] CT
-7.5 14 moveto 
1 -1 scale
(20) t 
GR
GR
GS
[0.75 0 0 0.75 217.50016 298.24999] CT
0.149 GC
/Helvetica 14.667 F
GS
[1 0 0 1 0 0] CT
-57.5 15 moveto 
1 -1 scale
(Time into day \(hr\)) t 
GR
GR
GS
[0.75 0 0 0.75 0 0] CT
0.149 GC
2 setlinecap
1 LJ
0.667 LW
N
73 374 M
73 31 L
S
GR
GS
[0.75 0 0 0.75 0 0] CT
0.149 GC
2 setlinecap
1 LJ
0.667 LW
N
507 374 M
507 31 L
S
GR
GS
[0.75 0 0 0.75 0 0] CT
0.149 GC
2 setlinecap
1 LJ
0.667 LW
N
73 374 M
77.34 374 L
S
GR
GS
[0.75 0 0 0.75 0 0] CT
0.149 GC
2 setlinecap
1 LJ
0.667 LW
N
73 325 M
77.34 325 L
S
GR
GS
[0.75 0 0 0.75 0 0] CT
0.149 GC
2 setlinecap
1 LJ
0.667 LW
N
73 276 M
77.34 276 L
S
GR
GS
[0.75 0 0 0.75 0 0] CT
0.149 GC
2 setlinecap
1 LJ
0.667 LW
N
73 227 M
77.34 227 L
S
GR
GS
[0.75 0 0 0.75 0 0] CT
0.149 GC
2 setlinecap
1 LJ
0.667 LW
N
73 178 M
77.34 178 L
S
GR
GS
[0.75 0 0 0.75 0 0] CT
0.149 GC
2 setlinecap
1 LJ
0.667 LW
N
73 129 M
77.34 129 L
S
GR
GS
[0.75 0 0 0.75 0 0] CT
0.149 GC
2 setlinecap
1 LJ
0.667 LW
N
73 80 M
77.34 80 L
S
GR
GS
[0.75 0 0 0.75 0 0] CT
0.149 GC
2 setlinecap
1 LJ
0.667 LW
N
73 31 M
77.34 31 L
S
GR
GS
[0.75 0 0 0.75 0 0] CT
0.149 GC
2 setlinecap
1 LJ
0.667 LW
N
507 374 M
502.66 374 L
S
GR
GS
[0.75 0 0 0.75 0 0] CT
0.149 GC
2 setlinecap
1 LJ
0.667 LW
N
507 325 M
502.66 325 L
S
GR
GS
[0.75 0 0 0.75 0 0] CT
0.149 GC
2 setlinecap
1 LJ
0.667 LW
N
507 276 M
502.66 276 L
S
GR
GS
[0.75 0 0 0.75 0 0] CT
0.149 GC
2 setlinecap
1 LJ
0.667 LW
N
507 227 M
502.66 227 L
S
GR
GS
[0.75 0 0 0.75 0 0] CT
0.149 GC
2 setlinecap
1 LJ
0.667 LW
N
507 178 M
502.66 178 L
S
GR
GS
[0.75 0 0 0.75 0 0] CT
0.149 GC
2 setlinecap
1 LJ
0.667 LW
N
507 129 M
502.66 129 L
S
GR
GS
[0.75 0 0 0.75 0 0] CT
0.149 GC
2 setlinecap
1 LJ
0.667 LW
N
507 80 M
502.66 80 L
S
GR
GS
[0.75 0 0 0.75 0 0] CT
0.149 GC
2 setlinecap
1 LJ
0.667 LW
N
507 31 M
502.66 31 L
S
GR
GS
[0.75 0 0 0.75 50.75 280.5] CT
0.149 GC
/Helvetica 13.333 F
GS
[1 0 0 1 0 0] CT
-8 5.5 moveto 
1 -1 scale
(2) t 
GR
GR
GS
[0.75 0 0 0.75 50.75 243.75] CT
0.149 GC
/Helvetica 13.333 F
GS
[1 0 0 1 0 0] CT
-19 5.5 moveto 
1 -1 scale
(2.2) t 
GR
GR
GS
[0.75 0 0 0.75 50.75 207] CT
0.149 GC
/Helvetica 13.333 F
GS
[1 0 0 1 0 0] CT
-19 5.5 moveto 
1 -1 scale
(2.4) t 
GR
GR
GS
[0.75 0 0 0.75 50.75 170.25] CT
0.149 GC
/Helvetica 13.333 F
GS
[1 0 0 1 0 0] CT
-19 5.5 moveto 
1 -1 scale
(2.6) t 
GR
GR
GS
[0.75 0 0 0.75 50.75 133.5] CT
0.149 GC
/Helvetica 13.333 F
GS
[1 0 0 1 0 0] CT
-19 5.5 moveto 
1 -1 scale
(2.8) t 
GR
GR
GS
[0.75 0 0 0.75 50.75 96.75] CT
0.149 GC
/Helvetica 13.333 F
GS
[1 0 0 1 0 0] CT
-8 5.5 moveto 
1 -1 scale
(3) t 
GR
GR
GS
[0.75 0 0 0.75 50.75 60] CT
0.149 GC
/Helvetica 13.333 F
GS
[1 0 0 1 0 0] CT
-19 5.5 moveto 
1 -1 scale
(3.2) t 
GR
GR
GS
[0.75 0 0 0.75 50.75 23.25] CT
0.149 GC
/Helvetica 13.333 F
GS
[1 0 0 1 0 0] CT
-19 5.5 moveto 
1 -1 scale
(3.4) t 
GR
GR
GS
[0 -0.75 0.75 0 33.5 151.87489] CT
0.149 GC
/Helvetica 14.667 F
GS
[1 0 0 1 0 0] CT
-35 -4 moveto 
1 -1 scale
(Range \(m\)) t 
GR
GR
GS
[0.75 0 0 0.75 54.75 21] CT
0.149 GC
N
1.906 -0.375 M
1.906 -0.469 1.969 -0.563 QT
4.672 -3.25 L
1.969 -5.953 L
1.906 -6.016 1.906 -6.125 QT
1.906 -6.219 1.984 -6.305 QT
2.063 -6.391 2.172 -6.391 QT
2.266 -6.391 2.375 -6.297 QT
5.063 -3.609 L
7.734 -6.297 L
7.844 -6.391 7.922 -6.391 QT
8.031 -6.391 8.109 -6.313 QT
8.188 -6.234 8.188 -6.125 QT
8.188 -6.016 8.125 -5.953 QT
5.422 -3.25 L
8.125 -0.563 L
8.188 -0.469 8.188 -0.375 QT
8.188 -0.266 8.109 -0.188 QT
8.031 -0.109 7.922 -0.109 QT
7.828 -0.109 7.734 -0.203 QT
5.063 -2.891 L
2.375 -0.203 L
2.266 -0.109 2.172 -0.109 QT
2.063 -0.109 1.984 -0.195 QT
1.906 -0.281 1.906 -0.375 QT
cp
f
GR
GS
[0.75 0 0 0.75 63 21] CT
0.149 GC
/Helvetica 13.333 F
GS
[1 0 0 1 0 0] CT
0 0 moveto 
1 -1 scale
(10) t 
GR
GR
GS
[0.75 0 0 0.75 74.25 16.5] CT
0.149 GC
/Helvetica 10.667 F
GS
[1 0 0 1 0 0] CT
0 0 moveto 
1 -1 scale
(7) t 
GR
GR
GS
[0.75 0 0 0.75 217.50021 21.18752] CT
/Helvetica-Bold 14.667 F
GS
[1 0 0 1 0 0] CT
-115.5 -4 moveto 
1 -1 scale
(PRN05 Range from NIST IGS Site) t 
GR
GR
GS
[0.75 0 0 0.75 0 0] CT
0 0.447 0.741 RC
1 LJ
0.667 LW
N
73 69.223 M
73.151 69.059 L
73.301 68.896 L
73.452 68.734 L
73.603 68.573 L
73.753 68.412 L
73.904 68.253 L
74.055 68.094 L
74.206 67.937 L
74.356 67.78 L
74.507 67.624 L
74.658 67.469 L
74.808 67.315 L
74.959 67.162 L
75.11 67.01 L
75.26 66.859 L
75.411 66.709 L
75.562 66.56 L
75.713 66.411 L
75.863 66.264 L
76.014 66.117 L
76.165 65.972 L
76.315 65.827 L
76.466 65.684 L
76.617 65.541 L
76.767 65.4 L
76.918 65.259 L
77.069 65.119 L
77.219 64.98 L
77.37 64.842 L
77.521 64.706 L
77.672 64.57 L
77.822 64.435 L
77.973 64.301 L
78.124 64.168 L
78.274 64.036 L
78.425 63.906 L
78.576 63.776 L
78.726 63.647 L
78.877 63.519 L
79.028 63.392 L
79.178 63.266 L
79.329 63.141 L
79.48 63.018 L
79.631 62.895 L
79.781 62.773 L
79.932 62.652 L
80.083 62.533 L
80.233 62.414 L
80.384 62.296 L
80.535 62.18 L
80.685 62.064 L
80.836 61.95 L
80.987 61.836 L
81.137 61.724 L
81.288 61.612 L
81.439 61.502 L
81.59 61.393 L
81.74 61.285 L
81.891 61.178 L
82.042 61.072 L
82.192 60.967 L
82.343 60.863 L
82.494 60.76 L
82.644 60.658 L
82.795 60.558 L
82.946 60.458 L
83.097 60.36 L
83.247 60.263 L
83.398 60.167 L
83.549 60.071 L
83.699 59.977 L
83.85 59.885 L
84.001 59.793 L
84.151 59.702 L
84.302 59.613 L
84.453 59.524 L
84.603 59.437 L
84.754 59.351 L
84.905 59.266 L
85.056 59.182 L
85.206 59.099 L
85.357 59.018 L
85.508 58.937 L
85.658 58.858 L
85.809 58.78 L
85.96 58.703 L
86.11 58.627 L
86.261 58.552 L
86.412 58.479 L
86.563 58.406 L
86.713 58.335 L
86.864 58.265 L
87.015 58.197 L
87.165 58.129 L
87.316 58.063 L
87.467 57.997 L
87.617 57.933 L
87.768 57.87 L
87.919 57.809 L
88.069 57.748 L
88.22 57.689 L
88.371 57.631 L
88.522 57.574 L
88.672 57.518 L
88.823 57.464 L
88.974 57.411 L
89.124 57.359 L
89.275 57.308 L
89.426 57.259 L
89.576 57.21 L
89.727 57.163 L
89.878 57.117 L
90.028 57.073 L
90.179 57.029 L
90.33 56.987 L
90.481 56.946 L
90.631 56.907 L
90.782 56.868 L
90.933 56.831 L
91.083 56.796 L
91.234 56.761 L
91.385 56.728 L
91.535 56.696 L
91.686 56.665 L
91.837 56.635 L
91.987 56.607 L
92.138 56.58 L
92.289 56.555 L
92.44 56.53 L
92.59 56.507 L
92.741 56.485 L
92.892 56.465 L
93.042 56.446 L
93.193 56.428 L
93.344 56.411 L
93.494 56.396 L
93.645 56.382 L
93.796 56.369 L
93.947 56.358 L
94.097 56.348 L
94.248 56.339 L
94.399 56.332 L
94.549 56.326 L
94.7 56.321 L
94.851 56.318 L
95.001 56.316 L
95.152 56.315 L
95.303 56.315 L
95.453 56.317 L
95.604 56.321 L
95.755 56.325 L
95.906 56.331 L
96.056 56.339 L
96.207 56.347 L
96.358 56.357 L
96.508 56.369 L
96.659 56.382 L
96.81 56.396 L
96.96 56.411 L
97.111 56.428 L
97.262 56.446 L
97.412 56.466 L
97.563 56.487 L
97.714 56.509 L
97.865 56.533 L
98.015 56.558 L
98.166 56.585 L
98.317 56.613 L
98.467 56.642 L
98.618 56.673 L
98.769 56.705 L
98.919 56.739 L
99.07 56.773 L
99.221 56.81 L
99.372 56.847 L
99.522 56.887 L
99.673 56.927 L
99.824 56.969 L
99.974 57.012 L
100.125 57.057 L
100.276 57.103 L
100.426 57.151 L
100.577 57.2 L
100.728 57.251 L
100.878 57.303 L
101.029 57.356 L
101.18 57.411 L
101.331 57.467 L
101.481 57.524 L
101.632 57.584 L
101.783 57.644 L
101.933 57.706 L
102.084 57.769 L
102.235 57.834 L
102.385 57.901 L
102.536 57.968 L
102.687 58.037 L
102.838 58.108 L
102.988 58.18 L
103.139 58.254 L
103.29 58.329 L
103.44 58.405 L
103.591 58.483 L
103.742 58.563 L
103.892 58.643 L
104.043 58.726 L
104.194 58.81 L
104.344 58.895 L
104.495 58.982 L
104.646 59.07 L
104.797 59.16 L
104.947 59.251 L
105.098 59.343 L
105.249 59.437 L
105.399 59.533 L
105.55 59.63 L
105.701 59.729 L
105.851 59.829 L
106.002 59.93 L
106.153 60.033 L
106.303 60.138 L
106.454 60.244 L
106.605 60.352 L
106.756 60.461 L
106.906 60.571 L
107.057 60.683 L
107.208 60.797 L
107.358 60.912 L
107.509 61.028 L
107.66 61.146 L
107.81 61.266 L
107.961 61.387 L
108.112 61.509 L
108.263 61.633 L
108.413 61.759 L
108.564 61.886 L
108.715 62.014 L
108.865 62.144 L
109.016 62.276 L
109.167 62.409 L
109.317 62.544 L
109.468 62.68 L
109.619 62.817 L
109.769 62.957 L
109.92 63.097 L
110.071 63.239 L
110.222 63.383 L
110.372 63.528 L
110.523 63.675 L
110.674 63.823 L
110.824 63.973 L
110.975 64.124 L
111.126 64.277 L
111.276 64.432 L
111.427 64.587 L
111.578 64.745 L
111.728 64.904 L
111.879 65.064 L
112.03 65.226 L
112.181 65.39 L
112.331 65.555 L
112.482 65.721 L
112.633 65.889 L
112.783 66.059 L
112.934 66.23 L
113.085 66.402 L
113.235 66.577 L
113.386 66.752 L
113.537 66.93 L
113.688 67.108 L
113.838 67.289 L
113.989 67.47 L
114.14 67.654 L
114.29 67.838 L
114.441 68.025 L
114.592 68.213 L
114.742 68.402 L
114.893 68.593 L
115.044 68.786 L
115.194 68.98 L
115.345 69.175 L
115.496 69.372 L
115.647 69.571 L
115.797 69.771 L
115.948 69.973 L
116.099 70.176 L
116.249 70.38 L
116.4 70.587 L
116.551 70.794 L
116.701 71.004 L
116.852 71.214 L
117.003 71.427 L
117.153 71.64 L
117.304 71.856 L
117.455 72.073 L
117.606 72.291 L
117.756 72.511 L
117.907 72.732 L
118.058 72.955 L
118.208 73.18 L
118.359 73.406 L
118.51 73.633 L
118.66 73.862 L
118.811 74.093 L
118.962 74.325 L
119.112 74.558 L
119.263 74.793 L
119.414 75.03 L
119.565 75.268 L
119.715 75.507 L
119.866 75.748 L
120.017 75.991 L
120.167 76.235 L
120.318 76.48 L
120.469 76.727 L
120.619 76.976 L
120.77 77.226 L
120.921 77.477 L
121.072 77.73 L
121.222 77.985 L
121.373 78.241 L
121.524 78.498 L
121.674 78.757 L
121.825 79.018 L
121.976 79.28 L
122.126 79.543 L
122.277 79.808 L
122.428 80.074 L
122.578 80.342 L
122.729 80.612 L
122.88 80.882 L
123.031 81.155 L
123.181 81.428 L
123.332 81.704 L
123.483 81.98 L
123.633 82.258 L
123.784 82.538 L
123.935 82.819 L
124.085 83.102 L
124.236 83.385 L
124.387 83.671 L
124.537 83.958 L
124.688 84.246 L
124.839 84.536 L
124.99 84.827 L
125.14 85.12 L
125.291 85.414 L
125.442 85.709 L
125.592 86.006 L
125.743 86.304 L
125.894 86.604 L
126.044 86.905 L
126.195 87.208 L
126.346 87.512 L
126.497 87.817 L
126.647 88.124 L
126.798 88.433 L
126.949 88.742 L
127.099 89.053 L
127.25 89.366 L
127.401 89.68 L
127.551 89.995 L
127.702 90.312 L
127.853 90.63 L
128.003 90.949 L
128.154 91.27 L
128.305 91.592 L
128.456 91.915 L
128.606 92.24 L
128.757 92.567 L
128.908 92.894 L
129.058 93.223 L
129.209 93.554 L
129.36 93.885 L
129.51 94.219 L
129.661 94.553 L
129.812 94.889 L
129.963 95.226 L
130.113 95.564 L
130.264 95.904 L
130.415 96.245 L
130.565 96.588 L
130.716 96.931 L
130.867 97.276 L
131.017 97.623 L
131.168 97.97 L
131.319 98.319 L
131.469 98.67 L
131.62 99.021 L
131.771 99.374 L
131.922 99.728 L
132.072 100.084 L
132.223 100.44 L
132.374 100.798 L
132.524 101.158 L
132.675 101.518 L
132.826 101.88 L
132.976 102.243 L
133.127 102.607 L
133.278 102.973 L
133.428 103.339 L
133.579 103.707 L
133.73 104.077 L
133.881 104.447 L
134.031 104.819 L
134.182 105.192 L
134.333 105.566 L
134.483 105.941 L
134.634 106.318 L
134.785 106.695 L
134.935 107.074 L
135.086 107.454 L
135.237 107.836 L
135.387 108.218 L
135.538 108.602 L
135.689 108.986 L
135.84 109.372 L
135.99 109.759 L
136.141 110.148 L
136.292 110.537 L
136.442 110.928 L
136.593 111.319 L
136.744 111.712 L
136.894 112.106 L
137.045 112.501 L
137.196 112.897 L
137.347 113.295 L
137.497 113.693 L
137.648 114.092 L
137.799 114.493 L
137.949 114.894 L
138.1 115.297 L
138.251 115.701 L
138.401 116.106 L
138.552 116.512 L
138.703 116.919 L
138.853 117.326 L
139.004 117.735 L
139.155 118.146 L
139.306 118.557 L
139.456 118.969 L
139.607 119.382 L
139.758 119.796 L
139.908 120.211 L
140.059 120.627 L
140.21 121.044 L
140.36 121.462 L
140.511 121.881 L
140.662 122.301 L
140.813 122.722 L
140.963 123.144 L
141.114 123.567 L
141.265 123.991 L
141.415 124.416 L
141.566 124.841 L
141.717 125.268 L
141.867 125.695 L
142.018 126.124 L
142.169 126.553 L
142.319 126.983 L
142.47 127.414 L
142.621 127.846 L
142.772 128.279 L
142.922 128.713 L
143.073 129.147 L
143.224 129.583 L
143.374 130.019 L
143.525 130.456 L
143.676 130.894 L
143.826 131.333 L
143.977 131.772 L
144.128 132.212 L
144.278 132.653 L
144.429 133.095 L
144.58 133.538 L
144.731 133.981 L
144.881 134.425 L
145.032 134.87 L
145.183 135.316 L
145.333 135.762 L
145.484 136.21 L
145.635 136.658 L
145.785 137.106 L
145.936 137.555 L
146.087 138.005 L
146.238 138.456 L
146.388 138.907 L
146.539 139.359 L
146.69 139.812 L
146.84 140.265 L
146.991 140.719 L
147.142 141.174 L
147.292 141.629 L
147.443 142.085 L
147.594 142.542 L
147.744 142.999 L
147.895 143.456 L
148.046 143.915 L
148.197 144.374 L
148.347 144.833 L
148.498 145.293 L
148.649 145.753 L
148.799 146.215 L
148.95 146.676 L
149.101 147.138 L
149.251 147.601 L
149.402 148.064 L
149.553 148.528 L
149.703 148.992 L
149.854 149.456 L
150.005 149.921 L
150.156 150.387 L
150.306 150.853 L
150.457 151.319 L
150.608 151.786 L
150.758 152.253 L
150.909 152.721 L
151.06 153.189 L
151.21 153.658 L
151.361 154.127 L
151.512 154.596 L
151.662 155.065 L
151.813 155.535 L
151.964 156.006 L
152.115 156.476 L
152.265 156.947 L
152.416 157.418 L
152.567 157.89 L
152.717 158.362 L
152.868 158.834 L
153.019 159.307 L
153.169 159.779 L
153.32 160.252 L
153.471 160.725 L
153.622 161.199 L
153.772 161.672 L
153.923 162.146 L
154.074 162.62 L
154.224 163.094 L
154.375 163.569 L
154.526 164.044 L
154.676 164.518 L
154.827 164.993 L
154.978 165.468 L
155.128 165.943 L
155.279 166.419 L
155.43 166.894 L
155.581 167.37 L
155.731 167.845 L
155.882 168.321 L
156.033 168.797 L
156.183 169.273 L
156.334 169.748 L
156.485 170.224 L
156.635 170.7 L
156.786 171.176 L
156.937 171.652 L
157.088 172.128 L
157.238 172.604 L
157.389 173.08 L
157.54 173.555 L
157.69 174.031 L
157.841 174.507 L
157.992 174.982 L
158.142 175.458 L
158.293 175.933 L
158.444 176.409 L
158.594 176.884 L
158.745 177.359 L
158.896 177.834 L
159.047 178.309 L
159.197 178.783 L
159.348 179.258 L
159.499 179.732 L
159.649 180.206 L
159.8 180.68 L
159.951 181.153 L
160.101 181.627 L
160.252 182.1 L
160.403 182.573 L
160.553 183.045 L
160.704 183.517 L
160.855 183.989 L
161.006 184.461 L
161.156 184.933 L
161.307 185.404 L
161.458 185.874 L
161.608 186.345 L
161.759 186.815 L
161.91 187.284 L
162.06 187.754 L
162.211 188.222 L
162.362 188.691 L
162.512 189.159 L
162.663 189.626 L
162.814 190.094 L
162.965 190.56 L
163.115 191.026 L
163.266 191.492 L
163.417 191.957 L
163.567 192.422 L
163.718 192.886 L
163.869 193.35 L
164.019 193.813 L
164.17 194.276 L
164.321 194.738 L
164.472 195.199 L
164.622 195.66 L
164.773 196.12 L
164.924 196.58 L
165.074 197.039 L
165.225 197.497 L
165.376 197.955 L
165.526 198.412 L
165.677 198.868 L
165.828 199.324 L
165.978 199.779 L
166.129 200.233 L
166.28 200.687 L
166.431 201.14 L
166.581 201.592 L
166.732 202.043 L
166.883 202.494 L
167.033 202.943 L
167.184 203.392 L
167.335 203.841 L
167.485 204.288 L
167.636 204.734 L
167.787 205.18 L
167.938 205.625 L
168.088 206.069 L
168.239 206.512 L
168.39 206.954 L
168.54 207.395 L
168.691 207.836 L
168.842 208.275 L
168.992 208.713 L
169.143 209.151 L
169.294 209.587 L
169.444 210.023 L
169.595 210.458 L
169.746 210.891 L
169.897 211.324 L
170.047 211.755 L
170.198 212.186 L
170.349 212.615 L
170.499 213.043 L
170.65 213.471 L
170.801 213.897 L
170.951 214.322 L
171.102 214.746 L
171.253 215.169 L
171.403 215.59 L
171.554 216.011 L
171.705 216.43 L
171.856 216.848 L
172.006 217.265 L
172.157 217.681 L
172.308 218.096 L
172.458 218.509 L
172.609 218.921 L
172.76 219.332 L
172.91 219.742 L
173.061 220.15 L
173.212 220.557 L
173.363 220.963 L
173.513 221.367 L
173.664 221.77 L
173.815 222.172 L
173.965 222.573 L
174.116 222.972 L
174.267 223.37 L
174.417 223.766 L
174.568 224.161 L
174.719 224.554 L
174.869 224.947 L
175.02 225.337 L
175.171 225.727 L
175.322 226.114 L
175.472 226.501 L
175.623 226.886 L
175.774 227.269 L
175.924 227.651 L
176.075 228.031 L
176.226 228.41 L
176.376 228.788 L
176.527 229.163 L
176.678 229.538 L
176.828 229.91 L
176.979 230.282 L
177.13 230.651 L
177.281 231.019 L
177.431 231.385 L
177.582 231.75 L
177.733 232.113 L
177.883 232.474 L
178.034 232.834 L
178.185 233.192 L
178.335 233.549 L
178.486 233.903 L
178.637 234.257 L
178.787 234.608 L
178.938 234.957 L
179.089 235.305 L
179.24 235.651 L
179.39 235.996 L
179.541 236.338 L
179.692 236.679 L
179.842 237.018 L
179.993 237.356 L
180.144 237.691 L
180.294 238.025 L
180.445 238.356 L
180.596 238.686 L
180.747 239.015 L
180.897 239.341 L
181.048 239.665 L
181.199 239.988 L
181.349 240.308 L
181.5 240.627 L
181.651 240.944 L
181.801 241.259 L
181.952 241.572 L
182.103 241.883 L
182.253 242.192 L
182.404 242.499 L
182.555 242.804 L
182.706 243.107 L
182.856 243.409 L
183.007 243.708 L
183.158 244.005 L
183.308 244.3 L
183.459 244.593 L
183.61 244.885 L
183.76 245.174 L
183.911 245.461 L
184.062 245.746 L
184.213 246.029 L
184.363 246.31 L
184.514 246.588 L
184.665 246.865 L
184.815 247.14 L
184.966 247.412 L
185.117 247.682 L
185.267 247.951 L
185.418 248.217 L
185.569 248.481 L
185.719 248.742 L
185.87 249.002 L
186.021 249.259 L
186.172 249.515 L
186.322 249.768 L
186.473 250.019 L
186.624 250.268 L
186.774 250.514 L
186.925 250.758 L
187.076 251 L
187.226 251.24 L
187.377 251.478 L
187.528 251.713 L
187.678 251.946 L
187.829 252.177 L
187.98 252.406 L
188.131 252.632 L
188.281 252.856 L
188.432 253.078 L
188.583 253.297 L
188.733 253.514 L
188.884 253.729 L
189.035 253.942 L
189.185 254.152 L
189.336 254.36 L
189.487 254.566 L
189.637 254.769 L
189.788 254.97 L
189.939 255.168 L
190.09 255.365 L
190.24 255.558 L
190.391 255.75 L
190.542 255.939 L
190.692 256.126 L
190.843 256.31 L
190.994 256.492 L
191.144 256.672 L
191.295 256.849 L
191.446 257.024 L
191.597 257.196 L
191.747 257.366 L
191.898 257.534 L
192.049 257.699 L
192.199 257.862 L
192.35 258.022 L
192.501 258.18 L
192.651 258.335 L
192.802 258.488 L
192.953 258.639 L
193.103 258.787 L
193.254 258.933 L
193.405 259.076 L
193.556 259.217 L
193.706 259.355 L
193.857 259.491 L
194.008 259.624 L
194.158 259.755 L
194.309 259.884 L
194.46 260.01 L
194.61 260.133 L
194.761 260.254 L
194.912 260.373 L
195.063 260.489 L
195.213 260.602 L
195.364 260.713 L
195.515 260.822 L
195.665 260.928 L
195.816 261.032 L
195.967 261.133 L
196.117 261.231 L
196.268 261.327 L
196.419 261.421 L
196.569 261.512 L
196.72 261.601 L
196.871 261.687 L
197.022 261.77 L
197.172 261.852 L
197.323 261.93 L
197.474 262.006 L
197.624 262.08 L
197.775 262.151 L
197.926 262.219 L
198.076 262.285 L
198.227 262.349 L
198.378 262.41 L
198.528 262.468 L
198.679 262.524 L
198.83 262.578 L
198.981 262.629 L
199.131 262.677 L
199.282 262.723 L
199.433 262.767 L
199.583 262.808 L
199.734 262.846 L
199.885 262.882 L
200.035 262.916 L
200.186 262.947 L
200.337 262.975 L
200.488 263.001 L
200.638 263.025 L
200.789 263.046 L
200.94 263.064 L
201.09 263.08 L
201.241 263.094 L
201.392 263.105 L
201.542 263.113 L
201.693 263.119 L
201.844 263.123 L
201.994 263.124 L
202.145 263.122 L
202.296 263.119 L
202.447 263.112 L
202.597 263.104 L
202.748 263.092 L
202.899 263.079 L
203.049 263.063 L
203.2 263.044 L
203.351 263.023 L
203.501 262.999 L
203.652 262.974 L
203.803 262.945 L
203.953 262.914 L
204.104 262.881 L
204.255 262.846 L
204.406 262.807 L
204.556 262.767 L
204.707 262.724 L
204.858 262.679 L
205.008 262.631 L
205.159 262.581 L
205.31 262.529 L
205.46 262.474 L
205.611 262.417 L
205.762 262.357 L
205.912 262.295 L
206.063 262.231 L
206.214 262.164 L
206.365 262.095 L
206.515 262.024 L
206.666 261.95 L
206.817 261.874 L
206.967 261.795 L
207.118 261.715 L
207.269 261.632 L
207.419 261.546 L
207.57 261.459 L
207.721 261.369 L
207.872 261.276 L
208.022 261.182 L
208.173 261.085 L
208.324 260.986 L
208.474 260.885 L
208.625 260.781 L
208.776 260.675 L
208.926 260.567 L
209.077 260.457 L
209.228 260.345 L
209.378 260.23 L
209.529 260.113 L
209.68 259.994 L
209.831 259.872 L
209.981 259.749 L
210.132 259.623 L
210.283 259.495 L
210.433 259.365 L
210.584 259.233 L
210.735 259.099 L
210.885 258.962 L
211.036 258.823 L
211.187 258.683 L
211.338 258.54 L
211.488 258.395 L
211.639 258.248 L
211.79 258.099 L
211.94 257.948 L
212.091 257.794 L
212.242 257.639 L
212.392 257.482 L
212.543 257.322 L
212.694 257.161 L
212.844 256.997 L
212.995 256.832 L
213.146 256.664 L
213.297 256.495 L
213.447 256.323 L
213.598 256.15 L
213.749 255.975 L
213.899 255.797 L
214.05 255.618 L
214.201 255.437 L
214.351 255.254 L
214.502 255.069 L
214.653 254.882 L
214.803 254.693 L
214.954 254.502 L
215.105 254.309 L
215.256 254.115 L
215.406 253.919 L
215.557 253.721 L
215.708 253.521 L
215.858 253.319 L
216.009 253.115 L
216.16 252.91 L
216.31 252.703 L
216.461 252.494 L
216.612 252.283 L
216.762 252.071 L
216.913 251.857 L
217.064 251.641 L
217.215 251.423 L
217.365 251.204 L
217.516 250.983 L
217.667 250.76 L
217.817 250.536 L
217.968 250.31 L
218.119 250.082 L
218.269 249.853 L
218.42 249.622 L
218.571 249.389 L
218.722 249.155 L
218.872 248.92 L
219.023 248.682 L
219.174 248.444 L
219.324 248.203 L
219.475 247.961 L
219.626 247.718 L
219.776 247.473 L
219.927 247.226 L
220.078 246.979 L
220.228 246.729 L
220.379 246.478 L
220.53 246.226 L
220.681 245.972 L
220.831 245.717 L
220.982 245.46 L
221.133 245.202 L
221.283 244.943 L
221.434 244.682 L
221.585 244.42 L
221.735 244.156 L
221.886 243.892 L
222.037 243.626 L
222.188 243.358 L
222.338 243.089 L
222.489 242.819 L
222.64 242.548 L
222.79 242.275 L
222.941 242.002 L
223.092 241.726 L
223.242 241.45 L
223.393 241.173 L
223.544 240.894 L
223.694 240.614 L
223.845 240.333 L
223.996 240.051 L
224.147 239.768 L
224.297 239.483 L
224.448 239.198 L
224.599 238.911 L
224.749 238.623 L
224.9 238.334 L
225.051 238.044 L
225.201 237.753 L
225.352 237.461 L
225.503 237.168 L
225.653 236.874 L
225.804 236.579 L
225.955 236.283 L
226.106 235.986 L
226.256 235.689 L
226.407 235.39 L
226.558 235.09 L
226.708 234.789 L
226.859 234.488 L
227.01 234.185 L
227.16 233.882 L
227.311 233.578 L
227.462 233.272 L
227.613 232.966 L
227.763 232.66 L
227.914 232.352 L
228.065 232.044 L
228.215 231.735 L
228.366 231.425 L
228.517 231.114 L
228.667 230.803 L
228.818 230.491 L
228.969 230.178 L
229.119 229.865 L
229.27 229.55 L
229.421 229.236 L
229.572 228.92 L
229.722 228.604 L
229.873 228.287 L
230.024 227.97 L
230.174 227.652 L
230.325 227.333 L
230.476 227.014 L
230.626 226.694 L
230.777 226.374 L
230.928 226.053 L
231.078 225.732 L
231.229 225.41 L
231.38 225.088 L
231.531 224.765 L
231.681 224.442 L
231.832 224.118 L
231.983 223.794 L
232.133 223.469 L
232.284 223.144 L
232.435 222.819 L
232.585 222.493 L
232.736 222.167 L
232.887 221.84 L
233.038 221.513 L
233.188 221.186 L
233.339 220.859 L
233.49 220.531 L
233.64 220.203 L
233.791 219.874 L
233.942 219.546 L
234.092 219.217 L
234.243 218.888 L
234.394 218.558 L
234.544 218.229 L
234.695 217.899 L
234.846 217.569 L
234.997 217.239 L
235.147 216.909 L
235.298 216.578 L
235.449 216.248 L
235.599 215.917 L
235.75 215.586 L
235.901 215.255 L
236.051 214.924 L
236.202 214.593 L
236.353 214.262 L
236.503 213.931 L
236.654 213.6 L
236.805 213.269 L
236.956 212.938 L
237.106 212.607 L
237.257 212.276 L
237.408 211.945 L
237.558 211.614 L
237.709 211.283 L
237.86 210.952 L
238.01 210.621 L
238.161 210.29 L
238.312 209.96 L
238.462 209.63 L
238.613 209.299 L
238.764 208.969 L
238.915 208.639 L
239.065 208.309 L
239.216 207.98 L
239.367 207.65 L
239.517 207.321 L
239.668 206.992 L
239.819 206.664 L
239.969 206.335 L
240.12 206.007 L
240.271 205.679 L
240.422 205.352 L
240.572 205.025 L
240.723 204.698 L
240.874 204.371 L
241.024 204.045 L
241.175 203.719 L
241.326 203.393 L
241.476 203.068 L
241.627 202.743 L
241.778 202.419 L
241.928 202.095 L
242.079 201.772 L
242.23 201.449 L
242.381 201.126 L
242.531 200.804 L
242.682 200.482 L
242.833 200.161 L
242.983 199.84 L
243.134 199.52 L
243.285 199.2 L
243.435 198.881 L
243.586 198.563 L
243.737 198.245 L
243.887 197.927 L
244.038 197.611 L
244.189 197.294 L
244.34 196.979 L
244.49 196.664 L
244.641 196.349 L
244.792 196.036 L
244.942 195.722 L
245.093 195.41 L
245.244 195.098 L
245.394 194.787 L
245.545 194.477 L
245.696 194.167 L
245.847 193.858 L
245.997 193.55 L
246.148 193.243 L
246.299 192.936 L
246.449 192.63 L
246.6 192.325 L
246.751 192.021 L
246.901 191.717 L
247.052 191.414 L
247.203 191.112 L
247.353 190.811 L
247.504 190.511 L
247.655 190.212 L
247.806 189.913 L
247.956 189.615 L
248.107 189.319 L
248.258 189.023 L
248.408 188.728 L
248.559 188.434 L
248.71 188.141 L
248.86 187.848 L
249.011 187.557 L
249.162 187.267 L
249.313 186.977 L
249.463 186.689 L
249.614 186.402 L
249.765 186.115 L
249.915 185.83 L
250.066 185.546 L
250.217 185.263 L
250.367 184.98 L
250.518 184.699 L
250.669 184.419 L
250.819 184.14 L
250.97 183.862 L
251.121 183.585 L
251.272 183.309 L
251.422 183.035 L
251.573 182.761 L
251.724 182.489 L
251.874 182.217 L
252.025 181.947 L
252.176 181.678 L
252.326 181.41 L
252.477 181.144 L
252.628 180.878 L
252.778 180.614 L
252.929 180.351 L
253.08 180.089 L
253.231 179.829 L
253.381 179.569 L
253.532 179.311 L
253.683 179.054 L
253.833 178.799 L
253.984 178.544 L
254.135 178.291 L
254.285 178.039 L
254.436 177.789 L
254.587 177.54 L
254.738 177.292 L
254.888 177.045 L
255.039 176.8 L
255.19 176.556 L
255.34 176.314 L
255.491 176.073 L
255.642 175.833 L
255.792 175.594 L
255.943 175.357 L
256.094 175.122 L
256.244 174.887 L
256.395 174.654 L
256.546 174.423 L
256.697 174.193 L
256.847 173.964 L
256.998 173.737 L
257.149 173.512 L
257.299 173.287 L
257.45 173.064 L
257.601 172.843 L
257.751 172.623 L
257.902 172.405 L
258.053 172.188 L
258.203 171.973 L
258.354 171.759 L
258.505 171.547 L
258.656 171.336 L
258.806 171.127 L
258.957 170.919 L
259.108 170.713 L
259.258 170.508 L
259.409 170.305 L
259.56 170.103 L
259.71 169.904 L
259.861 169.705 L
260.012 169.508 L
260.163 169.313 L
260.313 169.12 L
260.464 168.928 L
260.615 168.738 L
260.765 168.549 L
260.916 168.362 L
261.067 168.176 L
261.217 167.993 L
261.368 167.811 L
261.519 167.63 L
261.669 167.451 L
261.82 167.274 L
261.971 167.099 L
262.122 166.925 L
262.272 166.753 L
262.423 166.583 L
262.574 166.414 L
262.724 166.247 L
262.875 166.082 L
263.026 165.919 L
263.176 165.757 L
263.327 165.597 L
263.478 165.439 L
263.628 165.282 L
263.779 165.127 L
263.93 164.974 L
264.081 164.823 L
264.231 164.674 L
264.382 164.526 L
264.533 164.38 L
264.683 164.236 L
264.834 164.094 L
264.985 163.953 L
265.135 163.814 L
265.286 163.677 L
265.437 163.542 L
265.587 163.409 L
265.738 163.278 L
265.889 163.148 L
266.04 163.02 L
266.19 162.894 L
266.341 162.77 L
266.492 162.648 L
266.642 162.528 L
266.793 162.409 L
266.944 162.293 L
267.094 162.178 L
267.245 162.065 L
267.396 161.954 L
267.547 161.845 L
267.697 161.738 L
267.848 161.633 L
267.999 161.529 L
268.149 161.428 L
268.3 161.328 L
268.451 161.231 L
268.601 161.135 L
268.752 161.041 L
268.903 160.949 L
269.053 160.859 L
269.204 160.771 L
269.355 160.685 L
269.506 160.601 L
269.656 160.519 L
269.807 160.439 L
269.958 160.36 L
270.108 160.284 L
270.259 160.21 L
270.41 160.137 L
270.56 160.067 L
270.711 159.999 L
270.862 159.932 L
271.012 159.868 L
271.163 159.805 L
271.314 159.745 L
271.465 159.686 L
271.615 159.63 L
271.766 159.576 L
271.917 159.523 L
272.067 159.473 L
272.218 159.424 L
272.369 159.378 L
272.519 159.333 L
272.67 159.291 L
272.821 159.251 L
272.972 159.212 L
273.122 159.176 L
273.273 159.142 L
273.424 159.11 L
273.574 159.08 L
273.725 159.051 L
273.876 159.025 L
274.026 159.001 L
274.177 158.979 L
274.328 158.959 L
274.478 158.942 L
274.629 158.926 L
274.78 158.912 L
274.931 158.9 L
275.081 158.891 L
275.232 158.883 L
275.383 158.878 L
275.533 158.874 L
275.684 158.873 L
275.835 158.874 L
275.985 158.877 L
276.136 158.882 L
276.287 158.889 L
276.438 158.898 L
276.588 158.909 L
276.739 158.922 L
276.89 158.937 L
277.04 158.955 L
277.191 158.974 L
277.342 158.996 L
277.492 159.02 L
277.643 159.046 L
277.794 159.074 L
277.944 159.104 L
278.095 159.136 L
278.246 159.17 L
278.397 159.206 L
278.547 159.245 L
278.698 159.285 L
278.849 159.328 L
278.999 159.373 L
279.15 159.42 L
279.301 159.469 L
279.451 159.52 L
279.602 159.573 L
279.753 159.628 L
279.903 159.686 L
280.054 159.746 L
280.205 159.807 L
280.356 159.871 L
280.506 159.937 L
280.657 160.005 L
280.808 160.075 L
280.958 160.148 L
281.109 160.222 L
281.26 160.299 L
281.41 160.377 L
281.561 160.458 L
281.712 160.541 L
281.863 160.626 L
282.013 160.713 L
282.164 160.803 L
282.315 160.894 L
282.465 160.988 L
282.616 161.083 L
282.767 161.181 L
282.917 161.281 L
283.068 161.383 L
283.219 161.487 L
283.369 161.594 L
283.52 161.702 L
283.671 161.813 L
283.822 161.925 L
283.972 162.04 L
284.123 162.157 L
284.274 162.276 L
284.424 162.397 L
284.575 162.52 L
284.726 162.646 L
284.876 162.773 L
285.027 162.903 L
285.178 163.035 L
285.328 163.168 L
285.479 163.304 L
285.63 163.442 L
285.781 163.583 L
285.931 163.725 L
286.082 163.869 L
286.233 164.016 L
286.383 164.165 L
286.534 164.315 L
286.685 164.468 L
286.835 164.623 L
286.986 164.78 L
287.137 164.939 L
287.288 165.1 L
287.438 165.264 L
287.589 165.429 L
287.74 165.597 L
287.89 165.766 L
288.041 165.938 L
288.192 166.112 L
288.342 166.288 L
288.493 166.466 L
288.644 166.646 L
288.794 166.828 L
288.945 167.012 L
289.096 167.199 L
289.247 167.387 L
289.397 167.577 L
289.548 167.77 L
289.699 167.965 L
289.849 168.161 L
290 168.36 L
290.151 168.561 L
290.301 168.764 L
290.452 168.969 L
290.603 169.176 L
290.753 169.385 L
290.904 169.596 L
291.055 169.809 L
291.206 170.024 L
291.356 170.241 L
291.507 170.46 L
291.658 170.682 L
291.808 170.905 L
291.959 171.13 L
292.11 171.358 L
292.26 171.587 L
292.411 171.818 L
292.562 172.052 L
292.712 172.287 L
292.863 172.525 L
293.014 172.764 L
293.165 173.006 L
293.315 173.249 L
293.466 173.495 L
293.617 173.742 L
293.767 173.992 L
293.918 174.243 L
294.069 174.496 L
294.219 174.752 L
294.37 175.009 L
294.521 175.269 L
294.672 175.53 L
294.822 175.793 L
294.973 176.058 L
295.124 176.326 L
295.274 176.595 L
295.425 176.866 L
295.576 177.139 L
295.726 177.414 L
295.877 177.691 L
296.028 177.97 L
296.178 178.25 L
296.329 178.533 L
296.48 178.818 L
296.631 179.104 L
296.781 179.393 L
296.932 179.683 L
297.083 179.975 L
297.233 180.269 L
297.384 180.565 L
297.535 180.863 L
297.685 181.163 L
297.836 181.465 L
297.987 181.768 L
298.137 182.074 L
298.288 182.381 L
298.439 182.69 L
298.59 183.001 L
298.74 183.314 L
298.891 183.629 L
299.042 183.945 L
299.192 184.264 L
299.343 184.584 L
299.494 184.906 L
299.644 185.23 L
299.795 185.555 L
299.946 185.883 L
300.097 186.212 L
300.247 186.543 L
300.398 186.876 L
300.549 187.211 L
300.699 187.547 L
300.85 187.885 L
301.001 188.225 L
301.151 188.567 L
301.302 188.91 L
301.453 189.255 L
301.603 189.602 L
301.754 189.951 L
301.905 190.301 L
302.056 190.653 L
302.206 191.007 L
302.357 191.363 L
302.508 191.72 L
302.658 192.079 L
302.809 192.44 L
302.96 192.802 L
303.11 193.166 L
303.261 193.532 L
303.412 193.899 L
303.563 194.268 L
303.713 194.639 L
303.864 195.011 L
304.015 195.385 L
304.165 195.76 L
304.316 196.138 L
304.467 196.516 L
304.617 196.897 L
304.768 197.279 L
304.919 197.662 L
305.069 198.048 L
305.22 198.435 L
305.371 198.823 L
305.522 199.213 L
305.672 199.604 L
305.823 199.997 L
305.974 200.392 L
306.124 200.788 L
306.275 201.186 L
306.426 201.585 L
306.576 201.986 L
306.727 202.388 L
306.878 202.792 L
307.028 203.197 L
307.179 203.604 L
307.33 204.012 L
307.481 204.422 L
307.631 204.833 L
307.782 205.246 L
307.933 205.66 L
308.083 206.075 L
308.234 206.492 L
308.385 206.911 L
308.535 207.33 L
308.686 207.752 L
308.837 208.174 L
308.988 208.598 L
309.138 209.024 L
309.289 209.45 L
309.44 209.878 L
309.59 210.308 L
309.741 210.739 L
309.892 211.171 L
310.042 211.604 L
310.193 212.039 L
310.344 212.475 L
310.494 212.913 L
310.645 213.352 L
310.796 213.792 L
310.947 214.233 L
311.097 214.676 L
311.248 215.12 L
311.399 215.565 L
311.549 216.011 L
311.7 216.459 L
311.851 216.907 L
312.001 217.357 L
312.152 217.809 L
312.303 218.261 L
312.453 218.715 L
312.604 219.17 L
312.755 219.626 L
312.906 220.083 L
313.056 220.541 L
313.207 221.001 L
313.358 221.461 L
313.508 221.923 L
313.659 222.386 L
313.81 222.85 L
313.96 223.315 L
314.111 223.781 L
314.262 224.248 L
314.413 224.716 L
314.563 225.186 L
314.714 225.656 L
314.865 226.127 L
315.015 226.6 L
315.166 227.073 L
315.317 227.548 L
315.467 228.023 L
315.618 228.499 L
315.769 228.977 L
315.919 229.455 L
316.07 229.935 L
316.221 230.415 L
316.372 230.896 L
316.522 231.378 L
316.673 231.861 L
316.824 232.345 L
316.974 232.83 L
317.125 233.316 L
317.276 233.802 L
317.426 234.29 L
317.577 234.778 L
317.728 235.267 L
317.878 235.757 L
318.029 236.248 L
318.18 236.739 L
318.331 237.232 L
318.481 237.725 L
318.632 238.219 L
318.783 238.714 L
318.933 239.209 L
319.084 239.705 L
319.235 240.202 L
319.385 240.7 L
319.536 241.198 L
319.687 241.697 L
319.837 242.197 L
319.988 242.697 L
320.139 243.198 L
320.29 243.7 L
320.44 244.203 L
320.591 244.706 L
320.742 245.209 L
320.892 245.713 L
321.043 246.218 L
321.194 246.723 L
321.344 247.229 L
321.495 247.736 L
321.646 248.243 L
321.797 248.75 L
321.947 249.258 L
322.098 249.767 L
322.249 250.276 L
322.399 250.786 L
322.55 251.296 L
322.701 251.806 L
322.851 252.317 L
323.002 252.829 L
323.153 253.34 L
323.303 253.853 L
323.454 254.365 L
323.605 254.878 L
323.756 255.392 L
323.906 255.905 L
324.057 256.419 L
324.208 256.934 L
324.358 257.449 L
324.509 257.964 L
324.66 258.479 L
324.81 258.995 L
324.961 259.511 L
325.112 260.027 L
325.262 260.543 L
325.413 261.06 L
325.564 261.577 L
325.715 262.094 L
325.865 262.611 L
326.016 263.129 L
326.167 263.647 L
326.317 264.164 L
326.468 264.682 L
326.619 265.2 L
326.769 265.719 L
326.92 266.237 L
327.071 266.755 L
327.222 267.274 L
327.372 267.793 L
327.523 268.311 L
327.674 268.83 L
327.824 269.349 L
327.975 269.867 L
328.126 270.386 L
328.276 270.905 L
328.427 271.423 L
328.578 271.942 L
328.728 272.461 L
328.879 272.979 L
329.03 273.498 L
329.181 274.016 L
329.331 274.534 L
329.482 275.052 L
329.633 275.57 L
329.783 276.088 L
329.934 276.606 L
330.085 277.123 L
330.235 277.641 L
330.386 278.158 L
330.537 278.675 L
330.688 279.192 L
330.838 279.708 L
330.989 280.224 L
331.14 280.74 L
331.29 281.256 L
331.441 281.771 L
331.592 282.286 L
331.742 282.801 L
331.893 283.315 L
332.044 283.829 L
332.194 284.343 L
332.345 284.856 L
332.496 285.369 L
332.647 285.882 L
332.797 286.394 L
332.948 286.905 L
333.099 287.416 L
333.249 287.927 L
333.4 288.437 L
333.551 288.947 L
333.701 289.456 L
333.852 289.965 L
334.003 290.473 L
334.153 290.981 L
334.304 291.488 L
334.455 291.994 L
334.606 292.5 L
334.756 293.005 L
334.907 293.51 L
335.058 294.014 L
335.208 294.517 L
335.359 295.02 L
335.51 295.522 L
335.66 296.023 L
335.811 296.524 L
335.962 297.024 L
336.113 297.523 L
336.263 298.021 L
336.414 298.519 L
336.565 299.016 L
336.715 299.512 L
336.866 300.007 L
337.017 300.502 L
337.167 300.995 L
337.318 301.488 L
337.469 301.98 L
337.619 302.471 L
337.77 302.961 L
337.921 303.45 L
338.072 303.938 L
338.222 304.426 L
338.373 304.912 L
338.524 305.398 L
338.674 305.882 L
338.825 306.366 L
338.976 306.848 L
339.126 307.329 L
339.277 307.81 L
339.428 308.289 L
339.578 308.767 L
339.729 309.244 L
339.88 309.721 L
340.031 310.195 L
340.181 310.669 L
340.332 311.142 L
340.483 311.614 L
340.633 312.084 L
340.784 312.553 L
340.935 313.021 L
341.085 313.488 L
341.236 313.953 L
341.387 314.418 L
341.538 314.881 L
341.688 315.343 L
341.839 315.803 L
341.99 316.262 L
342.14 316.72 L
342.291 317.177 L
342.442 317.632 L
342.592 318.086 L
342.743 318.539 L
342.894 318.99 L
343.044 319.439 L
343.195 319.888 L
343.346 320.335 L
343.497 320.78 L
343.647 321.224 L
343.798 321.667 L
343.949 322.108 L
344.099 322.547 L
344.25 322.985 L
344.401 323.422 L
344.551 323.857 L
344.702 324.29 L
344.853 324.722 L
345.003 325.153 L
345.154 325.581 L
345.305 326.009 L
345.456 326.434 L
345.606 326.858 L
345.757 327.28 L
345.908 327.701 L
346.058 328.12 L
346.209 328.537 L
346.36 328.952 L
346.51 329.366 L
346.661 329.778 L
346.812 330.188 L
346.962 330.597 L
347.113 331.004 L
347.264 331.409 L
347.415 331.812 L
347.565 332.213 L
347.716 332.613 L
347.867 333.011 L
348.017 333.407 L
348.168 333.801 L
348.319 334.193 L
348.469 334.583 L
348.62 334.972 L
348.771 335.358 L
348.922 335.743 L
349.072 336.125 L
349.223 336.506 L
349.374 336.885 L
349.524 337.261 L
349.675 337.636 L
349.826 338.009 L
349.976 338.38 L
350.127 338.748 L
350.278 339.115 L
350.428 339.48 L
350.579 339.842 L
350.73 340.203 L
350.881 340.561 L
351.031 340.917 L
351.182 341.271 L
351.333 341.624 L
351.483 341.973 L
351.634 342.321 L
351.785 342.667 L
351.935 343.01 L
352.086 343.352 L
352.237 343.691 L
352.387 344.028 L
352.538 344.362 L
352.689 344.695 L
352.84 345.025 L
352.99 345.353 L
353.141 345.679 L
353.292 346.002 L
353.442 346.323 L
353.593 346.642 L
353.744 346.959 L
353.894 347.273 L
354.045 347.585 L
354.196 347.894 L
354.347 348.202 L
354.497 348.507 L
354.648 348.809 L
354.799 349.109 L
354.949 349.407 L
355.1 349.702 L
355.251 349.995 L
355.401 350.286 L
355.552 350.574 L
355.703 350.86 L
355.853 351.143 L
356.004 351.424 L
356.155 351.702 L
356.306 351.978 L
356.456 352.251 L
356.607 352.522 L
356.758 352.791 L
356.908 353.056 L
357.059 353.32 L
357.21 353.581 L
357.36 353.839 L
357.511 354.095 L
357.662 354.348 L
357.813 354.598 L
357.963 354.847 L
358.114 355.092 L
358.265 355.335 L
358.415 355.575 L
358.566 355.813 L
358.717 356.048 L
358.867 356.281 L
359.018 356.51 L
359.169 356.738 L
359.319 356.962 L
359.47 357.184 L
359.621 357.404 L
359.772 357.62 L
359.922 357.834 L
360.073 358.045 L
360.224 358.254 L
360.374 358.46 L
360.525 358.663 L
360.676 358.864 L
360.826 359.062 L
360.977 359.257 L
361.128 359.449 L
361.278 359.639 L
361.429 359.826 L
361.58 360.01 L
361.731 360.191 L
361.881 360.37 L
362.032 360.546 L
362.183 360.719 L
362.333 360.89 L
362.484 361.057 L
362.635 361.222 L
362.785 361.384 L
362.936 361.544 L
363.087 361.7 L
363.237 361.854 L
363.388 362.005 L
363.539 362.153 L
363.69 362.298 L
363.84 362.441 L
363.991 362.581 L
364.142 362.718 L
364.292 362.852 L
364.443 362.983 L
364.594 363.111 L
364.744 363.237 L
364.895 363.36 L
365.046 363.48 L
365.197 363.597 L
365.347 363.711 L
365.498 363.822 L
365.649 363.931 L
365.799 364.037 L
365.95 364.14 L
366.101 364.24 L
366.251 364.337 L
366.402 364.431 L
366.553 364.523 L
366.703 364.611 L
366.854 364.697 L
367.005 364.78 L
367.156 364.86 L
367.306 364.937 L
367.457 365.011 L
367.608 365.082 L
367.758 365.151 L
367.909 365.216 L
368.06 365.279 L
368.21 365.339 L
368.361 365.396 L
368.512 365.45 L
368.663 365.502 L
368.813 365.55 L
368.964 365.596 L
369.115 365.638 L
369.265 365.678 L
369.416 365.715 L
369.567 365.749 L
369.717 365.78 L
369.868 365.808 L
370.019 365.834 L
370.169 365.856 L
370.32 365.876 L
370.471 365.893 L
370.622 365.907 L
370.772 365.918 L
370.923 365.926 L
371.074 365.932 L
371.224 365.934 L
371.375 365.934 L
371.526 365.931 L
371.676 365.925 L
371.827 365.916 L
371.978 365.904 L
372.128 365.889 L
372.279 365.872 L
372.43 365.852 L
372.581 365.829 L
372.731 365.803 L
372.882 365.774 L
373.033 365.743 L
373.183 365.708 L
373.334 365.671 L
373.485 365.631 L
373.635 365.588 L
373.786 365.542 L
373.937 365.494 L
374.087 365.443 L
374.238 365.389 L
374.389 365.332 L
374.54 365.272 L
374.69 365.21 L
374.841 365.145 L
374.992 365.077 L
375.142 365.006 L
375.293 364.933 L
375.444 364.857 L
375.594 364.778 L
375.745 364.696 L
375.896 364.611 L
376.047 364.524 L
376.197 364.434 L
376.348 364.342 L
376.499 364.246 L
376.649 364.148 L
376.8 364.048 L
376.951 363.944 L
377.101 363.838 L
377.252 363.729 L
377.403 363.618 L
377.553 363.503 L
377.704 363.386 L
377.855 363.267 L
378.006 363.145 L
378.156 363.02 L
378.307 362.892 L
378.458 362.762 L
378.608 362.63 L
378.759 362.494 L
378.91 362.356 L
379.06 362.216 L
379.211 362.072 L
379.362 361.927 L
379.513 361.778 L
379.663 361.627 L
379.814 361.474 L
379.965 361.318 L
380.115 361.159 L
380.266 360.998 L
380.417 360.834 L
380.567 360.668 L
380.718 360.5 L
380.869 360.328 L
381.019 360.155 L
381.17 359.978 L
381.321 359.8 L
381.471 359.618 L
381.622 359.435 L
381.773 359.249 L
381.924 359.06 L
382.074 358.869 L
382.225 358.676 L
382.376 358.48 L
382.526 358.281 L
382.677 358.081 L
382.828 357.878 L
382.978 357.672 L
383.129 357.464 L
383.28 357.254 L
383.431 357.042 L
383.581 356.827 L
383.732 356.61 L
383.883 356.39 L
384.033 356.168 L
384.184 355.944 L
384.335 355.717 L
384.485 355.489 L
384.636 355.258 L
384.787 355.024 L
384.938 354.789 L
385.088 354.551 L
385.239 354.311 L
385.39 354.069 L
385.54 353.824 L
385.691 353.577 L
385.842 353.328 L
385.992 353.077 L
386.143 352.824 L
386.294 352.569 L
386.444 352.311 L
386.595 352.051 L
386.746 351.789 L
386.897 351.525 L
387.047 351.259 L
387.198 350.991 L
387.349 350.721 L
387.499 350.448 L
387.65 350.174 L
387.801 349.897 L
387.951 349.619 L
388.102 349.338 L
388.253 349.056 L
388.404 348.771 L
388.554 348.484 L
388.705 348.196 L
388.856 347.905 L
389.006 347.613 L
389.157 347.318 L
389.308 347.022 L
389.458 346.723 L
389.609 346.423 L
389.76 346.121 L
389.91 345.817 L
390.061 345.511 L
390.212 345.203 L
390.362 344.893 L
390.513 344.581 L
390.664 344.268 L
390.815 343.953 L
390.965 343.635 L
391.116 343.316 L
391.267 342.996 L
391.417 342.673 L
391.568 342.349 L
391.719 342.023 L
391.869 341.695 L
392.02 341.366 L
392.171 341.034 L
392.322 340.701 L
392.472 340.367 L
392.623 340.03 L
392.774 339.692 L
392.924 339.352 L
393.075 339.011 L
393.226 338.668 L
393.376 338.323 L
393.527 337.977 L
393.678 337.629 L
393.828 337.28 L
393.979 336.929 L
394.13 336.576 L
394.281 336.222 L
394.431 335.866 L
394.582 335.509 L
394.733 335.15 L
394.883 334.789 L
395.034 334.427 L
395.185 334.064 L
395.335 333.699 L
395.486 333.333 L
395.637 332.965 L
395.788 332.596 L
395.938 332.225 L
396.089 331.853 L
396.24 331.48 L
396.39 331.105 L
396.541 330.728 L
396.692 330.351 L
396.842 329.972 L
396.993 329.591 L
397.144 329.209 L
397.294 328.826 L
397.445 328.442 L
397.596 328.056 L
397.747 327.669 L
397.897 327.281 L
398.048 326.891 L
398.199 326.5 L
398.349 326.108 L
398.5 325.715 L
398.651 325.32 L
398.801 324.925 L
398.952 324.528 L
399.103 324.129 L
399.253 323.73 L
399.404 323.33 L
399.555 322.928 L
399.706 322.525 L
399.856 322.121 L
400.007 321.716 L
400.158 321.31 L
400.308 320.902 L
400.459 320.494 L
400.61 320.084 L
400.76 319.674 L
400.911 319.262 L
401.062 318.85 L
401.212 318.436 L
401.363 318.021 L
401.514 317.605 L
401.665 317.188 L
401.815 316.771 L
401.966 316.352 L
402.117 315.932 L
402.267 315.512 L
402.418 315.09 L
402.569 314.667 L
402.719 314.244 L
402.87 313.819 L
403.021 313.394 L
403.172 312.968 L
403.322 312.541 L
403.473 312.113 L
403.624 311.684 L
403.774 311.254 L
403.925 310.824 L
404.076 310.392 L
404.226 309.96 L
404.377 309.527 L
404.528 309.093 L
404.678 308.658 L
404.829 308.223 L
404.98 307.787 L
405.131 307.35 L
405.281 306.912 L
405.432 306.474 L
405.583 306.035 L
405.733 305.595 L
405.884 305.154 L
406.035 304.713 L
406.185 304.271 L
406.336 303.828 L
406.487 303.385 L
406.638 302.941 L
406.788 302.496 L
406.939 302.051 L
407.09 301.605 L
407.24 301.158 L
407.391 300.711 L
407.542 300.263 L
407.692 299.815 L
407.843 299.366 L
407.994 298.916 L
408.144 298.466 L
408.295 298.016 L
408.446 297.564 L
408.596 297.113 L
408.747 296.66 L
408.898 296.208 L
409.049 295.754 L
409.199 295.301 L
409.35 294.846 L
409.501 294.392 L
409.651 293.936 L
409.802 293.481 L
409.953 293.024 L
410.103 292.568 L
410.254 292.111 L
410.405 291.653 L
410.556 291.195 L
410.706 290.737 L
410.857 290.278 L
411.008 289.819 L
411.158 289.36 L
411.309 288.9 L
411.46 288.44 L
411.61 287.979 L
411.761 287.518 L
411.912 287.057 L
412.063 286.595 L
412.213 286.134 L
412.364 285.671 L
412.515 285.209 L
412.665 284.746 L
412.816 284.283 L
412.967 283.819 L
413.117 283.356 L
413.268 282.892 L
413.419 282.427 L
413.569 281.963 L
413.72 281.498 L
413.871 281.033 L
414.022 280.568 L
414.172 280.103 L
414.323 279.637 L
414.474 279.171 L
414.624 278.705 L
414.775 278.239 L
414.926 277.773 L
415.076 277.306 L
415.227 276.839 L
415.378 276.372 L
415.529 275.905 L
415.679 275.438 L
415.83 274.971 L
415.981 274.503 L
416.131 274.036 L
416.282 273.568 L
416.433 273.1 L
416.583 272.632 L
416.734 272.164 L
416.885 271.696 L
417.035 271.228 L
417.186 270.76 L
417.337 270.291 L
417.487 269.823 L
417.638 269.354 L
417.789 268.886 L
417.94 268.417 L
418.09 267.949 L
418.241 267.48 L
418.392 267.012 L
418.542 266.543 L
418.693 266.074 L
418.844 265.606 L
418.994 265.137 L
419.145 264.668 L
419.296 264.2 L
419.447 263.731 L
419.597 263.263 L
419.748 262.794 L
419.899 262.325 L
420.049 261.857 L
420.2 261.389 L
420.351 260.92 L
420.501 260.452 L
420.652 259.984 L
420.803 259.516 L
420.953 259.048 L
421.104 258.58 L
421.255 258.112 L
421.406 257.644 L
421.556 257.176 L
421.707 256.709 L
421.858 256.241 L
422.008 255.774 L
422.159 255.307 L
422.31 254.84 L
422.46 254.373 L
422.611 253.906 L
422.762 253.44 L
422.913 252.973 L
423.063 252.507 L
423.214 252.041 L
423.365 251.575 L
423.515 251.109 L
423.666 250.643 L
423.817 250.178 L
423.967 249.713 L
424.118 249.248 L
424.269 248.783 L
424.419 248.318 L
424.57 247.854 L
424.721 247.389 L
424.872 246.925 L
425.022 246.461 L
425.173 245.998 L
425.324 245.535 L
425.474 245.071 L
425.625 244.609 L
425.776 244.146 L
425.926 243.684 L
426.077 243.221 L
426.228 242.76 L
426.378 242.298 L
426.529 241.837 L
426.68 241.376 L
426.831 240.915 L
426.981 240.454 L
427.132 239.994 L
427.283 239.534 L
427.433 239.075 L
427.584 238.615 L
427.735 238.156 L
427.885 237.697 L
428.036 237.239 L
428.187 236.781 L
428.337 236.323 L
428.488 235.866 L
428.639 235.408 L
428.79 234.951 L
428.94 234.495 L
429.091 234.039 L
429.242 233.583 L
429.392 233.127 L
429.543 232.672 L
429.694 232.217 L
429.844 231.763 L
429.995 231.309 L
430.146 230.855 L
430.297 230.402 L
430.447 229.948 L
430.598 229.496 L
430.749 229.044 L
430.899 228.592 L
431.05 228.14 L
431.201 227.689 L
431.351 227.238 L
431.502 226.788 L
431.653 226.338 L
431.803 225.888 L
431.954 225.439 L
432.105 224.99 L
432.256 224.541 L
432.406 224.093 L
432.557 223.646 L
432.708 223.198 L
432.858 222.752 L
433.009 222.305 L
433.16 221.859 L
433.31 221.414 L
433.461 220.968 L
433.612 220.524 L
433.763 220.079 L
433.913 219.635 L
434.064 219.192 L
434.215 218.749 L
434.365 218.306 L
434.516 217.864 L
434.667 217.422 L
434.817 216.981 L
434.968 216.54 L
435.119 216.1 L
435.269 215.66 L
435.42 215.221 L
435.571 214.782 L
435.721 214.343 L
435.872 213.905 L
436.023 213.467 L
436.174 213.03 L
436.324 212.593 L
436.475 212.157 L
436.626 211.721 L
436.776 211.286 L
436.927 210.851 L
437.078 210.417 L
437.228 209.983 L
437.379 209.549 L
437.53 209.116 L
437.681 208.684 L
437.831 208.252 L
437.982 207.82 L
438.133 207.389 L
438.283 206.959 L
438.434 206.529 L
438.585 206.099 L
438.735 205.67 L
438.886 205.242 L
439.037 204.814 L
439.188 204.386 L
439.338 203.959 L
439.489 203.532 L
439.64 203.106 L
439.79 202.681 L
439.941 202.256 L
440.092 201.831 L
440.242 201.407 L
440.393 200.983 L
440.544 200.56 L
440.694 200.138 L
440.845 199.716 L
440.996 199.294 L
441.147 198.873 L
441.297 198.453 L
441.448 198.033 L
441.599 197.613 L
441.749 197.195 L
441.9 196.776 L
442.051 196.358 L
442.201 195.941 L
442.352 195.524 L
442.503 195.108 L
442.654 194.692 L
442.804 194.277 L
442.955 193.862 L
443.106 193.448 L
443.256 193.034 L
443.407 192.621 L
443.558 192.208 L
443.708 191.796 L
443.859 191.384 L
444.01 190.973 L
444.16 190.563 L
444.311 190.153 L
444.462 189.743 L
444.612 189.334 L
444.763 188.926 L
444.914 188.518 L
445.065 188.111 L
445.215 187.704 L
445.366 187.298 L
445.517 186.892 L
445.667 186.487 L
445.818 186.082 L
445.969 185.678 L
446.119 185.275 L
446.27 184.872 L
446.421 184.469 L
446.572 184.067 L
446.722 183.666 L
446.873 183.265 L
447.024 182.865 L
447.174 182.465 L
447.325 182.066 L
447.476 181.667 L
447.626 181.269 L
447.777 180.871 L
447.928 180.474 L
448.078 180.078 L
448.229 179.682 L
448.38 179.287 L
448.531 178.892 L
448.681 178.497 L
448.832 178.104 L
448.983 177.71 L
449.133 177.318 L
449.284 176.926 L
449.435 176.534 L
449.585 176.143 L
449.736 175.753 L
449.887 175.363 L
450.038 174.973 L
450.188 174.584 L
450.339 174.196 L
450.49 173.808 L
450.64 173.421 L
450.791 173.035 L
450.942 172.648 L
451.092 172.263 L
451.243 171.878 L
451.394 171.493 L
451.544 171.11 L
451.695 170.726 L
451.846 170.343 L
451.997 169.961 L
452.147 169.579 L
452.298 169.198 L
452.449 168.818 L
452.599 168.438 L
452.75 168.058 L
452.901 167.679 L
453.051 167.301 L
453.202 166.923 L
453.353 166.546 L
453.503 166.169 L
453.654 165.793 L
453.805 165.417 L
453.956 165.042 L
454.106 164.667 L
454.257 164.293 L
454.408 163.92 L
454.558 163.547 L
454.709 163.174 L
454.86 162.802 L
455.01 162.431 L
455.161 162.06 L
455.312 161.69 L
455.462 161.321 L
455.613 160.951 L
455.764 160.583 L
455.915 160.215 L
456.065 159.847 L
456.216 159.48 L
456.367 159.114 L
456.517 158.748 L
456.668 158.383 L
456.819 158.018 L
456.969 157.654 L
457.12 157.29 L
457.271 156.927 L
457.422 156.565 L
457.572 156.202 L
457.723 155.841 L
457.874 155.48 L
458.024 155.12 L
458.175 154.76 L
458.326 154.4 L
458.476 154.042 L
458.627 153.683 L
458.778 153.326 L
458.928 152.968 L
459.079 152.612 L
459.23 152.256 L
459.381 151.9 L
459.531 151.545 L
459.682 151.191 L
459.833 150.837 L
459.983 150.483 L
460.134 150.131 L
460.285 149.778 L
460.435 149.426 L
460.586 149.075 L
460.737 148.725 L
460.888 148.374 L
461.038 148.025 L
461.189 147.676 L
461.34 147.327 L
461.49 146.979 L
461.641 146.632 L
461.792 146.285 L
461.942 145.938 L
462.093 145.592 L
462.244 145.247 L
462.394 144.902 L
462.545 144.558 L
462.696 144.214 L
462.846 143.871 L
462.997 143.528 L
463.148 143.186 L
463.299 142.845 L
463.449 142.504 L
463.6 142.163 L
463.751 141.823 L
463.901 141.484 L
464.052 141.145 L
464.203 140.806 L
464.353 140.468 L
464.504 140.131 L
464.655 139.794 L
464.806 139.458 L
464.956 139.122 L
465.107 138.787 L
465.258 138.452 L
465.408 138.118 L
465.559 137.784 L
465.71 137.451 L
465.86 137.119 L
466.011 136.787 L
466.162 136.455 L
466.313 136.124 L
466.463 135.794 L
466.614 135.464 L
466.765 135.134 L
466.915 134.806 L
467.066 134.477 L
467.217 134.149 L
467.367 133.822 L
467.518 133.495 L
467.669 133.169 L
467.819 132.843 L
467.97 132.518 L
468.121 132.194 L
468.272 131.869 L
468.422 131.546 L
468.573 131.223 L
468.724 130.9 L
468.874 130.578 L
469.025 130.257 L
469.176 129.936 L
469.326 129.615 L
469.477 129.295 L
469.628 128.976 L
469.779 128.657 L
469.929 128.339 L
470.08 128.021 L
470.231 127.704 L
470.381 127.387 L
470.532 127.071 L
470.683 126.755 L
470.833 126.44 L
470.984 126.125 L
471.135 125.811 L
471.285 125.498 L
471.436 125.185 L
471.587 124.872 L
471.737 124.56 L
471.888 124.249 L
472.039 123.938 L
472.19 123.627 L
472.34 123.317 L
472.491 123.008 L
472.642 122.699 L
472.792 122.391 L
472.943 122.083 L
473.094 121.776 L
473.244 121.469 L
473.395 121.163 L
473.546 120.857 L
473.697 120.552 L
473.847 120.248 L
473.998 119.944 L
474.149 119.64 L
474.299 119.337 L
474.45 119.035 L
474.601 118.733 L
474.751 118.431 L
474.902 118.13 L
475.053 117.83 L
475.203 117.53 L
475.354 117.231 L
475.505 116.932 L
475.656 116.634 L
475.806 116.336 L
475.957 116.039 L
476.108 115.743 L
476.258 115.447 L
476.409 115.151 L
476.56 114.856 L
476.71 114.562 L
476.861 114.268 L
477.012 113.974 L
477.163 113.682 L
477.313 113.389 L
477.464 113.098 L
477.615 112.806 L
477.765 112.516 L
477.916 112.226 L
478.067 111.936 L
478.217 111.647 L
478.368 111.359 L
478.519 111.071 L
478.669 110.783 L
478.82 110.496 L
478.971 110.21 L
479.122 109.924 L
479.272 109.639 L
479.423 109.354 L
479.574 109.07 L
479.724 108.787 L
479.875 108.504 L
480.026 108.221 L
480.176 107.939 L
480.327 107.658 L
480.478 107.377 L
480.628 107.097 L
480.779 106.817 L
480.93 106.538 L
481.081 106.259 L
481.231 105.981 L
481.382 105.704 L
481.533 105.427 L
481.683 105.151 L
481.834 104.875 L
481.985 104.6 L
482.135 104.325 L
482.286 104.051 L
482.437 103.777 L
482.587 103.505 L
482.738 103.232 L
482.889 102.96 L
483.04 102.689 L
483.19 102.418 L
483.341 102.148 L
483.492 101.879 L
483.642 101.61 L
483.793 101.341 L
483.944 101.074 L
484.094 100.806 L
484.245 100.54 L
484.396 100.274 L
484.547 100.008 L
484.697 99.743 L
484.848 99.479 L
484.999 99.215 L
485.149 98.952 L
485.3 98.69 L
485.451 98.428 L
485.601 98.166 L
485.752 97.905 L
485.903 97.645 L
486.053 97.386 L
486.204 97.127 L
486.355 96.868 L
486.506 96.61 L
486.656 96.353 L
486.807 96.097 L
486.958 95.841 L
487.108 95.585 L
487.259 95.33 L
487.41 95.076 L
487.56 94.823 L
487.711 94.57 L
487.862 94.317 L
488.013 94.065 L
488.163 93.814 L
488.314 93.564 L
488.465 93.314 L
488.615 93.065 L
488.766 92.816 L
488.917 92.568 L
489.067 92.32 L
489.218 92.074 L
489.369 91.828 L
489.519 91.582 L
489.67 91.337 L
489.821 91.093 L
489.971 90.849 L
490.122 90.606 L
490.273 90.364 L
490.424 90.122 L
490.574 89.881 L
490.725 89.641 L
490.876 89.401 L
491.026 89.162 L
491.177 88.923 L
491.328 88.685 L
491.478 88.448 L
491.629 88.212 L
491.78 87.976 L
491.931 87.74 L
492.081 87.506 L
492.232 87.272 L
492.383 87.039 L
492.533 86.806 L
492.684 86.574 L
492.835 86.343 L
492.985 86.112 L
493.136 85.882 L
493.287 85.653 L
493.438 85.425 L
493.588 85.197 L
493.739 84.97 L
493.89 84.743 L
494.04 84.517 L
494.191 84.292 L
494.342 84.068 L
494.492 83.844 L
494.643 83.621 L
494.794 83.399 L
494.944 83.177 L
495.095 82.956 L
495.246 82.736 L
495.397 82.516 L
495.547 82.298 L
495.698 82.079 L
495.849 81.862 L
495.999 81.645 L
496.15 81.429 L
496.301 81.214 L
496.451 81 L
496.602 80.786 L
496.753 80.573 L
496.904 80.36 L
497.054 80.149 L
497.205 79.938 L
497.356 79.728 L
497.506 79.518 L
497.657 79.309 L
497.808 79.102 L
497.958 78.894 L
498.109 78.688 L
498.26 78.482 L
498.41 78.277 L
498.561 78.073 L
498.712 77.87 L
498.862 77.667 L
499.013 77.465 L
499.164 77.264 L
499.315 77.064 L
499.465 76.864 L
499.616 76.665 L
499.767 76.467 L
499.917 76.27 L
500.068 76.073 L
500.219 75.878 L
500.369 75.683 L
500.52 75.489 L
500.671 75.295 L
500.822 75.103 L
500.972 74.911 L
501.123 74.72 L
501.274 74.53 L
501.424 74.341 L
501.575 74.152 L
501.726 73.964 L
501.876 73.777 L
502.027 73.591 L
502.178 73.406 L
502.328 73.222 L
502.479 73.038 L
502.63 72.855 L
502.781 72.673 L
502.931 72.492 L
503.082 72.312 L
503.233 72.132 L
503.383 71.954 L
503.534 71.776 L
503.685 71.599 L
503.835 71.423 L
503.986 71.247 L
504.137 71.073 L
504.288 70.9 L
504.438 70.727 L
504.589 70.555 L
504.74 70.384 L
504.89 70.214 L
505.041 70.045 L
505.192 69.877 L
505.342 69.709 L
505.493 69.543 L
505.644 69.377 L
505.794 69.212 L
505.945 69.048 L
506.096 68.885 L
506.247 68.723 L
506.397 68.562 L
506.548 68.402 L
506.699 68.242 L
506.849 68.084 L
507 67.926 L
S
GR
%%Trailer
%%Pages: 1
%%EOF
