%!PS-Adobe-3.0 EPSF-3.0
%%Creator: (MATLAB, The Mathworks, Inc. Version 9.9.0.1467703 \(R2020b\). Operating System: Windows 10)
%%Title: C:/Users/timji/Documents/School/Colorado/ASEN5090/asen-5090/Homework4/plots/prn05_nist_elevation.eps
%%CreationDate: 2020-10-05T20:42:05
%%Pages: (atend)
%%BoundingBox:     0     0   420   315
%%LanguageLevel: 3
%%EndComments
%%BeginProlog
%%BeginResource: procset (Apache XML Graphics Std ProcSet) 1.2 0
%%Version: 1.2 0
%%Copyright: (Copyright 2001-2003,2010 The Apache Software Foundation. License terms: http://www.apache.org/licenses/LICENSE-2.0)
/bd{bind def}bind def
/ld{load def}bd
/GR/grestore ld
/GS/gsave ld
/RM/rmoveto ld
/C/curveto ld
/t/show ld
/L/lineto ld
/ML/setmiterlimit ld
/CT/concat ld
/f/fill ld
/N/newpath ld
/S/stroke ld
/CC/setcmykcolor ld
/A/ashow ld
/cp/closepath ld
/RC/setrgbcolor ld
/LJ/setlinejoin ld
/GC/setgray ld
/LW/setlinewidth ld
/M/moveto ld
/re {4 2 roll M
1 index 0 rlineto
0 exch rlineto
neg 0 rlineto
cp } bd
/_ctm matrix def
/_tm matrix def
/BT { _ctm currentmatrix pop matrix _tm copy pop 0 0 moveto } bd
/ET { _ctm setmatrix } bd
/iTm { _ctm setmatrix _tm concat } bd
/Tm { _tm astore pop iTm 0 0 moveto } bd
/ux 0.0 def
/uy 0.0 def
/F {
  /Tp exch def
  /Tf exch def
  Tf findfont Tp scalefont setfont
  /cf Tf def  /cs Tp def
} bd
/ULS {currentpoint /uy exch def /ux exch def} bd
/ULE {
  /Tcx currentpoint pop def
  gsave
  newpath
  cf findfont cs scalefont dup
  /FontMatrix get 0 get /Ts exch def /FontInfo get dup
  /UnderlinePosition get Ts mul /To exch def
  /UnderlineThickness get Ts mul /Tt exch def
  ux uy To add moveto  Tcx uy To add lineto
  Tt setlinewidth stroke
  grestore
} bd
/OLE {
  /Tcx currentpoint pop def
  gsave
  newpath
  cf findfont cs scalefont dup
  /FontMatrix get 0 get /Ts exch def /FontInfo get dup
  /UnderlinePosition get Ts mul /To exch def
  /UnderlineThickness get Ts mul /Tt exch def
  ux uy To add cs add moveto Tcx uy To add cs add lineto
  Tt setlinewidth stroke
  grestore
} bd
/SOE {
  /Tcx currentpoint pop def
  gsave
  newpath
  cf findfont cs scalefont dup
  /FontMatrix get 0 get /Ts exch def /FontInfo get dup
  /UnderlinePosition get Ts mul /To exch def
  /UnderlineThickness get Ts mul /Tt exch def
  ux uy To add cs 10 mul 26 idiv add moveto Tcx uy To add cs 10 mul 26 idiv add lineto
  Tt setlinewidth stroke
  grestore
} bd
/QT {
/Y22 exch store
/X22 exch store
/Y21 exch store
/X21 exch store
currentpoint
/Y21 load 2 mul add 3 div exch
/X21 load 2 mul add 3 div exch
/X21 load 2 mul /X22 load add 3 div
/Y21 load 2 mul /Y22 load add 3 div
/X22 load /Y22 load curveto
} bd
/SSPD {
dup length /d exch dict def
{
/v exch def
/k exch def
currentpagedevice k known {
/cpdv currentpagedevice k get def
v cpdv ne {
/upd false def
/nullv v type /nulltype eq def
/nullcpdv cpdv type /nulltype eq def
nullv nullcpdv or
{
/upd true def
} {
/sametype v type cpdv type eq def
sametype {
v type /arraytype eq {
/vlen v length def
/cpdvlen cpdv length def
vlen cpdvlen eq {
0 1 vlen 1 sub {
/i exch def
/obj v i get def
/cpdobj cpdv i get def
obj cpdobj ne {
/upd true def
exit
} if
} for
} {
/upd true def
} ifelse
} {
v type /dicttype eq {
v {
/dv exch def
/dk exch def
/cpddv cpdv dk get def
dv cpddv ne {
/upd true def
exit
} if
} forall
} {
/upd true def
} ifelse
} ifelse
} if
} ifelse
upd true eq {
d k v put
} if
} if
} if
} forall
d length 0 gt {
d setpagedevice
} if
} bd
/RE { % /NewFontName [NewEncodingArray] /FontName RE -
  findfont dup length dict begin
  {
    1 index /FID ne
    {def} {pop pop} ifelse
  } forall
  /Encoding exch def
  /FontName 1 index def
  currentdict definefont pop
  end
} bind def
%%EndResource
%%BeginResource: procset (Apache XML Graphics EPS ProcSet) 1.0 0
%%Version: 1.0 0
%%Copyright: (Copyright 2002-2003 The Apache Software Foundation. License terms: http://www.apache.org/licenses/LICENSE-2.0)
/BeginEPSF { %def
/b4_Inc_state save def         % Save state for cleanup
/dict_count countdictstack def % Count objects on dict stack
/op_count count 1 sub def      % Count objects on operand stack
userdict begin                 % Push userdict on dict stack
/showpage { } def              % Redefine showpage, { } = null proc
0 setgray 0 setlinecap         % Prepare graphics state
1 setlinewidth 0 setlinejoin
10 setmiterlimit [ ] 0 setdash newpath
/languagelevel where           % If level not equal to 1 then
{pop languagelevel             % set strokeadjust and
1 ne                           % overprint to their defaults.
{false setstrokeadjust false setoverprint
} if
} if
} bd
/EndEPSF { %def
count op_count sub {pop} repeat            % Clean up stacks
countdictstack dict_count sub {end} repeat
b4_Inc_state restore
} bd
%%EndResource
%FOPBeginFontDict
%%IncludeResource: font Courier-Oblique
%%IncludeResource: font Courier-BoldOblique
%%IncludeResource: font Courier-Bold
%%IncludeResource: font ZapfDingbats
%%IncludeResource: font Symbol
%%IncludeResource: font Helvetica
%%IncludeResource: font Helvetica-Oblique
%%IncludeResource: font Helvetica-Bold
%%IncludeResource: font Helvetica-BoldOblique
%%IncludeResource: font Times-Roman
%%IncludeResource: font Times-Italic
%%IncludeResource: font Times-Bold
%%IncludeResource: font Times-BoldItalic
%%IncludeResource: font Courier
%FOPEndFontDict
%%BeginResource: encoding WinAnsiEncoding
/WinAnsiEncoding [
/.notdef /.notdef /.notdef /.notdef /.notdef
/.notdef /.notdef /.notdef /.notdef /.notdef
/.notdef /.notdef /.notdef /.notdef /.notdef
/.notdef /.notdef /.notdef /.notdef /.notdef
/.notdef /.notdef /.notdef /.notdef /.notdef
/.notdef /.notdef /.notdef /.notdef /.notdef
/.notdef /.notdef /space /exclam /quotedbl
/numbersign /dollar /percent /ampersand /quotesingle
/parenleft /parenright /asterisk /plus /comma
/hyphen /period /slash /zero /one
/two /three /four /five /six
/seven /eight /nine /colon /semicolon
/less /equal /greater /question /at
/A /B /C /D /E
/F /G /H /I /J
/K /L /M /N /O
/P /Q /R /S /T
/U /V /W /X /Y
/Z /bracketleft /backslash /bracketright /asciicircum
/underscore /quoteleft /a /b /c
/d /e /f /g /h
/i /j /k /l /m
/n /o /p /q /r
/s /t /u /v /w
/x /y /z /braceleft /bar
/braceright /asciitilde /bullet /Euro /bullet
/quotesinglbase /florin /quotedblbase /ellipsis /dagger
/daggerdbl /circumflex /perthousand /Scaron /guilsinglleft
/OE /bullet /Zcaron /bullet /bullet
/quoteleft /quoteright /quotedblleft /quotedblright /bullet
/endash /emdash /asciitilde /trademark /scaron
/guilsinglright /oe /bullet /zcaron /Ydieresis
/space /exclamdown /cent /sterling /currency
/yen /brokenbar /section /dieresis /copyright
/ordfeminine /guillemotleft /logicalnot /sfthyphen /registered
/macron /degree /plusminus /twosuperior /threesuperior
/acute /mu /paragraph /middot /cedilla
/onesuperior /ordmasculine /guillemotright /onequarter /onehalf
/threequarters /questiondown /Agrave /Aacute /Acircumflex
/Atilde /Adieresis /Aring /AE /Ccedilla
/Egrave /Eacute /Ecircumflex /Edieresis /Igrave
/Iacute /Icircumflex /Idieresis /Eth /Ntilde
/Ograve /Oacute /Ocircumflex /Otilde /Odieresis
/multiply /Oslash /Ugrave /Uacute /Ucircumflex
/Udieresis /Yacute /Thorn /germandbls /agrave
/aacute /acircumflex /atilde /adieresis /aring
/ae /ccedilla /egrave /eacute /ecircumflex
/edieresis /igrave /iacute /icircumflex /idieresis
/eth /ntilde /ograve /oacute /ocircumflex
/otilde /odieresis /divide /oslash /ugrave
/uacute /ucircumflex /udieresis /yacute /thorn
/ydieresis
] def
%%EndResource
%FOPBeginFontReencode
/Courier-Oblique findfont
dup length dict begin
  {1 index /FID ne {def} {pop pop} ifelse} forall
  /Encoding WinAnsiEncoding def
  currentdict
end
/Courier-Oblique exch definefont pop
/Courier-BoldOblique findfont
dup length dict begin
  {1 index /FID ne {def} {pop pop} ifelse} forall
  /Encoding WinAnsiEncoding def
  currentdict
end
/Courier-BoldOblique exch definefont pop
/Courier-Bold findfont
dup length dict begin
  {1 index /FID ne {def} {pop pop} ifelse} forall
  /Encoding WinAnsiEncoding def
  currentdict
end
/Courier-Bold exch definefont pop
/Helvetica findfont
dup length dict begin
  {1 index /FID ne {def} {pop pop} ifelse} forall
  /Encoding WinAnsiEncoding def
  currentdict
end
/Helvetica exch definefont pop
/Helvetica-Oblique findfont
dup length dict begin
  {1 index /FID ne {def} {pop pop} ifelse} forall
  /Encoding WinAnsiEncoding def
  currentdict
end
/Helvetica-Oblique exch definefont pop
/Helvetica-Bold findfont
dup length dict begin
  {1 index /FID ne {def} {pop pop} ifelse} forall
  /Encoding WinAnsiEncoding def
  currentdict
end
/Helvetica-Bold exch definefont pop
/Helvetica-BoldOblique findfont
dup length dict begin
  {1 index /FID ne {def} {pop pop} ifelse} forall
  /Encoding WinAnsiEncoding def
  currentdict
end
/Helvetica-BoldOblique exch definefont pop
/Times-Roman findfont
dup length dict begin
  {1 index /FID ne {def} {pop pop} ifelse} forall
  /Encoding WinAnsiEncoding def
  currentdict
end
/Times-Roman exch definefont pop
/Times-Italic findfont
dup length dict begin
  {1 index /FID ne {def} {pop pop} ifelse} forall
  /Encoding WinAnsiEncoding def
  currentdict
end
/Times-Italic exch definefont pop
/Times-Bold findfont
dup length dict begin
  {1 index /FID ne {def} {pop pop} ifelse} forall
  /Encoding WinAnsiEncoding def
  currentdict
end
/Times-Bold exch definefont pop
/Times-BoldItalic findfont
dup length dict begin
  {1 index /FID ne {def} {pop pop} ifelse} forall
  /Encoding WinAnsiEncoding def
  currentdict
end
/Times-BoldItalic exch definefont pop
/Courier findfont
dup length dict begin
  {1 index /FID ne {def} {pop pop} ifelse} forall
  /Encoding WinAnsiEncoding def
  currentdict
end
/Courier exch definefont pop
%FOPEndFontReencode
%%EndProlog
%%Page: 1 1
%%PageBoundingBox: 0 0 420 315
%%BeginPageSetup
[1 0 0 -1 0 315] CT
%%EndPageSetup
GS
[0.75 0 0 0.75 0 0] CT
1 GC
N
0 0 560 420 re
f
GR
GS
[0.75 0 0 0.75 0 0] CT
1 GC
N
0 0 560 420 re
f
GR
GS
[0.75 0 0 0.75 0 0] CT
1 GC
N
73 374 M
507 374 L
507 31 L
73 31 L
cp
f
GR
GS
[0.75 0 0 0.75 0 0] CT
0.149 GC
2 setlinecap
1 LJ
0.667 LW
N
73 374 M
507 374 L
S
GR
GS
[0.75 0 0 0.75 0 0] CT
0.149 GC
2 setlinecap
1 LJ
0.667 LW
N
73 31 M
507 31 L
S
GR
GS
[0.75 0 0 0.75 0 0] CT
0.149 GC
2 setlinecap
1 LJ
0.667 LW
N
73 374 M
73 369.66 L
S
GR
GS
[0.75 0 0 0.75 0 0] CT
0.149 GC
2 setlinecap
1 LJ
0.667 LW
N
163.417 374 M
163.417 369.66 L
S
GR
GS
[0.75 0 0 0.75 0 0] CT
0.149 GC
2 setlinecap
1 LJ
0.667 LW
N
253.833 374 M
253.833 369.66 L
S
GR
GS
[0.75 0 0 0.75 0 0] CT
0.149 GC
2 setlinecap
1 LJ
0.667 LW
N
344.25 374 M
344.25 369.66 L
S
GR
GS
[0.75 0 0 0.75 0 0] CT
0.149 GC
2 setlinecap
1 LJ
0.667 LW
N
434.667 374 M
434.667 369.66 L
S
GR
GS
[0.75 0 0 0.75 0 0] CT
0.149 GC
2 setlinecap
1 LJ
0.667 LW
N
73 31 M
73 35.34 L
S
GR
GS
[0.75 0 0 0.75 0 0] CT
0.149 GC
2 setlinecap
1 LJ
0.667 LW
N
163.417 31 M
163.417 35.34 L
S
GR
GS
[0.75 0 0 0.75 0 0] CT
0.149 GC
2 setlinecap
1 LJ
0.667 LW
N
253.833 31 M
253.833 35.34 L
S
GR
GS
[0.75 0 0 0.75 0 0] CT
0.149 GC
2 setlinecap
1 LJ
0.667 LW
N
344.25 31 M
344.25 35.34 L
S
GR
GS
[0.75 0 0 0.75 0 0] CT
0.149 GC
2 setlinecap
1 LJ
0.667 LW
N
434.667 31 M
434.667 35.34 L
S
GR
GS
[0.75 0 0 0.75 54.75 284.50001] CT
0.149 GC
/Helvetica 13.333 F
GS
[1 0 0 1 0 0] CT
-4 14 moveto 
1 -1 scale
(0) t 
GR
GR
GS
[0.75 0 0 0.75 122.5625 284.50001] CT
0.149 GC
/Helvetica 13.333 F
GS
[1 0 0 1 0 0] CT
-4 14 moveto 
1 -1 scale
(5) t 
GR
GR
GS
[0.75 0 0 0.75 190.375 284.50001] CT
0.149 GC
/Helvetica 13.333 F
GS
[1 0 0 1 0 0] CT
-7.5 14 moveto 
1 -1 scale
(10) t 
GR
GR
GS
[0.75 0 0 0.75 258.1875 284.50001] CT
0.149 GC
/Helvetica 13.333 F
GS
[1 0 0 1 0 0] CT
-7.5 14 moveto 
1 -1 scale
(15) t 
GR
GR
GS
[0.75 0 0 0.75 325.99999 284.50001] CT
0.149 GC
/Helvetica 13.333 F
GS
[1 0 0 1 0 0] CT
-7.5 14 moveto 
1 -1 scale
(20) t 
GR
GR
GS
[0.75 0 0 0.75 217.50016 298.24999] CT
0.149 GC
/Helvetica 14.667 F
GS
[1 0 0 1 0 0] CT
-57.5 15 moveto 
1 -1 scale
(Time into day \(hr\)) t 
GR
GR
GS
[0.75 0 0 0.75 0 0] CT
0.149 GC
2 setlinecap
1 LJ
0.667 LW
N
73 374 M
73 31 L
S
GR
GS
[0.75 0 0 0.75 0 0] CT
0.149 GC
2 setlinecap
1 LJ
0.667 LW
N
507 374 M
507 31 L
S
GR
GS
[0.75 0 0 0.75 0 0] CT
0.149 GC
2 setlinecap
1 LJ
0.667 LW
N
73 354.944 M
77.34 354.944 L
S
GR
GS
[0.75 0 0 0.75 0 0] CT
0.149 GC
2 setlinecap
1 LJ
0.667 LW
N
73 316.833 M
77.34 316.833 L
S
GR
GS
[0.75 0 0 0.75 0 0] CT
0.149 GC
2 setlinecap
1 LJ
0.667 LW
N
73 278.722 M
77.34 278.722 L
S
GR
GS
[0.75 0 0 0.75 0 0] CT
0.149 GC
2 setlinecap
1 LJ
0.667 LW
N
73 240.611 M
77.34 240.611 L
S
GR
GS
[0.75 0 0 0.75 0 0] CT
0.149 GC
2 setlinecap
1 LJ
0.667 LW
N
73 202.5 M
77.34 202.5 L
S
GR
GS
[0.75 0 0 0.75 0 0] CT
0.149 GC
2 setlinecap
1 LJ
0.667 LW
N
73 164.389 M
77.34 164.389 L
S
GR
GS
[0.75 0 0 0.75 0 0] CT
0.149 GC
2 setlinecap
1 LJ
0.667 LW
N
73 126.278 M
77.34 126.278 L
S
GR
GS
[0.75 0 0 0.75 0 0] CT
0.149 GC
2 setlinecap
1 LJ
0.667 LW
N
73 88.167 M
77.34 88.167 L
S
GR
GS
[0.75 0 0 0.75 0 0] CT
0.149 GC
2 setlinecap
1 LJ
0.667 LW
N
73 50.056 M
77.34 50.056 L
S
GR
GS
[0.75 0 0 0.75 0 0] CT
0.149 GC
2 setlinecap
1 LJ
0.667 LW
N
507 354.944 M
502.66 354.944 L
S
GR
GS
[0.75 0 0 0.75 0 0] CT
0.149 GC
2 setlinecap
1 LJ
0.667 LW
N
507 316.833 M
502.66 316.833 L
S
GR
GS
[0.75 0 0 0.75 0 0] CT
0.149 GC
2 setlinecap
1 LJ
0.667 LW
N
507 278.722 M
502.66 278.722 L
S
GR
GS
[0.75 0 0 0.75 0 0] CT
0.149 GC
2 setlinecap
1 LJ
0.667 LW
N
507 240.611 M
502.66 240.611 L
S
GR
GS
[0.75 0 0 0.75 0 0] CT
0.149 GC
2 setlinecap
1 LJ
0.667 LW
N
507 202.5 M
502.66 202.5 L
S
GR
GS
[0.75 0 0 0.75 0 0] CT
0.149 GC
2 setlinecap
1 LJ
0.667 LW
N
507 164.389 M
502.66 164.389 L
S
GR
GS
[0.75 0 0 0.75 0 0] CT
0.149 GC
2 setlinecap
1 LJ
0.667 LW
N
507 126.278 M
502.66 126.278 L
S
GR
GS
[0.75 0 0 0.75 0 0] CT
0.149 GC
2 setlinecap
1 LJ
0.667 LW
N
507 88.167 M
502.66 88.167 L
S
GR
GS
[0.75 0 0 0.75 0 0] CT
0.149 GC
2 setlinecap
1 LJ
0.667 LW
N
507 50.056 M
502.66 50.056 L
S
GR
GS
[0.75 0 0 0.75 50.75 266.20834] CT
0.149 GC
/Helvetica 13.333 F
GS
[1 0 0 1 0 0] CT
-20 5.5 moveto 
1 -1 scale
(-80) t 
GR
GR
GS
[0.75 0 0 0.75 50.75 237.62501] CT
0.149 GC
/Helvetica 13.333 F
GS
[1 0 0 1 0 0] CT
-20 5.5 moveto 
1 -1 scale
(-60) t 
GR
GR
GS
[0.75 0 0 0.75 50.75 209.04167] CT
0.149 GC
/Helvetica 13.333 F
GS
[1 0 0 1 0 0] CT
-20 5.5 moveto 
1 -1 scale
(-40) t 
GR
GR
GS
[0.75 0 0 0.75 50.75 180.45834] CT
0.149 GC
/Helvetica 13.333 F
GS
[1 0 0 1 0 0] CT
-20 5.5 moveto 
1 -1 scale
(-20) t 
GR
GR
GS
[0.75 0 0 0.75 50.75 151.875] CT
0.149 GC
/Helvetica 13.333 F
GS
[1 0 0 1 0 0] CT
-8 5.5 moveto 
1 -1 scale
(0) t 
GR
GR
GS
[0.75 0 0 0.75 50.75 123.29166] CT
0.149 GC
/Helvetica 13.333 F
GS
[1 0 0 1 0 0] CT
-15 5.5 moveto 
1 -1 scale
(20) t 
GR
GR
GS
[0.75 0 0 0.75 50.75 94.70833] CT
0.149 GC
/Helvetica 13.333 F
GS
[1 0 0 1 0 0] CT
-15 5.5 moveto 
1 -1 scale
(40) t 
GR
GR
GS
[0.75 0 0 0.75 50.75 66.125] CT
0.149 GC
/Helvetica 13.333 F
GS
[1 0 0 1 0 0] CT
-15 5.5 moveto 
1 -1 scale
(60) t 
GR
GR
GS
[0.75 0 0 0.75 50.75 37.54167] CT
0.149 GC
/Helvetica 13.333 F
GS
[1 0 0 1 0 0] CT
-15 5.5 moveto 
1 -1 scale
(80) t 
GR
GR
GS
[0 -0.75 0.75 0 32.75 151.87487] CT
0.149 GC
/Helvetica 14.667 F
GS
[1 0 0 1 0 0] CT
-69.5 -4 moveto 
1 -1 scale
(Elevation angle \(deg\)) t 
GR
GR
GS
[0.75 0 0 0.75 217.50021 21.1875] CT
/Helvetica-Bold 14.667 F
GS
[1 0 0 1 0 0] CT
-148 -4 moveto 
1 -1 scale
(PRN05 Elevation Angle from NIST IGS Site) t 
GR
GR
GS
[0.75 0 0 0.75 0 0] CT
0 0.447 0.741 RC
1 LJ
0.667 LW
N
73 330.626 M
73.151 330.885 L
73.301 331.144 L
73.452 331.404 L
73.603 331.663 L
73.753 331.923 L
73.904 332.182 L
74.055 332.442 L
74.206 332.702 L
74.356 332.963 L
74.507 333.223 L
74.658 333.484 L
74.808 333.745 L
74.959 334.006 L
75.11 334.267 L
75.26 334.528 L
75.411 334.79 L
75.562 335.051 L
75.713 335.313 L
75.863 335.575 L
76.014 335.838 L
76.165 336.1 L
76.315 336.363 L
76.466 336.626 L
76.617 336.889 L
76.767 337.152 L
76.918 337.415 L
77.069 337.679 L
77.219 337.942 L
77.37 338.206 L
77.521 338.47 L
77.672 338.735 L
77.822 338.999 L
77.973 339.264 L
78.124 339.529 L
78.274 339.794 L
78.425 340.059 L
78.576 340.324 L
78.726 340.59 L
78.877 340.856 L
79.028 341.122 L
79.178 341.388 L
79.329 341.654 L
79.48 341.92 L
79.631 342.187 L
79.781 342.454 L
79.932 342.721 L
80.083 342.988 L
80.233 343.256 L
80.384 343.523 L
80.535 343.791 L
80.685 344.059 L
80.836 344.328 L
80.987 344.596 L
81.137 344.865 L
81.288 345.133 L
81.439 345.402 L
81.59 345.671 L
81.74 345.941 L
81.891 346.21 L
82.042 346.48 L
82.192 346.75 L
82.343 347.02 L
82.494 347.29 L
82.644 347.561 L
82.795 347.832 L
82.946 348.103 L
83.097 348.374 L
83.247 348.645 L
83.398 348.916 L
83.549 349.188 L
83.699 349.46 L
83.85 349.732 L
84.001 350.004 L
84.151 350.277 L
84.302 350.549 L
84.453 350.822 L
84.603 351.095 L
84.754 351.368 L
84.905 351.642 L
85.056 351.915 L
85.206 352.189 L
85.357 352.463 L
85.508 352.737 L
85.658 353.012 L
85.809 353.286 L
85.96 353.561 L
86.11 353.836 L
86.261 354.111 L
86.412 354.386 L
86.563 354.662 L
86.713 354.938 L
86.864 355.214 L
87.015 355.49 L
87.165 355.766 L
87.316 356.042 L
87.467 356.319 L
87.617 356.596 L
87.768 356.873 L
87.919 357.151 L
88.069 357.428 L
88.22 357.706 L
88.371 357.984 L
88.522 358.262 L
88.672 358.54 L
88.823 358.818 L
88.974 359.097 L
89.124 359.376 L
89.275 359.655 L
89.426 359.934 L
89.576 360.214 L
89.727 360.493 L
89.878 360.773 L
90.028 361.053 L
90.179 361.334 L
90.33 361.614 L
90.481 361.895 L
90.631 362.176 L
90.782 362.457 L
90.933 362.738 L
91.083 363.019 L
91.234 363.301 L
91.385 363.583 L
91.535 363.865 L
91.686 364.147 L
91.837 364.429 L
91.987 364.712 L
92.138 364.995 L
92.289 365.278 L
92.44 365.561 L
92.59 365.844 L
92.741 366.128 L
92.892 366.411 L
93.042 366.695 L
93.193 366.979 L
93.344 367.264 L
93.494 367.548 L
93.645 367.833 L
93.796 368.118 L
93.947 368.403 L
94.097 368.688 L
94.248 368.973 L
94.399 369.259 L
94.549 369.545 L
94.7 369.831 L
94.851 370.117 L
95.001 370.403 L
95.152 370.689 L
95.303 370.976 L
95.453 371.262 L
95.604 371.549 L
95.755 371.835 L
95.906 372.122 L
96.056 372.408 L
96.207 372.694 L
96.358 372.978 L
96.508 373.259 L
96.659 373.531 L
96.81 373.761 L
96.96 373.752 L
97.111 373.517 L
97.262 373.243 L
97.412 372.961 L
97.563 372.675 L
97.714 372.387 L
97.865 372.099 L
98.015 371.81 L
98.166 371.52 L
98.317 371.23 L
98.467 370.939 L
98.618 370.648 L
98.769 370.357 L
98.919 370.066 L
99.07 369.774 L
99.221 369.483 L
99.372 369.191 L
99.522 368.898 L
99.673 368.606 L
99.824 368.313 L
99.974 368.02 L
100.125 367.727 L
100.276 367.434 L
100.426 367.14 L
100.577 366.846 L
100.728 366.552 L
100.878 366.258 L
101.029 365.964 L
101.18 365.669 L
101.331 365.375 L
101.481 365.08 L
101.632 364.785 L
101.783 364.489 L
101.933 364.194 L
102.084 363.898 L
102.235 363.602 L
102.385 363.306 L
102.536 363.009 L
102.687 362.713 L
102.838 362.416 L
102.988 362.119 L
103.139 361.822 L
103.29 361.525 L
103.44 361.227 L
103.591 360.93 L
103.742 360.632 L
103.892 360.334 L
104.043 360.035 L
104.194 359.737 L
104.344 359.438 L
104.495 359.139 L
104.646 358.84 L
104.797 358.541 L
104.947 358.242 L
105.098 357.942 L
105.249 357.642 L
105.399 357.342 L
105.55 357.042 L
105.701 356.742 L
105.851 356.441 L
106.002 356.14 L
106.153 355.839 L
106.303 355.538 L
106.454 355.237 L
106.605 354.935 L
106.756 354.633 L
106.906 354.332 L
107.057 354.029 L
107.208 353.727 L
107.358 353.425 L
107.509 353.122 L
107.66 352.819 L
107.81 352.516 L
107.961 352.213 L
108.112 351.909 L
108.263 351.606 L
108.413 351.302 L
108.564 350.998 L
108.715 350.694 L
108.865 350.39 L
109.016 350.085 L
109.167 349.78 L
109.317 349.475 L
109.468 349.17 L
109.619 348.865 L
109.769 348.56 L
109.92 348.254 L
110.071 347.948 L
110.222 347.642 L
110.372 347.336 L
110.523 347.029 L
110.674 346.723 L
110.824 346.416 L
110.975 346.109 L
111.126 345.802 L
111.276 345.495 L
111.427 345.187 L
111.578 344.88 L
111.728 344.572 L
111.879 344.264 L
112.03 343.956 L
112.181 343.647 L
112.331 343.339 L
112.482 343.03 L
112.633 342.721 L
112.783 342.412 L
112.934 342.103 L
113.085 341.793 L
113.235 341.483 L
113.386 341.174 L
113.537 340.864 L
113.688 340.553 L
113.838 340.243 L
113.989 339.932 L
114.14 339.622 L
114.29 339.311 L
114.441 339 L
114.592 338.689 L
114.742 338.377 L
114.893 338.066 L
115.044 337.754 L
115.194 337.442 L
115.345 337.13 L
115.496 336.817 L
115.647 336.505 L
115.797 336.192 L
115.948 335.879 L
116.099 335.566 L
116.249 335.253 L
116.4 334.94 L
116.551 334.626 L
116.701 334.313 L
116.852 333.999 L
117.003 333.685 L
117.153 333.371 L
117.304 333.056 L
117.455 332.742 L
117.606 332.427 L
117.756 332.112 L
117.907 331.797 L
118.058 331.482 L
118.208 331.167 L
118.359 330.851 L
118.51 330.535 L
118.66 330.219 L
118.811 329.903 L
118.962 329.587 L
119.112 329.271 L
119.263 328.954 L
119.414 328.638 L
119.565 328.321 L
119.715 328.004 L
119.866 327.686 L
120.017 327.369 L
120.167 327.051 L
120.318 326.734 L
120.469 326.416 L
120.619 326.098 L
120.77 325.78 L
120.921 325.461 L
121.072 325.143 L
121.222 324.824 L
121.373 324.505 L
121.524 324.186 L
121.674 323.867 L
121.825 323.548 L
121.976 323.228 L
122.126 322.909 L
122.277 322.589 L
122.428 322.269 L
122.578 321.949 L
122.729 321.629 L
122.88 321.308 L
123.031 320.988 L
123.181 320.667 L
123.332 320.346 L
123.483 320.025 L
123.633 319.704 L
123.784 319.383 L
123.935 319.061 L
124.085 318.739 L
124.236 318.418 L
124.387 318.096 L
124.537 317.774 L
124.688 317.451 L
124.839 317.129 L
124.99 316.806 L
125.14 316.484 L
125.291 316.161 L
125.442 315.838 L
125.592 315.515 L
125.743 315.192 L
125.894 314.868 L
126.044 314.545 L
126.195 314.221 L
126.346 313.897 L
126.497 313.573 L
126.647 313.249 L
126.798 312.925 L
126.949 312.6 L
127.099 312.276 L
127.25 311.951 L
127.401 311.626 L
127.551 311.301 L
127.702 310.976 L
127.853 310.651 L
128.003 310.325 L
128.154 310 L
128.305 309.674 L
128.456 309.348 L
128.606 309.022 L
128.757 308.696 L
128.908 308.37 L
129.058 308.044 L
129.209 307.717 L
129.36 307.391 L
129.51 307.064 L
129.661 306.737 L
129.812 306.41 L
129.963 306.083 L
130.113 305.756 L
130.264 305.428 L
130.415 305.101 L
130.565 304.773 L
130.716 304.445 L
130.867 304.117 L
131.017 303.789 L
131.168 303.461 L
131.319 303.133 L
131.469 302.805 L
131.62 302.476 L
131.771 302.148 L
131.922 301.819 L
132.072 301.49 L
132.223 301.161 L
132.374 300.832 L
132.524 300.503 L
132.675 300.173 L
132.826 299.844 L
132.976 299.514 L
133.127 299.185 L
133.278 298.855 L
133.428 298.525 L
133.579 298.195 L
133.73 297.865 L
133.881 297.535 L
134.031 297.204 L
134.182 296.874 L
134.333 296.543 L
134.483 296.213 L
134.634 295.882 L
134.785 295.551 L
134.935 295.22 L
135.086 294.889 L
135.237 294.558 L
135.387 294.227 L
135.538 293.895 L
135.689 293.564 L
135.84 293.232 L
135.99 292.901 L
136.141 292.569 L
136.292 292.237 L
136.442 291.905 L
136.593 291.573 L
136.744 291.241 L
136.894 290.909 L
137.045 290.577 L
137.196 290.244 L
137.347 289.912 L
137.497 289.579 L
137.648 289.246 L
137.799 288.914 L
137.949 288.581 L
138.1 288.248 L
138.251 287.915 L
138.401 287.582 L
138.552 287.249 L
138.703 286.916 L
138.853 286.582 L
139.004 286.249 L
139.155 285.916 L
139.306 285.582 L
139.456 285.249 L
139.607 284.915 L
139.758 284.581 L
139.908 284.247 L
140.059 283.914 L
140.21 283.58 L
140.36 283.246 L
140.511 282.912 L
140.662 282.578 L
140.813 282.243 L
140.963 281.909 L
141.114 281.575 L
141.265 281.241 L
141.415 280.906 L
141.566 280.572 L
141.717 280.237 L
141.867 279.903 L
142.018 279.568 L
142.169 279.234 L
142.319 278.899 L
142.47 278.564 L
142.621 278.229 L
142.772 277.895 L
142.922 277.56 L
143.073 277.225 L
143.224 276.89 L
143.374 276.555 L
143.525 276.22 L
143.676 275.885 L
143.826 275.55 L
143.977 275.215 L
144.128 274.88 L
144.278 274.544 L
144.429 274.209 L
144.58 273.874 L
144.731 273.539 L
144.881 273.204 L
145.032 272.868 L
145.183 272.533 L
145.333 272.198 L
145.484 271.863 L
145.635 271.527 L
145.785 271.192 L
145.936 270.857 L
146.087 270.521 L
146.238 270.186 L
146.388 269.851 L
146.539 269.515 L
146.69 269.18 L
146.84 268.845 L
146.991 268.509 L
147.142 268.174 L
147.292 267.839 L
147.443 267.503 L
147.594 267.168 L
147.744 266.833 L
147.895 266.497 L
148.046 266.162 L
148.197 265.827 L
148.347 265.492 L
148.498 265.157 L
148.649 264.821 L
148.799 264.486 L
148.95 264.151 L
149.101 263.816 L
149.251 263.481 L
149.402 263.146 L
149.553 262.811 L
149.703 262.476 L
149.854 262.141 L
150.005 261.807 L
150.156 261.472 L
150.306 261.137 L
150.457 260.802 L
150.608 260.468 L
150.758 260.133 L
150.909 259.799 L
151.06 259.464 L
151.21 259.13 L
151.361 258.796 L
151.512 258.461 L
151.662 258.127 L
151.813 257.793 L
151.964 257.459 L
152.115 257.125 L
152.265 256.791 L
152.416 256.458 L
152.567 256.124 L
152.717 255.79 L
152.868 255.457 L
153.019 255.124 L
153.169 254.79 L
153.32 254.457 L
153.471 254.124 L
153.622 253.791 L
153.772 253.458 L
153.923 253.125 L
154.074 252.793 L
154.224 252.46 L
154.375 252.128 L
154.526 251.796 L
154.676 251.463 L
154.827 251.131 L
154.978 250.799 L
155.128 250.468 L
155.279 250.136 L
155.43 249.805 L
155.581 249.473 L
155.731 249.142 L
155.882 248.811 L
156.033 248.48 L
156.183 248.149 L
156.334 247.819 L
156.485 247.489 L
156.635 247.158 L
156.786 246.828 L
156.937 246.498 L
157.088 246.169 L
157.238 245.839 L
157.389 245.51 L
157.54 245.181 L
157.69 244.852 L
157.841 244.523 L
157.992 244.194 L
158.142 243.866 L
158.293 243.538 L
158.444 243.21 L
158.594 242.882 L
158.745 242.555 L
158.896 242.227 L
159.047 241.9 L
159.197 241.573 L
159.348 241.247 L
159.499 240.92 L
159.649 240.594 L
159.8 240.268 L
159.951 239.943 L
160.101 239.617 L
160.252 239.292 L
160.403 238.967 L
160.553 238.643 L
160.704 238.318 L
160.855 237.994 L
161.006 237.67 L
161.156 237.347 L
161.307 237.023 L
161.458 236.701 L
161.608 236.378 L
161.759 236.055 L
161.91 235.733 L
162.06 235.412 L
162.211 235.09 L
162.362 234.769 L
162.512 234.448 L
162.663 234.128 L
162.814 233.808 L
162.965 233.488 L
163.115 233.168 L
163.266 232.849 L
163.417 232.53 L
163.567 232.212 L
163.718 231.894 L
163.869 231.576 L
164.019 231.258 L
164.17 230.941 L
164.321 230.625 L
164.472 230.309 L
164.622 229.993 L
164.773 229.677 L
164.924 229.362 L
165.074 229.047 L
165.225 228.733 L
165.376 228.419 L
165.526 228.106 L
165.677 227.793 L
165.828 227.48 L
165.978 227.168 L
166.129 226.856 L
166.28 226.545 L
166.431 226.234 L
166.581 225.924 L
166.732 225.614 L
166.883 225.304 L
167.033 224.995 L
167.184 224.687 L
167.335 224.379 L
167.485 224.071 L
167.636 223.764 L
167.787 223.458 L
167.938 223.152 L
168.088 222.846 L
168.239 222.541 L
168.39 222.237 L
168.54 221.933 L
168.691 221.629 L
168.842 221.326 L
168.992 221.024 L
169.143 220.722 L
169.294 220.421 L
169.444 220.12 L
169.595 219.82 L
169.746 219.52 L
169.897 219.221 L
170.047 218.923 L
170.198 218.625 L
170.349 218.328 L
170.499 218.032 L
170.65 217.736 L
170.801 217.44 L
170.951 217.146 L
171.102 216.852 L
171.253 216.558 L
171.403 216.265 L
171.554 215.973 L
171.705 215.682 L
171.856 215.391 L
172.006 215.101 L
172.157 214.811 L
172.308 214.523 L
172.458 214.235 L
172.609 213.947 L
172.76 213.661 L
172.91 213.375 L
173.061 213.089 L
173.212 212.805 L
173.363 212.521 L
173.513 212.238 L
173.664 211.956 L
173.815 211.674 L
173.965 211.394 L
174.116 211.114 L
174.267 210.835 L
174.417 210.556 L
174.568 210.279 L
174.719 210.002 L
174.869 209.726 L
175.02 209.451 L
175.171 209.176 L
175.322 208.903 L
175.472 208.63 L
175.623 208.358 L
175.774 208.087 L
175.924 207.817 L
176.075 207.548 L
176.226 207.28 L
176.376 207.012 L
176.527 206.746 L
176.678 206.48 L
176.828 206.215 L
176.979 205.951 L
177.13 205.689 L
177.281 205.427 L
177.431 205.166 L
177.582 204.905 L
177.733 204.646 L
177.883 204.388 L
178.034 204.131 L
178.185 203.875 L
178.335 203.619 L
178.486 203.365 L
178.637 203.112 L
178.787 202.86 L
178.938 202.608 L
179.089 202.358 L
179.24 202.109 L
179.39 201.861 L
179.541 201.614 L
179.692 201.368 L
179.842 201.123 L
179.993 200.879 L
180.144 200.636 L
180.294 200.395 L
180.445 200.154 L
180.596 199.915 L
180.747 199.676 L
180.897 199.439 L
181.048 199.203 L
181.199 198.968 L
181.349 198.734 L
181.5 198.502 L
181.651 198.27 L
181.801 198.04 L
181.952 197.811 L
182.103 197.583 L
182.253 197.356 L
182.404 197.131 L
182.555 196.906 L
182.706 196.683 L
182.856 196.462 L
183.007 196.241 L
183.158 196.022 L
183.308 195.804 L
183.459 195.587 L
183.61 195.371 L
183.76 195.157 L
183.911 194.944 L
184.062 194.732 L
184.213 194.522 L
184.363 194.313 L
184.514 194.105 L
184.665 193.899 L
184.815 193.694 L
184.966 193.49 L
185.117 193.288 L
185.267 193.087 L
185.418 192.887 L
185.569 192.689 L
185.719 192.492 L
185.87 192.297 L
186.021 192.103 L
186.172 191.91 L
186.322 191.719 L
186.473 191.529 L
186.624 191.341 L
186.774 191.154 L
186.925 190.968 L
187.076 190.784 L
187.226 190.602 L
187.377 190.421 L
187.528 190.241 L
187.678 190.063 L
187.829 189.887 L
187.98 189.711 L
188.131 189.538 L
188.281 189.366 L
188.432 189.195 L
188.583 189.026 L
188.733 188.859 L
188.884 188.693 L
189.035 188.529 L
189.185 188.366 L
189.336 188.205 L
189.487 188.045 L
189.637 187.887 L
189.788 187.731 L
189.939 187.576 L
190.09 187.422 L
190.24 187.271 L
190.391 187.121 L
190.542 186.972 L
190.692 186.826 L
190.843 186.68 L
190.994 186.537 L
191.144 186.395 L
191.295 186.255 L
191.446 186.116 L
191.597 185.979 L
191.747 185.844 L
191.898 185.711 L
192.049 185.579 L
192.199 185.449 L
192.35 185.32 L
192.501 185.193 L
192.651 185.068 L
192.802 184.945 L
192.953 184.823 L
193.103 184.704 L
193.254 184.585 L
193.405 184.469 L
193.556 184.354 L
193.706 184.241 L
193.857 184.13 L
194.008 184.021 L
194.158 183.913 L
194.309 183.807 L
194.46 183.703 L
194.61 183.6 L
194.761 183.5 L
194.912 183.401 L
195.063 183.304 L
195.213 183.209 L
195.364 183.115 L
195.515 183.023 L
195.665 182.934 L
195.816 182.845 L
195.967 182.759 L
196.117 182.675 L
196.268 182.592 L
196.419 182.511 L
196.569 182.432 L
196.72 182.355 L
196.871 182.279 L
197.022 182.206 L
197.172 182.134 L
197.323 182.064 L
197.474 181.996 L
197.624 181.93 L
197.775 181.865 L
197.926 181.803 L
198.076 181.742 L
198.227 181.683 L
198.378 181.626 L
198.528 181.571 L
198.679 181.517 L
198.83 181.466 L
198.981 181.416 L
199.131 181.368 L
199.282 181.322 L
199.433 181.278 L
199.583 181.236 L
199.734 181.196 L
199.885 181.157 L
200.035 181.12 L
200.186 181.085 L
200.337 181.052 L
200.488 181.021 L
200.638 180.992 L
200.789 180.964 L
200.94 180.939 L
201.09 180.915 L
201.241 180.893 L
201.392 180.873 L
201.542 180.855 L
201.693 180.838 L
201.844 180.824 L
201.994 180.811 L
202.145 180.8 L
202.296 180.791 L
202.447 180.784 L
202.597 180.778 L
202.748 180.775 L
202.899 180.773 L
203.049 180.773 L
203.2 180.775 L
203.351 180.779 L
203.501 180.785 L
203.652 180.792 L
203.803 180.801 L
203.953 180.812 L
204.104 180.825 L
204.255 180.84 L
204.406 180.856 L
204.556 180.874 L
204.707 180.895 L
204.858 180.916 L
205.008 180.94 L
205.159 180.965 L
205.31 180.993 L
205.46 181.022 L
205.611 181.052 L
205.762 181.085 L
205.912 181.119 L
206.063 181.155 L
206.214 181.193 L
206.365 181.232 L
206.515 181.274 L
206.666 181.317 L
206.817 181.362 L
206.967 181.408 L
207.118 181.456 L
207.269 181.506 L
207.419 181.558 L
207.57 181.611 L
207.721 181.666 L
207.872 181.723 L
208.022 181.781 L
208.173 181.841 L
208.324 181.903 L
208.474 181.967 L
208.625 182.032 L
208.776 182.098 L
208.926 182.167 L
209.077 182.237 L
209.228 182.309 L
209.378 182.382 L
209.529 182.457 L
209.68 182.533 L
209.831 182.612 L
209.981 182.691 L
210.132 182.773 L
210.283 182.856 L
210.433 182.94 L
210.584 183.026 L
210.735 183.114 L
210.885 183.203 L
211.036 183.294 L
211.187 183.386 L
211.338 183.48 L
211.488 183.576 L
211.639 183.673 L
211.79 183.771 L
211.94 183.871 L
212.091 183.972 L
212.242 184.075 L
212.392 184.18 L
212.543 184.285 L
212.694 184.393 L
212.844 184.502 L
212.995 184.612 L
213.146 184.723 L
213.297 184.836 L
213.447 184.951 L
213.598 185.067 L
213.749 185.184 L
213.899 185.303 L
214.05 185.423 L
214.201 185.544 L
214.351 185.667 L
214.502 185.791 L
214.653 185.917 L
214.803 186.044 L
214.954 186.172 L
215.105 186.301 L
215.256 186.432 L
215.406 186.564 L
215.557 186.697 L
215.708 186.832 L
215.858 186.968 L
216.009 187.105 L
216.16 187.244 L
216.31 187.383 L
216.461 187.524 L
216.612 187.666 L
216.762 187.81 L
216.913 187.954 L
217.064 188.1 L
217.215 188.247 L
217.365 188.395 L
217.516 188.544 L
217.667 188.695 L
217.817 188.846 L
217.968 188.999 L
218.119 189.153 L
218.269 189.308 L
218.42 189.464 L
218.571 189.621 L
218.722 189.779 L
218.872 189.939 L
219.023 190.099 L
219.174 190.261 L
219.324 190.423 L
219.475 190.587 L
219.626 190.751 L
219.776 190.917 L
219.927 191.083 L
220.078 191.251 L
220.228 191.42 L
220.379 191.589 L
220.53 191.76 L
220.681 191.931 L
220.831 192.104 L
220.982 192.277 L
221.133 192.451 L
221.283 192.627 L
221.434 192.803 L
221.585 192.98 L
221.735 193.158 L
221.886 193.336 L
222.037 193.516 L
222.188 193.697 L
222.338 193.878 L
222.489 194.06 L
222.64 194.243 L
222.79 194.427 L
222.941 194.612 L
223.092 194.797 L
223.242 194.983 L
223.393 195.17 L
223.544 195.358 L
223.694 195.547 L
223.845 195.736 L
223.996 195.926 L
224.147 196.117 L
224.297 196.308 L
224.448 196.501 L
224.599 196.693 L
224.749 196.887 L
224.9 197.081 L
225.051 197.276 L
225.201 197.472 L
225.352 197.668 L
225.503 197.865 L
225.653 198.063 L
225.804 198.261 L
225.955 198.459 L
226.106 198.659 L
226.256 198.859 L
226.407 199.059 L
226.558 199.26 L
226.708 199.462 L
226.859 199.664 L
227.01 199.867 L
227.16 200.071 L
227.311 200.274 L
227.462 200.479 L
227.613 200.684 L
227.763 200.889 L
227.914 201.095 L
228.065 201.301 L
228.215 201.508 L
228.366 201.715 L
228.517 201.923 L
228.667 202.131 L
228.818 202.34 L
228.969 202.549 L
229.119 202.758 L
229.27 202.968 L
229.421 203.179 L
229.572 203.389 L
229.722 203.6 L
229.873 203.812 L
230.024 204.023 L
230.174 204.235 L
230.325 204.448 L
230.476 204.661 L
230.626 204.874 L
230.777 205.087 L
230.928 205.301 L
231.078 205.515 L
231.229 205.729 L
231.38 205.944 L
231.531 206.159 L
231.681 206.374 L
231.832 206.59 L
231.983 206.805 L
232.133 207.021 L
232.284 207.237 L
232.435 207.454 L
232.585 207.67 L
232.736 207.887 L
232.887 208.104 L
233.038 208.321 L
233.188 208.538 L
233.339 208.756 L
233.49 208.974 L
233.64 209.191 L
233.791 209.409 L
233.942 209.627 L
234.092 209.846 L
234.243 210.064 L
234.394 210.282 L
234.544 210.501 L
234.695 210.72 L
234.846 210.938 L
234.997 211.157 L
235.147 211.376 L
235.298 211.595 L
235.449 211.814 L
235.599 212.033 L
235.75 212.252 L
235.901 212.471 L
236.051 212.691 L
236.202 212.91 L
236.353 213.129 L
236.503 213.348 L
236.654 213.567 L
236.805 213.787 L
236.956 214.006 L
237.106 214.225 L
237.257 214.444 L
237.408 214.663 L
237.558 214.882 L
237.709 215.101 L
237.86 215.32 L
238.01 215.538 L
238.161 215.757 L
238.312 215.975 L
238.462 216.194 L
238.613 216.412 L
238.764 216.631 L
238.915 216.849 L
239.065 217.067 L
239.216 217.285 L
239.367 217.502 L
239.517 217.72 L
239.668 217.937 L
239.819 218.154 L
239.969 218.371 L
240.12 218.588 L
240.271 218.805 L
240.422 219.021 L
240.572 219.238 L
240.723 219.454 L
240.874 219.67 L
241.024 219.885 L
241.175 220.101 L
241.326 220.316 L
241.476 220.531 L
241.627 220.745 L
241.778 220.96 L
241.928 221.174 L
242.079 221.387 L
242.23 221.601 L
242.381 221.814 L
242.531 222.027 L
242.682 222.24 L
242.833 222.452 L
242.983 222.664 L
243.134 222.876 L
243.285 223.087 L
243.435 223.298 L
243.586 223.509 L
243.737 223.719 L
243.887 223.929 L
244.038 224.139 L
244.189 224.348 L
244.34 224.557 L
244.49 224.765 L
244.641 224.973 L
244.792 225.181 L
244.942 225.388 L
245.093 225.595 L
245.244 225.801 L
245.394 226.007 L
245.545 226.213 L
245.696 226.418 L
245.847 226.622 L
245.997 226.827 L
246.148 227.03 L
246.299 227.234 L
246.449 227.436 L
246.6 227.639 L
246.751 227.84 L
246.901 228.042 L
247.052 228.243 L
247.203 228.443 L
247.353 228.643 L
247.504 228.842 L
247.655 229.041 L
247.806 229.239 L
247.956 229.437 L
248.107 229.634 L
248.258 229.83 L
248.408 230.026 L
248.559 230.222 L
248.71 230.416 L
248.86 230.611 L
249.011 230.804 L
249.162 230.998 L
249.313 231.19 L
249.463 231.382 L
249.614 231.573 L
249.765 231.764 L
249.915 231.954 L
250.066 232.143 L
250.217 232.332 L
250.367 232.52 L
250.518 232.708 L
250.669 232.894 L
250.819 233.081 L
250.97 233.266 L
251.121 233.451 L
251.272 233.635 L
251.422 233.819 L
251.573 234.001 L
251.724 234.183 L
251.874 234.365 L
252.025 234.545 L
252.176 234.725 L
252.326 234.904 L
252.477 235.083 L
252.628 235.261 L
252.778 235.438 L
252.929 235.614 L
253.08 235.789 L
253.231 235.964 L
253.381 236.138 L
253.532 236.311 L
253.683 236.484 L
253.833 236.655 L
253.984 236.826 L
254.135 236.996 L
254.285 237.165 L
254.436 237.334 L
254.587 237.502 L
254.738 237.668 L
254.888 237.834 L
255.039 237.999 L
255.19 238.164 L
255.34 238.327 L
255.491 238.49 L
255.642 238.652 L
255.792 238.812 L
255.943 238.973 L
256.094 239.132 L
256.244 239.29 L
256.395 239.447 L
256.546 239.604 L
256.697 239.759 L
256.847 239.914 L
256.998 240.068 L
257.149 240.221 L
257.299 240.373 L
257.45 240.524 L
257.601 240.674 L
257.751 240.823 L
257.902 240.972 L
258.053 241.119 L
258.203 241.265 L
258.354 241.411 L
258.505 241.555 L
258.656 241.698 L
258.806 241.841 L
258.957 241.982 L
259.108 242.123 L
259.258 242.263 L
259.409 242.401 L
259.56 242.539 L
259.71 242.675 L
259.861 242.811 L
260.012 242.945 L
260.163 243.079 L
260.313 243.211 L
260.464 243.343 L
260.615 243.473 L
260.765 243.602 L
260.916 243.731 L
261.067 243.858 L
261.217 243.984 L
261.368 244.109 L
261.519 244.233 L
261.669 244.356 L
261.82 244.478 L
261.971 244.599 L
262.122 244.719 L
262.272 244.837 L
262.423 244.955 L
262.574 245.071 L
262.724 245.187 L
262.875 245.301 L
263.026 245.414 L
263.176 245.526 L
263.327 245.637 L
263.478 245.747 L
263.628 245.855 L
263.779 245.963 L
263.93 246.069 L
264.081 246.174 L
264.231 246.278 L
264.382 246.381 L
264.533 246.483 L
264.683 246.583 L
264.834 246.682 L
264.985 246.781 L
265.135 246.878 L
265.286 246.973 L
265.437 247.068 L
265.587 247.161 L
265.738 247.253 L
265.889 247.344 L
266.04 247.434 L
266.19 247.523 L
266.341 247.61 L
266.492 247.696 L
266.642 247.781 L
266.793 247.865 L
266.944 247.947 L
267.094 248.028 L
267.245 248.108 L
267.396 248.187 L
267.547 248.264 L
267.697 248.341 L
267.848 248.416 L
267.999 248.489 L
268.149 248.562 L
268.3 248.633 L
268.451 248.703 L
268.601 248.771 L
268.752 248.838 L
268.903 248.905 L
269.053 248.969 L
269.204 249.033 L
269.355 249.095 L
269.506 249.156 L
269.656 249.215 L
269.807 249.273 L
269.958 249.33 L
270.108 249.386 L
270.259 249.44 L
270.41 249.493 L
270.56 249.545 L
270.711 249.595 L
270.862 249.644 L
271.012 249.692 L
271.163 249.738 L
271.314 249.783 L
271.465 249.827 L
271.615 249.869 L
271.766 249.91 L
271.917 249.95 L
272.067 249.988 L
272.218 250.025 L
272.369 250.061 L
272.519 250.095 L
272.67 250.128 L
272.821 250.159 L
272.972 250.189 L
273.122 250.218 L
273.273 250.245 L
273.424 250.271 L
273.574 250.296 L
273.725 250.319 L
273.876 250.341 L
274.026 250.362 L
274.177 250.381 L
274.328 250.398 L
274.478 250.415 L
274.629 250.43 L
274.78 250.443 L
274.931 250.455 L
275.081 250.466 L
275.232 250.475 L
275.383 250.483 L
275.533 250.49 L
275.684 250.495 L
275.835 250.499 L
275.985 250.501 L
276.136 250.502 L
276.287 250.501 L
276.438 250.499 L
276.588 250.496 L
276.739 250.491 L
276.89 250.485 L
277.04 250.478 L
277.191 250.469 L
277.342 250.458 L
277.492 250.446 L
277.643 250.433 L
277.794 250.418 L
277.944 250.402 L
278.095 250.385 L
278.246 250.366 L
278.397 250.346 L
278.547 250.324 L
278.698 250.301 L
278.849 250.276 L
278.999 250.25 L
279.15 250.222 L
279.301 250.193 L
279.451 250.163 L
279.602 250.131 L
279.753 250.098 L
279.903 250.063 L
280.054 250.027 L
280.205 249.99 L
280.356 249.951 L
280.506 249.91 L
280.657 249.868 L
280.808 249.825 L
280.958 249.78 L
281.109 249.734 L
281.26 249.687 L
281.41 249.638 L
281.561 249.587 L
281.712 249.536 L
281.863 249.482 L
282.013 249.428 L
282.164 249.371 L
282.315 249.314 L
282.465 249.255 L
282.616 249.194 L
282.767 249.132 L
282.917 249.069 L
283.068 249.004 L
283.219 248.938 L
283.369 248.871 L
283.52 248.802 L
283.671 248.731 L
283.822 248.659 L
283.972 248.586 L
284.123 248.511 L
284.274 248.435 L
284.424 248.358 L
284.575 248.279 L
284.726 248.199 L
284.876 248.117 L
285.027 248.033 L
285.178 247.949 L
285.328 247.863 L
285.479 247.775 L
285.63 247.687 L
285.781 247.596 L
285.931 247.505 L
286.082 247.411 L
286.233 247.317 L
286.383 247.221 L
286.534 247.124 L
286.685 247.025 L
286.835 246.925 L
286.986 246.823 L
287.137 246.721 L
287.288 246.616 L
287.438 246.511 L
287.589 246.404 L
287.74 246.295 L
287.89 246.185 L
288.041 246.074 L
288.192 245.961 L
288.342 245.847 L
288.493 245.732 L
288.644 245.615 L
288.794 245.497 L
288.945 245.378 L
289.096 245.257 L
289.247 245.134 L
289.397 245.011 L
289.548 244.886 L
289.699 244.759 L
289.849 244.632 L
290 244.503 L
290.151 244.372 L
290.301 244.24 L
290.452 244.107 L
290.603 243.973 L
290.753 243.837 L
290.904 243.7 L
291.055 243.561 L
291.206 243.421 L
291.356 243.28 L
291.507 243.138 L
291.658 242.994 L
291.808 242.849 L
291.959 242.702 L
292.11 242.554 L
292.26 242.405 L
292.411 242.255 L
292.562 242.103 L
292.712 241.95 L
292.863 241.795 L
293.014 241.639 L
293.165 241.482 L
293.315 241.324 L
293.466 241.164 L
293.617 241.003 L
293.767 240.841 L
293.918 240.678 L
294.069 240.513 L
294.219 240.347 L
294.37 240.179 L
294.521 240.01 L
294.672 239.84 L
294.822 239.669 L
294.973 239.497 L
295.124 239.323 L
295.274 239.148 L
295.425 238.971 L
295.576 238.794 L
295.726 238.615 L
295.877 238.435 L
296.028 238.253 L
296.178 238.071 L
296.329 237.887 L
296.48 237.702 L
296.631 237.516 L
296.781 237.328 L
296.932 237.139 L
297.083 236.949 L
297.233 236.758 L
297.384 236.565 L
297.535 236.371 L
297.685 236.177 L
297.836 235.98 L
297.987 235.783 L
298.137 235.584 L
298.288 235.385 L
298.439 235.183 L
298.59 234.981 L
298.74 234.778 L
298.891 234.573 L
299.042 234.367 L
299.192 234.16 L
299.343 233.952 L
299.494 233.743 L
299.644 233.532 L
299.795 233.32 L
299.946 233.108 L
300.097 232.893 L
300.247 232.678 L
300.398 232.462 L
300.549 232.244 L
300.699 232.025 L
300.85 231.806 L
301.001 231.585 L
301.151 231.362 L
301.302 231.139 L
301.453 230.914 L
301.603 230.689 L
301.754 230.462 L
301.905 230.234 L
302.056 230.005 L
302.206 229.775 L
302.357 229.544 L
302.508 229.311 L
302.658 229.078 L
302.809 228.843 L
302.96 228.607 L
303.11 228.37 L
303.261 228.132 L
303.412 227.893 L
303.563 227.653 L
303.713 227.412 L
303.864 227.169 L
304.015 226.926 L
304.165 226.681 L
304.316 226.435 L
304.467 226.189 L
304.617 225.941 L
304.768 225.692 L
304.919 225.442 L
305.069 225.191 L
305.22 224.939 L
305.371 224.686 L
305.522 224.431 L
305.672 224.176 L
305.823 223.92 L
305.974 223.662 L
306.124 223.404 L
306.275 223.144 L
306.426 222.883 L
306.576 222.622 L
306.727 222.359 L
306.878 222.095 L
307.028 221.831 L
307.179 221.565 L
307.33 221.298 L
307.481 221.03 L
307.631 220.761 L
307.782 220.492 L
307.933 220.221 L
308.083 219.949 L
308.234 219.676 L
308.385 219.402 L
308.535 219.127 L
308.686 218.851 L
308.837 218.574 L
308.988 218.296 L
309.138 218.017 L
309.289 217.737 L
309.44 217.456 L
309.59 217.175 L
309.741 216.892 L
309.892 216.608 L
310.042 216.323 L
310.193 216.037 L
310.344 215.75 L
310.494 215.463 L
310.645 215.174 L
310.796 214.884 L
310.947 214.594 L
311.097 214.302 L
311.248 214.009 L
311.399 213.716 L
311.549 213.421 L
311.7 213.126 L
311.851 212.829 L
312.001 212.532 L
312.152 212.234 L
312.303 211.935 L
312.453 211.635 L
312.604 211.333 L
312.755 211.031 L
312.906 210.728 L
313.056 210.425 L
313.207 210.12 L
313.358 209.814 L
313.508 209.507 L
313.659 209.2 L
313.81 208.891 L
313.96 208.582 L
314.111 208.272 L
314.262 207.961 L
314.413 207.648 L
314.563 207.335 L
314.714 207.022 L
314.865 206.707 L
315.015 206.391 L
315.166 206.075 L
315.317 205.757 L
315.467 205.439 L
315.618 205.119 L
315.769 204.799 L
315.919 204.478 L
316.07 204.156 L
316.221 203.834 L
316.372 203.51 L
316.522 203.185 L
316.673 202.86 L
316.824 202.534 L
316.974 202.207 L
317.125 201.879 L
317.276 201.55 L
317.426 201.22 L
317.577 200.89 L
317.728 200.558 L
317.878 200.226 L
318.029 199.893 L
318.18 199.559 L
318.331 199.224 L
318.481 198.889 L
318.632 198.552 L
318.783 198.215 L
318.933 197.877 L
319.084 197.538 L
319.235 197.198 L
319.385 196.857 L
319.536 196.516 L
319.687 196.174 L
319.837 195.83 L
319.988 195.486 L
320.139 195.142 L
320.29 194.796 L
320.44 194.45 L
320.591 194.103 L
320.742 193.755 L
320.892 193.406 L
321.043 193.056 L
321.194 192.706 L
321.344 192.355 L
321.495 192.003 L
321.646 191.65 L
321.797 191.296 L
321.947 190.942 L
322.098 190.587 L
322.249 190.231 L
322.399 189.874 L
322.55 189.517 L
322.701 189.158 L
322.851 188.799 L
323.002 188.439 L
323.153 188.079 L
323.303 187.717 L
323.454 187.355 L
323.605 186.992 L
323.756 186.629 L
323.906 186.264 L
324.057 185.899 L
324.208 185.533 L
324.358 185.166 L
324.509 184.799 L
324.66 184.431 L
324.81 184.062 L
324.961 183.692 L
325.112 183.322 L
325.262 182.95 L
325.413 182.578 L
325.564 182.206 L
325.715 181.832 L
325.865 181.458 L
326.016 181.083 L
326.167 180.708 L
326.317 180.331 L
326.468 179.954 L
326.619 179.576 L
326.769 179.198 L
326.92 178.819 L
327.071 178.439 L
327.222 178.058 L
327.372 177.677 L
327.523 177.295 L
327.674 176.912 L
327.824 176.528 L
327.975 176.144 L
328.126 175.759 L
328.276 175.374 L
328.427 174.988 L
328.578 174.601 L
328.728 174.213 L
328.879 173.825 L
329.03 173.436 L
329.181 173.046 L
329.331 172.656 L
329.482 172.265 L
329.633 171.873 L
329.783 171.48 L
329.934 171.087 L
330.085 170.694 L
330.235 170.299 L
330.386 169.904 L
330.537 169.508 L
330.688 169.112 L
330.838 168.715 L
330.989 168.317 L
331.14 167.919 L
331.29 167.52 L
331.441 167.121 L
331.592 166.72 L
331.742 166.319 L
331.893 165.918 L
332.044 165.516 L
332.194 165.113 L
332.345 164.71 L
332.496 164.306 L
332.647 163.901 L
332.797 163.496 L
332.948 163.09 L
333.099 162.683 L
333.249 162.276 L
333.4 161.869 L
333.551 161.46 L
333.701 161.051 L
333.852 160.642 L
334.003 160.232 L
334.153 159.821 L
334.304 159.41 L
334.455 158.998 L
334.606 158.586 L
334.756 158.173 L
334.907 157.759 L
335.058 157.345 L
335.208 156.93 L
335.359 156.515 L
335.51 156.099 L
335.66 155.683 L
335.811 155.266 L
335.962 154.849 L
336.113 154.431 L
336.263 154.012 L
336.414 153.593 L
336.565 153.174 L
336.715 152.754 L
336.866 152.333 L
337.017 151.912 L
337.167 151.49 L
337.318 151.068 L
337.469 150.645 L
337.619 150.222 L
337.77 149.798 L
337.921 149.374 L
338.072 148.949 L
338.222 148.524 L
338.373 148.099 L
338.524 147.673 L
338.674 147.246 L
338.825 146.819 L
338.976 146.391 L
339.126 145.963 L
339.277 145.535 L
339.428 145.106 L
339.578 144.677 L
339.729 144.247 L
339.88 143.817 L
340.031 143.386 L
340.181 142.955 L
340.332 142.524 L
340.483 142.092 L
340.633 141.66 L
340.784 141.227 L
340.935 140.794 L
341.085 140.361 L
341.236 139.927 L
341.387 139.493 L
341.538 139.058 L
341.688 138.623 L
341.839 138.188 L
341.99 137.752 L
342.14 137.316 L
342.291 136.88 L
342.442 136.443 L
342.592 136.006 L
342.743 135.569 L
342.894 135.131 L
343.044 134.693 L
343.195 134.255 L
343.346 133.817 L
343.497 133.378 L
343.647 132.939 L
343.798 132.499 L
343.949 132.06 L
344.099 131.62 L
344.25 131.18 L
344.401 130.739 L
344.551 130.299 L
344.702 129.858 L
344.853 129.417 L
345.003 128.976 L
345.154 128.534 L
345.305 128.093 L
345.456 127.651 L
345.606 127.209 L
345.757 126.767 L
345.908 126.324 L
346.058 125.882 L
346.209 125.439 L
346.36 124.997 L
346.51 124.554 L
346.661 124.111 L
346.812 123.668 L
346.962 123.225 L
347.113 122.782 L
347.264 122.339 L
347.415 121.895 L
347.565 121.452 L
347.716 121.009 L
347.867 120.565 L
348.017 120.122 L
348.168 119.679 L
348.319 119.235 L
348.469 118.792 L
348.62 118.349 L
348.771 117.906 L
348.922 117.462 L
349.072 117.019 L
349.223 116.576 L
349.374 116.133 L
349.524 115.691 L
349.675 115.248 L
349.826 114.806 L
349.976 114.363 L
350.127 113.921 L
350.278 113.479 L
350.428 113.038 L
350.579 112.596 L
350.73 112.155 L
350.881 111.714 L
351.031 111.273 L
351.182 110.833 L
351.333 110.393 L
351.483 109.953 L
351.634 109.514 L
351.785 109.075 L
351.935 108.636 L
352.086 108.198 L
352.237 107.76 L
352.387 107.323 L
352.538 106.886 L
352.689 106.449 L
352.84 106.013 L
352.99 105.578 L
353.141 105.143 L
353.292 104.709 L
353.442 104.275 L
353.593 103.842 L
353.744 103.409 L
353.894 102.978 L
354.045 102.547 L
354.196 102.116 L
354.347 101.687 L
354.497 101.258 L
354.648 100.829 L
354.799 100.402 L
354.949 99.976 L
355.1 99.55 L
355.251 99.125 L
355.401 98.702 L
355.552 98.279 L
355.703 97.857 L
355.853 97.436 L
356.004 97.017 L
356.155 96.598 L
356.306 96.18 L
356.456 95.764 L
356.607 95.349 L
356.758 94.935 L
356.908 94.522 L
357.059 94.111 L
357.21 93.701 L
357.36 93.292 L
357.511 92.885 L
357.662 92.479 L
357.813 92.074 L
357.963 91.672 L
358.114 91.27 L
358.265 90.871 L
358.415 90.473 L
358.566 90.076 L
358.717 89.682 L
358.867 89.289 L
359.018 88.898 L
359.169 88.509 L
359.319 88.122 L
359.47 87.737 L
359.621 87.354 L
359.772 86.973 L
359.922 86.595 L
360.073 86.218 L
360.224 85.844 L
360.374 85.472 L
360.525 85.102 L
360.676 84.735 L
360.826 84.371 L
360.977 84.008 L
361.128 83.649 L
361.278 83.292 L
361.429 82.938 L
361.58 82.587 L
361.731 82.239 L
361.881 81.894 L
362.032 81.551 L
362.183 81.212 L
362.333 80.876 L
362.484 80.543 L
362.635 80.214 L
362.785 79.888 L
362.936 79.565 L
363.087 79.246 L
363.237 78.931 L
363.388 78.619 L
363.539 78.311 L
363.69 78.007 L
363.84 77.707 L
363.991 77.411 L
364.142 77.119 L
364.292 76.832 L
364.443 76.548 L
364.594 76.269 L
364.744 75.995 L
364.895 75.725 L
365.046 75.459 L
365.197 75.199 L
365.347 74.943 L
365.498 74.692 L
365.649 74.446 L
365.799 74.206 L
365.95 73.97 L
366.101 73.74 L
366.251 73.515 L
366.402 73.295 L
366.553 73.082 L
366.703 72.873 L
366.854 72.671 L
367.005 72.474 L
367.156 72.283 L
367.306 72.098 L
367.457 71.919 L
367.608 71.747 L
367.758 71.58 L
367.909 71.42 L
368.06 71.266 L
368.21 71.119 L
368.361 70.978 L
368.512 70.844 L
368.663 70.717 L
368.813 70.596 L
368.964 70.482 L
369.115 70.375 L
369.265 70.274 L
369.416 70.181 L
369.567 70.095 L
369.717 70.015 L
369.868 69.943 L
370.019 69.878 L
370.169 69.82 L
370.32 69.769 L
370.471 69.726 L
370.622 69.689 L
370.772 69.66 L
370.923 69.638 L
371.074 69.624 L
371.224 69.616 L
371.375 69.616 L
371.526 69.624 L
371.676 69.638 L
371.827 69.66 L
371.978 69.689 L
372.128 69.725 L
372.279 69.768 L
372.43 69.818 L
372.581 69.876 L
372.731 69.94 L
372.882 70.012 L
373.033 70.09 L
373.183 70.176 L
373.334 70.268 L
373.485 70.367 L
373.635 70.473 L
373.786 70.585 L
373.937 70.705 L
374.087 70.83 L
374.238 70.962 L
374.389 71.101 L
374.54 71.246 L
374.69 71.397 L
374.841 71.554 L
374.992 71.718 L
375.142 71.887 L
375.293 72.062 L
375.444 72.243 L
375.594 72.43 L
375.745 72.623 L
375.896 72.821 L
376.047 73.024 L
376.197 73.233 L
376.348 73.447 L
376.499 73.667 L
376.649 73.891 L
376.8 74.12 L
376.951 74.355 L
377.101 74.594 L
377.252 74.838 L
377.403 75.086 L
377.553 75.34 L
377.704 75.597 L
377.855 75.859 L
378.006 76.125 L
378.156 76.395 L
378.307 76.67 L
378.458 76.948 L
378.608 77.231 L
378.759 77.517 L
378.91 77.807 L
379.06 78.1 L
379.211 78.398 L
379.362 78.698 L
379.513 79.002 L
379.663 79.31 L
379.814 79.62 L
379.965 79.934 L
380.115 80.251 L
380.266 80.571 L
380.417 80.894 L
380.567 81.22 L
380.718 81.549 L
380.869 81.88 L
381.019 82.214 L
381.17 82.551 L
381.321 82.89 L
381.471 83.232 L
381.622 83.576 L
381.773 83.923 L
381.924 84.271 L
382.074 84.622 L
382.225 84.975 L
382.376 85.331 L
382.526 85.688 L
382.677 86.047 L
382.828 86.409 L
382.978 86.772 L
383.129 87.137 L
383.28 87.504 L
383.431 87.872 L
383.581 88.243 L
383.732 88.615 L
383.883 88.988 L
384.033 89.363 L
384.184 89.74 L
384.335 90.118 L
384.485 90.497 L
384.636 90.878 L
384.787 91.26 L
384.938 91.644 L
385.088 92.028 L
385.239 92.414 L
385.39 92.801 L
385.54 93.189 L
385.691 93.579 L
385.842 93.969 L
385.992 94.361 L
386.143 94.753 L
386.294 95.147 L
386.444 95.541 L
386.595 95.936 L
386.746 96.332 L
386.897 96.729 L
387.047 97.127 L
387.198 97.526 L
387.349 97.925 L
387.499 98.325 L
387.65 98.726 L
387.801 99.127 L
387.951 99.529 L
388.102 99.932 L
388.253 100.335 L
388.404 100.739 L
388.554 101.143 L
388.705 101.548 L
388.856 101.954 L
389.006 102.36 L
389.157 102.766 L
389.308 103.173 L
389.458 103.58 L
389.609 103.988 L
389.76 104.396 L
389.91 104.804 L
390.061 105.213 L
390.212 105.622 L
390.362 106.031 L
390.513 106.44 L
390.664 106.85 L
390.815 107.26 L
390.965 107.671 L
391.116 108.081 L
391.267 108.492 L
391.417 108.903 L
391.568 109.314 L
391.719 109.725 L
391.869 110.136 L
392.02 110.548 L
392.171 110.959 L
392.322 111.371 L
392.472 111.782 L
392.623 112.194 L
392.774 112.606 L
392.924 113.018 L
393.075 113.43 L
393.226 113.842 L
393.376 114.253 L
393.527 114.665 L
393.678 115.077 L
393.828 115.489 L
393.979 115.901 L
394.13 116.312 L
394.281 116.724 L
394.431 117.136 L
394.582 117.547 L
394.733 117.958 L
394.883 118.37 L
395.034 118.781 L
395.185 119.192 L
395.335 119.602 L
395.486 120.013 L
395.637 120.424 L
395.788 120.834 L
395.938 121.244 L
396.089 121.654 L
396.24 122.064 L
396.39 122.474 L
396.541 122.883 L
396.692 123.292 L
396.842 123.701 L
396.993 124.11 L
397.144 124.518 L
397.294 124.927 L
397.445 125.335 L
397.596 125.742 L
397.747 126.15 L
397.897 126.557 L
398.048 126.964 L
398.199 127.371 L
398.349 127.777 L
398.5 128.183 L
398.651 128.589 L
398.801 128.994 L
398.952 129.399 L
399.103 129.804 L
399.253 130.209 L
399.404 130.613 L
399.555 131.017 L
399.706 131.42 L
399.856 131.823 L
400.007 132.226 L
400.158 132.628 L
400.308 133.03 L
400.459 133.432 L
400.61 133.833 L
400.76 134.234 L
400.911 134.635 L
401.062 135.035 L
401.212 135.435 L
401.363 135.834 L
401.514 136.233 L
401.665 136.632 L
401.815 137.03 L
401.966 137.428 L
402.117 137.825 L
402.267 138.222 L
402.418 138.619 L
402.569 139.015 L
402.719 139.411 L
402.87 139.806 L
403.021 140.201 L
403.172 140.595 L
403.322 140.989 L
403.473 141.383 L
403.624 141.776 L
403.774 142.168 L
403.925 142.56 L
404.076 142.952 L
404.226 143.343 L
404.377 143.734 L
404.528 144.125 L
404.678 144.515 L
404.829 144.904 L
404.98 145.293 L
405.131 145.681 L
405.281 146.07 L
405.432 146.457 L
405.583 146.844 L
405.733 147.231 L
405.884 147.617 L
406.035 148.003 L
406.185 148.388 L
406.336 148.772 L
406.487 149.157 L
406.638 149.54 L
406.788 149.924 L
406.939 150.306 L
407.09 150.689 L
407.24 151.07 L
407.391 151.451 L
407.542 151.832 L
407.692 152.212 L
407.843 152.592 L
407.994 152.971 L
408.144 153.35 L
408.295 153.728 L
408.446 154.106 L
408.596 154.483 L
408.747 154.86 L
408.898 155.236 L
409.049 155.612 L
409.199 155.987 L
409.35 156.362 L
409.501 156.736 L
409.651 157.11 L
409.802 157.483 L
409.953 157.855 L
410.103 158.227 L
410.254 158.599 L
410.405 158.97 L
410.556 159.341 L
410.706 159.711 L
410.857 160.08 L
411.008 160.449 L
411.158 160.818 L
411.309 161.186 L
411.46 161.553 L
411.61 161.92 L
411.761 162.286 L
411.912 162.652 L
412.063 163.017 L
412.213 163.382 L
412.364 163.746 L
412.515 164.11 L
412.665 164.473 L
412.816 164.836 L
412.967 165.198 L
413.117 165.56 L
413.268 165.921 L
413.419 166.282 L
413.569 166.642 L
413.72 167.001 L
413.871 167.36 L
414.022 167.719 L
414.172 168.077 L
414.323 168.434 L
414.474 168.791 L
414.624 169.147 L
414.775 169.503 L
414.926 169.858 L
415.076 170.213 L
415.227 170.568 L
415.378 170.921 L
415.529 171.274 L
415.679 171.627 L
415.83 171.979 L
415.981 172.331 L
416.131 172.682 L
416.282 173.033 L
416.433 173.383 L
416.583 173.732 L
416.734 174.081 L
416.885 174.43 L
417.035 174.778 L
417.186 175.125 L
417.337 175.472 L
417.487 175.818 L
417.638 176.164 L
417.789 176.51 L
417.94 176.854 L
418.09 177.199 L
418.241 177.542 L
418.392 177.886 L
418.542 178.228 L
418.693 178.571 L
418.844 178.912 L
418.994 179.253 L
419.145 179.594 L
419.296 179.934 L
419.447 180.274 L
419.597 180.613 L
419.748 180.952 L
419.899 181.29 L
420.049 181.627 L
420.2 181.964 L
420.351 182.301 L
420.501 182.637 L
420.652 182.972 L
420.803 183.307 L
420.953 183.642 L
421.104 183.976 L
421.255 184.309 L
421.406 184.642 L
421.556 184.975 L
421.707 185.307 L
421.858 185.638 L
422.008 185.969 L
422.159 186.3 L
422.31 186.629 L
422.46 186.959 L
422.611 187.288 L
422.762 187.616 L
422.913 187.944 L
423.063 188.272 L
423.214 188.599 L
423.365 188.925 L
423.515 189.251 L
423.666 189.576 L
423.817 189.901 L
423.967 190.226 L
424.118 190.55 L
424.269 190.873 L
424.419 191.196 L
424.57 191.519 L
424.721 191.841 L
424.872 192.162 L
425.022 192.483 L
425.173 192.804 L
425.324 193.124 L
425.474 193.443 L
425.625 193.763 L
425.776 194.081 L
425.926 194.399 L
426.077 194.717 L
426.228 195.034 L
426.378 195.351 L
426.529 195.667 L
426.68 195.983 L
426.831 196.298 L
426.981 196.613 L
427.132 196.927 L
427.283 197.241 L
427.433 197.554 L
427.584 197.867 L
427.735 198.18 L
427.885 198.492 L
428.036 198.803 L
428.187 199.114 L
428.337 199.425 L
428.488 199.735 L
428.639 200.045 L
428.79 200.354 L
428.94 200.663 L
429.091 200.971 L
429.242 201.279 L
429.392 201.586 L
429.543 201.893 L
429.694 202.2 L
429.844 202.506 L
429.995 202.811 L
430.146 203.116 L
430.297 203.421 L
430.447 203.725 L
430.598 204.029 L
430.749 204.332 L
430.899 204.635 L
431.05 204.938 L
431.201 205.24 L
431.351 205.541 L
431.502 205.842 L
431.653 206.143 L
431.803 206.443 L
431.954 206.743 L
432.105 207.043 L
432.256 207.342 L
432.406 207.64 L
432.557 207.938 L
432.708 208.236 L
432.858 208.533 L
433.009 208.83 L
433.16 209.126 L
433.31 209.422 L
433.461 209.718 L
433.612 210.013 L
433.763 210.308 L
433.913 210.602 L
434.064 210.896 L
434.215 211.19 L
434.365 211.483 L
434.516 211.775 L
434.667 212.068 L
434.817 212.36 L
434.968 212.651 L
435.119 212.942 L
435.269 213.233 L
435.42 213.523 L
435.571 213.813 L
435.721 214.102 L
435.872 214.391 L
436.023 214.68 L
436.174 214.968 L
436.324 215.256 L
436.475 215.543 L
436.626 215.831 L
436.776 216.117 L
436.927 216.404 L
437.078 216.689 L
437.228 216.975 L
437.379 217.26 L
437.53 217.545 L
437.681 217.829 L
437.831 218.113 L
437.982 218.397 L
438.133 218.68 L
438.283 218.963 L
438.434 219.245 L
438.585 219.528 L
438.735 219.809 L
438.886 220.091 L
439.037 220.372 L
439.188 220.652 L
439.338 220.933 L
439.489 221.213 L
439.64 221.492 L
439.79 221.771 L
439.941 222.05 L
440.092 222.329 L
440.242 222.607 L
440.393 222.885 L
440.544 223.162 L
440.694 223.439 L
440.845 223.716 L
440.996 223.992 L
441.147 224.268 L
441.297 224.544 L
441.448 224.819 L
441.599 225.094 L
441.749 225.369 L
441.9 225.643 L
442.051 225.917 L
442.201 226.191 L
442.352 226.464 L
442.503 226.737 L
442.654 227.01 L
442.804 227.282 L
442.955 227.554 L
443.106 227.826 L
443.256 228.097 L
443.407 228.368 L
443.558 228.639 L
443.708 228.909 L
443.859 229.179 L
444.01 229.449 L
444.16 229.718 L
444.311 229.987 L
444.462 230.256 L
444.612 230.525 L
444.763 230.793 L
444.914 231.061 L
445.065 231.328 L
445.215 231.595 L
445.366 231.862 L
445.517 232.129 L
445.667 232.395 L
445.818 232.661 L
445.969 232.927 L
446.119 233.192 L
446.27 233.458 L
446.421 233.723 L
446.572 233.987 L
446.722 234.251 L
446.873 234.515 L
447.024 234.779 L
447.174 235.042 L
447.325 235.306 L
447.476 235.568 L
447.626 235.831 L
447.777 236.093 L
447.928 236.355 L
448.078 236.617 L
448.229 236.879 L
448.38 237.14 L
448.531 237.401 L
448.681 237.661 L
448.832 237.922 L
448.983 238.182 L
449.133 238.442 L
449.284 238.701 L
449.435 238.961 L
449.585 239.22 L
449.736 239.479 L
449.887 239.737 L
450.038 239.995 L
450.188 240.254 L
450.339 240.511 L
450.49 240.769 L
450.64 241.026 L
450.791 241.283 L
450.942 241.54 L
451.092 241.797 L
451.243 242.053 L
451.394 242.309 L
451.544 242.565 L
451.695 242.821 L
451.846 243.076 L
451.997 243.331 L
452.147 243.586 L
452.298 243.841 L
452.449 244.095 L
452.599 244.35 L
452.75 244.604 L
452.901 244.857 L
453.051 245.111 L
453.202 245.364 L
453.353 245.617 L
453.503 245.87 L
453.654 246.123 L
453.805 246.375 L
453.956 246.628 L
454.106 246.88 L
454.257 247.132 L
454.408 247.383 L
454.558 247.635 L
454.709 247.886 L
454.86 248.137 L
455.01 248.388 L
455.161 248.638 L
455.312 248.889 L
455.462 249.139 L
455.613 249.389 L
455.764 249.639 L
455.915 249.889 L
456.065 250.138 L
456.216 250.387 L
456.367 250.636 L
456.517 250.885 L
456.668 251.134 L
456.819 251.383 L
456.969 251.631 L
457.12 251.879 L
457.271 252.127 L
457.422 252.375 L
457.572 252.623 L
457.723 252.87 L
457.874 253.117 L
458.024 253.364 L
458.175 253.611 L
458.326 253.858 L
458.476 254.105 L
458.627 254.351 L
458.778 254.598 L
458.928 254.844 L
459.079 255.09 L
459.23 255.336 L
459.381 255.581 L
459.531 255.827 L
459.682 256.072 L
459.833 256.318 L
459.983 256.563 L
460.134 256.808 L
460.285 257.052 L
460.435 257.297 L
460.586 257.541 L
460.737 257.786 L
460.888 258.03 L
461.038 258.274 L
461.189 258.518 L
461.34 258.762 L
461.49 259.006 L
461.641 259.249 L
461.792 259.493 L
461.942 259.736 L
462.093 259.979 L
462.244 260.222 L
462.394 260.465 L
462.545 260.708 L
462.696 260.95 L
462.846 261.193 L
462.997 261.435 L
463.148 261.678 L
463.299 261.92 L
463.449 262.162 L
463.6 262.404 L
463.751 262.646 L
463.901 262.888 L
464.052 263.129 L
464.203 263.371 L
464.353 263.612 L
464.504 263.854 L
464.655 264.095 L
464.806 264.336 L
464.956 264.577 L
465.107 264.818 L
465.258 265.059 L
465.408 265.3 L
465.559 265.54 L
465.71 265.781 L
465.86 266.022 L
466.011 266.262 L
466.162 266.502 L
466.313 266.743 L
466.463 266.983 L
466.614 267.223 L
466.765 267.463 L
466.915 267.703 L
467.066 267.943 L
467.217 268.182 L
467.367 268.422 L
467.518 268.662 L
467.669 268.901 L
467.819 269.141 L
467.97 269.38 L
468.121 269.62 L
468.272 269.859 L
468.422 270.098 L
468.573 270.337 L
468.724 270.576 L
468.874 270.815 L
469.025 271.054 L
469.176 271.293 L
469.326 271.532 L
469.477 271.771 L
469.628 272.01 L
469.779 272.249 L
469.929 272.487 L
470.08 272.726 L
470.231 272.964 L
470.381 273.203 L
470.532 273.441 L
470.683 273.68 L
470.833 273.918 L
470.984 274.157 L
471.135 274.395 L
471.285 274.633 L
471.436 274.872 L
471.587 275.11 L
471.737 275.348 L
471.888 275.586 L
472.039 275.824 L
472.19 276.063 L
472.34 276.301 L
472.491 276.539 L
472.642 276.777 L
472.792 277.015 L
472.943 277.253 L
473.094 277.491 L
473.244 277.729 L
473.395 277.967 L
473.546 278.205 L
473.697 278.443 L
473.847 278.681 L
473.998 278.918 L
474.149 279.156 L
474.299 279.394 L
474.45 279.632 L
474.601 279.87 L
474.751 280.108 L
474.902 280.346 L
475.053 280.583 L
475.203 280.821 L
475.354 281.059 L
475.505 281.297 L
475.656 281.535 L
475.806 281.773 L
475.957 282.011 L
476.108 282.249 L
476.258 282.486 L
476.409 282.724 L
476.56 282.962 L
476.71 283.2 L
476.861 283.438 L
477.012 283.676 L
477.163 283.914 L
477.313 284.152 L
477.464 284.39 L
477.615 284.628 L
477.765 284.866 L
477.916 285.104 L
478.067 285.342 L
478.217 285.58 L
478.368 285.819 L
478.519 286.057 L
478.669 286.295 L
478.82 286.533 L
478.971 286.772 L
479.122 287.01 L
479.272 287.248 L
479.423 287.487 L
479.574 287.725 L
479.724 287.963 L
479.875 288.202 L
480.026 288.44 L
480.176 288.679 L
480.327 288.917 L
480.478 289.156 L
480.628 289.395 L
480.779 289.634 L
480.93 289.872 L
481.081 290.111 L
481.231 290.35 L
481.382 290.589 L
481.533 290.828 L
481.683 291.067 L
481.834 291.306 L
481.985 291.545 L
482.135 291.784 L
482.286 292.024 L
482.437 292.263 L
482.587 292.502 L
482.738 292.742 L
482.889 292.981 L
483.04 293.221 L
483.19 293.46 L
483.341 293.7 L
483.492 293.94 L
483.642 294.18 L
483.793 294.419 L
483.944 294.659 L
484.094 294.899 L
484.245 295.14 L
484.396 295.38 L
484.547 295.62 L
484.697 295.86 L
484.848 296.101 L
484.999 296.341 L
485.149 296.582 L
485.3 296.822 L
485.451 297.063 L
485.601 297.304 L
485.752 297.545 L
485.903 297.785 L
486.053 298.026 L
486.204 298.268 L
486.355 298.509 L
486.506 298.75 L
486.656 298.991 L
486.807 299.233 L
486.958 299.474 L
487.108 299.716 L
487.259 299.958 L
487.41 300.2 L
487.56 300.441 L
487.711 300.683 L
487.862 300.926 L
488.013 301.168 L
488.163 301.41 L
488.314 301.652 L
488.465 301.895 L
488.615 302.137 L
488.766 302.38 L
488.917 302.623 L
489.067 302.866 L
489.218 303.109 L
489.369 303.352 L
489.519 303.595 L
489.67 303.838 L
489.821 304.082 L
489.971 304.325 L
490.122 304.569 L
490.273 304.813 L
490.424 305.056 L
490.574 305.3 L
490.725 305.544 L
490.876 305.789 L
491.026 306.033 L
491.177 306.277 L
491.328 306.522 L
491.478 306.766 L
491.629 307.011 L
491.78 307.256 L
491.931 307.501 L
492.081 307.746 L
492.232 307.991 L
492.383 308.237 L
492.533 308.482 L
492.684 308.728 L
492.835 308.974 L
492.985 309.219 L
493.136 309.465 L
493.287 309.711 L
493.438 309.958 L
493.588 310.204 L
493.739 310.45 L
493.89 310.697 L
494.04 310.944 L
494.191 311.191 L
494.342 311.438 L
494.492 311.685 L
494.643 311.932 L
494.794 312.179 L
494.944 312.427 L
495.095 312.675 L
495.246 312.922 L
495.397 313.17 L
495.547 313.418 L
495.698 313.667 L
495.849 313.915 L
495.999 314.163 L
496.15 314.412 L
496.301 314.661 L
496.451 314.91 L
496.602 315.159 L
496.753 315.408 L
496.904 315.657 L
497.054 315.907 L
497.205 316.156 L
497.356 316.406 L
497.506 316.656 L
497.657 316.906 L
497.808 317.156 L
497.958 317.407 L
498.109 317.657 L
498.26 317.908 L
498.41 318.158 L
498.561 318.409 L
498.712 318.66 L
498.862 318.912 L
499.013 319.163 L
499.164 319.415 L
499.315 319.666 L
499.465 319.918 L
499.616 320.17 L
499.767 320.422 L
499.917 320.675 L
500.068 320.927 L
500.219 321.18 L
500.369 321.432 L
500.52 321.685 L
500.671 321.939 L
500.822 322.192 L
500.972 322.445 L
501.123 322.699 L
501.274 322.952 L
501.424 323.206 L
501.575 323.46 L
501.726 323.715 L
501.876 323.969 L
502.027 324.224 L
502.178 324.478 L
502.328 324.733 L
502.479 324.988 L
502.63 325.243 L
502.781 325.499 L
502.931 325.754 L
503.082 326.01 L
503.233 326.266 L
503.383 326.522 L
503.534 326.778 L
503.685 327.034 L
503.835 327.291 L
503.986 327.548 L
504.137 327.804 L
504.288 328.061 L
504.438 328.319 L
504.589 328.576 L
504.74 328.834 L
504.89 329.091 L
505.041 329.349 L
505.192 329.607 L
505.342 329.865 L
505.493 330.124 L
505.644 330.382 L
505.794 330.641 L
505.945 330.9 L
506.096 331.159 L
506.247 331.418 L
506.397 331.678 L
506.548 331.938 L
506.699 332.197 L
506.849 332.457 L
507 332.717 L
S
GR
%%Trailer
%%Pages: 1
%%EOF
