%!PS-Adobe-3.0 EPSF-3.0
%%Creator: (MATLAB, The Mathworks, Inc. Version 9.9.0.1467703 \(R2020b\). Operating System: Windows 10)
%%Title: C:/Users/timji/Documents/School/Colorado/ASEN5090/asen-5090/Homework4/plots/prn01_nist_elevation.eps
%%CreationDate: 2020-10-05T20:41:37
%%Pages: (atend)
%%BoundingBox:     0     0   420   315
%%LanguageLevel: 3
%%EndComments
%%BeginProlog
%%BeginResource: procset (Apache XML Graphics Std ProcSet) 1.2 0
%%Version: 1.2 0
%%Copyright: (Copyright 2001-2003,2010 The Apache Software Foundation. License terms: http://www.apache.org/licenses/LICENSE-2.0)
/bd{bind def}bind def
/ld{load def}bd
/GR/grestore ld
/GS/gsave ld
/RM/rmoveto ld
/C/curveto ld
/t/show ld
/L/lineto ld
/ML/setmiterlimit ld
/CT/concat ld
/f/fill ld
/N/newpath ld
/S/stroke ld
/CC/setcmykcolor ld
/A/ashow ld
/cp/closepath ld
/RC/setrgbcolor ld
/LJ/setlinejoin ld
/GC/setgray ld
/LW/setlinewidth ld
/M/moveto ld
/re {4 2 roll M
1 index 0 rlineto
0 exch rlineto
neg 0 rlineto
cp } bd
/_ctm matrix def
/_tm matrix def
/BT { _ctm currentmatrix pop matrix _tm copy pop 0 0 moveto } bd
/ET { _ctm setmatrix } bd
/iTm { _ctm setmatrix _tm concat } bd
/Tm { _tm astore pop iTm 0 0 moveto } bd
/ux 0.0 def
/uy 0.0 def
/F {
  /Tp exch def
  /Tf exch def
  Tf findfont Tp scalefont setfont
  /cf Tf def  /cs Tp def
} bd
/ULS {currentpoint /uy exch def /ux exch def} bd
/ULE {
  /Tcx currentpoint pop def
  gsave
  newpath
  cf findfont cs scalefont dup
  /FontMatrix get 0 get /Ts exch def /FontInfo get dup
  /UnderlinePosition get Ts mul /To exch def
  /UnderlineThickness get Ts mul /Tt exch def
  ux uy To add moveto  Tcx uy To add lineto
  Tt setlinewidth stroke
  grestore
} bd
/OLE {
  /Tcx currentpoint pop def
  gsave
  newpath
  cf findfont cs scalefont dup
  /FontMatrix get 0 get /Ts exch def /FontInfo get dup
  /UnderlinePosition get Ts mul /To exch def
  /UnderlineThickness get Ts mul /Tt exch def
  ux uy To add cs add moveto Tcx uy To add cs add lineto
  Tt setlinewidth stroke
  grestore
} bd
/SOE {
  /Tcx currentpoint pop def
  gsave
  newpath
  cf findfont cs scalefont dup
  /FontMatrix get 0 get /Ts exch def /FontInfo get dup
  /UnderlinePosition get Ts mul /To exch def
  /UnderlineThickness get Ts mul /Tt exch def
  ux uy To add cs 10 mul 26 idiv add moveto Tcx uy To add cs 10 mul 26 idiv add lineto
  Tt setlinewidth stroke
  grestore
} bd
/QT {
/Y22 exch store
/X22 exch store
/Y21 exch store
/X21 exch store
currentpoint
/Y21 load 2 mul add 3 div exch
/X21 load 2 mul add 3 div exch
/X21 load 2 mul /X22 load add 3 div
/Y21 load 2 mul /Y22 load add 3 div
/X22 load /Y22 load curveto
} bd
/SSPD {
dup length /d exch dict def
{
/v exch def
/k exch def
currentpagedevice k known {
/cpdv currentpagedevice k get def
v cpdv ne {
/upd false def
/nullv v type /nulltype eq def
/nullcpdv cpdv type /nulltype eq def
nullv nullcpdv or
{
/upd true def
} {
/sametype v type cpdv type eq def
sametype {
v type /arraytype eq {
/vlen v length def
/cpdvlen cpdv length def
vlen cpdvlen eq {
0 1 vlen 1 sub {
/i exch def
/obj v i get def
/cpdobj cpdv i get def
obj cpdobj ne {
/upd true def
exit
} if
} for
} {
/upd true def
} ifelse
} {
v type /dicttype eq {
v {
/dv exch def
/dk exch def
/cpddv cpdv dk get def
dv cpddv ne {
/upd true def
exit
} if
} forall
} {
/upd true def
} ifelse
} ifelse
} if
} ifelse
upd true eq {
d k v put
} if
} if
} if
} forall
d length 0 gt {
d setpagedevice
} if
} bd
/RE { % /NewFontName [NewEncodingArray] /FontName RE -
  findfont dup length dict begin
  {
    1 index /FID ne
    {def} {pop pop} ifelse
  } forall
  /Encoding exch def
  /FontName 1 index def
  currentdict definefont pop
  end
} bind def
%%EndResource
%%BeginResource: procset (Apache XML Graphics EPS ProcSet) 1.0 0
%%Version: 1.0 0
%%Copyright: (Copyright 2002-2003 The Apache Software Foundation. License terms: http://www.apache.org/licenses/LICENSE-2.0)
/BeginEPSF { %def
/b4_Inc_state save def         % Save state for cleanup
/dict_count countdictstack def % Count objects on dict stack
/op_count count 1 sub def      % Count objects on operand stack
userdict begin                 % Push userdict on dict stack
/showpage { } def              % Redefine showpage, { } = null proc
0 setgray 0 setlinecap         % Prepare graphics state
1 setlinewidth 0 setlinejoin
10 setmiterlimit [ ] 0 setdash newpath
/languagelevel where           % If level not equal to 1 then
{pop languagelevel             % set strokeadjust and
1 ne                           % overprint to their defaults.
{false setstrokeadjust false setoverprint
} if
} if
} bd
/EndEPSF { %def
count op_count sub {pop} repeat            % Clean up stacks
countdictstack dict_count sub {end} repeat
b4_Inc_state restore
} bd
%%EndResource
%FOPBeginFontDict
%%IncludeResource: font Courier-Oblique
%%IncludeResource: font Courier-BoldOblique
%%IncludeResource: font Courier-Bold
%%IncludeResource: font ZapfDingbats
%%IncludeResource: font Symbol
%%IncludeResource: font Helvetica
%%IncludeResource: font Helvetica-Oblique
%%IncludeResource: font Helvetica-Bold
%%IncludeResource: font Helvetica-BoldOblique
%%IncludeResource: font Times-Roman
%%IncludeResource: font Times-Italic
%%IncludeResource: font Times-Bold
%%IncludeResource: font Times-BoldItalic
%%IncludeResource: font Courier
%FOPEndFontDict
%%BeginResource: encoding WinAnsiEncoding
/WinAnsiEncoding [
/.notdef /.notdef /.notdef /.notdef /.notdef
/.notdef /.notdef /.notdef /.notdef /.notdef
/.notdef /.notdef /.notdef /.notdef /.notdef
/.notdef /.notdef /.notdef /.notdef /.notdef
/.notdef /.notdef /.notdef /.notdef /.notdef
/.notdef /.notdef /.notdef /.notdef /.notdef
/.notdef /.notdef /space /exclam /quotedbl
/numbersign /dollar /percent /ampersand /quotesingle
/parenleft /parenright /asterisk /plus /comma
/hyphen /period /slash /zero /one
/two /three /four /five /six
/seven /eight /nine /colon /semicolon
/less /equal /greater /question /at
/A /B /C /D /E
/F /G /H /I /J
/K /L /M /N /O
/P /Q /R /S /T
/U /V /W /X /Y
/Z /bracketleft /backslash /bracketright /asciicircum
/underscore /quoteleft /a /b /c
/d /e /f /g /h
/i /j /k /l /m
/n /o /p /q /r
/s /t /u /v /w
/x /y /z /braceleft /bar
/braceright /asciitilde /bullet /Euro /bullet
/quotesinglbase /florin /quotedblbase /ellipsis /dagger
/daggerdbl /circumflex /perthousand /Scaron /guilsinglleft
/OE /bullet /Zcaron /bullet /bullet
/quoteleft /quoteright /quotedblleft /quotedblright /bullet
/endash /emdash /asciitilde /trademark /scaron
/guilsinglright /oe /bullet /zcaron /Ydieresis
/space /exclamdown /cent /sterling /currency
/yen /brokenbar /section /dieresis /copyright
/ordfeminine /guillemotleft /logicalnot /sfthyphen /registered
/macron /degree /plusminus /twosuperior /threesuperior
/acute /mu /paragraph /middot /cedilla
/onesuperior /ordmasculine /guillemotright /onequarter /onehalf
/threequarters /questiondown /Agrave /Aacute /Acircumflex
/Atilde /Adieresis /Aring /AE /Ccedilla
/Egrave /Eacute /Ecircumflex /Edieresis /Igrave
/Iacute /Icircumflex /Idieresis /Eth /Ntilde
/Ograve /Oacute /Ocircumflex /Otilde /Odieresis
/multiply /Oslash /Ugrave /Uacute /Ucircumflex
/Udieresis /Yacute /Thorn /germandbls /agrave
/aacute /acircumflex /atilde /adieresis /aring
/ae /ccedilla /egrave /eacute /ecircumflex
/edieresis /igrave /iacute /icircumflex /idieresis
/eth /ntilde /ograve /oacute /ocircumflex
/otilde /odieresis /divide /oslash /ugrave
/uacute /ucircumflex /udieresis /yacute /thorn
/ydieresis
] def
%%EndResource
%FOPBeginFontReencode
/Courier-Oblique findfont
dup length dict begin
  {1 index /FID ne {def} {pop pop} ifelse} forall
  /Encoding WinAnsiEncoding def
  currentdict
end
/Courier-Oblique exch definefont pop
/Courier-BoldOblique findfont
dup length dict begin
  {1 index /FID ne {def} {pop pop} ifelse} forall
  /Encoding WinAnsiEncoding def
  currentdict
end
/Courier-BoldOblique exch definefont pop
/Courier-Bold findfont
dup length dict begin
  {1 index /FID ne {def} {pop pop} ifelse} forall
  /Encoding WinAnsiEncoding def
  currentdict
end
/Courier-Bold exch definefont pop
/Helvetica findfont
dup length dict begin
  {1 index /FID ne {def} {pop pop} ifelse} forall
  /Encoding WinAnsiEncoding def
  currentdict
end
/Helvetica exch definefont pop
/Helvetica-Oblique findfont
dup length dict begin
  {1 index /FID ne {def} {pop pop} ifelse} forall
  /Encoding WinAnsiEncoding def
  currentdict
end
/Helvetica-Oblique exch definefont pop
/Helvetica-Bold findfont
dup length dict begin
  {1 index /FID ne {def} {pop pop} ifelse} forall
  /Encoding WinAnsiEncoding def
  currentdict
end
/Helvetica-Bold exch definefont pop
/Helvetica-BoldOblique findfont
dup length dict begin
  {1 index /FID ne {def} {pop pop} ifelse} forall
  /Encoding WinAnsiEncoding def
  currentdict
end
/Helvetica-BoldOblique exch definefont pop
/Times-Roman findfont
dup length dict begin
  {1 index /FID ne {def} {pop pop} ifelse} forall
  /Encoding WinAnsiEncoding def
  currentdict
end
/Times-Roman exch definefont pop
/Times-Italic findfont
dup length dict begin
  {1 index /FID ne {def} {pop pop} ifelse} forall
  /Encoding WinAnsiEncoding def
  currentdict
end
/Times-Italic exch definefont pop
/Times-Bold findfont
dup length dict begin
  {1 index /FID ne {def} {pop pop} ifelse} forall
  /Encoding WinAnsiEncoding def
  currentdict
end
/Times-Bold exch definefont pop
/Times-BoldItalic findfont
dup length dict begin
  {1 index /FID ne {def} {pop pop} ifelse} forall
  /Encoding WinAnsiEncoding def
  currentdict
end
/Times-BoldItalic exch definefont pop
/Courier findfont
dup length dict begin
  {1 index /FID ne {def} {pop pop} ifelse} forall
  /Encoding WinAnsiEncoding def
  currentdict
end
/Courier exch definefont pop
%FOPEndFontReencode
%%EndProlog
%%Page: 1 1
%%PageBoundingBox: 0 0 420 315
%%BeginPageSetup
[1 0 0 -1 0 315] CT
%%EndPageSetup
GS
[0.75 0 0 0.75 0 0] CT
1 GC
N
0 0 560 420 re
f
GR
GS
[0.75 0 0 0.75 0 0] CT
1 GC
N
0 0 560 420 re
f
GR
GS
[0.75 0 0 0.75 0 0] CT
1 GC
N
73 374 M
507 374 L
507 31 L
73 31 L
cp
f
GR
GS
[0.75 0 0 0.75 0 0] CT
0.149 GC
2 setlinecap
1 LJ
0.667 LW
N
73 374 M
507 374 L
S
GR
GS
[0.75 0 0 0.75 0 0] CT
0.149 GC
2 setlinecap
1 LJ
0.667 LW
N
73 31 M
507 31 L
S
GR
GS
[0.75 0 0 0.75 0 0] CT
0.149 GC
2 setlinecap
1 LJ
0.667 LW
N
73 374 M
73 369.66 L
S
GR
GS
[0.75 0 0 0.75 0 0] CT
0.149 GC
2 setlinecap
1 LJ
0.667 LW
N
163.417 374 M
163.417 369.66 L
S
GR
GS
[0.75 0 0 0.75 0 0] CT
0.149 GC
2 setlinecap
1 LJ
0.667 LW
N
253.833 374 M
253.833 369.66 L
S
GR
GS
[0.75 0 0 0.75 0 0] CT
0.149 GC
2 setlinecap
1 LJ
0.667 LW
N
344.25 374 M
344.25 369.66 L
S
GR
GS
[0.75 0 0 0.75 0 0] CT
0.149 GC
2 setlinecap
1 LJ
0.667 LW
N
434.667 374 M
434.667 369.66 L
S
GR
GS
[0.75 0 0 0.75 0 0] CT
0.149 GC
2 setlinecap
1 LJ
0.667 LW
N
73 31 M
73 35.34 L
S
GR
GS
[0.75 0 0 0.75 0 0] CT
0.149 GC
2 setlinecap
1 LJ
0.667 LW
N
163.417 31 M
163.417 35.34 L
S
GR
GS
[0.75 0 0 0.75 0 0] CT
0.149 GC
2 setlinecap
1 LJ
0.667 LW
N
253.833 31 M
253.833 35.34 L
S
GR
GS
[0.75 0 0 0.75 0 0] CT
0.149 GC
2 setlinecap
1 LJ
0.667 LW
N
344.25 31 M
344.25 35.34 L
S
GR
GS
[0.75 0 0 0.75 0 0] CT
0.149 GC
2 setlinecap
1 LJ
0.667 LW
N
434.667 31 M
434.667 35.34 L
S
GR
GS
[0.75 0 0 0.75 54.75 284.50001] CT
0.149 GC
/Helvetica 13.333 F
GS
[1 0 0 1 0 0] CT
-4 14 moveto 
1 -1 scale
(0) t 
GR
GR
GS
[0.75 0 0 0.75 122.5625 284.50001] CT
0.149 GC
/Helvetica 13.333 F
GS
[1 0 0 1 0 0] CT
-4 14 moveto 
1 -1 scale
(5) t 
GR
GR
GS
[0.75 0 0 0.75 190.375 284.50001] CT
0.149 GC
/Helvetica 13.333 F
GS
[1 0 0 1 0 0] CT
-7.5 14 moveto 
1 -1 scale
(10) t 
GR
GR
GS
[0.75 0 0 0.75 258.1875 284.50001] CT
0.149 GC
/Helvetica 13.333 F
GS
[1 0 0 1 0 0] CT
-7.5 14 moveto 
1 -1 scale
(15) t 
GR
GR
GS
[0.75 0 0 0.75 325.99999 284.50001] CT
0.149 GC
/Helvetica 13.333 F
GS
[1 0 0 1 0 0] CT
-7.5 14 moveto 
1 -1 scale
(20) t 
GR
GR
GS
[0.75 0 0 0.75 217.50016 298.24999] CT
0.149 GC
/Helvetica 14.667 F
GS
[1 0 0 1 0 0] CT
-57.5 15 moveto 
1 -1 scale
(Time into day \(hr\)) t 
GR
GR
GS
[0.75 0 0 0.75 0 0] CT
0.149 GC
2 setlinecap
1 LJ
0.667 LW
N
73 374 M
73 31 L
S
GR
GS
[0.75 0 0 0.75 0 0] CT
0.149 GC
2 setlinecap
1 LJ
0.667 LW
N
507 374 M
507 31 L
S
GR
GS
[0.75 0 0 0.75 0 0] CT
0.149 GC
2 setlinecap
1 LJ
0.667 LW
N
73 354.944 M
77.34 354.944 L
S
GR
GS
[0.75 0 0 0.75 0 0] CT
0.149 GC
2 setlinecap
1 LJ
0.667 LW
N
73 316.833 M
77.34 316.833 L
S
GR
GS
[0.75 0 0 0.75 0 0] CT
0.149 GC
2 setlinecap
1 LJ
0.667 LW
N
73 278.722 M
77.34 278.722 L
S
GR
GS
[0.75 0 0 0.75 0 0] CT
0.149 GC
2 setlinecap
1 LJ
0.667 LW
N
73 240.611 M
77.34 240.611 L
S
GR
GS
[0.75 0 0 0.75 0 0] CT
0.149 GC
2 setlinecap
1 LJ
0.667 LW
N
73 202.5 M
77.34 202.5 L
S
GR
GS
[0.75 0 0 0.75 0 0] CT
0.149 GC
2 setlinecap
1 LJ
0.667 LW
N
73 164.389 M
77.34 164.389 L
S
GR
GS
[0.75 0 0 0.75 0 0] CT
0.149 GC
2 setlinecap
1 LJ
0.667 LW
N
73 126.278 M
77.34 126.278 L
S
GR
GS
[0.75 0 0 0.75 0 0] CT
0.149 GC
2 setlinecap
1 LJ
0.667 LW
N
73 88.167 M
77.34 88.167 L
S
GR
GS
[0.75 0 0 0.75 0 0] CT
0.149 GC
2 setlinecap
1 LJ
0.667 LW
N
73 50.056 M
77.34 50.056 L
S
GR
GS
[0.75 0 0 0.75 0 0] CT
0.149 GC
2 setlinecap
1 LJ
0.667 LW
N
507 354.944 M
502.66 354.944 L
S
GR
GS
[0.75 0 0 0.75 0 0] CT
0.149 GC
2 setlinecap
1 LJ
0.667 LW
N
507 316.833 M
502.66 316.833 L
S
GR
GS
[0.75 0 0 0.75 0 0] CT
0.149 GC
2 setlinecap
1 LJ
0.667 LW
N
507 278.722 M
502.66 278.722 L
S
GR
GS
[0.75 0 0 0.75 0 0] CT
0.149 GC
2 setlinecap
1 LJ
0.667 LW
N
507 240.611 M
502.66 240.611 L
S
GR
GS
[0.75 0 0 0.75 0 0] CT
0.149 GC
2 setlinecap
1 LJ
0.667 LW
N
507 202.5 M
502.66 202.5 L
S
GR
GS
[0.75 0 0 0.75 0 0] CT
0.149 GC
2 setlinecap
1 LJ
0.667 LW
N
507 164.389 M
502.66 164.389 L
S
GR
GS
[0.75 0 0 0.75 0 0] CT
0.149 GC
2 setlinecap
1 LJ
0.667 LW
N
507 126.278 M
502.66 126.278 L
S
GR
GS
[0.75 0 0 0.75 0 0] CT
0.149 GC
2 setlinecap
1 LJ
0.667 LW
N
507 88.167 M
502.66 88.167 L
S
GR
GS
[0.75 0 0 0.75 0 0] CT
0.149 GC
2 setlinecap
1 LJ
0.667 LW
N
507 50.056 M
502.66 50.056 L
S
GR
GS
[0.75 0 0 0.75 50.75 266.20834] CT
0.149 GC
/Helvetica 13.333 F
GS
[1 0 0 1 0 0] CT
-20 5.5 moveto 
1 -1 scale
(-80) t 
GR
GR
GS
[0.75 0 0 0.75 50.75 237.62501] CT
0.149 GC
/Helvetica 13.333 F
GS
[1 0 0 1 0 0] CT
-20 5.5 moveto 
1 -1 scale
(-60) t 
GR
GR
GS
[0.75 0 0 0.75 50.75 209.04167] CT
0.149 GC
/Helvetica 13.333 F
GS
[1 0 0 1 0 0] CT
-20 5.5 moveto 
1 -1 scale
(-40) t 
GR
GR
GS
[0.75 0 0 0.75 50.75 180.45834] CT
0.149 GC
/Helvetica 13.333 F
GS
[1 0 0 1 0 0] CT
-20 5.5 moveto 
1 -1 scale
(-20) t 
GR
GR
GS
[0.75 0 0 0.75 50.75 151.875] CT
0.149 GC
/Helvetica 13.333 F
GS
[1 0 0 1 0 0] CT
-8 5.5 moveto 
1 -1 scale
(0) t 
GR
GR
GS
[0.75 0 0 0.75 50.75 123.29166] CT
0.149 GC
/Helvetica 13.333 F
GS
[1 0 0 1 0 0] CT
-15 5.5 moveto 
1 -1 scale
(20) t 
GR
GR
GS
[0.75 0 0 0.75 50.75 94.70833] CT
0.149 GC
/Helvetica 13.333 F
GS
[1 0 0 1 0 0] CT
-15 5.5 moveto 
1 -1 scale
(40) t 
GR
GR
GS
[0.75 0 0 0.75 50.75 66.125] CT
0.149 GC
/Helvetica 13.333 F
GS
[1 0 0 1 0 0] CT
-15 5.5 moveto 
1 -1 scale
(60) t 
GR
GR
GS
[0.75 0 0 0.75 50.75 37.54167] CT
0.149 GC
/Helvetica 13.333 F
GS
[1 0 0 1 0 0] CT
-15 5.5 moveto 
1 -1 scale
(80) t 
GR
GR
GS
[0 -0.75 0.75 0 32.75 151.87487] CT
0.149 GC
/Helvetica 14.667 F
GS
[1 0 0 1 0 0] CT
-69.5 -4 moveto 
1 -1 scale
(Elevation angle \(deg\)) t 
GR
GR
GS
[0.75 0 0 0.75 217.50021 21.1875] CT
/Helvetica-Bold 14.667 F
GS
[1 0 0 1 0 0] CT
-148 -4 moveto 
1 -1 scale
(PRN01 Elevation Angle from NIST IGS Site) t 
GR
GR
GS
[0.75 0 0 0.75 0 0] CT
0 0.447 0.741 RC
1 LJ
0.667 LW
N
73 146.755 M
73.151 146.428 L
73.301 146.102 L
73.452 145.778 L
73.603 145.454 L
73.753 145.132 L
73.904 144.811 L
74.055 144.491 L
74.206 144.172 L
74.356 143.855 L
74.507 143.539 L
74.658 143.224 L
74.808 142.91 L
74.959 142.598 L
75.11 142.286 L
75.26 141.977 L
75.411 141.668 L
75.562 141.361 L
75.713 141.055 L
75.863 140.751 L
76.014 140.448 L
76.165 140.147 L
76.315 139.847 L
76.466 139.548 L
76.617 139.252 L
76.767 138.956 L
76.918 138.662 L
77.069 138.37 L
77.219 138.079 L
77.37 137.79 L
77.521 137.503 L
77.672 137.217 L
77.822 136.933 L
77.973 136.65 L
78.124 136.369 L
78.274 136.09 L
78.425 135.813 L
78.576 135.538 L
78.726 135.264 L
78.877 134.992 L
79.028 134.722 L
79.178 134.454 L
79.329 134.187 L
79.48 133.923 L
79.631 133.661 L
79.781 133.4 L
79.932 133.141 L
80.083 132.885 L
80.233 132.63 L
80.384 132.378 L
80.535 132.127 L
80.685 131.879 L
80.836 131.633 L
80.987 131.388 L
81.137 131.146 L
81.288 130.907 L
81.439 130.669 L
81.59 130.433 L
81.74 130.2 L
81.891 129.969 L
82.042 129.741 L
82.192 129.514 L
82.343 129.29 L
82.494 129.068 L
82.644 128.849 L
82.795 128.632 L
82.946 128.417 L
83.097 128.205 L
83.247 127.996 L
83.398 127.788 L
83.549 127.584 L
83.699 127.381 L
83.85 127.182 L
84.001 126.985 L
84.151 126.79 L
84.302 126.598 L
84.453 126.409 L
84.603 126.222 L
84.754 126.038 L
84.905 125.857 L
85.056 125.678 L
85.206 125.502 L
85.357 125.329 L
85.508 125.158 L
85.658 124.991 L
85.809 124.826 L
85.96 124.664 L
86.11 124.505 L
86.261 124.348 L
86.412 124.195 L
86.563 124.044 L
86.713 123.896 L
86.864 123.752 L
87.015 123.61 L
87.165 123.471 L
87.316 123.335 L
87.467 123.202 L
87.617 123.072 L
87.768 122.945 L
87.919 122.821 L
88.069 122.7 L
88.22 122.583 L
88.371 122.468 L
88.522 122.356 L
88.672 122.248 L
88.823 122.143 L
88.974 122.04 L
89.124 121.941 L
89.275 121.845 L
89.426 121.753 L
89.576 121.663 L
89.727 121.577 L
89.878 121.493 L
90.028 121.413 L
90.179 121.337 L
90.33 121.263 L
90.481 121.193 L
90.631 121.126 L
90.782 121.062 L
90.933 121.001 L
91.083 120.944 L
91.234 120.89 L
91.385 120.839 L
91.535 120.792 L
91.686 120.748 L
91.837 120.707 L
91.987 120.669 L
92.138 120.635 L
92.289 120.604 L
92.44 120.577 L
92.59 120.552 L
92.741 120.531 L
92.892 120.514 L
93.042 120.499 L
93.193 120.488 L
93.344 120.48 L
93.494 120.476 L
93.645 120.475 L
93.796 120.477 L
93.947 120.482 L
94.097 120.491 L
94.248 120.503 L
94.399 120.519 L
94.549 120.537 L
94.7 120.559 L
94.851 120.584 L
95.001 120.613 L
95.152 120.645 L
95.303 120.68 L
95.453 120.718 L
95.604 120.76 L
95.755 120.804 L
95.906 120.852 L
96.056 120.904 L
96.207 120.958 L
96.358 121.016 L
96.508 121.076 L
96.659 121.141 L
96.81 121.208 L
96.96 121.278 L
97.111 121.352 L
97.262 121.428 L
97.412 121.508 L
97.563 121.591 L
97.714 121.677 L
97.865 121.766 L
98.015 121.858 L
98.166 121.953 L
98.317 122.051 L
98.467 122.153 L
98.618 122.257 L
98.769 122.364 L
98.919 122.474 L
99.07 122.588 L
99.221 122.704 L
99.372 122.823 L
99.522 122.945 L
99.673 123.069 L
99.824 123.197 L
99.974 123.328 L
100.125 123.461 L
100.276 123.597 L
100.426 123.736 L
100.577 123.878 L
100.728 124.023 L
100.878 124.17 L
101.029 124.32 L
101.18 124.472 L
101.331 124.628 L
101.481 124.786 L
101.632 124.946 L
101.783 125.11 L
101.933 125.275 L
102.084 125.444 L
102.235 125.615 L
102.385 125.788 L
102.536 125.964 L
102.687 126.143 L
102.838 126.324 L
102.988 126.507 L
103.139 126.693 L
103.29 126.881 L
103.44 127.072 L
103.591 127.264 L
103.742 127.46 L
103.892 127.657 L
104.043 127.857 L
104.194 128.059 L
104.344 128.263 L
104.495 128.47 L
104.646 128.679 L
104.797 128.889 L
104.947 129.102 L
105.098 129.318 L
105.249 129.535 L
105.399 129.754 L
105.55 129.975 L
105.701 130.199 L
105.851 130.424 L
106.002 130.652 L
106.153 130.881 L
106.303 131.112 L
106.454 131.345 L
106.605 131.581 L
106.756 131.817 L
106.906 132.056 L
107.057 132.297 L
107.208 132.539 L
107.358 132.783 L
107.509 133.029 L
107.66 133.277 L
107.81 133.527 L
107.961 133.778 L
108.112 134.03 L
108.263 134.285 L
108.413 134.541 L
108.564 134.798 L
108.715 135.058 L
108.865 135.318 L
109.016 135.581 L
109.167 135.844 L
109.317 136.11 L
109.468 136.376 L
109.619 136.645 L
109.769 136.914 L
109.92 137.185 L
110.071 137.458 L
110.222 137.732 L
110.372 138.007 L
110.523 138.283 L
110.674 138.561 L
110.824 138.84 L
110.975 139.12 L
111.126 139.402 L
111.276 139.685 L
111.427 139.969 L
111.578 140.254 L
111.728 140.54 L
111.879 140.828 L
112.03 141.116 L
112.181 141.406 L
112.331 141.697 L
112.482 141.989 L
112.633 142.282 L
112.783 142.576 L
112.934 142.871 L
113.085 143.167 L
113.235 143.463 L
113.386 143.761 L
113.537 144.06 L
113.688 144.36 L
113.838 144.661 L
113.989 144.962 L
114.14 145.265 L
114.29 145.568 L
114.441 145.872 L
114.592 146.177 L
114.742 146.483 L
114.893 146.789 L
115.044 147.096 L
115.194 147.405 L
115.345 147.713 L
115.496 148.023 L
115.647 148.333 L
115.797 148.644 L
115.948 148.955 L
116.099 149.268 L
116.249 149.581 L
116.4 149.894 L
116.551 150.208 L
116.701 150.523 L
116.852 150.838 L
117.003 151.154 L
117.153 151.47 L
117.304 151.787 L
117.455 152.105 L
117.606 152.423 L
117.756 152.741 L
117.907 153.06 L
118.058 153.379 L
118.208 153.699 L
118.359 154.02 L
118.51 154.34 L
118.66 154.661 L
118.811 154.983 L
118.962 155.305 L
119.112 155.627 L
119.263 155.95 L
119.414 156.273 L
119.565 156.596 L
119.715 156.92 L
119.866 157.244 L
120.017 157.568 L
120.167 157.892 L
120.318 158.217 L
120.469 158.542 L
120.619 158.868 L
120.77 159.193 L
120.921 159.519 L
121.072 159.845 L
121.222 160.171 L
121.373 160.498 L
121.524 160.824 L
121.674 161.151 L
121.825 161.478 L
121.976 161.805 L
122.126 162.132 L
122.277 162.459 L
122.428 162.787 L
122.578 163.114 L
122.729 163.442 L
122.88 163.769 L
123.031 164.097 L
123.181 164.425 L
123.332 164.753 L
123.483 165.081 L
123.633 165.409 L
123.784 165.737 L
123.935 166.065 L
124.085 166.393 L
124.236 166.721 L
124.387 167.049 L
124.537 167.377 L
124.688 167.705 L
124.839 168.033 L
124.99 168.36 L
125.14 168.688 L
125.291 169.016 L
125.442 169.343 L
125.592 169.671 L
125.743 169.998 L
125.894 170.326 L
126.044 170.653 L
126.195 170.98 L
126.346 171.307 L
126.497 171.634 L
126.647 171.961 L
126.798 172.287 L
126.949 172.613 L
127.099 172.94 L
127.25 173.266 L
127.401 173.591 L
127.551 173.917 L
127.702 174.243 L
127.853 174.568 L
128.003 174.893 L
128.154 175.218 L
128.305 175.542 L
128.456 175.866 L
128.606 176.19 L
128.757 176.514 L
128.908 176.838 L
129.058 177.161 L
129.209 177.484 L
129.36 177.807 L
129.51 178.129 L
129.661 178.451 L
129.812 178.773 L
129.963 179.095 L
130.113 179.416 L
130.264 179.737 L
130.415 180.057 L
130.565 180.378 L
130.716 180.697 L
130.867 181.017 L
131.017 181.336 L
131.168 181.655 L
131.319 181.973 L
131.469 182.291 L
131.62 182.609 L
131.771 182.926 L
131.922 183.243 L
132.072 183.56 L
132.223 183.876 L
132.374 184.191 L
132.524 184.506 L
132.675 184.821 L
132.826 185.136 L
132.976 185.45 L
133.127 185.763 L
133.278 186.076 L
133.428 186.389 L
133.579 186.701 L
133.73 187.012 L
133.881 187.324 L
134.031 187.634 L
134.182 187.945 L
134.333 188.254 L
134.483 188.564 L
134.634 188.872 L
134.785 189.181 L
134.935 189.488 L
135.086 189.795 L
135.237 190.102 L
135.387 190.408 L
135.538 190.714 L
135.689 191.019 L
135.84 191.323 L
135.99 191.627 L
136.141 191.931 L
136.292 192.234 L
136.442 192.536 L
136.593 192.838 L
136.744 193.139 L
136.894 193.44 L
137.045 193.74 L
137.196 194.039 L
137.347 194.338 L
137.497 194.636 L
137.648 194.934 L
137.799 195.231 L
137.949 195.527 L
138.1 195.823 L
138.251 196.118 L
138.401 196.412 L
138.552 196.706 L
138.703 196.999 L
138.853 197.292 L
139.004 197.584 L
139.155 197.875 L
139.306 198.166 L
139.456 198.456 L
139.607 198.745 L
139.758 199.034 L
139.908 199.322 L
140.059 199.609 L
140.21 199.895 L
140.36 200.181 L
140.511 200.466 L
140.662 200.751 L
140.813 201.035 L
140.963 201.318 L
141.114 201.6 L
141.265 201.882 L
141.415 202.163 L
141.566 202.443 L
141.717 202.722 L
141.867 203.001 L
142.018 203.279 L
142.169 203.556 L
142.319 203.833 L
142.47 204.108 L
142.621 204.383 L
142.772 204.657 L
142.922 204.931 L
143.073 205.203 L
143.224 205.475 L
143.374 205.746 L
143.525 206.017 L
143.676 206.286 L
143.826 206.555 L
143.977 206.823 L
144.128 207.09 L
144.278 207.356 L
144.429 207.622 L
144.58 207.886 L
144.731 208.15 L
144.881 208.413 L
145.032 208.675 L
145.183 208.937 L
145.333 209.197 L
145.484 209.457 L
145.635 209.716 L
145.785 209.974 L
145.936 210.231 L
146.087 210.487 L
146.238 210.743 L
146.388 210.997 L
146.539 211.251 L
146.69 211.503 L
146.84 211.755 L
146.991 212.006 L
147.142 212.257 L
147.292 212.506 L
147.443 212.754 L
147.594 213.002 L
147.744 213.248 L
147.895 213.494 L
148.046 213.738 L
148.197 213.982 L
148.347 214.225 L
148.498 214.467 L
148.649 214.708 L
148.799 214.948 L
148.95 215.187 L
149.101 215.425 L
149.251 215.663 L
149.402 215.899 L
149.553 216.134 L
149.703 216.369 L
149.854 216.602 L
150.005 216.834 L
150.156 217.066 L
150.306 217.296 L
150.457 217.526 L
150.608 217.754 L
150.758 217.982 L
150.909 218.209 L
151.06 218.434 L
151.21 218.659 L
151.361 218.882 L
151.512 219.105 L
151.662 219.326 L
151.813 219.547 L
151.964 219.766 L
152.115 219.985 L
152.265 220.202 L
152.416 220.419 L
152.567 220.634 L
152.717 220.848 L
152.868 221.061 L
153.019 221.274 L
153.169 221.485 L
153.32 221.695 L
153.471 221.904 L
153.622 222.112 L
153.772 222.319 L
153.923 222.525 L
154.074 222.73 L
154.224 222.933 L
154.375 223.136 L
154.526 223.337 L
154.676 223.538 L
154.827 223.737 L
154.978 223.935 L
155.128 224.133 L
155.279 224.329 L
155.43 224.523 L
155.581 224.717 L
155.731 224.91 L
155.882 225.101 L
156.033 225.292 L
156.183 225.481 L
156.334 225.669 L
156.485 225.856 L
156.635 226.042 L
156.786 226.227 L
156.937 226.41 L
157.088 226.593 L
157.238 226.774 L
157.389 226.954 L
157.54 227.133 L
157.69 227.311 L
157.841 227.488 L
157.992 227.663 L
158.142 227.837 L
158.293 228.01 L
158.444 228.182 L
158.594 228.353 L
158.745 228.522 L
158.896 228.691 L
159.047 228.858 L
159.197 229.023 L
159.348 229.188 L
159.499 229.352 L
159.649 229.514 L
159.8 229.675 L
159.951 229.835 L
160.101 229.993 L
160.252 230.15 L
160.403 230.307 L
160.553 230.461 L
160.704 230.615 L
160.855 230.767 L
161.006 230.918 L
161.156 231.068 L
161.307 231.217 L
161.458 231.364 L
161.608 231.51 L
161.759 231.655 L
161.91 231.799 L
162.06 231.941 L
162.211 232.082 L
162.362 232.222 L
162.512 232.36 L
162.663 232.497 L
162.814 232.633 L
162.965 232.768 L
163.115 232.901 L
163.266 233.033 L
163.417 233.164 L
163.567 233.293 L
163.718 233.421 L
163.869 233.548 L
164.019 233.673 L
164.17 233.797 L
164.321 233.92 L
164.472 234.042 L
164.622 234.162 L
164.773 234.281 L
164.924 234.398 L
165.074 234.514 L
165.225 234.629 L
165.376 234.742 L
165.526 234.855 L
165.677 234.965 L
165.828 235.075 L
165.978 235.183 L
166.129 235.29 L
166.28 235.395 L
166.431 235.499 L
166.581 235.602 L
166.732 235.703 L
166.883 235.803 L
167.033 235.901 L
167.184 235.998 L
167.335 236.094 L
167.485 236.189 L
167.636 236.282 L
167.787 236.373 L
167.938 236.464 L
168.088 236.552 L
168.239 236.64 L
168.39 236.726 L
168.54 236.811 L
168.691 236.894 L
168.842 236.976 L
168.992 237.056 L
169.143 237.136 L
169.294 237.213 L
169.444 237.289 L
169.595 237.364 L
169.746 237.438 L
169.897 237.51 L
170.047 237.58 L
170.198 237.65 L
170.349 237.717 L
170.499 237.784 L
170.65 237.849 L
170.801 237.912 L
170.951 237.974 L
171.102 238.035 L
171.253 238.094 L
171.403 238.152 L
171.554 238.208 L
171.705 238.263 L
171.856 238.317 L
172.006 238.369 L
172.157 238.419 L
172.308 238.469 L
172.458 238.516 L
172.609 238.563 L
172.76 238.608 L
172.91 238.651 L
173.061 238.693 L
173.212 238.733 L
173.363 238.772 L
173.513 238.81 L
173.664 238.846 L
173.815 238.881 L
173.965 238.914 L
174.116 238.946 L
174.267 238.976 L
174.417 239.005 L
174.568 239.033 L
174.719 239.059 L
174.869 239.083 L
175.02 239.106 L
175.171 239.128 L
175.322 239.148 L
175.472 239.167 L
175.623 239.184 L
175.774 239.199 L
175.924 239.214 L
176.075 239.227 L
176.226 239.238 L
176.376 239.248 L
176.527 239.256 L
176.678 239.263 L
176.828 239.269 L
176.979 239.273 L
177.13 239.275 L
177.281 239.276 L
177.431 239.276 L
177.582 239.274 L
177.733 239.271 L
177.883 239.266 L
178.034 239.26 L
178.185 239.252 L
178.335 239.243 L
178.486 239.233 L
178.637 239.221 L
178.787 239.207 L
178.938 239.192 L
179.089 239.176 L
179.24 239.158 L
179.39 239.138 L
179.541 239.117 L
179.692 239.095 L
179.842 239.071 L
179.993 239.046 L
180.144 239.02 L
180.294 238.991 L
180.445 238.962 L
180.596 238.931 L
180.747 238.898 L
180.897 238.864 L
181.048 238.829 L
181.199 238.792 L
181.349 238.754 L
181.5 238.714 L
181.651 238.673 L
181.801 238.63 L
181.952 238.586 L
182.103 238.541 L
182.253 238.494 L
182.404 238.445 L
182.555 238.395 L
182.706 238.344 L
182.856 238.291 L
183.007 238.237 L
183.158 238.182 L
183.308 238.125 L
183.459 238.066 L
183.61 238.006 L
183.76 237.945 L
183.911 237.882 L
184.062 237.818 L
184.213 237.752 L
184.363 237.685 L
184.514 237.617 L
184.665 237.547 L
184.815 237.476 L
184.966 237.403 L
185.117 237.329 L
185.267 237.254 L
185.418 237.177 L
185.569 237.098 L
185.719 237.019 L
185.87 236.938 L
186.021 236.855 L
186.172 236.771 L
186.322 236.686 L
186.473 236.599 L
186.624 236.511 L
186.774 236.422 L
186.925 236.331 L
187.076 236.239 L
187.226 236.145 L
187.377 236.05 L
187.528 235.954 L
187.678 235.856 L
187.829 235.757 L
187.98 235.656 L
188.131 235.555 L
188.281 235.451 L
188.432 235.347 L
188.583 235.241 L
188.733 235.134 L
188.884 235.025 L
189.035 234.915 L
189.185 234.804 L
189.336 234.691 L
189.487 234.577 L
189.637 234.462 L
189.788 234.346 L
189.939 234.228 L
190.09 234.108 L
190.24 233.988 L
190.391 233.866 L
190.542 233.743 L
190.692 233.618 L
190.843 233.492 L
190.994 233.365 L
191.144 233.237 L
191.295 233.107 L
191.446 232.976 L
191.597 232.844 L
191.747 232.71 L
191.898 232.575 L
192.049 232.439 L
192.199 232.301 L
192.35 232.163 L
192.501 232.023 L
192.651 231.881 L
192.802 231.739 L
192.953 231.595 L
193.103 231.45 L
193.254 231.304 L
193.405 231.156 L
193.556 231.007 L
193.706 230.857 L
193.857 230.706 L
194.008 230.553 L
194.158 230.4 L
194.309 230.245 L
194.46 230.088 L
194.61 229.931 L
194.761 229.772 L
194.912 229.612 L
195.063 229.451 L
195.213 229.289 L
195.364 229.126 L
195.515 228.961 L
195.665 228.795 L
195.816 228.628 L
195.967 228.46 L
196.117 228.29 L
196.268 228.12 L
196.419 227.948 L
196.569 227.775 L
196.72 227.601 L
196.871 227.425 L
197.022 227.249 L
197.172 227.071 L
197.323 226.893 L
197.474 226.713 L
197.624 226.532 L
197.775 226.35 L
197.926 226.166 L
198.076 225.982 L
198.227 225.796 L
198.378 225.61 L
198.528 225.422 L
198.679 225.233 L
198.83 225.043 L
198.981 224.852 L
199.131 224.659 L
199.282 224.466 L
199.433 224.272 L
199.583 224.076 L
199.734 223.88 L
199.885 223.682 L
200.035 223.483 L
200.186 223.284 L
200.337 223.083 L
200.488 222.881 L
200.638 222.678 L
200.789 222.474 L
200.94 222.269 L
201.09 222.063 L
201.241 221.855 L
201.392 221.647 L
201.542 221.438 L
201.693 221.228 L
201.844 221.016 L
201.994 220.804 L
202.145 220.591 L
202.296 220.377 L
202.447 220.161 L
202.597 219.945 L
202.748 219.728 L
202.899 219.509 L
203.049 219.29 L
203.2 219.07 L
203.351 218.849 L
203.501 218.627 L
203.652 218.403 L
203.803 218.179 L
203.953 217.954 L
204.104 217.728 L
204.255 217.501 L
204.406 217.273 L
204.556 217.045 L
204.707 216.815 L
204.858 216.584 L
205.008 216.352 L
205.159 216.12 L
205.31 215.886 L
205.46 215.652 L
205.611 215.417 L
205.762 215.181 L
205.912 214.944 L
206.063 214.706 L
206.214 214.467 L
206.365 214.227 L
206.515 213.986 L
206.666 213.745 L
206.817 213.503 L
206.967 213.259 L
207.118 213.015 L
207.269 212.77 L
207.419 212.525 L
207.57 212.278 L
207.721 212.031 L
207.872 211.782 L
208.022 211.533 L
208.173 211.284 L
208.324 211.033 L
208.474 210.781 L
208.625 210.529 L
208.776 210.276 L
208.926 210.022 L
209.077 209.767 L
209.228 209.512 L
209.378 209.255 L
209.529 208.998 L
209.68 208.741 L
209.831 208.482 L
209.981 208.223 L
210.132 207.963 L
210.283 207.702 L
210.433 207.44 L
210.584 207.178 L
210.735 206.915 L
210.885 206.651 L
211.036 206.387 L
211.187 206.121 L
211.338 205.855 L
211.488 205.589 L
211.639 205.321 L
211.79 205.053 L
211.94 204.785 L
212.091 204.515 L
212.242 204.245 L
212.392 203.975 L
212.543 203.703 L
212.694 203.431 L
212.844 203.158 L
212.995 202.885 L
213.146 202.611 L
213.297 202.336 L
213.447 202.061 L
213.598 201.785 L
213.749 201.509 L
213.899 201.231 L
214.05 200.954 L
214.201 200.675 L
214.351 200.396 L
214.502 200.117 L
214.653 199.837 L
214.803 199.556 L
214.954 199.275 L
215.105 198.993 L
215.256 198.71 L
215.406 198.427 L
215.557 198.144 L
215.708 197.86 L
215.858 197.575 L
216.009 197.29 L
216.16 197.004 L
216.31 196.718 L
216.461 196.432 L
216.612 196.144 L
216.762 195.857 L
216.913 195.568 L
217.064 195.28 L
217.215 194.991 L
217.365 194.701 L
217.516 194.411 L
217.667 194.12 L
217.817 193.829 L
217.968 193.538 L
218.119 193.246 L
218.269 192.954 L
218.42 192.661 L
218.571 192.368 L
218.722 192.074 L
218.872 191.78 L
219.023 191.486 L
219.174 191.191 L
219.324 190.896 L
219.475 190.6 L
219.626 190.305 L
219.776 190.008 L
219.927 189.712 L
220.078 189.415 L
220.228 189.117 L
220.379 188.82 L
220.53 188.522 L
220.681 188.223 L
220.831 187.925 L
220.982 187.626 L
221.133 187.327 L
221.283 187.027 L
221.434 186.728 L
221.585 186.428 L
221.735 186.127 L
221.886 185.827 L
222.037 185.526 L
222.188 185.225 L
222.338 184.924 L
222.489 184.622 L
222.64 184.32 L
222.79 184.018 L
222.941 183.716 L
223.092 183.414 L
223.242 183.111 L
223.393 182.809 L
223.544 182.506 L
223.694 182.203 L
223.845 181.9 L
223.996 181.597 L
224.147 181.293 L
224.297 180.99 L
224.448 180.686 L
224.599 180.382 L
224.749 180.078 L
224.9 179.774 L
225.051 179.47 L
225.201 179.166 L
225.352 178.862 L
225.503 178.558 L
225.653 178.254 L
225.804 177.95 L
225.955 177.645 L
226.106 177.341 L
226.256 177.037 L
226.407 176.733 L
226.558 176.428 L
226.708 176.124 L
226.859 175.82 L
227.01 175.516 L
227.16 175.212 L
227.311 174.908 L
227.462 174.604 L
227.613 174.3 L
227.763 173.996 L
227.914 173.693 L
228.065 173.389 L
228.215 173.086 L
228.366 172.783 L
228.517 172.48 L
228.667 172.177 L
228.818 171.874 L
228.969 171.572 L
229.119 171.27 L
229.27 170.967 L
229.421 170.666 L
229.572 170.364 L
229.722 170.063 L
229.873 169.762 L
230.024 169.461 L
230.174 169.16 L
230.325 168.86 L
230.476 168.56 L
230.626 168.26 L
230.777 167.961 L
230.928 167.662 L
231.078 167.364 L
231.229 167.065 L
231.38 166.768 L
231.531 166.47 L
231.681 166.173 L
231.832 165.877 L
231.983 165.58 L
232.133 165.285 L
232.284 164.99 L
232.435 164.695 L
232.585 164.4 L
232.736 164.107 L
232.887 163.813 L
233.038 163.521 L
233.188 163.229 L
233.339 162.937 L
233.49 162.646 L
233.64 162.355 L
233.791 162.066 L
233.942 161.776 L
234.092 161.488 L
234.243 161.2 L
234.394 160.912 L
234.544 160.626 L
234.695 160.34 L
234.846 160.055 L
234.997 159.77 L
235.147 159.486 L
235.298 159.203 L
235.449 158.921 L
235.599 158.64 L
235.75 158.359 L
235.901 158.079 L
236.051 157.8 L
236.202 157.522 L
236.353 157.244 L
236.503 156.968 L
236.654 156.692 L
236.805 156.418 L
236.956 156.144 L
237.106 155.871 L
237.257 155.599 L
237.408 155.329 L
237.558 155.059 L
237.709 154.79 L
237.86 154.522 L
238.01 154.255 L
238.161 153.99 L
238.312 153.725 L
238.462 153.461 L
238.613 153.199 L
238.764 152.938 L
238.915 152.677 L
239.065 152.418 L
239.216 152.161 L
239.367 151.904 L
239.517 151.649 L
239.668 151.394 L
239.819 151.142 L
239.969 150.89 L
240.12 150.64 L
240.271 150.391 L
240.422 150.143 L
240.572 149.897 L
240.723 149.652 L
240.874 149.408 L
241.024 149.166 L
241.175 148.925 L
241.326 148.686 L
241.476 148.448 L
241.627 148.211 L
241.778 147.976 L
241.928 147.743 L
242.079 147.511 L
242.23 147.281 L
242.381 147.052 L
242.531 146.825 L
242.682 146.599 L
242.833 146.375 L
242.983 146.153 L
243.134 145.933 L
243.285 145.714 L
243.435 145.496 L
243.586 145.281 L
243.737 145.067 L
243.887 144.855 L
244.038 144.645 L
244.189 144.436 L
244.34 144.23 L
244.49 144.025 L
244.641 143.822 L
244.792 143.621 L
244.942 143.422 L
245.093 143.225 L
245.244 143.03 L
245.394 142.836 L
245.545 142.645 L
245.696 142.456 L
245.847 142.268 L
245.997 142.083 L
246.148 141.9 L
246.299 141.718 L
246.449 141.539 L
246.6 141.362 L
246.751 141.187 L
246.901 141.014 L
247.052 140.844 L
247.203 140.675 L
247.353 140.509 L
247.504 140.345 L
247.655 140.183 L
247.806 140.024 L
247.956 139.866 L
248.107 139.711 L
248.258 139.559 L
248.408 139.408 L
248.559 139.26 L
248.71 139.114 L
248.86 138.971 L
249.011 138.83 L
249.162 138.691 L
249.313 138.555 L
249.463 138.422 L
249.614 138.29 L
249.765 138.161 L
249.915 138.035 L
250.066 137.911 L
250.217 137.79 L
250.367 137.671 L
250.518 137.555 L
250.669 137.441 L
250.819 137.33 L
250.97 137.221 L
251.121 137.115 L
251.272 137.012 L
251.422 136.911 L
251.573 136.813 L
251.724 136.718 L
251.874 136.625 L
252.025 136.535 L
252.176 136.447 L
252.326 136.363 L
252.477 136.281 L
252.628 136.201 L
252.778 136.125 L
252.929 136.051 L
253.08 135.98 L
253.231 135.912 L
253.381 135.846 L
253.532 135.783 L
253.683 135.723 L
253.833 135.666 L
253.984 135.612 L
254.135 135.56 L
254.285 135.512 L
254.436 135.466 L
254.587 135.423 L
254.738 135.382 L
254.888 135.345 L
255.039 135.311 L
255.19 135.279 L
255.34 135.25 L
255.491 135.224 L
255.642 135.201 L
255.792 135.181 L
255.943 135.164 L
256.094 135.15 L
256.244 135.138 L
256.395 135.13 L
256.546 135.124 L
256.697 135.122 L
256.847 135.122 L
256.998 135.125 L
257.149 135.131 L
257.299 135.14 L
257.45 135.152 L
257.601 135.166 L
257.751 135.184 L
257.902 135.205 L
258.053 135.228 L
258.203 135.255 L
258.354 135.284 L
258.505 135.316 L
258.656 135.351 L
258.806 135.389 L
258.957 135.43 L
259.108 135.474 L
259.258 135.521 L
259.409 135.57 L
259.56 135.623 L
259.71 135.678 L
259.861 135.737 L
260.012 135.798 L
260.163 135.862 L
260.313 135.929 L
260.464 135.998 L
260.615 136.071 L
260.765 136.146 L
260.916 136.224 L
261.067 136.305 L
261.217 136.389 L
261.368 136.476 L
261.519 136.565 L
261.669 136.658 L
261.82 136.753 L
261.971 136.85 L
262.122 136.951 L
262.272 137.054 L
262.423 137.16 L
262.574 137.269 L
262.724 137.381 L
262.875 137.495 L
263.026 137.612 L
263.176 137.731 L
263.327 137.854 L
263.478 137.979 L
263.628 138.106 L
263.779 138.236 L
263.93 138.369 L
264.081 138.505 L
264.231 138.643 L
264.382 138.783 L
264.533 138.926 L
264.683 139.072 L
264.834 139.22 L
264.985 139.371 L
265.135 139.525 L
265.286 139.68 L
265.437 139.839 L
265.587 140 L
265.738 140.163 L
265.889 140.328 L
266.04 140.497 L
266.19 140.667 L
266.341 140.84 L
266.492 141.015 L
266.642 141.193 L
266.793 141.373 L
266.944 141.555 L
267.094 141.74 L
267.245 141.927 L
267.396 142.116 L
267.547 142.307 L
267.697 142.501 L
267.848 142.697 L
267.999 142.895 L
268.149 143.095 L
268.3 143.298 L
268.451 143.503 L
268.601 143.709 L
268.752 143.918 L
268.903 144.129 L
269.053 144.342 L
269.204 144.558 L
269.355 144.775 L
269.506 144.994 L
269.656 145.215 L
269.807 145.439 L
269.958 145.664 L
270.108 145.891 L
270.259 146.12 L
270.41 146.351 L
270.56 146.584 L
270.711 146.819 L
270.862 147.056 L
271.012 147.295 L
271.163 147.535 L
271.314 147.778 L
271.465 148.022 L
271.615 148.268 L
271.766 148.515 L
271.917 148.765 L
272.067 149.016 L
272.218 149.269 L
272.369 149.523 L
272.519 149.78 L
272.67 150.037 L
272.821 150.297 L
272.972 150.558 L
273.122 150.821 L
273.273 151.085 L
273.424 151.351 L
273.574 151.619 L
273.725 151.888 L
273.876 152.158 L
274.026 152.43 L
274.177 152.704 L
274.328 152.979 L
274.478 153.255 L
274.629 153.533 L
274.78 153.813 L
274.931 154.093 L
275.081 154.375 L
275.232 154.659 L
275.383 154.944 L
275.533 155.23 L
275.684 155.517 L
275.835 155.806 L
275.985 156.096 L
276.136 156.388 L
276.287 156.68 L
276.438 156.974 L
276.588 157.269 L
276.739 157.565 L
276.89 157.863 L
277.04 158.162 L
277.191 158.461 L
277.342 158.762 L
277.492 159.064 L
277.643 159.368 L
277.794 159.672 L
277.944 159.977 L
278.095 160.284 L
278.246 160.591 L
278.397 160.9 L
278.547 161.209 L
278.698 161.52 L
278.849 161.831 L
278.999 162.144 L
279.15 162.457 L
279.301 162.772 L
279.451 163.087 L
279.602 163.404 L
279.753 163.721 L
279.903 164.039 L
280.054 164.358 L
280.205 164.678 L
280.356 164.998 L
280.506 165.32 L
280.657 165.642 L
280.808 165.966 L
280.958 166.29 L
281.109 166.615 L
281.26 166.94 L
281.41 167.266 L
281.561 167.594 L
281.712 167.921 L
281.863 168.25 L
282.013 168.579 L
282.164 168.909 L
282.315 169.24 L
282.465 169.571 L
282.616 169.903 L
282.767 170.236 L
282.917 170.569 L
283.068 170.903 L
283.219 171.238 L
283.369 171.573 L
283.52 171.909 L
283.671 172.245 L
283.822 172.582 L
283.972 172.92 L
284.123 173.258 L
284.274 173.597 L
284.424 173.936 L
284.575 174.275 L
284.726 174.616 L
284.876 174.956 L
285.027 175.297 L
285.178 175.639 L
285.328 175.981 L
285.479 176.324 L
285.63 176.667 L
285.781 177.01 L
285.931 177.354 L
286.082 177.699 L
286.233 178.043 L
286.383 178.389 L
286.534 178.734 L
286.685 179.08 L
286.835 179.426 L
286.986 179.773 L
287.137 180.12 L
287.288 180.468 L
287.438 180.815 L
287.589 181.163 L
287.74 181.512 L
287.89 181.861 L
288.041 182.21 L
288.192 182.559 L
288.342 182.909 L
288.493 183.258 L
288.644 183.609 L
288.794 183.959 L
288.945 184.31 L
289.096 184.661 L
289.247 185.012 L
289.397 185.363 L
289.548 185.715 L
289.699 186.067 L
289.849 186.419 L
290 186.771 L
290.151 187.124 L
290.301 187.476 L
290.452 187.829 L
290.603 188.182 L
290.753 188.536 L
290.904 188.889 L
291.055 189.242 L
291.206 189.596 L
291.356 189.95 L
291.507 190.304 L
291.658 190.658 L
291.808 191.012 L
291.959 191.367 L
292.11 191.721 L
292.26 192.076 L
292.411 192.43 L
292.562 192.785 L
292.712 193.14 L
292.863 193.495 L
293.014 193.85 L
293.165 194.205 L
293.315 194.56 L
293.466 194.915 L
293.617 195.271 L
293.767 195.626 L
293.918 195.981 L
294.069 196.337 L
294.219 196.692 L
294.37 197.048 L
294.521 197.403 L
294.672 197.759 L
294.822 198.114 L
294.973 198.47 L
295.124 198.825 L
295.274 199.181 L
295.425 199.536 L
295.576 199.892 L
295.726 200.247 L
295.877 200.603 L
296.028 200.958 L
296.178 201.314 L
296.329 201.669 L
296.48 202.024 L
296.631 202.38 L
296.781 202.735 L
296.932 203.09 L
297.083 203.445 L
297.233 203.8 L
297.384 204.155 L
297.535 204.51 L
297.685 204.865 L
297.836 205.22 L
297.987 205.574 L
298.137 205.929 L
298.288 206.283 L
298.439 206.638 L
298.59 206.992 L
298.74 207.346 L
298.891 207.701 L
299.042 208.055 L
299.192 208.409 L
299.343 208.762 L
299.494 209.116 L
299.644 209.47 L
299.795 209.823 L
299.946 210.176 L
300.097 210.529 L
300.247 210.883 L
300.398 211.235 L
300.549 211.588 L
300.699 211.941 L
300.85 212.293 L
301.001 212.646 L
301.151 212.998 L
301.302 213.35 L
301.453 213.702 L
301.603 214.053 L
301.754 214.405 L
301.905 214.756 L
302.056 215.107 L
302.206 215.458 L
302.357 215.809 L
302.508 216.16 L
302.658 216.51 L
302.809 216.86 L
302.96 217.211 L
303.11 217.56 L
303.261 217.91 L
303.412 218.26 L
303.563 218.609 L
303.713 218.958 L
303.864 219.307 L
304.015 219.656 L
304.165 220.004 L
304.316 220.352 L
304.467 220.701 L
304.617 221.048 L
304.768 221.396 L
304.919 221.743 L
305.069 222.091 L
305.22 222.438 L
305.371 222.784 L
305.522 223.131 L
305.672 223.477 L
305.823 223.823 L
305.974 224.169 L
306.124 224.515 L
306.275 224.86 L
306.426 225.205 L
306.576 225.55 L
306.727 225.895 L
306.878 226.239 L
307.028 226.583 L
307.179 226.927 L
307.33 227.271 L
307.481 227.614 L
307.631 227.957 L
307.782 228.3 L
307.933 228.643 L
308.083 228.985 L
308.234 229.327 L
308.385 229.669 L
308.535 230.011 L
308.686 230.352 L
308.837 230.693 L
308.988 231.034 L
309.138 231.374 L
309.289 231.714 L
309.44 232.054 L
309.59 232.394 L
309.741 232.733 L
309.892 233.073 L
310.042 233.411 L
310.193 233.75 L
310.344 234.088 L
310.494 234.426 L
310.645 234.764 L
310.796 235.101 L
310.947 235.439 L
311.097 235.775 L
311.248 236.112 L
311.399 236.448 L
311.549 236.784 L
311.7 237.12 L
311.851 237.455 L
312.001 237.79 L
312.152 238.125 L
312.303 238.46 L
312.453 238.794 L
312.604 239.128 L
312.755 239.461 L
312.906 239.794 L
313.056 240.127 L
313.207 240.46 L
313.358 240.792 L
313.508 241.124 L
313.659 241.456 L
313.81 241.788 L
313.96 242.119 L
314.111 242.449 L
314.262 242.78 L
314.413 243.11 L
314.563 243.44 L
314.714 243.77 L
314.865 244.099 L
315.015 244.428 L
315.166 244.756 L
315.317 245.085 L
315.467 245.412 L
315.618 245.74 L
315.769 246.067 L
315.919 246.394 L
316.07 246.721 L
316.221 247.047 L
316.372 247.373 L
316.522 247.699 L
316.673 248.024 L
316.824 248.349 L
316.974 248.674 L
317.125 248.998 L
317.276 249.322 L
317.426 249.646 L
317.577 249.969 L
317.728 250.292 L
317.878 250.615 L
318.029 250.937 L
318.18 251.259 L
318.331 251.581 L
318.481 251.902 L
318.632 252.223 L
318.783 252.544 L
318.933 252.864 L
319.084 253.184 L
319.235 253.504 L
319.385 253.823 L
319.536 254.142 L
319.687 254.461 L
319.837 254.779 L
319.988 255.097 L
320.139 255.415 L
320.29 255.732 L
320.44 256.049 L
320.591 256.365 L
320.742 256.682 L
320.892 256.997 L
321.043 257.313 L
321.194 257.628 L
321.344 257.943 L
321.495 258.257 L
321.646 258.571 L
321.797 258.885 L
321.947 259.199 L
322.098 259.512 L
322.249 259.824 L
322.399 260.137 L
322.55 260.449 L
322.701 260.76 L
322.851 261.072 L
323.002 261.383 L
323.153 261.693 L
323.303 262.003 L
323.454 262.313 L
323.605 262.623 L
323.756 262.932 L
323.906 263.241 L
324.057 263.549 L
324.208 263.857 L
324.358 264.165 L
324.509 264.472 L
324.66 264.779 L
324.81 265.086 L
324.961 265.392 L
325.112 265.698 L
325.262 266.003 L
325.413 266.308 L
325.564 266.613 L
325.715 266.918 L
325.865 267.222 L
326.016 267.525 L
326.167 267.829 L
326.317 268.132 L
326.468 268.434 L
326.619 268.737 L
326.769 269.038 L
326.92 269.34 L
327.071 269.641 L
327.222 269.942 L
327.372 270.242 L
327.523 270.542 L
327.674 270.842 L
327.824 271.141 L
327.975 271.44 L
328.126 271.739 L
328.276 272.037 L
328.427 272.335 L
328.578 272.632 L
328.728 272.929 L
328.879 273.226 L
329.03 273.522 L
329.181 273.818 L
329.331 274.114 L
329.482 274.409 L
329.633 274.704 L
329.783 274.998 L
329.934 275.292 L
330.085 275.586 L
330.235 275.879 L
330.386 276.172 L
330.537 276.465 L
330.688 276.757 L
330.838 277.049 L
330.989 277.34 L
331.14 277.631 L
331.29 277.922 L
331.441 278.212 L
331.592 278.502 L
331.742 278.792 L
331.893 279.081 L
332.044 279.37 L
332.194 279.658 L
332.345 279.946 L
332.496 280.234 L
332.647 280.521 L
332.797 280.808 L
332.948 281.094 L
333.099 281.38 L
333.249 281.666 L
333.4 281.951 L
333.551 282.236 L
333.701 282.521 L
333.852 282.805 L
334.003 283.089 L
334.153 283.372 L
334.304 283.655 L
334.455 283.938 L
334.606 284.22 L
334.756 284.502 L
334.907 284.783 L
335.058 285.065 L
335.208 285.345 L
335.359 285.626 L
335.51 285.905 L
335.66 286.185 L
335.811 286.464 L
335.962 286.743 L
336.113 287.021 L
336.263 287.299 L
336.414 287.577 L
336.565 287.854 L
336.715 288.131 L
336.866 288.407 L
337.017 288.683 L
337.167 288.959 L
337.318 289.234 L
337.469 289.509 L
337.619 289.783 L
337.77 290.057 L
337.921 290.331 L
338.072 290.604 L
338.222 290.877 L
338.373 291.15 L
338.524 291.422 L
338.674 291.693 L
338.825 291.965 L
338.976 292.236 L
339.126 292.506 L
339.277 292.776 L
339.428 293.046 L
339.578 293.315 L
339.729 293.584 L
339.88 293.853 L
340.031 294.121 L
340.181 294.388 L
340.332 294.656 L
340.483 294.922 L
340.633 295.189 L
340.784 295.455 L
340.935 295.721 L
341.085 295.986 L
341.236 296.251 L
341.387 296.515 L
341.538 296.779 L
341.688 297.043 L
341.839 297.306 L
341.99 297.569 L
342.14 297.832 L
342.291 298.094 L
342.442 298.355 L
342.592 298.616 L
342.743 298.877 L
342.894 299.138 L
343.044 299.398 L
343.195 299.657 L
343.346 299.916 L
343.497 300.175 L
343.647 300.433 L
343.798 300.691 L
343.949 300.949 L
344.099 301.206 L
344.25 301.463 L
344.401 301.719 L
344.551 301.975 L
344.702 302.23 L
344.853 302.485 L
345.003 302.74 L
345.154 302.994 L
345.305 303.248 L
345.456 303.501 L
345.606 303.754 L
345.757 304.007 L
345.908 304.259 L
346.058 304.511 L
346.209 304.762 L
346.36 305.013 L
346.51 305.263 L
346.661 305.513 L
346.812 305.763 L
346.962 306.012 L
347.113 306.261 L
347.264 306.509 L
347.415 306.757 L
347.565 307.004 L
347.716 307.251 L
347.867 307.498 L
348.017 307.744 L
348.168 307.99 L
348.319 308.235 L
348.469 308.48 L
348.62 308.724 L
348.771 308.968 L
348.922 309.212 L
349.072 309.455 L
349.223 309.698 L
349.374 309.94 L
349.524 310.182 L
349.675 310.423 L
349.826 310.664 L
349.976 310.904 L
350.127 311.144 L
350.278 311.384 L
350.428 311.623 L
350.579 311.862 L
350.73 312.1 L
350.881 312.338 L
351.031 312.575 L
351.182 312.812 L
351.333 313.049 L
351.483 313.285 L
351.634 313.52 L
351.785 313.756 L
351.935 313.99 L
352.086 314.225 L
352.237 314.458 L
352.387 314.692 L
352.538 314.924 L
352.689 315.157 L
352.84 315.389 L
352.99 315.62 L
353.141 315.851 L
353.292 316.082 L
353.442 316.312 L
353.593 316.542 L
353.744 316.771 L
353.894 316.999 L
354.045 317.228 L
354.196 317.455 L
354.347 317.683 L
354.497 317.909 L
354.648 318.136 L
354.799 318.362 L
354.949 318.587 L
355.1 318.812 L
355.251 319.036 L
355.401 319.26 L
355.552 319.484 L
355.703 319.707 L
355.853 319.929 L
356.004 320.151 L
356.155 320.373 L
356.306 320.594 L
356.456 320.814 L
356.607 321.034 L
356.758 321.254 L
356.908 321.473 L
357.059 321.691 L
357.21 321.909 L
357.36 322.127 L
357.511 322.344 L
357.662 322.56 L
357.813 322.776 L
357.963 322.992 L
358.114 323.207 L
358.265 323.421 L
358.415 323.635 L
358.566 323.848 L
358.717 324.061 L
358.867 324.274 L
359.018 324.486 L
359.169 324.697 L
359.319 324.908 L
359.47 325.118 L
359.621 325.328 L
359.772 325.537 L
359.922 325.745 L
360.073 325.953 L
360.224 326.161 L
360.374 326.368 L
360.525 326.574 L
360.676 326.78 L
360.826 326.986 L
360.977 327.19 L
361.128 327.395 L
361.278 327.598 L
361.429 327.801 L
361.58 328.004 L
361.731 328.206 L
361.881 328.407 L
362.032 328.608 L
362.183 328.808 L
362.333 329.008 L
362.484 329.207 L
362.635 329.406 L
362.785 329.603 L
362.936 329.801 L
363.087 329.997 L
363.237 330.193 L
363.388 330.389 L
363.539 330.584 L
363.69 330.778 L
363.84 330.972 L
363.991 331.165 L
364.142 331.357 L
364.292 331.549 L
364.443 331.74 L
364.594 331.93 L
364.744 332.12 L
364.895 332.309 L
365.046 332.498 L
365.197 332.686 L
365.347 332.873 L
365.498 333.06 L
365.649 333.246 L
365.799 333.431 L
365.95 333.615 L
366.101 333.799 L
366.251 333.982 L
366.402 334.165 L
366.553 334.347 L
366.703 334.528 L
366.854 334.708 L
367.005 334.888 L
367.156 335.067 L
367.306 335.245 L
367.457 335.423 L
367.608 335.6 L
367.758 335.776 L
367.909 335.951 L
368.06 336.126 L
368.21 336.3 L
368.361 336.473 L
368.512 336.645 L
368.663 336.817 L
368.813 336.988 L
368.964 337.158 L
369.115 337.327 L
369.265 337.496 L
369.416 337.663 L
369.567 337.83 L
369.717 337.996 L
369.868 338.162 L
370.019 338.326 L
370.169 338.49 L
370.32 338.652 L
370.471 338.814 L
370.622 338.975 L
370.772 339.136 L
370.923 339.295 L
371.074 339.453 L
371.224 339.611 L
371.375 339.768 L
371.526 339.924 L
371.676 340.078 L
371.827 340.232 L
371.978 340.386 L
372.128 340.538 L
372.279 340.689 L
372.43 340.839 L
372.581 340.989 L
372.731 341.137 L
372.882 341.284 L
373.033 341.431 L
373.183 341.576 L
373.334 341.721 L
373.485 341.864 L
373.635 342.007 L
373.786 342.148 L
373.937 342.289 L
374.087 342.428 L
374.238 342.566 L
374.389 342.703 L
374.54 342.84 L
374.69 342.975 L
374.841 343.109 L
374.992 343.242 L
375.142 343.374 L
375.293 343.504 L
375.444 343.634 L
375.594 343.762 L
375.745 343.89 L
375.896 344.016 L
376.047 344.141 L
376.197 344.265 L
376.348 344.387 L
376.499 344.509 L
376.649 344.629 L
376.8 344.748 L
376.951 344.866 L
377.101 344.982 L
377.252 345.098 L
377.403 345.212 L
377.553 345.324 L
377.704 345.436 L
377.855 345.546 L
378.006 345.655 L
378.156 345.763 L
378.307 345.869 L
378.458 345.974 L
378.608 346.077 L
378.759 346.18 L
378.91 346.28 L
379.06 346.38 L
379.211 346.478 L
379.362 346.574 L
379.513 346.67 L
379.663 346.763 L
379.814 346.856 L
379.965 346.947 L
380.115 347.036 L
380.266 347.124 L
380.417 347.211 L
380.567 347.296 L
380.718 347.379 L
380.869 347.461 L
381.019 347.542 L
381.17 347.621 L
381.321 347.698 L
381.471 347.774 L
381.622 347.848 L
381.773 347.921 L
381.924 347.992 L
382.074 348.061 L
382.225 348.129 L
382.376 348.196 L
382.526 348.26 L
382.677 348.323 L
382.828 348.385 L
382.978 348.444 L
383.129 348.503 L
383.28 348.559 L
383.431 348.614 L
383.581 348.667 L
383.732 348.718 L
383.883 348.768 L
384.033 348.816 L
384.184 348.862 L
384.335 348.907 L
384.485 348.949 L
384.636 348.99 L
384.787 349.03 L
384.938 349.067 L
385.088 349.103 L
385.239 349.137 L
385.39 349.17 L
385.54 349.2 L
385.691 349.229 L
385.842 349.256 L
385.992 349.281 L
386.143 349.305 L
386.294 349.326 L
386.444 349.346 L
386.595 349.364 L
386.746 349.381 L
386.897 349.395 L
387.047 349.408 L
387.198 349.419 L
387.349 349.428 L
387.499 349.435 L
387.65 349.441 L
387.801 349.445 L
387.951 349.447 L
388.102 349.447 L
388.253 349.445 L
388.404 349.442 L
388.554 349.437 L
388.705 349.43 L
388.856 349.421 L
389.006 349.411 L
389.157 349.398 L
389.308 349.384 L
389.458 349.368 L
389.609 349.351 L
389.76 349.332 L
389.91 349.31 L
390.061 349.288 L
390.212 349.263 L
390.362 349.237 L
390.513 349.209 L
390.664 349.179 L
390.815 349.147 L
390.965 349.114 L
391.116 349.079 L
391.267 349.043 L
391.417 349.004 L
391.568 348.965 L
391.719 348.923 L
391.869 348.88 L
392.02 348.835 L
392.171 348.788 L
392.322 348.74 L
392.472 348.69 L
392.623 348.639 L
392.774 348.586 L
392.924 348.531 L
393.075 348.475 L
393.226 348.417 L
393.376 348.357 L
393.527 348.296 L
393.678 348.234 L
393.828 348.17 L
393.979 348.104 L
394.13 348.037 L
394.281 347.969 L
394.431 347.899 L
394.582 347.827 L
394.733 347.754 L
394.883 347.68 L
395.034 347.604 L
395.185 347.527 L
395.335 347.448 L
395.486 347.368 L
395.637 347.286 L
395.788 347.203 L
395.938 347.119 L
396.089 347.033 L
396.24 346.947 L
396.39 346.858 L
396.541 346.768 L
396.692 346.678 L
396.842 346.585 L
396.993 346.492 L
397.144 346.397 L
397.294 346.301 L
397.445 346.203 L
397.596 346.105 L
397.747 346.005 L
397.897 345.904 L
398.048 345.802 L
398.199 345.698 L
398.349 345.593 L
398.5 345.488 L
398.651 345.381 L
398.801 345.272 L
398.952 345.163 L
399.103 345.053 L
399.253 344.941 L
399.404 344.829 L
399.555 344.715 L
399.706 344.6 L
399.856 344.484 L
400.007 344.367 L
400.158 344.249 L
400.308 344.13 L
400.459 344.01 L
400.61 343.889 L
400.76 343.767 L
400.911 343.644 L
401.062 343.519 L
401.212 343.394 L
401.363 343.268 L
401.514 343.141 L
401.665 343.013 L
401.815 342.884 L
401.966 342.754 L
402.117 342.623 L
402.267 342.491 L
402.418 342.359 L
402.569 342.225 L
402.719 342.091 L
402.87 341.955 L
403.021 341.819 L
403.172 341.682 L
403.322 341.544 L
403.473 341.405 L
403.624 341.266 L
403.774 341.125 L
403.925 340.984 L
404.076 340.842 L
404.226 340.699 L
404.377 340.555 L
404.528 340.41 L
404.678 340.265 L
404.829 340.119 L
404.98 339.972 L
405.131 339.824 L
405.281 339.676 L
405.432 339.526 L
405.583 339.377 L
405.733 339.226 L
405.884 339.074 L
406.035 338.922 L
406.185 338.769 L
406.336 338.616 L
406.487 338.461 L
406.638 338.306 L
406.788 338.151 L
406.939 337.994 L
407.09 337.837 L
407.24 337.679 L
407.391 337.521 L
407.542 337.362 L
407.692 337.202 L
407.843 337.041 L
407.994 336.88 L
408.144 336.718 L
408.295 336.556 L
408.446 336.393 L
408.596 336.229 L
408.747 336.065 L
408.898 335.9 L
409.049 335.734 L
409.199 335.568 L
409.35 335.401 L
409.501 335.234 L
409.651 335.066 L
409.802 334.897 L
409.953 334.728 L
410.103 334.558 L
410.254 334.387 L
410.405 334.216 L
410.556 334.045 L
410.706 333.873 L
410.857 333.7 L
411.008 333.526 L
411.158 333.353 L
411.309 333.178 L
411.46 333.003 L
411.61 332.827 L
411.761 332.651 L
411.912 332.475 L
412.063 332.297 L
412.213 332.12 L
412.364 331.941 L
412.515 331.762 L
412.665 331.583 L
412.816 331.403 L
412.967 331.223 L
413.117 331.042 L
413.268 330.86 L
413.419 330.678 L
413.569 330.496 L
413.72 330.312 L
413.871 330.129 L
414.022 329.945 L
414.172 329.76 L
414.323 329.575 L
414.474 329.389 L
414.624 329.203 L
414.775 329.017 L
414.926 328.83 L
415.076 328.642 L
415.227 328.454 L
415.378 328.265 L
415.529 328.076 L
415.679 327.887 L
415.83 327.696 L
415.981 327.506 L
416.131 327.315 L
416.282 327.123 L
416.433 326.931 L
416.583 326.739 L
416.734 326.546 L
416.885 326.353 L
417.035 326.159 L
417.186 325.964 L
417.337 325.769 L
417.487 325.574 L
417.638 325.378 L
417.789 325.182 L
417.94 324.985 L
418.09 324.788 L
418.241 324.591 L
418.392 324.393 L
418.542 324.194 L
418.693 323.995 L
418.844 323.796 L
418.994 323.596 L
419.145 323.395 L
419.296 323.195 L
419.447 322.993 L
419.597 322.792 L
419.748 322.59 L
419.899 322.387 L
420.049 322.184 L
420.2 321.98 L
420.351 321.777 L
420.501 321.572 L
420.652 321.367 L
420.803 321.162 L
420.953 320.956 L
421.104 320.75 L
421.255 320.544 L
421.406 320.337 L
421.556 320.129 L
421.707 319.921 L
421.858 319.713 L
422.008 319.504 L
422.159 319.295 L
422.31 319.086 L
422.46 318.876 L
422.611 318.665 L
422.762 318.454 L
422.913 318.243 L
423.063 318.031 L
423.214 317.819 L
423.365 317.606 L
423.515 317.393 L
423.666 317.18 L
423.817 316.966 L
423.967 316.752 L
424.118 316.537 L
424.269 316.322 L
424.419 316.106 L
424.57 315.89 L
424.721 315.674 L
424.872 315.457 L
425.022 315.239 L
425.173 315.022 L
425.324 314.804 L
425.474 314.585 L
425.625 314.366 L
425.776 314.147 L
425.926 313.927 L
426.077 313.707 L
426.228 313.486 L
426.378 313.265 L
426.529 313.043 L
426.68 312.822 L
426.831 312.599 L
426.981 312.376 L
427.132 312.153 L
427.283 311.93 L
427.433 311.706 L
427.584 311.481 L
427.735 311.257 L
427.885 311.031 L
428.036 310.806 L
428.187 310.58 L
428.337 310.353 L
428.488 310.126 L
428.639 309.899 L
428.79 309.671 L
428.94 309.443 L
429.091 309.215 L
429.242 308.986 L
429.392 308.756 L
429.543 308.526 L
429.694 308.296 L
429.844 308.066 L
429.995 307.835 L
430.146 307.603 L
430.297 307.371 L
430.447 307.139 L
430.598 306.906 L
430.749 306.673 L
430.899 306.44 L
431.05 306.206 L
431.201 305.971 L
431.351 305.737 L
431.502 305.502 L
431.653 305.266 L
431.803 305.03 L
431.954 304.794 L
432.105 304.557 L
432.256 304.32 L
432.406 304.082 L
432.557 303.844 L
432.708 303.605 L
432.858 303.367 L
433.009 303.127 L
433.16 302.888 L
433.31 302.648 L
433.461 302.407 L
433.612 302.166 L
433.763 301.925 L
433.913 301.683 L
434.064 301.441 L
434.215 301.198 L
434.365 300.956 L
434.516 300.712 L
434.667 300.468 L
434.817 300.224 L
434.968 299.98 L
435.119 299.735 L
435.269 299.489 L
435.42 299.243 L
435.571 298.997 L
435.721 298.75 L
435.872 298.503 L
436.023 298.256 L
436.174 298.008 L
436.324 297.76 L
436.475 297.511 L
436.626 297.262 L
436.776 297.012 L
436.927 296.762 L
437.078 296.512 L
437.228 296.261 L
437.379 296.01 L
437.53 295.758 L
437.681 295.506 L
437.831 295.254 L
437.982 295.001 L
438.133 294.748 L
438.283 294.494 L
438.434 294.24 L
438.585 293.986 L
438.735 293.731 L
438.886 293.476 L
439.037 293.22 L
439.188 292.964 L
439.338 292.707 L
439.489 292.45 L
439.64 292.193 L
439.79 291.935 L
439.941 291.677 L
440.092 291.418 L
440.242 291.159 L
440.393 290.9 L
440.544 290.64 L
440.694 290.38 L
440.845 290.119 L
440.996 289.858 L
441.147 289.597 L
441.297 289.335 L
441.448 289.073 L
441.599 288.81 L
441.749 288.547 L
441.9 288.283 L
442.051 288.019 L
442.201 287.755 L
442.352 287.49 L
442.503 287.225 L
442.654 286.96 L
442.804 286.694 L
442.955 286.427 L
443.106 286.16 L
443.256 285.893 L
443.407 285.626 L
443.558 285.357 L
443.708 285.089 L
443.859 284.82 L
444.01 284.551 L
444.16 284.281 L
444.311 284.011 L
444.462 283.74 L
444.612 283.47 L
444.763 283.198 L
444.914 282.926 L
445.065 282.654 L
445.215 282.382 L
445.366 282.109 L
445.517 281.835 L
445.667 281.561 L
445.818 281.287 L
445.969 281.012 L
446.119 280.737 L
446.27 280.462 L
446.421 280.186 L
446.572 279.91 L
446.722 279.633 L
446.873 279.356 L
447.024 279.078 L
447.174 278.8 L
447.325 278.522 L
447.476 278.243 L
447.626 277.964 L
447.777 277.684 L
447.928 277.404 L
448.078 277.124 L
448.229 276.843 L
448.38 276.562 L
448.531 276.28 L
448.681 275.998 L
448.832 275.715 L
448.983 275.433 L
449.133 275.149 L
449.284 274.865 L
449.435 274.581 L
449.585 274.297 L
449.736 274.012 L
449.887 273.726 L
450.038 273.441 L
450.188 273.154 L
450.339 272.868 L
450.49 272.581 L
450.64 272.293 L
450.791 272.005 L
450.942 271.717 L
451.092 271.428 L
451.243 271.139 L
451.394 270.85 L
451.544 270.56 L
451.695 270.269 L
451.846 269.979 L
451.997 269.687 L
452.147 269.396 L
452.298 269.104 L
452.449 268.811 L
452.599 268.519 L
452.75 268.225 L
452.901 267.932 L
453.051 267.638 L
453.202 267.343 L
453.353 267.048 L
453.503 266.753 L
453.654 266.457 L
453.805 266.161 L
453.956 265.865 L
454.106 265.568 L
454.257 265.27 L
454.408 264.973 L
454.558 264.674 L
454.709 264.376 L
454.86 264.077 L
455.01 263.777 L
455.161 263.478 L
455.312 263.177 L
455.462 262.877 L
455.613 262.576 L
455.764 262.274 L
455.915 261.972 L
456.065 261.67 L
456.216 261.367 L
456.367 261.064 L
456.517 260.761 L
456.668 260.457 L
456.819 260.153 L
456.969 259.848 L
457.12 259.543 L
457.271 259.237 L
457.422 258.931 L
457.572 258.625 L
457.723 258.318 L
457.874 258.011 L
458.024 257.703 L
458.175 257.395 L
458.326 257.087 L
458.476 256.778 L
458.627 256.469 L
458.778 256.159 L
458.928 255.849 L
459.079 255.539 L
459.23 255.228 L
459.381 254.917 L
459.531 254.605 L
459.682 254.293 L
459.833 253.981 L
459.983 253.668 L
460.134 253.354 L
460.285 253.041 L
460.435 252.727 L
460.586 252.412 L
460.737 252.097 L
460.888 251.782 L
461.038 251.466 L
461.189 251.15 L
461.34 250.834 L
461.49 250.517 L
461.641 250.2 L
461.792 249.882 L
461.942 249.564 L
462.093 249.245 L
462.244 248.926 L
462.394 248.607 L
462.545 248.287 L
462.696 247.967 L
462.846 247.647 L
462.997 247.326 L
463.148 247.005 L
463.299 246.683 L
463.449 246.361 L
463.6 246.038 L
463.751 245.715 L
463.901 245.392 L
464.052 245.069 L
464.203 244.744 L
464.353 244.42 L
464.504 244.095 L
464.655 243.77 L
464.806 243.444 L
464.956 243.118 L
465.107 242.792 L
465.258 242.465 L
465.408 242.138 L
465.559 241.81 L
465.71 241.482 L
465.86 241.154 L
466.011 240.825 L
466.162 240.496 L
466.313 240.166 L
466.463 239.837 L
466.614 239.506 L
466.765 239.176 L
466.915 238.844 L
467.066 238.513 L
467.217 238.181 L
467.367 237.849 L
467.518 237.516 L
467.669 237.183 L
467.819 236.85 L
467.97 236.516 L
468.121 236.182 L
468.272 235.848 L
468.422 235.513 L
468.573 235.177 L
468.724 234.842 L
468.874 234.506 L
469.025 234.169 L
469.176 233.833 L
469.326 233.496 L
469.477 233.158 L
469.628 232.82 L
469.779 232.482 L
469.929 232.143 L
470.08 231.804 L
470.231 231.465 L
470.381 231.125 L
470.532 230.785 L
470.683 230.445 L
470.833 230.104 L
470.984 229.763 L
471.135 229.421 L
471.285 229.079 L
471.436 228.737 L
471.587 228.394 L
471.737 228.051 L
471.888 227.708 L
472.039 227.364 L
472.19 227.02 L
472.34 226.676 L
472.491 226.331 L
472.642 225.986 L
472.792 225.64 L
472.943 225.294 L
473.094 224.948 L
473.244 224.602 L
473.395 224.255 L
473.546 223.908 L
473.697 223.56 L
473.847 223.212 L
473.998 222.864 L
474.149 222.515 L
474.299 222.166 L
474.45 221.817 L
474.601 221.467 L
474.751 221.118 L
474.902 220.767 L
475.053 220.417 L
475.203 220.066 L
475.354 219.714 L
475.505 219.363 L
475.656 219.011 L
475.806 218.659 L
475.957 218.306 L
476.108 217.953 L
476.258 217.6 L
476.409 217.246 L
476.56 216.893 L
476.71 216.538 L
476.861 216.184 L
477.012 215.829 L
477.163 215.474 L
477.313 215.119 L
477.464 214.763 L
477.615 214.407 L
477.765 214.051 L
477.916 213.694 L
478.067 213.337 L
478.217 212.98 L
478.368 212.622 L
478.519 212.265 L
478.669 211.906 L
478.82 211.548 L
478.971 211.189 L
479.122 210.83 L
479.272 210.471 L
479.423 210.112 L
479.574 209.752 L
479.724 209.392 L
479.875 209.031 L
480.026 208.671 L
480.176 208.31 L
480.327 207.949 L
480.478 207.587 L
480.628 207.226 L
480.779 206.864 L
480.93 206.501 L
481.081 206.139 L
481.231 205.776 L
481.382 205.413 L
481.533 205.05 L
481.683 204.686 L
481.834 204.323 L
481.985 203.959 L
482.135 203.595 L
482.286 203.23 L
482.437 202.865 L
482.587 202.501 L
482.738 202.135 L
482.889 201.77 L
483.04 201.405 L
483.19 201.039 L
483.341 200.673 L
483.492 200.307 L
483.642 199.94 L
483.793 199.574 L
483.944 199.207 L
484.094 198.84 L
484.245 198.473 L
484.396 198.105 L
484.547 197.738 L
484.697 197.37 L
484.848 197.002 L
484.999 196.634 L
485.149 196.265 L
485.3 195.897 L
485.451 195.528 L
485.601 195.159 L
485.752 194.79 L
485.903 194.421 L
486.053 194.052 L
486.204 193.683 L
486.355 193.313 L
486.506 192.943 L
486.656 192.573 L
486.807 192.203 L
486.958 191.833 L
487.108 191.463 L
487.259 191.093 L
487.41 190.722 L
487.56 190.352 L
487.711 189.981 L
487.862 189.61 L
488.013 189.239 L
488.163 188.868 L
488.314 188.497 L
488.465 188.126 L
488.615 187.755 L
488.766 187.384 L
488.917 187.012 L
489.067 186.641 L
489.218 186.269 L
489.369 185.898 L
489.519 185.526 L
489.67 185.155 L
489.821 184.783 L
489.971 184.411 L
490.122 184.039 L
490.273 183.668 L
490.424 183.296 L
490.574 182.924 L
490.725 182.552 L
490.876 182.181 L
491.026 181.809 L
491.177 181.437 L
491.328 181.065 L
491.478 180.693 L
491.629 180.322 L
491.78 179.95 L
491.931 179.579 L
492.081 179.207 L
492.232 178.835 L
492.383 178.464 L
492.533 178.093 L
492.684 177.721 L
492.835 177.35 L
492.985 176.979 L
493.136 176.608 L
493.287 176.237 L
493.438 175.866 L
493.588 175.496 L
493.739 175.125 L
493.89 174.755 L
494.04 174.384 L
494.191 174.014 L
494.342 173.644 L
494.492 173.274 L
494.643 172.905 L
494.794 172.535 L
494.944 172.166 L
495.095 171.797 L
495.246 171.428 L
495.397 171.059 L
495.547 170.691 L
495.698 170.322 L
495.849 169.954 L
495.999 169.587 L
496.15 169.219 L
496.301 168.852 L
496.451 168.485 L
496.602 168.118 L
496.753 167.752 L
496.904 167.386 L
497.054 167.02 L
497.205 166.654 L
497.356 166.289 L
497.506 165.925 L
497.657 165.56 L
497.808 165.196 L
497.958 164.832 L
498.109 164.469 L
498.26 164.106 L
498.41 163.743 L
498.561 163.381 L
498.712 163.02 L
498.862 162.658 L
499.013 162.297 L
499.164 161.937 L
499.315 161.577 L
499.465 161.218 L
499.616 160.859 L
499.767 160.5 L
499.917 160.142 L
500.068 159.785 L
500.219 159.428 L
500.369 159.071 L
500.52 158.716 L
500.671 158.36 L
500.822 158.006 L
500.972 157.652 L
501.123 157.298 L
501.274 156.945 L
501.424 156.593 L
501.575 156.242 L
501.726 155.891 L
501.876 155.54 L
502.027 155.191 L
502.178 154.842 L
502.328 154.494 L
502.479 154.146 L
502.63 153.8 L
502.781 153.454 L
502.931 153.109 L
503.082 152.764 L
503.233 152.421 L
503.383 152.078 L
503.534 151.736 L
503.685 151.395 L
503.835 151.055 L
503.986 150.715 L
504.137 150.377 L
504.288 150.039 L
504.438 149.703 L
504.589 149.367 L
504.74 149.032 L
504.89 148.698 L
505.041 148.366 L
505.192 148.034 L
505.342 147.703 L
505.493 147.373 L
505.644 147.044 L
505.794 146.717 L
505.945 146.39 L
506.096 146.065 L
506.247 145.74 L
506.397 145.417 L
506.548 145.095 L
506.699 144.774 L
506.849 144.454 L
507 144.136 L
S
GR
%%Trailer
%%Pages: 1
%%EOF
