%!PS-Adobe-3.0 EPSF-3.0
%%Creator: (MATLAB, The Mathworks, Inc. Version 9.9.0.1467703 \(R2020b\). Operating System: Windows 10)
%%Title: C:/Users/timji/Documents/School/Colorado/ASEN5090/asen-5090/Homework4/plots/prn05_nist_azimuth.eps
%%CreationDate: 2020-10-05T20:41:49
%%Pages: (atend)
%%BoundingBox:     0     0   420   315
%%LanguageLevel: 3
%%EndComments
%%BeginProlog
%%BeginResource: procset (Apache XML Graphics Std ProcSet) 1.2 0
%%Version: 1.2 0
%%Copyright: (Copyright 2001-2003,2010 The Apache Software Foundation. License terms: http://www.apache.org/licenses/LICENSE-2.0)
/bd{bind def}bind def
/ld{load def}bd
/GR/grestore ld
/GS/gsave ld
/RM/rmoveto ld
/C/curveto ld
/t/show ld
/L/lineto ld
/ML/setmiterlimit ld
/CT/concat ld
/f/fill ld
/N/newpath ld
/S/stroke ld
/CC/setcmykcolor ld
/A/ashow ld
/cp/closepath ld
/RC/setrgbcolor ld
/LJ/setlinejoin ld
/GC/setgray ld
/LW/setlinewidth ld
/M/moveto ld
/re {4 2 roll M
1 index 0 rlineto
0 exch rlineto
neg 0 rlineto
cp } bd
/_ctm matrix def
/_tm matrix def
/BT { _ctm currentmatrix pop matrix _tm copy pop 0 0 moveto } bd
/ET { _ctm setmatrix } bd
/iTm { _ctm setmatrix _tm concat } bd
/Tm { _tm astore pop iTm 0 0 moveto } bd
/ux 0.0 def
/uy 0.0 def
/F {
  /Tp exch def
  /Tf exch def
  Tf findfont Tp scalefont setfont
  /cf Tf def  /cs Tp def
} bd
/ULS {currentpoint /uy exch def /ux exch def} bd
/ULE {
  /Tcx currentpoint pop def
  gsave
  newpath
  cf findfont cs scalefont dup
  /FontMatrix get 0 get /Ts exch def /FontInfo get dup
  /UnderlinePosition get Ts mul /To exch def
  /UnderlineThickness get Ts mul /Tt exch def
  ux uy To add moveto  Tcx uy To add lineto
  Tt setlinewidth stroke
  grestore
} bd
/OLE {
  /Tcx currentpoint pop def
  gsave
  newpath
  cf findfont cs scalefont dup
  /FontMatrix get 0 get /Ts exch def /FontInfo get dup
  /UnderlinePosition get Ts mul /To exch def
  /UnderlineThickness get Ts mul /Tt exch def
  ux uy To add cs add moveto Tcx uy To add cs add lineto
  Tt setlinewidth stroke
  grestore
} bd
/SOE {
  /Tcx currentpoint pop def
  gsave
  newpath
  cf findfont cs scalefont dup
  /FontMatrix get 0 get /Ts exch def /FontInfo get dup
  /UnderlinePosition get Ts mul /To exch def
  /UnderlineThickness get Ts mul /Tt exch def
  ux uy To add cs 10 mul 26 idiv add moveto Tcx uy To add cs 10 mul 26 idiv add lineto
  Tt setlinewidth stroke
  grestore
} bd
/QT {
/Y22 exch store
/X22 exch store
/Y21 exch store
/X21 exch store
currentpoint
/Y21 load 2 mul add 3 div exch
/X21 load 2 mul add 3 div exch
/X21 load 2 mul /X22 load add 3 div
/Y21 load 2 mul /Y22 load add 3 div
/X22 load /Y22 load curveto
} bd
/SSPD {
dup length /d exch dict def
{
/v exch def
/k exch def
currentpagedevice k known {
/cpdv currentpagedevice k get def
v cpdv ne {
/upd false def
/nullv v type /nulltype eq def
/nullcpdv cpdv type /nulltype eq def
nullv nullcpdv or
{
/upd true def
} {
/sametype v type cpdv type eq def
sametype {
v type /arraytype eq {
/vlen v length def
/cpdvlen cpdv length def
vlen cpdvlen eq {
0 1 vlen 1 sub {
/i exch def
/obj v i get def
/cpdobj cpdv i get def
obj cpdobj ne {
/upd true def
exit
} if
} for
} {
/upd true def
} ifelse
} {
v type /dicttype eq {
v {
/dv exch def
/dk exch def
/cpddv cpdv dk get def
dv cpddv ne {
/upd true def
exit
} if
} forall
} {
/upd true def
} ifelse
} ifelse
} if
} ifelse
upd true eq {
d k v put
} if
} if
} if
} forall
d length 0 gt {
d setpagedevice
} if
} bd
/RE { % /NewFontName [NewEncodingArray] /FontName RE -
  findfont dup length dict begin
  {
    1 index /FID ne
    {def} {pop pop} ifelse
  } forall
  /Encoding exch def
  /FontName 1 index def
  currentdict definefont pop
  end
} bind def
%%EndResource
%%BeginResource: procset (Apache XML Graphics EPS ProcSet) 1.0 0
%%Version: 1.0 0
%%Copyright: (Copyright 2002-2003 The Apache Software Foundation. License terms: http://www.apache.org/licenses/LICENSE-2.0)
/BeginEPSF { %def
/b4_Inc_state save def         % Save state for cleanup
/dict_count countdictstack def % Count objects on dict stack
/op_count count 1 sub def      % Count objects on operand stack
userdict begin                 % Push userdict on dict stack
/showpage { } def              % Redefine showpage, { } = null proc
0 setgray 0 setlinecap         % Prepare graphics state
1 setlinewidth 0 setlinejoin
10 setmiterlimit [ ] 0 setdash newpath
/languagelevel where           % If level not equal to 1 then
{pop languagelevel             % set strokeadjust and
1 ne                           % overprint to their defaults.
{false setstrokeadjust false setoverprint
} if
} if
} bd
/EndEPSF { %def
count op_count sub {pop} repeat            % Clean up stacks
countdictstack dict_count sub {end} repeat
b4_Inc_state restore
} bd
%%EndResource
%FOPBeginFontDict
%%IncludeResource: font Courier-Oblique
%%IncludeResource: font Courier-BoldOblique
%%IncludeResource: font Courier-Bold
%%IncludeResource: font ZapfDingbats
%%IncludeResource: font Symbol
%%IncludeResource: font Helvetica
%%IncludeResource: font Helvetica-Oblique
%%IncludeResource: font Helvetica-Bold
%%IncludeResource: font Helvetica-BoldOblique
%%IncludeResource: font Times-Roman
%%IncludeResource: font Times-Italic
%%IncludeResource: font Times-Bold
%%IncludeResource: font Times-BoldItalic
%%IncludeResource: font Courier
%FOPEndFontDict
%%BeginResource: encoding WinAnsiEncoding
/WinAnsiEncoding [
/.notdef /.notdef /.notdef /.notdef /.notdef
/.notdef /.notdef /.notdef /.notdef /.notdef
/.notdef /.notdef /.notdef /.notdef /.notdef
/.notdef /.notdef /.notdef /.notdef /.notdef
/.notdef /.notdef /.notdef /.notdef /.notdef
/.notdef /.notdef /.notdef /.notdef /.notdef
/.notdef /.notdef /space /exclam /quotedbl
/numbersign /dollar /percent /ampersand /quotesingle
/parenleft /parenright /asterisk /plus /comma
/hyphen /period /slash /zero /one
/two /three /four /five /six
/seven /eight /nine /colon /semicolon
/less /equal /greater /question /at
/A /B /C /D /E
/F /G /H /I /J
/K /L /M /N /O
/P /Q /R /S /T
/U /V /W /X /Y
/Z /bracketleft /backslash /bracketright /asciicircum
/underscore /quoteleft /a /b /c
/d /e /f /g /h
/i /j /k /l /m
/n /o /p /q /r
/s /t /u /v /w
/x /y /z /braceleft /bar
/braceright /asciitilde /bullet /Euro /bullet
/quotesinglbase /florin /quotedblbase /ellipsis /dagger
/daggerdbl /circumflex /perthousand /Scaron /guilsinglleft
/OE /bullet /Zcaron /bullet /bullet
/quoteleft /quoteright /quotedblleft /quotedblright /bullet
/endash /emdash /asciitilde /trademark /scaron
/guilsinglright /oe /bullet /zcaron /Ydieresis
/space /exclamdown /cent /sterling /currency
/yen /brokenbar /section /dieresis /copyright
/ordfeminine /guillemotleft /logicalnot /sfthyphen /registered
/macron /degree /plusminus /twosuperior /threesuperior
/acute /mu /paragraph /middot /cedilla
/onesuperior /ordmasculine /guillemotright /onequarter /onehalf
/threequarters /questiondown /Agrave /Aacute /Acircumflex
/Atilde /Adieresis /Aring /AE /Ccedilla
/Egrave /Eacute /Ecircumflex /Edieresis /Igrave
/Iacute /Icircumflex /Idieresis /Eth /Ntilde
/Ograve /Oacute /Ocircumflex /Otilde /Odieresis
/multiply /Oslash /Ugrave /Uacute /Ucircumflex
/Udieresis /Yacute /Thorn /germandbls /agrave
/aacute /acircumflex /atilde /adieresis /aring
/ae /ccedilla /egrave /eacute /ecircumflex
/edieresis /igrave /iacute /icircumflex /idieresis
/eth /ntilde /ograve /oacute /ocircumflex
/otilde /odieresis /divide /oslash /ugrave
/uacute /ucircumflex /udieresis /yacute /thorn
/ydieresis
] def
%%EndResource
%FOPBeginFontReencode
/Courier-Oblique findfont
dup length dict begin
  {1 index /FID ne {def} {pop pop} ifelse} forall
  /Encoding WinAnsiEncoding def
  currentdict
end
/Courier-Oblique exch definefont pop
/Courier-BoldOblique findfont
dup length dict begin
  {1 index /FID ne {def} {pop pop} ifelse} forall
  /Encoding WinAnsiEncoding def
  currentdict
end
/Courier-BoldOblique exch definefont pop
/Courier-Bold findfont
dup length dict begin
  {1 index /FID ne {def} {pop pop} ifelse} forall
  /Encoding WinAnsiEncoding def
  currentdict
end
/Courier-Bold exch definefont pop
/Helvetica findfont
dup length dict begin
  {1 index /FID ne {def} {pop pop} ifelse} forall
  /Encoding WinAnsiEncoding def
  currentdict
end
/Helvetica exch definefont pop
/Helvetica-Oblique findfont
dup length dict begin
  {1 index /FID ne {def} {pop pop} ifelse} forall
  /Encoding WinAnsiEncoding def
  currentdict
end
/Helvetica-Oblique exch definefont pop
/Helvetica-Bold findfont
dup length dict begin
  {1 index /FID ne {def} {pop pop} ifelse} forall
  /Encoding WinAnsiEncoding def
  currentdict
end
/Helvetica-Bold exch definefont pop
/Helvetica-BoldOblique findfont
dup length dict begin
  {1 index /FID ne {def} {pop pop} ifelse} forall
  /Encoding WinAnsiEncoding def
  currentdict
end
/Helvetica-BoldOblique exch definefont pop
/Times-Roman findfont
dup length dict begin
  {1 index /FID ne {def} {pop pop} ifelse} forall
  /Encoding WinAnsiEncoding def
  currentdict
end
/Times-Roman exch definefont pop
/Times-Italic findfont
dup length dict begin
  {1 index /FID ne {def} {pop pop} ifelse} forall
  /Encoding WinAnsiEncoding def
  currentdict
end
/Times-Italic exch definefont pop
/Times-Bold findfont
dup length dict begin
  {1 index /FID ne {def} {pop pop} ifelse} forall
  /Encoding WinAnsiEncoding def
  currentdict
end
/Times-Bold exch definefont pop
/Times-BoldItalic findfont
dup length dict begin
  {1 index /FID ne {def} {pop pop} ifelse} forall
  /Encoding WinAnsiEncoding def
  currentdict
end
/Times-BoldItalic exch definefont pop
/Courier findfont
dup length dict begin
  {1 index /FID ne {def} {pop pop} ifelse} forall
  /Encoding WinAnsiEncoding def
  currentdict
end
/Courier exch definefont pop
%FOPEndFontReencode
%%EndProlog
%%Page: 1 1
%%PageBoundingBox: 0 0 420 315
%%BeginPageSetup
[1 0 0 -1 0 315] CT
%%EndPageSetup
GS
[0.75 0 0 0.75 0 0] CT
1 GC
N
0 0 560 420 re
f
GR
GS
[0.75 0 0 0.75 0 0] CT
1 GC
N
0 0 560 420 re
f
GR
GS
[0.75 0 0 0.75 0 0] CT
1 GC
N
73 374 M
507 374 L
507 31 L
73 31 L
cp
f
GR
GS
[0.75 0 0 0.75 0 0] CT
0.149 GC
2 setlinecap
1 LJ
0.667 LW
N
73 374 M
507 374 L
S
GR
GS
[0.75 0 0 0.75 0 0] CT
0.149 GC
2 setlinecap
1 LJ
0.667 LW
N
73 31 M
507 31 L
S
GR
GS
[0.75 0 0 0.75 0 0] CT
0.149 GC
2 setlinecap
1 LJ
0.667 LW
N
73 374 M
73 369.66 L
S
GR
GS
[0.75 0 0 0.75 0 0] CT
0.149 GC
2 setlinecap
1 LJ
0.667 LW
N
163.417 374 M
163.417 369.66 L
S
GR
GS
[0.75 0 0 0.75 0 0] CT
0.149 GC
2 setlinecap
1 LJ
0.667 LW
N
253.833 374 M
253.833 369.66 L
S
GR
GS
[0.75 0 0 0.75 0 0] CT
0.149 GC
2 setlinecap
1 LJ
0.667 LW
N
344.25 374 M
344.25 369.66 L
S
GR
GS
[0.75 0 0 0.75 0 0] CT
0.149 GC
2 setlinecap
1 LJ
0.667 LW
N
434.667 374 M
434.667 369.66 L
S
GR
GS
[0.75 0 0 0.75 0 0] CT
0.149 GC
2 setlinecap
1 LJ
0.667 LW
N
73 31 M
73 35.34 L
S
GR
GS
[0.75 0 0 0.75 0 0] CT
0.149 GC
2 setlinecap
1 LJ
0.667 LW
N
163.417 31 M
163.417 35.34 L
S
GR
GS
[0.75 0 0 0.75 0 0] CT
0.149 GC
2 setlinecap
1 LJ
0.667 LW
N
253.833 31 M
253.833 35.34 L
S
GR
GS
[0.75 0 0 0.75 0 0] CT
0.149 GC
2 setlinecap
1 LJ
0.667 LW
N
344.25 31 M
344.25 35.34 L
S
GR
GS
[0.75 0 0 0.75 0 0] CT
0.149 GC
2 setlinecap
1 LJ
0.667 LW
N
434.667 31 M
434.667 35.34 L
S
GR
GS
[0.75 0 0 0.75 54.75 284.50001] CT
0.149 GC
/Helvetica 13.333 F
GS
[1 0 0 1 0 0] CT
-4 14 moveto 
1 -1 scale
(0) t 
GR
GR
GS
[0.75 0 0 0.75 122.5625 284.50001] CT
0.149 GC
/Helvetica 13.333 F
GS
[1 0 0 1 0 0] CT
-4 14 moveto 
1 -1 scale
(5) t 
GR
GR
GS
[0.75 0 0 0.75 190.375 284.50001] CT
0.149 GC
/Helvetica 13.333 F
GS
[1 0 0 1 0 0] CT
-7.5 14 moveto 
1 -1 scale
(10) t 
GR
GR
GS
[0.75 0 0 0.75 258.1875 284.50001] CT
0.149 GC
/Helvetica 13.333 F
GS
[1 0 0 1 0 0] CT
-7.5 14 moveto 
1 -1 scale
(15) t 
GR
GR
GS
[0.75 0 0 0.75 325.99999 284.50001] CT
0.149 GC
/Helvetica 13.333 F
GS
[1 0 0 1 0 0] CT
-7.5 14 moveto 
1 -1 scale
(20) t 
GR
GR
GS
[0.75 0 0 0.75 217.50016 298.24999] CT
0.149 GC
/Helvetica 14.667 F
GS
[1 0 0 1 0 0] CT
-57.5 15 moveto 
1 -1 scale
(Time into day \(hr\)) t 
GR
GR
GS
[0.75 0 0 0.75 0 0] CT
0.149 GC
2 setlinecap
1 LJ
0.667 LW
N
73 374 M
73 31 L
S
GR
GS
[0.75 0 0 0.75 0 0] CT
0.149 GC
2 setlinecap
1 LJ
0.667 LW
N
507 374 M
507 31 L
S
GR
GS
[0.75 0 0 0.75 0 0] CT
0.149 GC
2 setlinecap
1 LJ
0.667 LW
N
73 345.417 M
77.34 345.417 L
S
GR
GS
[0.75 0 0 0.75 0 0] CT
0.149 GC
2 setlinecap
1 LJ
0.667 LW
N
73 297.778 M
77.34 297.778 L
S
GR
GS
[0.75 0 0 0.75 0 0] CT
0.149 GC
2 setlinecap
1 LJ
0.667 LW
N
73 250.139 M
77.34 250.139 L
S
GR
GS
[0.75 0 0 0.75 0 0] CT
0.149 GC
2 setlinecap
1 LJ
0.667 LW
N
73 202.5 M
77.34 202.5 L
S
GR
GS
[0.75 0 0 0.75 0 0] CT
0.149 GC
2 setlinecap
1 LJ
0.667 LW
N
73 154.861 M
77.34 154.861 L
S
GR
GS
[0.75 0 0 0.75 0 0] CT
0.149 GC
2 setlinecap
1 LJ
0.667 LW
N
73 107.222 M
77.34 107.222 L
S
GR
GS
[0.75 0 0 0.75 0 0] CT
0.149 GC
2 setlinecap
1 LJ
0.667 LW
N
73 59.583 M
77.34 59.583 L
S
GR
GS
[0.75 0 0 0.75 0 0] CT
0.149 GC
2 setlinecap
1 LJ
0.667 LW
N
507 345.417 M
502.66 345.417 L
S
GR
GS
[0.75 0 0 0.75 0 0] CT
0.149 GC
2 setlinecap
1 LJ
0.667 LW
N
507 297.778 M
502.66 297.778 L
S
GR
GS
[0.75 0 0 0.75 0 0] CT
0.149 GC
2 setlinecap
1 LJ
0.667 LW
N
507 250.139 M
502.66 250.139 L
S
GR
GS
[0.75 0 0 0.75 0 0] CT
0.149 GC
2 setlinecap
1 LJ
0.667 LW
N
507 202.5 M
502.66 202.5 L
S
GR
GS
[0.75 0 0 0.75 0 0] CT
0.149 GC
2 setlinecap
1 LJ
0.667 LW
N
507 154.861 M
502.66 154.861 L
S
GR
GS
[0.75 0 0 0.75 0 0] CT
0.149 GC
2 setlinecap
1 LJ
0.667 LW
N
507 107.222 M
502.66 107.222 L
S
GR
GS
[0.75 0 0 0.75 0 0] CT
0.149 GC
2 setlinecap
1 LJ
0.667 LW
N
507 59.583 M
502.66 59.583 L
S
GR
GS
[0.75 0 0 0.75 50.75 259.06249] CT
0.149 GC
/Helvetica 13.333 F
GS
[1 0 0 1 0 0] CT
-27 5.5 moveto 
1 -1 scale
(-150) t 
GR
GR
GS
[0.75 0 0 0.75 50.75 223.33333] CT
0.149 GC
/Helvetica 13.333 F
GS
[1 0 0 1 0 0] CT
-27 5.5 moveto 
1 -1 scale
(-100) t 
GR
GR
GS
[0.75 0 0 0.75 50.75 187.60416] CT
0.149 GC
/Helvetica 13.333 F
GS
[1 0 0 1 0 0] CT
-20 5.5 moveto 
1 -1 scale
(-50) t 
GR
GR
GS
[0.75 0 0 0.75 50.75 151.875] CT
0.149 GC
/Helvetica 13.333 F
GS
[1 0 0 1 0 0] CT
-8 5.5 moveto 
1 -1 scale
(0) t 
GR
GR
GS
[0.75 0 0 0.75 50.75 116.14584] CT
0.149 GC
/Helvetica 13.333 F
GS
[1 0 0 1 0 0] CT
-15 5.5 moveto 
1 -1 scale
(50) t 
GR
GR
GS
[0.75 0 0 0.75 50.75 80.41667] CT
0.149 GC
/Helvetica 13.333 F
GS
[1 0 0 1 0 0] CT
-23 5.5 moveto 
1 -1 scale
(100) t 
GR
GR
GS
[0.75 0 0 0.75 50.75 44.6875] CT
0.149 GC
/Helvetica 13.333 F
GS
[1 0 0 1 0 0] CT
-23 5.5 moveto 
1 -1 scale
(150) t 
GR
GR
GS
[0 -0.75 0.75 0 27.5 151.87487] CT
0.149 GC
/Helvetica 14.667 F
GS
[1 0 0 1 0 0] CT
-66 -4 moveto 
1 -1 scale
(Azimuth angle \(deg\)) t 
GR
GR
GS
[0.75 0 0 0.75 217.50021 21.1875] CT
/Helvetica-Bold 14.667 F
GS
[1 0 0 1 0 0] CT
-144.5 -4 moveto 
1 -1 scale
(PRN05 Azimuth Angle from NIST IGS Site) t 
GR
GR
GS
[0.75 0 0 0.75 0 0] CT
0 0.447 0.741 RC
1 LJ
0.667 LW
N
73 75.403 M
73.151 75.284 L
73.301 75.165 L
73.452 75.047 L
73.603 74.928 L
73.753 74.81 L
73.904 74.692 L
74.055 74.574 L
74.206 74.456 L
74.356 74.338 L
74.507 74.22 L
74.658 74.103 L
74.808 73.986 L
74.959 73.869 L
75.11 73.752 L
75.26 73.635 L
75.411 73.518 L
75.562 73.402 L
75.713 73.286 L
75.863 73.169 L
76.014 73.053 L
76.165 72.938 L
76.315 72.822 L
76.466 72.706 L
76.617 72.591 L
76.767 72.476 L
76.918 72.361 L
77.069 72.246 L
77.219 72.131 L
77.37 72.016 L
77.521 71.902 L
77.672 71.787 L
77.822 71.673 L
77.973 71.559 L
78.124 71.445 L
78.274 71.331 L
78.425 71.218 L
78.576 71.104 L
78.726 70.991 L
78.877 70.878 L
79.028 70.765 L
79.178 70.652 L
79.329 70.539 L
79.48 70.426 L
79.631 70.314 L
79.781 70.201 L
79.932 70.089 L
80.083 69.977 L
80.233 69.865 L
80.384 69.753 L
80.535 69.642 L
80.685 69.53 L
80.836 69.419 L
80.987 69.307 L
81.137 69.196 L
81.288 69.085 L
81.439 68.974 L
81.59 68.864 L
81.74 68.753 L
81.891 68.642 L
82.042 68.532 L
82.192 68.422 L
82.343 68.311 L
82.494 68.201 L
82.644 68.091 L
82.795 67.982 L
82.946 67.872 L
83.097 67.762 L
83.247 67.653 L
83.398 67.543 L
83.549 67.434 L
83.699 67.324 L
83.85 67.215 L
84.001 67.106 L
84.151 66.997 L
84.302 66.888 L
84.453 66.779 L
84.603 66.67 L
84.754 66.562 L
84.905 66.453 L
85.056 66.344 L
85.206 66.236 L
85.357 66.127 L
85.508 66.019 L
85.658 65.91 L
85.809 65.802 L
85.96 65.693 L
86.11 65.585 L
86.261 65.476 L
86.412 65.368 L
86.563 65.259 L
86.713 65.151 L
86.864 65.042 L
87.015 64.934 L
87.165 64.825 L
87.316 64.716 L
87.467 64.607 L
87.617 64.499 L
87.768 64.389 L
87.919 64.28 L
88.069 64.171 L
88.22 64.062 L
88.371 63.952 L
88.522 63.842 L
88.672 63.732 L
88.823 63.622 L
88.974 63.511 L
89.124 63.4 L
89.275 63.289 L
89.426 63.177 L
89.576 63.065 L
89.727 62.953 L
89.878 62.84 L
90.028 62.726 L
90.179 62.612 L
90.33 62.497 L
90.481 62.382 L
90.631 62.266 L
90.782 62.149 L
90.933 62.031 L
91.083 61.912 L
91.234 61.792 L
91.385 61.671 L
91.535 61.549 L
91.686 61.425 L
91.837 61.299 L
91.987 61.172 L
92.138 61.043 L
92.289 60.912 L
92.44 60.778 L
92.59 60.641 L
92.741 60.502 L
92.892 60.359 L
93.042 60.213 L
93.193 60.062 L
93.344 59.907 L
93.494 59.745 L
93.645 59.578 L
93.796 59.404 L
93.947 59.221 L
94.097 59.028 L
94.248 58.824 L
94.399 58.606 L
94.549 58.371 L
94.7 58.118 L
94.851 57.84 L
95.001 57.532 L
95.152 57.186 L
95.303 56.791 L
95.453 56.333 L
95.604 55.788 L
95.755 55.121 L
95.906 54.278 L
96.056 53.163 L
96.207 51.597 L
96.358 49.205 L
96.508 45.05 L
96.659 36.053 L
96.81 350.086 L
96.96 280.516 L
97.111 253.531 L
97.262 244.953 L
97.412 240.933 L
97.563 238.6 L
97.714 237.067 L
97.865 235.971 L
98.015 235.142 L
98.166 234.487 L
98.317 233.951 L
98.467 233.5 L
98.618 233.113 L
98.769 232.775 L
98.919 232.474 L
99.07 232.204 L
99.221 231.958 L
99.372 231.731 L
99.522 231.522 L
99.673 231.326 L
99.824 231.142 L
99.974 230.968 L
100.125 230.803 L
100.276 230.646 L
100.426 230.495 L
100.577 230.35 L
100.728 230.211 L
100.878 230.076 L
101.029 229.945 L
101.18 229.818 L
101.331 229.695 L
101.481 229.574 L
101.632 229.457 L
101.783 229.342 L
101.933 229.229 L
102.084 229.118 L
102.235 229.01 L
102.385 228.903 L
102.536 228.798 L
102.687 228.695 L
102.838 228.593 L
102.988 228.493 L
103.139 228.394 L
103.29 228.296 L
103.44 228.2 L
103.591 228.105 L
103.742 228.01 L
103.892 227.917 L
104.043 227.825 L
104.194 227.733 L
104.344 227.643 L
104.495 227.553 L
104.646 227.464 L
104.797 227.376 L
104.947 227.288 L
105.098 227.202 L
105.249 227.116 L
105.399 227.03 L
105.55 226.946 L
105.701 226.862 L
105.851 226.778 L
106.002 226.695 L
106.153 226.613 L
106.303 226.531 L
106.454 226.45 L
106.605 226.369 L
106.756 226.289 L
106.906 226.209 L
107.057 226.13 L
107.208 226.051 L
107.358 225.973 L
107.509 225.895 L
107.66 225.818 L
107.81 225.741 L
107.961 225.664 L
108.112 225.588 L
108.263 225.512 L
108.413 225.437 L
108.564 225.362 L
108.715 225.288 L
108.865 225.214 L
109.016 225.14 L
109.167 225.067 L
109.317 224.994 L
109.468 224.921 L
109.619 224.849 L
109.769 224.777 L
109.92 224.706 L
110.071 224.634 L
110.222 224.564 L
110.372 224.493 L
110.523 224.423 L
110.674 224.353 L
110.824 224.284 L
110.975 224.215 L
111.126 224.146 L
111.276 224.078 L
111.427 224.01 L
111.578 223.942 L
111.728 223.874 L
111.879 223.807 L
112.03 223.741 L
112.181 223.674 L
112.331 223.608 L
112.482 223.542 L
112.633 223.477 L
112.783 223.411 L
112.934 223.346 L
113.085 223.282 L
113.235 223.217 L
113.386 223.153 L
113.537 223.09 L
113.688 223.026 L
113.838 222.963 L
113.989 222.9 L
114.14 222.838 L
114.29 222.776 L
114.441 222.714 L
114.592 222.652 L
114.742 222.591 L
114.893 222.53 L
115.044 222.469 L
115.194 222.409 L
115.345 222.349 L
115.496 222.289 L
115.647 222.229 L
115.797 222.17 L
115.948 222.111 L
116.099 222.052 L
116.249 221.994 L
116.4 221.936 L
116.551 221.878 L
116.701 221.82 L
116.852 221.763 L
117.003 221.706 L
117.153 221.65 L
117.304 221.593 L
117.455 221.537 L
117.606 221.481 L
117.756 221.426 L
117.907 221.371 L
118.058 221.316 L
118.208 221.261 L
118.359 221.206 L
118.51 221.152 L
118.66 221.099 L
118.811 221.045 L
118.962 220.992 L
119.112 220.939 L
119.263 220.886 L
119.414 220.834 L
119.565 220.782 L
119.715 220.73 L
119.866 220.678 L
120.017 220.627 L
120.167 220.576 L
120.318 220.525 L
120.469 220.475 L
120.619 220.425 L
120.77 220.375 L
120.921 220.325 L
121.072 220.276 L
121.222 220.227 L
121.373 220.178 L
121.524 220.13 L
121.674 220.082 L
121.825 220.034 L
121.976 219.986 L
122.126 219.939 L
122.277 219.892 L
122.428 219.845 L
122.578 219.799 L
122.729 219.753 L
122.88 219.707 L
123.031 219.661 L
123.181 219.616 L
123.332 219.571 L
123.483 219.526 L
123.633 219.482 L
123.784 219.437 L
123.935 219.394 L
124.085 219.35 L
124.236 219.307 L
124.387 219.264 L
124.537 219.221 L
124.688 219.179 L
124.839 219.136 L
124.99 219.095 L
125.14 219.053 L
125.291 219.012 L
125.442 218.971 L
125.592 218.93 L
125.743 218.89 L
125.894 218.85 L
126.044 218.81 L
126.195 218.77 L
126.346 218.731 L
126.497 218.692 L
126.647 218.653 L
126.798 218.615 L
126.949 218.577 L
127.099 218.539 L
127.25 218.502 L
127.401 218.464 L
127.551 218.428 L
127.702 218.391 L
127.853 218.355 L
128.003 218.319 L
128.154 218.283 L
128.305 218.247 L
128.456 218.212 L
128.606 218.178 L
128.757 218.143 L
128.908 218.109 L
129.058 218.075 L
129.209 218.041 L
129.36 218.008 L
129.51 217.975 L
129.661 217.942 L
129.812 217.91 L
129.963 217.878 L
130.113 217.846 L
130.264 217.814 L
130.415 217.783 L
130.565 217.752 L
130.716 217.722 L
130.867 217.691 L
131.017 217.661 L
131.168 217.632 L
131.319 217.602 L
131.469 217.573 L
131.62 217.544 L
131.771 217.516 L
131.922 217.488 L
132.072 217.46 L
132.223 217.433 L
132.374 217.405 L
132.524 217.378 L
132.675 217.352 L
132.826 217.326 L
132.976 217.3 L
133.127 217.274 L
133.278 217.249 L
133.428 217.224 L
133.579 217.199 L
133.73 217.174 L
133.881 217.15 L
134.031 217.127 L
134.182 217.103 L
134.333 217.08 L
134.483 217.057 L
134.634 217.035 L
134.785 217.013 L
134.935 216.991 L
135.086 216.969 L
135.237 216.948 L
135.387 216.927 L
135.538 216.907 L
135.689 216.887 L
135.84 216.867 L
135.99 216.847 L
136.141 216.828 L
136.292 216.809 L
136.442 216.79 L
136.593 216.772 L
136.744 216.754 L
136.894 216.737 L
137.045 216.719 L
137.196 216.702 L
137.347 216.686 L
137.497 216.67 L
137.648 216.654 L
137.799 216.638 L
137.949 216.623 L
138.1 216.608 L
138.251 216.593 L
138.401 216.579 L
138.552 216.565 L
138.703 216.552 L
138.853 216.538 L
139.004 216.526 L
139.155 216.513 L
139.306 216.501 L
139.456 216.489 L
139.607 216.478 L
139.758 216.466 L
139.908 216.456 L
140.059 216.445 L
140.21 216.435 L
140.36 216.425 L
140.511 216.416 L
140.662 216.407 L
140.813 216.398 L
140.963 216.39 L
141.114 216.382 L
141.265 216.374 L
141.415 216.367 L
141.566 216.36 L
141.717 216.353 L
141.867 216.347 L
142.018 216.341 L
142.169 216.336 L
142.319 216.331 L
142.47 216.326 L
142.621 216.321 L
142.772 216.317 L
142.922 216.314 L
143.073 216.31 L
143.224 216.307 L
143.374 216.305 L
143.525 216.303 L
143.676 216.301 L
143.826 216.299 L
143.977 216.298 L
144.128 216.298 L
144.278 216.297 L
144.429 216.297 L
144.58 216.298 L
144.731 216.298 L
144.881 216.3 L
145.032 216.301 L
145.183 216.303 L
145.333 216.305 L
145.484 216.308 L
145.635 216.311 L
145.785 216.315 L
145.936 216.318 L
146.087 216.323 L
146.238 216.327 L
146.388 216.332 L
146.539 216.338 L
146.69 216.343 L
146.84 216.35 L
146.991 216.356 L
147.142 216.363 L
147.292 216.37 L
147.443 216.378 L
147.594 216.386 L
147.744 216.395 L
147.895 216.404 L
148.046 216.413 L
148.197 216.423 L
148.347 216.433 L
148.498 216.444 L
148.649 216.455 L
148.799 216.466 L
148.95 216.478 L
149.101 216.49 L
149.251 216.503 L
149.402 216.516 L
149.553 216.529 L
149.703 216.543 L
149.854 216.557 L
150.005 216.572 L
150.156 216.587 L
150.306 216.602 L
150.457 216.618 L
150.608 216.635 L
150.758 216.652 L
150.909 216.669 L
151.06 216.686 L
151.21 216.704 L
151.361 216.723 L
151.512 216.742 L
151.662 216.761 L
151.813 216.781 L
151.964 216.801 L
152.115 216.822 L
152.265 216.843 L
152.416 216.864 L
152.567 216.886 L
152.717 216.909 L
152.868 216.932 L
153.019 216.955 L
153.169 216.979 L
153.32 217.003 L
153.471 217.028 L
153.622 217.053 L
153.772 217.078 L
153.923 217.104 L
154.074 217.131 L
154.224 217.157 L
154.375 217.185 L
154.526 217.213 L
154.676 217.241 L
154.827 217.27 L
154.978 217.299 L
155.128 217.328 L
155.279 217.359 L
155.43 217.389 L
155.581 217.42 L
155.731 217.452 L
155.882 217.484 L
156.033 217.516 L
156.183 217.549 L
156.334 217.582 L
156.485 217.616 L
156.635 217.651 L
156.786 217.686 L
156.937 217.721 L
157.088 217.757 L
157.238 217.793 L
157.389 217.83 L
157.54 217.867 L
157.69 217.905 L
157.841 217.943 L
157.992 217.982 L
158.142 218.021 L
158.293 218.061 L
158.444 218.101 L
158.594 218.141 L
158.745 218.183 L
158.896 218.224 L
159.047 218.267 L
159.197 218.309 L
159.348 218.352 L
159.499 218.396 L
159.649 218.44 L
159.8 218.485 L
159.951 218.53 L
160.101 218.576 L
160.252 218.622 L
160.403 218.669 L
160.553 218.717 L
160.704 218.764 L
160.855 218.813 L
161.006 218.862 L
161.156 218.911 L
161.307 218.961 L
161.458 219.011 L
161.608 219.062 L
161.759 219.114 L
161.91 219.166 L
162.06 219.218 L
162.211 219.271 L
162.362 219.325 L
162.512 219.379 L
162.663 219.434 L
162.814 219.489 L
162.965 219.545 L
163.115 219.601 L
163.266 219.658 L
163.417 219.716 L
163.567 219.774 L
163.718 219.832 L
163.869 219.891 L
164.019 219.951 L
164.17 220.011 L
164.321 220.072 L
164.472 220.133 L
164.622 220.195 L
164.773 220.258 L
164.924 220.321 L
165.074 220.384 L
165.225 220.448 L
165.376 220.513 L
165.526 220.578 L
165.677 220.644 L
165.828 220.711 L
165.978 220.778 L
166.129 220.845 L
166.28 220.914 L
166.431 220.982 L
166.581 221.052 L
166.732 221.121 L
166.883 221.192 L
167.033 221.263 L
167.184 221.335 L
167.335 221.407 L
167.485 221.48 L
167.636 221.553 L
167.787 221.627 L
167.938 221.702 L
168.088 221.777 L
168.239 221.853 L
168.39 221.929 L
168.54 222.006 L
168.691 222.084 L
168.842 222.162 L
168.992 222.241 L
169.143 222.321 L
169.294 222.401 L
169.444 222.481 L
169.595 222.563 L
169.746 222.644 L
169.897 222.727 L
170.047 222.81 L
170.198 222.894 L
170.349 222.978 L
170.499 223.063 L
170.65 223.149 L
170.801 223.235 L
170.951 223.322 L
171.102 223.409 L
171.253 223.497 L
171.403 223.586 L
171.554 223.675 L
171.705 223.765 L
171.856 223.856 L
172.006 223.947 L
172.157 224.039 L
172.308 224.132 L
172.458 224.225 L
172.609 224.319 L
172.76 224.413 L
172.91 224.508 L
173.061 224.604 L
173.212 224.7 L
173.363 224.797 L
173.513 224.895 L
173.664 224.993 L
173.815 225.092 L
173.965 225.192 L
174.116 225.292 L
174.267 225.393 L
174.417 225.494 L
174.568 225.597 L
174.719 225.699 L
174.869 225.803 L
175.02 225.907 L
175.171 226.012 L
175.322 226.117 L
175.472 226.224 L
175.623 226.33 L
175.774 226.438 L
175.924 226.546 L
176.075 226.655 L
176.226 226.764 L
176.376 226.874 L
176.527 226.985 L
176.678 227.096 L
176.828 227.208 L
176.979 227.321 L
177.13 227.435 L
177.281 227.549 L
177.431 227.663 L
177.582 227.779 L
177.733 227.895 L
177.883 228.012 L
178.034 228.129 L
178.185 228.247 L
178.335 228.366 L
178.486 228.485 L
178.637 228.605 L
178.787 228.726 L
178.938 228.848 L
179.089 228.97 L
179.24 229.092 L
179.39 229.216 L
179.541 229.34 L
179.692 229.465 L
179.842 229.59 L
179.993 229.716 L
180.144 229.843 L
180.294 229.97 L
180.445 230.099 L
180.596 230.227 L
180.747 230.357 L
180.897 230.487 L
181.048 230.618 L
181.199 230.749 L
181.349 230.881 L
181.5 231.014 L
181.651 231.147 L
181.801 231.281 L
181.952 231.416 L
182.103 231.552 L
182.253 231.688 L
182.404 231.825 L
182.555 231.962 L
182.706 232.1 L
182.856 232.239 L
183.007 232.378 L
183.158 232.518 L
183.308 232.659 L
183.459 232.8 L
183.61 232.942 L
183.76 233.085 L
183.911 233.228 L
184.062 233.372 L
184.213 233.517 L
184.363 233.662 L
184.514 233.808 L
184.665 233.955 L
184.815 234.102 L
184.966 234.25 L
185.117 234.398 L
185.267 234.547 L
185.418 234.697 L
185.569 234.847 L
185.719 234.998 L
185.87 235.15 L
186.021 235.302 L
186.172 235.455 L
186.322 235.609 L
186.473 235.763 L
186.624 235.918 L
186.774 236.073 L
186.925 236.229 L
187.076 236.386 L
187.226 236.543 L
187.377 236.701 L
187.528 236.859 L
187.678 237.018 L
187.829 237.178 L
187.98 237.338 L
188.131 237.499 L
188.281 237.661 L
188.432 237.823 L
188.583 237.985 L
188.733 238.148 L
188.884 238.312 L
189.035 238.477 L
189.185 238.642 L
189.336 238.807 L
189.487 238.973 L
189.637 239.14 L
189.788 239.307 L
189.939 239.475 L
190.09 239.643 L
190.24 239.812 L
190.391 239.981 L
190.542 240.151 L
190.692 240.322 L
190.843 240.493 L
190.994 240.664 L
191.144 240.837 L
191.295 241.009 L
191.446 241.182 L
191.597 241.356 L
191.747 241.53 L
191.898 241.705 L
192.049 241.88 L
192.199 242.056 L
192.35 242.232 L
192.501 242.409 L
192.651 242.586 L
192.802 242.763 L
192.953 242.942 L
193.103 243.12 L
193.254 243.299 L
193.405 243.479 L
193.556 243.659 L
193.706 243.839 L
193.857 244.02 L
194.008 244.202 L
194.158 244.383 L
194.309 244.566 L
194.46 244.748 L
194.61 244.931 L
194.761 245.115 L
194.912 245.299 L
195.063 245.483 L
195.213 245.668 L
195.364 245.853 L
195.515 246.039 L
195.665 246.225 L
195.816 246.411 L
195.967 246.598 L
196.117 246.785 L
196.268 246.972 L
196.419 247.16 L
196.569 247.348 L
196.72 247.537 L
196.871 247.726 L
197.022 247.915 L
197.172 248.104 L
197.323 248.294 L
197.474 248.485 L
197.624 248.675 L
197.775 248.866 L
197.926 249.057 L
198.076 249.249 L
198.227 249.44 L
198.378 249.632 L
198.528 249.825 L
198.679 250.017 L
198.83 250.21 L
198.981 250.403 L
199.131 250.597 L
199.282 250.791 L
199.433 250.985 L
199.583 251.179 L
199.734 251.373 L
199.885 251.568 L
200.035 251.763 L
200.186 251.958 L
200.337 252.153 L
200.488 252.349 L
200.638 252.544 L
200.789 252.74 L
200.94 252.936 L
201.09 253.133 L
201.241 253.329 L
201.392 253.526 L
201.542 253.723 L
201.693 253.92 L
201.844 254.117 L
201.994 254.314 L
202.145 254.512 L
202.296 254.709 L
202.447 254.907 L
202.597 255.105 L
202.748 255.303 L
202.899 255.501 L
203.049 255.699 L
203.2 255.897 L
203.351 256.095 L
203.501 256.294 L
203.652 256.492 L
203.803 256.691 L
203.953 256.89 L
204.104 257.089 L
204.255 257.287 L
204.406 257.486 L
204.556 257.685 L
204.707 257.884 L
204.858 258.083 L
205.008 258.282 L
205.159 258.482 L
205.31 258.681 L
205.46 258.88 L
205.611 259.079 L
205.762 259.278 L
205.912 259.477 L
206.063 259.676 L
206.214 259.876 L
206.365 260.075 L
206.515 260.274 L
206.666 260.473 L
206.817 260.672 L
206.967 260.871 L
207.118 261.07 L
207.269 261.269 L
207.419 261.468 L
207.57 261.667 L
207.721 261.865 L
207.872 262.064 L
208.022 262.263 L
208.173 262.461 L
208.324 262.66 L
208.474 262.858 L
208.625 263.057 L
208.776 263.255 L
208.926 263.453 L
209.077 263.651 L
209.228 263.849 L
209.378 264.047 L
209.529 264.244 L
209.68 264.442 L
209.831 264.64 L
209.981 264.837 L
210.132 265.034 L
210.283 265.231 L
210.433 265.428 L
210.584 265.625 L
210.735 265.821 L
210.885 266.018 L
211.036 266.214 L
211.187 266.41 L
211.338 266.607 L
211.488 266.802 L
211.639 266.998 L
211.79 267.194 L
211.94 267.389 L
212.091 267.584 L
212.242 267.779 L
212.392 267.974 L
212.543 268.168 L
212.694 268.363 L
212.844 268.557 L
212.995 268.751 L
213.146 268.945 L
213.297 269.138 L
213.447 269.332 L
213.598 269.525 L
213.749 269.718 L
213.899 269.911 L
214.05 270.103 L
214.201 270.296 L
214.351 270.488 L
214.502 270.68 L
214.653 270.871 L
214.803 271.063 L
214.954 271.254 L
215.105 271.445 L
215.256 271.636 L
215.406 271.826 L
215.557 272.016 L
215.708 272.207 L
215.858 272.396 L
216.009 272.586 L
216.16 272.775 L
216.31 272.964 L
216.461 273.153 L
216.612 273.341 L
216.762 273.53 L
216.913 273.718 L
217.064 273.906 L
217.215 274.093 L
217.365 274.28 L
217.516 274.467 L
217.667 274.654 L
217.817 274.841 L
217.968 275.027 L
218.119 275.213 L
218.269 275.398 L
218.42 275.584 L
218.571 275.769 L
218.722 275.954 L
218.872 276.139 L
219.023 276.323 L
219.174 276.507 L
219.324 276.691 L
219.475 276.874 L
219.626 277.058 L
219.776 277.241 L
219.927 277.423 L
220.078 277.606 L
220.228 277.788 L
220.379 277.97 L
220.53 278.152 L
220.681 278.333 L
220.831 278.514 L
220.982 278.695 L
221.133 278.876 L
221.283 279.056 L
221.434 279.236 L
221.585 279.416 L
221.735 279.595 L
221.886 279.774 L
222.037 279.953 L
222.188 280.132 L
222.338 280.31 L
222.489 280.489 L
222.64 280.666 L
222.79 280.844 L
222.941 281.021 L
223.092 281.199 L
223.242 281.375 L
223.393 281.552 L
223.544 281.728 L
223.694 281.904 L
223.845 282.08 L
223.996 282.255 L
224.147 282.431 L
224.297 282.606 L
224.448 282.78 L
224.599 282.955 L
224.749 283.129 L
224.9 283.303 L
225.051 283.477 L
225.201 283.65 L
225.352 283.823 L
225.503 283.996 L
225.653 284.169 L
225.804 284.341 L
225.955 284.514 L
226.106 284.686 L
226.256 284.857 L
226.407 285.029 L
226.558 285.2 L
226.708 285.371 L
226.859 285.542 L
227.01 285.712 L
227.16 285.883 L
227.311 286.053 L
227.462 286.222 L
227.613 286.392 L
227.763 286.561 L
227.914 286.731 L
228.065 286.899 L
228.215 287.068 L
228.366 287.237 L
228.517 287.405 L
228.667 287.573 L
228.818 287.741 L
228.969 287.908 L
229.119 288.076 L
229.27 288.243 L
229.421 288.41 L
229.572 288.577 L
229.722 288.743 L
229.873 288.91 L
230.024 289.076 L
230.174 289.242 L
230.325 289.408 L
230.476 289.573 L
230.626 289.738 L
230.777 289.904 L
230.928 290.069 L
231.078 290.234 L
231.229 290.398 L
231.38 290.563 L
231.531 290.727 L
231.681 290.891 L
231.832 291.055 L
231.983 291.219 L
232.133 291.382 L
232.284 291.546 L
232.435 291.709 L
232.585 291.872 L
232.736 292.035 L
232.887 292.198 L
233.038 292.361 L
233.188 292.523 L
233.339 292.685 L
233.49 292.848 L
233.64 293.01 L
233.791 293.172 L
233.942 293.333 L
234.092 293.495 L
234.243 293.656 L
234.394 293.818 L
234.544 293.979 L
234.695 294.14 L
234.846 294.301 L
234.997 294.462 L
235.147 294.623 L
235.298 294.783 L
235.449 294.944 L
235.599 295.104 L
235.75 295.264 L
235.901 295.424 L
236.051 295.584 L
236.202 295.744 L
236.353 295.904 L
236.503 296.064 L
236.654 296.224 L
236.805 296.383 L
236.956 296.543 L
237.106 296.702 L
237.257 296.861 L
237.408 297.02 L
237.558 297.179 L
237.709 297.338 L
237.86 297.497 L
238.01 297.656 L
238.161 297.815 L
238.312 297.974 L
238.462 298.132 L
238.613 298.291 L
238.764 298.45 L
238.915 298.608 L
239.065 298.767 L
239.216 298.925 L
239.367 299.083 L
239.517 299.241 L
239.668 299.4 L
239.819 299.558 L
239.969 299.716 L
240.12 299.874 L
240.271 300.032 L
240.422 300.19 L
240.572 300.348 L
240.723 300.506 L
240.874 300.664 L
241.024 300.822 L
241.175 300.98 L
241.326 301.138 L
241.476 301.296 L
241.627 301.453 L
241.778 301.611 L
241.928 301.769 L
242.079 301.927 L
242.23 302.085 L
242.381 302.242 L
242.531 302.4 L
242.682 302.558 L
242.833 302.716 L
242.983 302.874 L
243.134 303.031 L
243.285 303.189 L
243.435 303.347 L
243.586 303.505 L
243.737 303.663 L
243.887 303.821 L
244.038 303.979 L
244.189 304.137 L
244.34 304.295 L
244.49 304.453 L
244.641 304.611 L
244.792 304.769 L
244.942 304.927 L
245.093 305.085 L
245.244 305.243 L
245.394 305.401 L
245.545 305.56 L
245.696 305.718 L
245.847 305.876 L
245.997 306.035 L
246.148 306.193 L
246.299 306.352 L
246.449 306.51 L
246.6 306.669 L
246.751 306.828 L
246.901 306.986 L
247.052 307.145 L
247.203 307.304 L
247.353 307.463 L
247.504 307.622 L
247.655 307.781 L
247.806 307.94 L
247.956 308.1 L
248.107 308.259 L
248.258 308.418 L
248.408 308.578 L
248.559 308.737 L
248.71 308.897 L
248.86 309.057 L
249.011 309.217 L
249.162 309.377 L
249.313 309.537 L
249.463 309.697 L
249.614 309.857 L
249.765 310.017 L
249.915 310.178 L
250.066 310.338 L
250.217 310.499 L
250.367 310.659 L
250.518 310.82 L
250.669 310.981 L
250.819 311.142 L
250.97 311.303 L
251.121 311.465 L
251.272 311.626 L
251.422 311.788 L
251.573 311.949 L
251.724 312.111 L
251.874 312.273 L
252.025 312.435 L
252.176 312.597 L
252.326 312.759 L
252.477 312.921 L
252.628 313.084 L
252.778 313.246 L
252.929 313.409 L
253.08 313.572 L
253.231 313.735 L
253.381 313.898 L
253.532 314.061 L
253.683 314.225 L
253.833 314.388 L
253.984 314.552 L
254.135 314.715 L
254.285 314.879 L
254.436 315.043 L
254.587 315.208 L
254.738 315.372 L
254.888 315.536 L
255.039 315.701 L
255.19 315.866 L
255.34 316.03 L
255.491 316.195 L
255.642 316.361 L
255.792 316.526 L
255.943 316.691 L
256.094 316.857 L
256.244 317.023 L
256.395 317.189 L
256.546 317.355 L
256.697 317.521 L
256.847 317.687 L
256.998 317.854 L
257.149 318.02 L
257.299 318.187 L
257.45 318.354 L
257.601 318.521 L
257.751 318.688 L
257.902 318.856 L
258.053 319.023 L
258.203 319.191 L
258.354 319.358 L
258.505 319.526 L
258.656 319.695 L
258.806 319.863 L
258.957 320.031 L
259.108 320.2 L
259.258 320.368 L
259.409 320.537 L
259.56 320.706 L
259.71 320.875 L
259.861 321.045 L
260.012 321.214 L
260.163 321.384 L
260.313 321.553 L
260.464 321.723 L
260.615 321.893 L
260.765 322.064 L
260.916 322.234 L
261.067 322.404 L
261.217 322.575 L
261.368 322.746 L
261.519 322.917 L
261.669 323.088 L
261.82 323.259 L
261.971 323.43 L
262.122 323.601 L
262.272 323.773 L
262.423 323.945 L
262.574 324.117 L
262.724 324.289 L
262.875 324.461 L
263.026 324.633 L
263.176 324.805 L
263.327 324.978 L
263.478 325.151 L
263.628 325.323 L
263.779 325.496 L
263.93 325.669 L
264.081 325.842 L
264.231 326.016 L
264.382 326.189 L
264.533 326.363 L
264.683 326.536 L
264.834 326.71 L
264.985 326.884 L
265.135 327.058 L
265.286 327.232 L
265.437 327.406 L
265.587 327.58 L
265.738 327.755 L
265.889 327.929 L
266.04 328.104 L
266.19 328.279 L
266.341 328.454 L
266.492 328.628 L
266.642 328.803 L
266.793 328.979 L
266.944 329.154 L
267.094 329.329 L
267.245 329.505 L
267.396 329.68 L
267.547 329.856 L
267.697 330.031 L
267.848 330.207 L
267.999 330.383 L
268.149 330.559 L
268.3 330.735 L
268.451 330.911 L
268.601 331.087 L
268.752 331.263 L
268.903 331.439 L
269.053 331.615 L
269.204 331.792 L
269.355 331.968 L
269.506 332.145 L
269.656 332.321 L
269.807 332.498 L
269.958 332.674 L
270.108 332.851 L
270.259 333.028 L
270.41 333.204 L
270.56 333.381 L
270.711 333.558 L
270.862 333.735 L
271.012 333.911 L
271.163 334.088 L
271.314 334.265 L
271.465 334.442 L
271.615 334.619 L
271.766 334.796 L
271.917 334.973 L
272.067 335.15 L
272.218 335.327 L
272.369 335.504 L
272.519 335.681 L
272.67 335.858 L
272.821 336.035 L
272.972 336.211 L
273.122 336.388 L
273.273 336.565 L
273.424 336.742 L
273.574 336.919 L
273.725 337.096 L
273.876 337.273 L
274.026 337.449 L
274.177 337.626 L
274.328 337.803 L
274.478 337.979 L
274.629 338.156 L
274.78 338.332 L
274.931 338.509 L
275.081 338.685 L
275.232 338.862 L
275.383 339.038 L
275.533 339.214 L
275.684 339.39 L
275.835 339.566 L
275.985 339.742 L
276.136 339.918 L
276.287 340.094 L
276.438 340.27 L
276.588 340.445 L
276.739 340.621 L
276.89 340.796 L
277.04 340.972 L
277.191 341.147 L
277.342 341.322 L
277.492 341.497 L
277.643 341.672 L
277.794 341.846 L
277.944 342.021 L
278.095 342.196 L
278.246 342.37 L
278.397 342.544 L
278.547 342.718 L
278.698 342.892 L
278.849 343.066 L
278.999 343.24 L
279.15 343.413 L
279.301 343.587 L
279.451 343.76 L
279.602 343.933 L
279.753 344.106 L
279.903 344.278 L
280.054 344.451 L
280.205 344.623 L
280.356 344.796 L
280.506 344.967 L
280.657 345.139 L
280.808 345.311 L
280.958 345.482 L
281.109 345.654 L
281.26 345.825 L
281.41 345.995 L
281.561 346.166 L
281.712 346.336 L
281.863 346.506 L
282.013 346.676 L
282.164 346.846 L
282.315 347.016 L
282.465 347.185 L
282.616 347.354 L
282.767 347.523 L
282.917 347.691 L
283.068 347.86 L
283.219 348.028 L
283.369 348.196 L
283.52 348.363 L
283.671 348.531 L
283.822 348.698 L
283.972 348.864 L
284.123 349.031 L
284.274 349.197 L
284.424 349.363 L
284.575 349.529 L
284.726 349.694 L
284.876 349.86 L
285.027 350.025 L
285.178 350.189 L
285.328 350.353 L
285.479 350.517 L
285.63 350.681 L
285.781 350.845 L
285.931 351.008 L
286.082 351.171 L
286.233 351.333 L
286.383 351.495 L
286.534 351.657 L
286.685 351.819 L
286.835 351.98 L
286.986 352.141 L
287.137 352.302 L
287.288 352.462 L
287.438 352.622 L
287.589 352.782 L
287.74 352.941 L
287.89 353.1 L
288.041 353.259 L
288.192 353.417 L
288.342 353.575 L
288.493 353.732 L
288.644 353.89 L
288.794 354.047 L
288.945 354.203 L
289.096 354.359 L
289.247 354.515 L
289.397 354.671 L
289.548 354.826 L
289.699 354.981 L
289.849 355.135 L
290 355.289 L
290.151 355.443 L
290.301 355.596 L
290.452 355.749 L
290.603 355.901 L
290.753 356.054 L
290.904 356.205 L
291.055 356.357 L
291.206 356.508 L
291.356 356.658 L
291.507 356.809 L
291.658 356.959 L
291.808 357.108 L
291.959 357.257 L
292.11 357.406 L
292.26 357.554 L
292.411 357.702 L
292.562 357.849 L
292.712 357.996 L
292.863 358.143 L
293.014 358.289 L
293.165 358.435 L
293.315 358.581 L
293.466 358.726 L
293.617 358.87 L
293.767 359.015 L
293.918 359.159 L
294.069 359.302 L
294.219 359.445 L
294.37 359.587 L
294.521 359.73 L
294.672 359.871 L
294.822 360.013 L
294.973 360.154 L
295.124 360.294 L
295.274 360.434 L
295.425 360.574 L
295.576 360.713 L
295.726 360.852 L
295.877 360.99 L
296.028 361.128 L
296.178 361.266 L
296.329 361.403 L
296.48 361.539 L
296.631 361.676 L
296.781 361.811 L
296.932 361.947 L
297.083 362.082 L
297.233 362.216 L
297.384 362.35 L
297.535 362.484 L
297.685 362.617 L
297.836 362.75 L
297.987 362.882 L
298.137 363.014 L
298.288 363.146 L
298.439 363.277 L
298.59 363.407 L
298.74 363.537 L
298.891 363.667 L
299.042 363.796 L
299.192 363.925 L
299.343 364.054 L
299.494 364.182 L
299.644 364.309 L
299.795 364.436 L
299.946 364.563 L
300.097 364.689 L
300.247 364.815 L
300.398 364.94 L
300.549 365.065 L
300.699 365.19 L
300.85 365.314 L
301.001 365.437 L
301.151 365.561 L
301.302 365.683 L
301.453 365.806 L
301.603 365.927 L
301.754 366.049 L
301.905 366.17 L
302.056 366.29 L
302.206 366.411 L
302.357 366.53 L
302.508 366.65 L
302.658 366.768 L
302.809 366.887 L
302.96 367.005 L
303.11 367.122 L
303.261 367.239 L
303.412 367.356 L
303.563 367.472 L
303.713 367.588 L
303.864 367.703 L
304.015 367.818 L
304.165 367.933 L
304.316 368.047 L
304.467 368.161 L
304.617 368.274 L
304.768 368.387 L
304.919 368.499 L
305.069 368.611 L
305.22 368.723 L
305.371 368.834 L
305.522 368.945 L
305.672 369.055 L
305.823 369.165 L
305.974 369.274 L
306.124 369.383 L
306.275 369.492 L
306.426 369.6 L
306.576 369.708 L
306.727 369.815 L
306.878 369.922 L
307.028 370.029 L
307.179 370.135 L
307.33 370.241 L
307.481 370.346 L
307.631 370.451 L
307.782 370.556 L
307.933 370.66 L
308.083 370.764 L
308.234 370.867 L
308.385 370.97 L
308.535 371.073 L
308.686 371.175 L
308.837 371.277 L
308.988 371.378 L
309.138 371.479 L
309.289 371.579 L
309.44 371.68 L
309.59 371.78 L
309.741 371.879 L
309.892 371.978 L
310.042 372.077 L
310.193 372.175 L
310.344 372.273 L
310.494 372.37 L
310.645 372.467 L
310.796 372.564 L
310.947 372.661 L
311.097 372.757 L
311.248 372.852 L
311.399 372.948 L
311.549 373.043 L
311.7 373.137 L
311.851 373.231 L
312.001 373.325 L
312.152 373.419 L
312.303 373.512 L
312.453 373.604 L
312.604 373.697 L
312.755 373.789 L
312.906 373.88 L
313.056 373.972 L
313.207 31.063 L
313.358 31.153 L
313.508 31.244 L
313.659 31.334 L
313.81 31.423 L
313.96 31.513 L
314.111 31.602 L
314.262 31.69 L
314.413 31.778 L
314.563 31.866 L
314.714 31.954 L
314.865 32.041 L
315.015 32.128 L
315.166 32.215 L
315.317 32.301 L
315.467 32.387 L
315.618 32.473 L
315.769 32.558 L
315.919 32.643 L
316.07 32.728 L
316.221 32.812 L
316.372 32.897 L
316.522 32.98 L
316.673 33.064 L
316.824 33.147 L
316.974 33.23 L
317.125 33.313 L
317.276 33.395 L
317.426 33.477 L
317.577 33.559 L
317.728 33.64 L
317.878 33.721 L
318.029 33.802 L
318.18 33.883 L
318.331 33.963 L
318.481 34.043 L
318.632 34.123 L
318.783 34.203 L
318.933 34.282 L
319.084 34.361 L
319.235 34.44 L
319.385 34.518 L
319.536 34.596 L
319.687 34.674 L
319.837 34.752 L
319.988 34.83 L
320.139 34.907 L
320.29 34.984 L
320.44 35.06 L
320.591 35.137 L
320.742 35.213 L
320.892 35.289 L
321.043 35.365 L
321.194 35.441 L
321.344 35.516 L
321.495 35.591 L
321.646 35.666 L
321.797 35.74 L
321.947 35.815 L
322.098 35.889 L
322.249 35.963 L
322.399 36.037 L
322.55 36.111 L
322.701 36.184 L
322.851 36.257 L
323.002 36.33 L
323.153 36.403 L
323.303 36.476 L
323.454 36.548 L
323.605 36.62 L
323.756 36.693 L
323.906 36.764 L
324.057 36.836 L
324.208 36.908 L
324.358 36.979 L
324.509 37.05 L
324.66 37.121 L
324.81 37.192 L
324.961 37.263 L
325.112 37.334 L
325.262 37.404 L
325.413 37.475 L
325.564 37.545 L
325.715 37.615 L
325.865 37.685 L
326.016 37.754 L
326.167 37.824 L
326.317 37.894 L
326.468 37.963 L
326.619 38.032 L
326.769 38.101 L
326.92 38.17 L
327.071 38.239 L
327.222 38.308 L
327.372 38.377 L
327.523 38.445 L
327.674 38.514 L
327.824 38.582 L
327.975 38.651 L
328.126 38.719 L
328.276 38.787 L
328.427 38.855 L
328.578 38.923 L
328.728 38.991 L
328.879 39.059 L
329.03 39.127 L
329.181 39.195 L
329.331 39.263 L
329.482 39.33 L
329.633 39.398 L
329.783 39.466 L
329.934 39.533 L
330.085 39.601 L
330.235 39.668 L
330.386 39.736 L
330.537 39.803 L
330.688 39.871 L
330.838 39.938 L
330.989 40.006 L
331.14 40.073 L
331.29 40.141 L
331.441 40.208 L
331.592 40.276 L
331.742 40.343 L
331.893 40.411 L
332.044 40.479 L
332.194 40.546 L
332.345 40.614 L
332.496 40.682 L
332.647 40.749 L
332.797 40.817 L
332.948 40.885 L
333.099 40.953 L
333.249 41.021 L
333.4 41.089 L
333.551 41.157 L
333.701 41.225 L
333.852 41.294 L
334.003 41.362 L
334.153 41.431 L
334.304 41.499 L
334.455 41.568 L
334.606 41.637 L
334.756 41.706 L
334.907 41.775 L
335.058 41.845 L
335.208 41.914 L
335.359 41.984 L
335.51 42.053 L
335.66 42.123 L
335.811 42.193 L
335.962 42.263 L
336.113 42.334 L
336.263 42.405 L
336.414 42.475 L
336.565 42.546 L
336.715 42.618 L
336.866 42.689 L
337.017 42.761 L
337.167 42.833 L
337.318 42.905 L
337.469 42.977 L
337.619 43.05 L
337.77 43.123 L
337.921 43.196 L
338.072 43.269 L
338.222 43.343 L
338.373 43.417 L
338.524 43.492 L
338.674 43.566 L
338.825 43.641 L
338.976 43.716 L
339.126 43.792 L
339.277 43.868 L
339.428 43.944 L
339.578 44.021 L
339.729 44.098 L
339.88 44.175 L
340.031 44.253 L
340.181 44.331 L
340.332 44.41 L
340.483 44.489 L
340.633 44.569 L
340.784 44.648 L
340.935 44.729 L
341.085 44.81 L
341.236 44.891 L
341.387 44.973 L
341.538 45.055 L
341.688 45.138 L
341.839 45.221 L
341.99 45.305 L
342.14 45.389 L
342.291 45.474 L
342.442 45.559 L
342.592 45.645 L
342.743 45.732 L
342.894 45.819 L
343.044 45.907 L
343.195 45.995 L
343.346 46.084 L
343.497 46.174 L
343.647 46.264 L
343.798 46.355 L
343.949 46.447 L
344.099 46.539 L
344.25 46.632 L
344.401 46.726 L
344.551 46.82 L
344.702 46.916 L
344.853 47.012 L
345.003 47.109 L
345.154 47.206 L
345.305 47.305 L
345.456 47.404 L
345.606 47.504 L
345.757 47.605 L
345.908 47.707 L
346.058 47.81 L
346.209 47.914 L
346.36 48.018 L
346.51 48.124 L
346.661 48.231 L
346.812 48.338 L
346.962 48.447 L
347.113 48.556 L
347.264 48.667 L
347.415 48.779 L
347.565 48.892 L
347.716 49.006 L
347.867 49.121 L
348.017 49.237 L
348.168 49.354 L
348.319 49.473 L
348.469 49.593 L
348.62 49.714 L
348.771 49.836 L
348.922 49.96 L
349.072 50.085 L
349.223 50.211 L
349.374 50.339 L
349.524 50.468 L
349.675 50.598 L
349.826 50.73 L
349.976 50.864 L
350.127 50.999 L
350.278 51.135 L
350.428 51.273 L
350.579 51.413 L
350.73 51.554 L
350.881 51.697 L
351.031 51.841 L
351.182 51.987 L
351.333 52.135 L
351.483 52.285 L
351.634 52.437 L
351.785 52.59 L
351.935 52.745 L
352.086 52.902 L
352.237 53.061 L
352.387 53.222 L
352.538 53.385 L
352.689 53.55 L
352.84 53.718 L
352.99 53.887 L
353.141 54.058 L
353.292 54.232 L
353.442 54.408 L
353.593 54.586 L
353.744 54.767 L
353.894 54.95 L
354.045 55.135 L
354.196 55.323 L
354.347 55.513 L
354.497 55.706 L
354.648 55.901 L
354.799 56.099 L
354.949 56.3 L
355.1 56.503 L
355.251 56.71 L
355.401 56.919 L
355.552 57.131 L
355.703 57.346 L
355.853 57.564 L
356.004 57.785 L
356.155 58.009 L
356.306 58.236 L
356.456 58.466 L
356.607 58.7 L
356.758 58.937 L
356.908 59.178 L
357.059 59.422 L
357.21 59.669 L
357.36 59.92 L
357.511 60.175 L
357.662 60.433 L
357.813 60.695 L
357.963 60.961 L
358.114 61.231 L
358.265 61.505 L
358.415 61.782 L
358.566 62.064 L
358.717 62.35 L
358.867 62.641 L
359.018 62.935 L
359.169 63.234 L
359.319 63.537 L
359.47 63.845 L
359.621 64.158 L
359.772 64.475 L
359.922 64.797 L
360.073 65.123 L
360.224 65.455 L
360.374 65.791 L
360.525 66.133 L
360.676 66.479 L
360.826 66.831 L
360.977 67.188 L
361.128 67.55 L
361.278 67.918 L
361.429 68.291 L
361.58 68.669 L
361.731 69.053 L
361.881 69.443 L
362.032 69.838 L
362.183 70.24 L
362.333 70.647 L
362.484 71.06 L
362.635 71.479 L
362.785 71.904 L
362.936 72.335 L
363.087 72.772 L
363.237 73.216 L
363.388 73.666 L
363.539 74.122 L
363.69 74.584 L
363.84 75.053 L
363.991 75.528 L
364.142 76.009 L
364.292 76.497 L
364.443 76.992 L
364.594 77.493 L
364.744 78.001 L
364.895 78.515 L
365.046 79.036 L
365.197 79.563 L
365.347 80.097 L
365.498 80.637 L
365.649 81.184 L
365.799 81.737 L
365.95 82.297 L
366.101 82.863 L
366.251 83.436 L
366.402 84.014 L
366.553 84.599 L
366.703 85.191 L
366.854 85.788 L
367.005 86.391 L
367.156 87 L
367.306 87.615 L
367.457 88.235 L
367.608 88.861 L
367.758 89.492 L
367.909 90.129 L
368.06 90.771 L
368.21 91.417 L
368.361 92.068 L
368.512 92.724 L
368.663 93.384 L
368.813 94.048 L
368.964 94.717 L
369.115 95.389 L
369.265 96.064 L
369.416 96.743 L
369.567 97.424 L
369.717 98.109 L
369.868 98.796 L
370.019 99.485 L
370.169 100.176 L
370.32 100.869 L
370.471 101.563 L
370.622 102.259 L
370.772 102.955 L
370.923 103.652 L
371.074 104.349 L
371.224 105.046 L
371.375 105.743 L
371.526 106.44 L
371.676 107.135 L
371.827 107.83 L
371.978 108.523 L
372.128 109.214 L
372.279 109.903 L
372.43 110.591 L
372.581 111.275 L
372.731 111.957 L
372.882 112.635 L
373.033 113.311 L
373.183 113.983 L
373.334 114.651 L
373.485 115.315 L
373.635 115.975 L
373.786 116.63 L
373.937 117.281 L
374.087 117.926 L
374.238 118.567 L
374.389 119.203 L
374.54 119.833 L
374.69 120.457 L
374.841 121.076 L
374.992 121.689 L
375.142 122.296 L
375.293 122.896 L
375.444 123.491 L
375.594 124.079 L
375.745 124.661 L
375.896 125.236 L
376.047 125.804 L
376.197 126.366 L
376.348 126.921 L
376.499 127.47 L
376.649 128.011 L
376.8 128.545 L
376.951 129.073 L
377.101 129.594 L
377.252 130.107 L
377.403 130.614 L
377.553 131.113 L
377.704 131.606 L
377.855 132.092 L
378.006 132.57 L
378.156 133.042 L
378.307 133.506 L
378.458 133.964 L
378.608 134.415 L
378.759 134.859 L
378.91 135.296 L
379.06 135.727 L
379.211 136.15 L
379.362 136.567 L
379.513 136.978 L
379.663 137.381 L
379.814 137.779 L
379.965 138.169 L
380.115 138.554 L
380.266 138.932 L
380.417 139.303 L
380.567 139.669 L
380.718 140.028 L
380.869 140.381 L
381.019 140.729 L
381.17 141.07 L
381.321 141.405 L
381.471 141.735 L
381.622 142.059 L
381.773 142.377 L
381.924 142.689 L
382.074 142.997 L
382.225 143.298 L
382.376 143.594 L
382.526 143.885 L
382.677 144.171 L
382.828 144.452 L
382.978 144.727 L
383.129 144.998 L
383.28 145.263 L
383.431 145.524 L
383.581 145.779 L
383.732 146.031 L
383.883 146.277 L
384.033 146.519 L
384.184 146.756 L
384.335 146.989 L
384.485 147.217 L
384.636 147.441 L
384.787 147.661 L
384.938 147.877 L
385.088 148.088 L
385.239 148.296 L
385.39 148.499 L
385.54 148.699 L
385.691 148.894 L
385.842 149.086 L
385.992 149.274 L
386.143 149.458 L
386.294 149.639 L
386.444 149.816 L
386.595 149.989 L
386.746 150.159 L
386.897 150.325 L
387.047 150.488 L
387.198 150.648 L
387.349 150.804 L
387.499 150.958 L
387.65 151.108 L
387.801 151.254 L
387.951 151.398 L
388.102 151.539 L
388.253 151.677 L
388.404 151.811 L
388.554 151.943 L
388.705 152.072 L
388.856 152.198 L
389.006 152.321 L
389.157 152.442 L
389.308 152.56 L
389.458 152.675 L
389.609 152.788 L
389.76 152.898 L
389.91 153.005 L
390.061 153.11 L
390.212 153.213 L
390.362 153.313 L
390.513 153.41 L
390.664 153.506 L
390.815 153.599 L
390.965 153.689 L
391.116 153.778 L
391.267 153.864 L
391.417 153.948 L
391.568 154.029 L
391.719 154.109 L
391.869 154.186 L
392.02 154.262 L
392.171 154.335 L
392.322 154.407 L
392.472 154.476 L
392.623 154.543 L
392.774 154.609 L
392.924 154.672 L
393.075 154.734 L
393.226 154.794 L
393.376 154.852 L
393.527 154.908 L
393.678 154.962 L
393.828 155.015 L
393.979 155.065 L
394.13 155.114 L
394.281 155.162 L
394.431 155.208 L
394.582 155.252 L
394.733 155.294 L
394.883 155.335 L
395.034 155.374 L
395.185 155.412 L
395.335 155.448 L
395.486 155.482 L
395.637 155.515 L
395.788 155.547 L
395.938 155.577 L
396.089 155.606 L
396.24 155.633 L
396.39 155.659 L
396.541 155.683 L
396.692 155.706 L
396.842 155.727 L
396.993 155.748 L
397.144 155.767 L
397.294 155.784 L
397.445 155.8 L
397.596 155.815 L
397.747 155.829 L
397.897 155.842 L
398.048 155.853 L
398.199 155.863 L
398.349 155.871 L
398.5 155.879 L
398.651 155.885 L
398.801 155.89 L
398.952 155.894 L
399.103 155.897 L
399.253 155.899 L
399.404 155.9 L
399.555 155.899 L
399.706 155.897 L
399.856 155.895 L
400.007 155.891 L
400.158 155.886 L
400.308 155.88 L
400.459 155.873 L
400.61 155.865 L
400.76 155.856 L
400.911 155.846 L
401.062 155.835 L
401.212 155.823 L
401.363 155.81 L
401.514 155.796 L
401.665 155.781 L
401.815 155.765 L
401.966 155.748 L
402.117 155.73 L
402.267 155.712 L
402.418 155.692 L
402.569 155.671 L
402.719 155.65 L
402.87 155.628 L
403.021 155.604 L
403.172 155.58 L
403.322 155.555 L
403.473 155.53 L
403.624 155.503 L
403.774 155.475 L
403.925 155.447 L
404.076 155.418 L
404.226 155.388 L
404.377 155.357 L
404.528 155.326 L
404.678 155.293 L
404.829 155.26 L
404.98 155.226 L
405.131 155.192 L
405.281 155.156 L
405.432 155.12 L
405.583 155.083 L
405.733 155.045 L
405.884 155.007 L
406.035 154.968 L
406.185 154.928 L
406.336 154.887 L
406.487 154.846 L
406.638 154.804 L
406.788 154.761 L
406.939 154.717 L
407.09 154.673 L
407.24 154.628 L
407.391 154.583 L
407.542 154.537 L
407.692 154.49 L
407.843 154.442 L
407.994 154.394 L
408.144 154.345 L
408.295 154.296 L
408.446 154.246 L
408.596 154.195 L
408.747 154.143 L
408.898 154.091 L
409.049 154.039 L
409.199 153.985 L
409.35 153.932 L
409.501 153.877 L
409.651 153.822 L
409.802 153.766 L
409.953 153.71 L
410.103 153.653 L
410.254 153.596 L
410.405 153.538 L
410.556 153.479 L
410.706 153.42 L
410.857 153.36 L
411.008 153.3 L
411.158 153.239 L
411.309 153.177 L
411.46 153.115 L
411.61 153.053 L
411.761 152.99 L
411.912 152.926 L
412.063 152.862 L
412.213 152.797 L
412.364 152.732 L
412.515 152.666 L
412.665 152.6 L
412.816 152.533 L
412.967 152.466 L
413.117 152.398 L
413.268 152.329 L
413.419 152.261 L
413.569 152.191 L
413.72 152.121 L
413.871 152.051 L
414.022 151.98 L
414.172 151.909 L
414.323 151.837 L
414.474 151.765 L
414.624 151.692 L
414.775 151.619 L
414.926 151.545 L
415.076 151.471 L
415.227 151.396 L
415.378 151.321 L
415.529 151.245 L
415.679 151.169 L
415.83 151.093 L
415.981 151.016 L
416.131 150.938 L
416.282 150.86 L
416.433 150.782 L
416.583 150.703 L
416.734 150.624 L
416.885 150.544 L
417.035 150.464 L
417.186 150.384 L
417.337 150.303 L
417.487 150.222 L
417.638 150.14 L
417.789 150.058 L
417.94 149.975 L
418.09 149.892 L
418.241 149.808 L
418.392 149.725 L
418.542 149.64 L
418.693 149.556 L
418.844 149.47 L
418.994 149.385 L
419.145 149.299 L
419.296 149.213 L
419.447 149.126 L
419.597 149.039 L
419.748 148.952 L
419.899 148.864 L
420.049 148.775 L
420.2 148.687 L
420.351 148.598 L
420.501 148.508 L
420.652 148.419 L
420.803 148.329 L
420.953 148.238 L
421.104 148.147 L
421.255 148.056 L
421.406 147.964 L
421.556 147.872 L
421.707 147.78 L
421.858 147.687 L
422.008 147.594 L
422.159 147.501 L
422.31 147.407 L
422.46 147.313 L
422.611 147.218 L
422.762 147.123 L
422.913 147.028 L
423.063 146.933 L
423.214 146.837 L
423.365 146.74 L
423.515 146.644 L
423.666 146.547 L
423.817 146.45 L
423.967 146.352 L
424.118 146.254 L
424.269 146.156 L
424.419 146.057 L
424.57 145.958 L
424.721 145.859 L
424.872 145.76 L
425.022 145.66 L
425.173 145.559 L
425.324 145.459 L
425.474 145.358 L
425.625 145.257 L
425.776 145.155 L
425.926 145.054 L
426.077 144.951 L
426.228 144.849 L
426.378 144.746 L
426.529 144.643 L
426.68 144.54 L
426.831 144.436 L
426.981 144.332 L
427.132 144.228 L
427.283 144.123 L
427.433 144.019 L
427.584 143.913 L
427.735 143.808 L
427.885 143.702 L
428.036 143.596 L
428.187 143.49 L
428.337 143.383 L
428.488 143.276 L
428.639 143.169 L
428.79 143.062 L
428.94 142.954 L
429.091 142.846 L
429.242 142.737 L
429.392 142.629 L
429.543 142.52 L
429.694 142.411 L
429.844 142.301 L
429.995 142.192 L
430.146 142.082 L
430.297 141.971 L
430.447 141.861 L
430.598 141.75 L
430.749 141.639 L
430.899 141.528 L
431.05 141.416 L
431.201 141.304 L
431.351 141.192 L
431.502 141.08 L
431.653 140.967 L
431.803 140.854 L
431.954 140.741 L
432.105 140.628 L
432.256 140.514 L
432.406 140.4 L
432.557 140.286 L
432.708 140.172 L
432.858 140.057 L
433.009 139.942 L
433.16 139.827 L
433.31 139.712 L
433.461 139.596 L
433.612 139.48 L
433.763 139.364 L
433.913 139.248 L
434.064 139.131 L
434.215 139.014 L
434.365 138.897 L
434.516 138.78 L
434.667 138.663 L
434.817 138.545 L
434.968 138.427 L
435.119 138.309 L
435.269 138.19 L
435.42 138.071 L
435.571 137.953 L
435.721 137.833 L
435.872 137.714 L
436.023 137.595 L
436.174 137.475 L
436.324 137.355 L
436.475 137.235 L
436.626 137.114 L
436.776 136.993 L
436.927 136.873 L
437.078 136.751 L
437.228 136.63 L
437.379 136.509 L
437.53 136.387 L
437.681 136.265 L
437.831 136.143 L
437.982 136.021 L
438.133 135.898 L
438.283 135.775 L
438.434 135.652 L
438.585 135.529 L
438.735 135.406 L
438.886 135.282 L
439.037 135.158 L
439.188 135.035 L
439.338 134.91 L
439.489 134.786 L
439.64 134.661 L
439.79 134.537 L
439.941 134.412 L
440.092 134.287 L
440.242 134.161 L
440.393 134.036 L
440.544 133.91 L
440.694 133.784 L
440.845 133.658 L
440.996 133.532 L
441.147 133.406 L
441.297 133.279 L
441.448 133.152 L
441.599 133.025 L
441.749 132.898 L
441.9 132.771 L
442.051 132.643 L
442.201 132.516 L
442.352 132.388 L
442.503 132.26 L
442.654 132.132 L
442.804 132.003 L
442.955 131.875 L
443.106 131.746 L
443.256 131.617 L
443.407 131.488 L
443.558 131.359 L
443.708 131.23 L
443.859 131.1 L
444.01 130.971 L
444.16 130.841 L
444.311 130.711 L
444.462 130.581 L
444.612 130.45 L
444.763 130.32 L
444.914 130.189 L
445.065 130.058 L
445.215 129.927 L
445.366 129.796 L
445.517 129.665 L
445.667 129.534 L
445.818 129.402 L
445.969 129.27 L
446.119 129.139 L
446.27 129.007 L
446.421 128.875 L
446.572 128.742 L
446.722 128.61 L
446.873 128.477 L
447.024 128.345 L
447.174 128.212 L
447.325 128.079 L
447.476 127.946 L
447.626 127.813 L
447.777 127.679 L
447.928 127.546 L
448.078 127.412 L
448.229 127.278 L
448.38 127.144 L
448.531 127.01 L
448.681 126.876 L
448.832 126.742 L
448.983 126.607 L
449.133 126.473 L
449.284 126.338 L
449.435 126.203 L
449.585 126.068 L
449.736 125.933 L
449.887 125.798 L
450.038 125.663 L
450.188 125.528 L
450.339 125.392 L
450.49 125.256 L
450.64 125.121 L
450.791 124.985 L
450.942 124.849 L
451.092 124.713 L
451.243 124.577 L
451.394 124.44 L
451.544 124.304 L
451.695 124.167 L
451.846 124.031 L
451.997 123.894 L
452.147 123.757 L
452.298 123.62 L
452.449 123.483 L
452.599 123.346 L
452.75 123.209 L
452.901 123.072 L
453.051 122.934 L
453.202 122.797 L
453.353 122.659 L
453.503 122.521 L
453.654 122.383 L
453.805 122.245 L
453.956 122.107 L
454.106 121.969 L
454.257 121.831 L
454.408 121.693 L
454.558 121.554 L
454.709 121.416 L
454.86 121.277 L
455.01 121.139 L
455.161 121 L
455.312 120.861 L
455.462 120.722 L
455.613 120.583 L
455.764 120.444 L
455.915 120.305 L
456.065 120.166 L
456.216 120.027 L
456.367 119.887 L
456.517 119.748 L
456.668 119.609 L
456.819 119.469 L
456.969 119.329 L
457.12 119.19 L
457.271 119.05 L
457.422 118.91 L
457.572 118.77 L
457.723 118.63 L
457.874 118.49 L
458.024 118.35 L
458.175 118.21 L
458.326 118.069 L
458.476 117.929 L
458.627 117.789 L
458.778 117.648 L
458.928 117.508 L
459.079 117.367 L
459.23 117.227 L
459.381 117.086 L
459.531 116.945 L
459.682 116.804 L
459.833 116.664 L
459.983 116.523 L
460.134 116.382 L
460.285 116.241 L
460.435 116.1 L
460.586 115.959 L
460.737 115.818 L
460.888 115.676 L
461.038 115.535 L
461.189 115.394 L
461.34 115.253 L
461.49 115.111 L
461.641 114.97 L
461.792 114.829 L
461.942 114.687 L
462.093 114.546 L
462.244 114.404 L
462.394 114.262 L
462.545 114.121 L
462.696 113.979 L
462.846 113.837 L
462.997 113.696 L
463.148 113.554 L
463.299 113.412 L
463.449 113.27 L
463.6 113.129 L
463.751 112.987 L
463.901 112.845 L
464.052 112.703 L
464.203 112.561 L
464.353 112.419 L
464.504 112.277 L
464.655 112.135 L
464.806 111.993 L
464.956 111.851 L
465.107 111.709 L
465.258 111.567 L
465.408 111.425 L
465.559 111.283 L
465.71 111.14 L
465.86 110.998 L
466.011 110.856 L
466.162 110.714 L
466.313 110.572 L
466.463 110.429 L
466.614 110.287 L
466.765 110.145 L
466.915 110.003 L
467.066 109.861 L
467.217 109.718 L
467.367 109.576 L
467.518 109.434 L
467.669 109.292 L
467.819 109.149 L
467.97 109.007 L
468.121 108.865 L
468.272 108.723 L
468.422 108.58 L
468.573 108.438 L
468.724 108.296 L
468.874 108.154 L
469.025 108.011 L
469.176 107.869 L
469.326 107.727 L
469.477 107.585 L
469.628 107.443 L
469.779 107.3 L
469.929 107.158 L
470.08 107.016 L
470.231 106.874 L
470.381 106.732 L
470.532 106.59 L
470.683 106.447 L
470.833 106.305 L
470.984 106.163 L
471.135 106.021 L
471.285 105.879 L
471.436 105.737 L
471.587 105.595 L
471.737 105.453 L
471.888 105.311 L
472.039 105.169 L
472.19 105.027 L
472.34 104.885 L
472.491 104.743 L
472.642 104.602 L
472.792 104.46 L
472.943 104.318 L
473.094 104.176 L
473.244 104.035 L
473.395 103.893 L
473.546 103.751 L
473.697 103.61 L
473.847 103.468 L
473.998 103.326 L
474.149 103.185 L
474.299 103.043 L
474.45 102.902 L
474.601 102.761 L
474.751 102.619 L
474.902 102.478 L
475.053 102.337 L
475.203 102.195 L
475.354 102.054 L
475.505 101.913 L
475.656 101.772 L
475.806 101.631 L
475.957 101.49 L
476.108 101.349 L
476.258 101.208 L
476.409 101.067 L
476.56 100.926 L
476.71 100.785 L
476.861 100.645 L
477.012 100.504 L
477.163 100.363 L
477.313 100.223 L
477.464 100.082 L
477.615 99.942 L
477.765 99.801 L
477.916 99.661 L
478.067 99.521 L
478.217 99.38 L
478.368 99.24 L
478.519 99.1 L
478.669 98.96 L
478.82 98.82 L
478.971 98.68 L
479.122 98.54 L
479.272 98.4 L
479.423 98.26 L
479.574 98.121 L
479.724 97.981 L
479.875 97.842 L
480.026 97.702 L
480.176 97.563 L
480.327 97.423 L
480.478 97.284 L
480.628 97.145 L
480.779 97.006 L
480.93 96.867 L
481.081 96.728 L
481.231 96.589 L
481.382 96.45 L
481.533 96.311 L
481.683 96.172 L
481.834 96.034 L
481.985 95.895 L
482.135 95.757 L
482.286 95.618 L
482.437 95.48 L
482.587 95.342 L
482.738 95.204 L
482.889 95.066 L
483.04 94.928 L
483.19 94.79 L
483.341 94.652 L
483.492 94.514 L
483.642 94.376 L
483.793 94.239 L
483.944 94.101 L
484.094 93.964 L
484.245 93.827 L
484.396 93.69 L
484.547 93.552 L
484.697 93.415 L
484.848 93.278 L
484.999 93.142 L
485.149 93.005 L
485.3 92.868 L
485.451 92.732 L
485.601 92.595 L
485.752 92.459 L
485.903 92.322 L
486.053 92.186 L
486.204 92.05 L
486.355 91.914 L
486.506 91.778 L
486.656 91.642 L
486.807 91.507 L
486.958 91.371 L
487.108 91.236 L
487.259 91.1 L
487.41 90.965 L
487.56 90.83 L
487.711 90.695 L
487.862 90.56 L
488.013 90.425 L
488.163 90.29 L
488.314 90.155 L
488.465 90.021 L
488.615 89.886 L
488.766 89.752 L
488.917 89.618 L
489.067 89.484 L
489.218 89.35 L
489.369 89.216 L
489.519 89.082 L
489.67 88.948 L
489.821 88.815 L
489.971 88.681 L
490.122 88.548 L
490.273 88.415 L
490.424 88.282 L
490.574 88.149 L
490.725 88.016 L
490.876 87.883 L
491.026 87.75 L
491.177 87.618 L
491.328 87.485 L
491.478 87.353 L
491.629 87.221 L
491.78 87.089 L
491.931 86.957 L
492.081 86.825 L
492.232 86.694 L
492.383 86.562 L
492.533 86.431 L
492.684 86.299 L
492.835 86.168 L
492.985 86.037 L
493.136 85.906 L
493.287 85.775 L
493.438 85.644 L
493.588 85.514 L
493.739 85.383 L
493.89 85.253 L
494.04 85.123 L
494.191 84.993 L
494.342 84.863 L
494.492 84.733 L
494.643 84.604 L
494.794 84.474 L
494.944 84.345 L
495.095 84.215 L
495.246 84.086 L
495.397 83.957 L
495.547 83.828 L
495.698 83.7 L
495.849 83.571 L
495.999 83.442 L
496.15 83.314 L
496.301 83.186 L
496.451 83.058 L
496.602 82.93 L
496.753 82.802 L
496.904 82.674 L
497.054 82.547 L
497.205 82.42 L
497.356 82.292 L
497.506 82.165 L
497.657 82.038 L
497.808 81.911 L
497.958 81.785 L
498.109 81.658 L
498.26 81.532 L
498.41 81.406 L
498.561 81.279 L
498.712 81.153 L
498.862 81.028 L
499.013 80.902 L
499.164 80.776 L
499.315 80.651 L
499.465 80.526 L
499.616 80.401 L
499.767 80.276 L
499.917 80.151 L
500.068 80.026 L
500.219 79.902 L
500.369 79.777 L
500.52 79.653 L
500.671 79.529 L
500.822 79.405 L
500.972 79.281 L
501.123 79.157 L
501.274 79.034 L
501.424 78.911 L
501.575 78.787 L
501.726 78.664 L
501.876 78.541 L
502.027 78.419 L
502.178 78.296 L
502.328 78.174 L
502.479 78.051 L
502.63 77.929 L
502.781 77.807 L
502.931 77.685 L
503.082 77.564 L
503.233 77.442 L
503.383 77.321 L
503.534 77.199 L
503.685 77.078 L
503.835 76.957 L
503.986 76.837 L
504.137 76.716 L
504.288 76.595 L
504.438 76.475 L
504.589 76.355 L
504.74 76.235 L
504.89 76.115 L
505.041 75.995 L
505.192 75.876 L
505.342 75.756 L
505.493 75.637 L
505.644 75.518 L
505.794 75.399 L
505.945 75.28 L
506.096 75.162 L
506.247 75.043 L
506.397 74.925 L
506.548 74.807 L
506.699 74.689 L
506.849 74.571 L
507 74.453 L
S
GR
%%Trailer
%%Pages: 1
%%EOF
