%!PS-Adobe-3.0 EPSF-3.0
%%Creator: (MATLAB, The Mathworks, Inc. Version 9.9.0.1467703 \(R2020b\). Operating System: Windows 10)
%%Title: C:/Users/timji/Documents/School/Colorado/ASEN5090/asen-5090/Homework4/plots/prn01_nist_range.eps
%%CreationDate: 2020-10-05T20:47:32
%%Pages: (atend)
%%BoundingBox:     0     0   420   315
%%LanguageLevel: 3
%%EndComments
%%BeginProlog
%%BeginResource: procset (Apache XML Graphics Std ProcSet) 1.2 0
%%Version: 1.2 0
%%Copyright: (Copyright 2001-2003,2010 The Apache Software Foundation. License terms: http://www.apache.org/licenses/LICENSE-2.0)
/bd{bind def}bind def
/ld{load def}bd
/GR/grestore ld
/GS/gsave ld
/RM/rmoveto ld
/C/curveto ld
/t/show ld
/L/lineto ld
/ML/setmiterlimit ld
/CT/concat ld
/f/fill ld
/N/newpath ld
/S/stroke ld
/CC/setcmykcolor ld
/A/ashow ld
/cp/closepath ld
/RC/setrgbcolor ld
/LJ/setlinejoin ld
/GC/setgray ld
/LW/setlinewidth ld
/M/moveto ld
/re {4 2 roll M
1 index 0 rlineto
0 exch rlineto
neg 0 rlineto
cp } bd
/_ctm matrix def
/_tm matrix def
/BT { _ctm currentmatrix pop matrix _tm copy pop 0 0 moveto } bd
/ET { _ctm setmatrix } bd
/iTm { _ctm setmatrix _tm concat } bd
/Tm { _tm astore pop iTm 0 0 moveto } bd
/ux 0.0 def
/uy 0.0 def
/F {
  /Tp exch def
  /Tf exch def
  Tf findfont Tp scalefont setfont
  /cf Tf def  /cs Tp def
} bd
/ULS {currentpoint /uy exch def /ux exch def} bd
/ULE {
  /Tcx currentpoint pop def
  gsave
  newpath
  cf findfont cs scalefont dup
  /FontMatrix get 0 get /Ts exch def /FontInfo get dup
  /UnderlinePosition get Ts mul /To exch def
  /UnderlineThickness get Ts mul /Tt exch def
  ux uy To add moveto  Tcx uy To add lineto
  Tt setlinewidth stroke
  grestore
} bd
/OLE {
  /Tcx currentpoint pop def
  gsave
  newpath
  cf findfont cs scalefont dup
  /FontMatrix get 0 get /Ts exch def /FontInfo get dup
  /UnderlinePosition get Ts mul /To exch def
  /UnderlineThickness get Ts mul /Tt exch def
  ux uy To add cs add moveto Tcx uy To add cs add lineto
  Tt setlinewidth stroke
  grestore
} bd
/SOE {
  /Tcx currentpoint pop def
  gsave
  newpath
  cf findfont cs scalefont dup
  /FontMatrix get 0 get /Ts exch def /FontInfo get dup
  /UnderlinePosition get Ts mul /To exch def
  /UnderlineThickness get Ts mul /Tt exch def
  ux uy To add cs 10 mul 26 idiv add moveto Tcx uy To add cs 10 mul 26 idiv add lineto
  Tt setlinewidth stroke
  grestore
} bd
/QT {
/Y22 exch store
/X22 exch store
/Y21 exch store
/X21 exch store
currentpoint
/Y21 load 2 mul add 3 div exch
/X21 load 2 mul add 3 div exch
/X21 load 2 mul /X22 load add 3 div
/Y21 load 2 mul /Y22 load add 3 div
/X22 load /Y22 load curveto
} bd
/SSPD {
dup length /d exch dict def
{
/v exch def
/k exch def
currentpagedevice k known {
/cpdv currentpagedevice k get def
v cpdv ne {
/upd false def
/nullv v type /nulltype eq def
/nullcpdv cpdv type /nulltype eq def
nullv nullcpdv or
{
/upd true def
} {
/sametype v type cpdv type eq def
sametype {
v type /arraytype eq {
/vlen v length def
/cpdvlen cpdv length def
vlen cpdvlen eq {
0 1 vlen 1 sub {
/i exch def
/obj v i get def
/cpdobj cpdv i get def
obj cpdobj ne {
/upd true def
exit
} if
} for
} {
/upd true def
} ifelse
} {
v type /dicttype eq {
v {
/dv exch def
/dk exch def
/cpddv cpdv dk get def
dv cpddv ne {
/upd true def
exit
} if
} forall
} {
/upd true def
} ifelse
} ifelse
} if
} ifelse
upd true eq {
d k v put
} if
} if
} if
} forall
d length 0 gt {
d setpagedevice
} if
} bd
/RE { % /NewFontName [NewEncodingArray] /FontName RE -
  findfont dup length dict begin
  {
    1 index /FID ne
    {def} {pop pop} ifelse
  } forall
  /Encoding exch def
  /FontName 1 index def
  currentdict definefont pop
  end
} bind def
%%EndResource
%%BeginResource: procset (Apache XML Graphics EPS ProcSet) 1.0 0
%%Version: 1.0 0
%%Copyright: (Copyright 2002-2003 The Apache Software Foundation. License terms: http://www.apache.org/licenses/LICENSE-2.0)
/BeginEPSF { %def
/b4_Inc_state save def         % Save state for cleanup
/dict_count countdictstack def % Count objects on dict stack
/op_count count 1 sub def      % Count objects on operand stack
userdict begin                 % Push userdict on dict stack
/showpage { } def              % Redefine showpage, { } = null proc
0 setgray 0 setlinecap         % Prepare graphics state
1 setlinewidth 0 setlinejoin
10 setmiterlimit [ ] 0 setdash newpath
/languagelevel where           % If level not equal to 1 then
{pop languagelevel             % set strokeadjust and
1 ne                           % overprint to their defaults.
{false setstrokeadjust false setoverprint
} if
} if
} bd
/EndEPSF { %def
count op_count sub {pop} repeat            % Clean up stacks
countdictstack dict_count sub {end} repeat
b4_Inc_state restore
} bd
%%EndResource
%FOPBeginFontDict
%%IncludeResource: font Courier-Oblique
%%IncludeResource: font Courier-BoldOblique
%%IncludeResource: font Courier-Bold
%%IncludeResource: font ZapfDingbats
%%IncludeResource: font Symbol
%%IncludeResource: font Helvetica
%%IncludeResource: font Helvetica-Oblique
%%IncludeResource: font Helvetica-Bold
%%IncludeResource: font Helvetica-BoldOblique
%%IncludeResource: font Times-Roman
%%IncludeResource: font Times-Italic
%%IncludeResource: font Times-Bold
%%IncludeResource: font Times-BoldItalic
%%IncludeResource: font Courier
%FOPEndFontDict
%%BeginResource: encoding WinAnsiEncoding
/WinAnsiEncoding [
/.notdef /.notdef /.notdef /.notdef /.notdef
/.notdef /.notdef /.notdef /.notdef /.notdef
/.notdef /.notdef /.notdef /.notdef /.notdef
/.notdef /.notdef /.notdef /.notdef /.notdef
/.notdef /.notdef /.notdef /.notdef /.notdef
/.notdef /.notdef /.notdef /.notdef /.notdef
/.notdef /.notdef /space /exclam /quotedbl
/numbersign /dollar /percent /ampersand /quotesingle
/parenleft /parenright /asterisk /plus /comma
/hyphen /period /slash /zero /one
/two /three /four /five /six
/seven /eight /nine /colon /semicolon
/less /equal /greater /question /at
/A /B /C /D /E
/F /G /H /I /J
/K /L /M /N /O
/P /Q /R /S /T
/U /V /W /X /Y
/Z /bracketleft /backslash /bracketright /asciicircum
/underscore /quoteleft /a /b /c
/d /e /f /g /h
/i /j /k /l /m
/n /o /p /q /r
/s /t /u /v /w
/x /y /z /braceleft /bar
/braceright /asciitilde /bullet /Euro /bullet
/quotesinglbase /florin /quotedblbase /ellipsis /dagger
/daggerdbl /circumflex /perthousand /Scaron /guilsinglleft
/OE /bullet /Zcaron /bullet /bullet
/quoteleft /quoteright /quotedblleft /quotedblright /bullet
/endash /emdash /asciitilde /trademark /scaron
/guilsinglright /oe /bullet /zcaron /Ydieresis
/space /exclamdown /cent /sterling /currency
/yen /brokenbar /section /dieresis /copyright
/ordfeminine /guillemotleft /logicalnot /sfthyphen /registered
/macron /degree /plusminus /twosuperior /threesuperior
/acute /mu /paragraph /middot /cedilla
/onesuperior /ordmasculine /guillemotright /onequarter /onehalf
/threequarters /questiondown /Agrave /Aacute /Acircumflex
/Atilde /Adieresis /Aring /AE /Ccedilla
/Egrave /Eacute /Ecircumflex /Edieresis /Igrave
/Iacute /Icircumflex /Idieresis /Eth /Ntilde
/Ograve /Oacute /Ocircumflex /Otilde /Odieresis
/multiply /Oslash /Ugrave /Uacute /Ucircumflex
/Udieresis /Yacute /Thorn /germandbls /agrave
/aacute /acircumflex /atilde /adieresis /aring
/ae /ccedilla /egrave /eacute /ecircumflex
/edieresis /igrave /iacute /icircumflex /idieresis
/eth /ntilde /ograve /oacute /ocircumflex
/otilde /odieresis /divide /oslash /ugrave
/uacute /ucircumflex /udieresis /yacute /thorn
/ydieresis
] def
%%EndResource
%FOPBeginFontReencode
/Courier-Oblique findfont
dup length dict begin
  {1 index /FID ne {def} {pop pop} ifelse} forall
  /Encoding WinAnsiEncoding def
  currentdict
end
/Courier-Oblique exch definefont pop
/Courier-BoldOblique findfont
dup length dict begin
  {1 index /FID ne {def} {pop pop} ifelse} forall
  /Encoding WinAnsiEncoding def
  currentdict
end
/Courier-BoldOblique exch definefont pop
/Courier-Bold findfont
dup length dict begin
  {1 index /FID ne {def} {pop pop} ifelse} forall
  /Encoding WinAnsiEncoding def
  currentdict
end
/Courier-Bold exch definefont pop
/Helvetica findfont
dup length dict begin
  {1 index /FID ne {def} {pop pop} ifelse} forall
  /Encoding WinAnsiEncoding def
  currentdict
end
/Helvetica exch definefont pop
/Helvetica-Oblique findfont
dup length dict begin
  {1 index /FID ne {def} {pop pop} ifelse} forall
  /Encoding WinAnsiEncoding def
  currentdict
end
/Helvetica-Oblique exch definefont pop
/Helvetica-Bold findfont
dup length dict begin
  {1 index /FID ne {def} {pop pop} ifelse} forall
  /Encoding WinAnsiEncoding def
  currentdict
end
/Helvetica-Bold exch definefont pop
/Helvetica-BoldOblique findfont
dup length dict begin
  {1 index /FID ne {def} {pop pop} ifelse} forall
  /Encoding WinAnsiEncoding def
  currentdict
end
/Helvetica-BoldOblique exch definefont pop
/Times-Roman findfont
dup length dict begin
  {1 index /FID ne {def} {pop pop} ifelse} forall
  /Encoding WinAnsiEncoding def
  currentdict
end
/Times-Roman exch definefont pop
/Times-Italic findfont
dup length dict begin
  {1 index /FID ne {def} {pop pop} ifelse} forall
  /Encoding WinAnsiEncoding def
  currentdict
end
/Times-Italic exch definefont pop
/Times-Bold findfont
dup length dict begin
  {1 index /FID ne {def} {pop pop} ifelse} forall
  /Encoding WinAnsiEncoding def
  currentdict
end
/Times-Bold exch definefont pop
/Times-BoldItalic findfont
dup length dict begin
  {1 index /FID ne {def} {pop pop} ifelse} forall
  /Encoding WinAnsiEncoding def
  currentdict
end
/Times-BoldItalic exch definefont pop
/Courier findfont
dup length dict begin
  {1 index /FID ne {def} {pop pop} ifelse} forall
  /Encoding WinAnsiEncoding def
  currentdict
end
/Courier exch definefont pop
%FOPEndFontReencode
%%EndProlog
%%Page: 1 1
%%PageBoundingBox: 0 0 420 315
%%BeginPageSetup
[1 0 0 -1 0 315] CT
%%EndPageSetup
GS
[0.75 0 0 0.75 0 0] CT
1 GC
N
0 0 560 420 re
f
GR
GS
[0.75 0 0 0.75 0 0] CT
1 GC
N
0 0 560 420 re
f
GR
GS
[0.75 0 0 0.75 0 0] CT
1 GC
N
73 374 M
507 374 L
507 31 L
73 31 L
cp
f
GR
GS
[0.75 0 0 0.75 0 0] CT
0.149 GC
2 setlinecap
1 LJ
0.667 LW
N
73 374 M
507 374 L
S
GR
GS
[0.75 0 0 0.75 0 0] CT
0.149 GC
2 setlinecap
1 LJ
0.667 LW
N
73 31 M
507 31 L
S
GR
GS
[0.75 0 0 0.75 0 0] CT
0.149 GC
2 setlinecap
1 LJ
0.667 LW
N
73 374 M
73 369.66 L
S
GR
GS
[0.75 0 0 0.75 0 0] CT
0.149 GC
2 setlinecap
1 LJ
0.667 LW
N
163.417 374 M
163.417 369.66 L
S
GR
GS
[0.75 0 0 0.75 0 0] CT
0.149 GC
2 setlinecap
1 LJ
0.667 LW
N
253.833 374 M
253.833 369.66 L
S
GR
GS
[0.75 0 0 0.75 0 0] CT
0.149 GC
2 setlinecap
1 LJ
0.667 LW
N
344.25 374 M
344.25 369.66 L
S
GR
GS
[0.75 0 0 0.75 0 0] CT
0.149 GC
2 setlinecap
1 LJ
0.667 LW
N
434.667 374 M
434.667 369.66 L
S
GR
GS
[0.75 0 0 0.75 0 0] CT
0.149 GC
2 setlinecap
1 LJ
0.667 LW
N
73 31 M
73 35.34 L
S
GR
GS
[0.75 0 0 0.75 0 0] CT
0.149 GC
2 setlinecap
1 LJ
0.667 LW
N
163.417 31 M
163.417 35.34 L
S
GR
GS
[0.75 0 0 0.75 0 0] CT
0.149 GC
2 setlinecap
1 LJ
0.667 LW
N
253.833 31 M
253.833 35.34 L
S
GR
GS
[0.75 0 0 0.75 0 0] CT
0.149 GC
2 setlinecap
1 LJ
0.667 LW
N
344.25 31 M
344.25 35.34 L
S
GR
GS
[0.75 0 0 0.75 0 0] CT
0.149 GC
2 setlinecap
1 LJ
0.667 LW
N
434.667 31 M
434.667 35.34 L
S
GR
GS
[0.75 0 0 0.75 54.75 284.50001] CT
0.149 GC
/Helvetica 13.333 F
GS
[1 0 0 1 0 0] CT
-4 14 moveto 
1 -1 scale
(0) t 
GR
GR
GS
[0.75 0 0 0.75 122.5625 284.50001] CT
0.149 GC
/Helvetica 13.333 F
GS
[1 0 0 1 0 0] CT
-4 14 moveto 
1 -1 scale
(5) t 
GR
GR
GS
[0.75 0 0 0.75 190.375 284.50001] CT
0.149 GC
/Helvetica 13.333 F
GS
[1 0 0 1 0 0] CT
-7.5 14 moveto 
1 -1 scale
(10) t 
GR
GR
GS
[0.75 0 0 0.75 258.1875 284.50001] CT
0.149 GC
/Helvetica 13.333 F
GS
[1 0 0 1 0 0] CT
-7.5 14 moveto 
1 -1 scale
(15) t 
GR
GR
GS
[0.75 0 0 0.75 325.99999 284.50001] CT
0.149 GC
/Helvetica 13.333 F
GS
[1 0 0 1 0 0] CT
-7.5 14 moveto 
1 -1 scale
(20) t 
GR
GR
GS
[0.75 0 0 0.75 217.50016 298.24999] CT
0.149 GC
/Helvetica 14.667 F
GS
[1 0 0 1 0 0] CT
-57.5 15 moveto 
1 -1 scale
(Time into day \(hr\)) t 
GR
GR
GS
[0.75 0 0 0.75 0 0] CT
0.149 GC
2 setlinecap
1 LJ
0.667 LW
N
73 374 M
73 31 L
S
GR
GS
[0.75 0 0 0.75 0 0] CT
0.149 GC
2 setlinecap
1 LJ
0.667 LW
N
507 374 M
507 31 L
S
GR
GS
[0.75 0 0 0.75 0 0] CT
0.149 GC
2 setlinecap
1 LJ
0.667 LW
N
73 374 M
77.34 374 L
S
GR
GS
[0.75 0 0 0.75 0 0] CT
0.149 GC
2 setlinecap
1 LJ
0.667 LW
N
73 325 M
77.34 325 L
S
GR
GS
[0.75 0 0 0.75 0 0] CT
0.149 GC
2 setlinecap
1 LJ
0.667 LW
N
73 276 M
77.34 276 L
S
GR
GS
[0.75 0 0 0.75 0 0] CT
0.149 GC
2 setlinecap
1 LJ
0.667 LW
N
73 227 M
77.34 227 L
S
GR
GS
[0.75 0 0 0.75 0 0] CT
0.149 GC
2 setlinecap
1 LJ
0.667 LW
N
73 178 M
77.34 178 L
S
GR
GS
[0.75 0 0 0.75 0 0] CT
0.149 GC
2 setlinecap
1 LJ
0.667 LW
N
73 129 M
77.34 129 L
S
GR
GS
[0.75 0 0 0.75 0 0] CT
0.149 GC
2 setlinecap
1 LJ
0.667 LW
N
73 80 M
77.34 80 L
S
GR
GS
[0.75 0 0 0.75 0 0] CT
0.149 GC
2 setlinecap
1 LJ
0.667 LW
N
73 31 M
77.34 31 L
S
GR
GS
[0.75 0 0 0.75 0 0] CT
0.149 GC
2 setlinecap
1 LJ
0.667 LW
N
507 374 M
502.66 374 L
S
GR
GS
[0.75 0 0 0.75 0 0] CT
0.149 GC
2 setlinecap
1 LJ
0.667 LW
N
507 325 M
502.66 325 L
S
GR
GS
[0.75 0 0 0.75 0 0] CT
0.149 GC
2 setlinecap
1 LJ
0.667 LW
N
507 276 M
502.66 276 L
S
GR
GS
[0.75 0 0 0.75 0 0] CT
0.149 GC
2 setlinecap
1 LJ
0.667 LW
N
507 227 M
502.66 227 L
S
GR
GS
[0.75 0 0 0.75 0 0] CT
0.149 GC
2 setlinecap
1 LJ
0.667 LW
N
507 178 M
502.66 178 L
S
GR
GS
[0.75 0 0 0.75 0 0] CT
0.149 GC
2 setlinecap
1 LJ
0.667 LW
N
507 129 M
502.66 129 L
S
GR
GS
[0.75 0 0 0.75 0 0] CT
0.149 GC
2 setlinecap
1 LJ
0.667 LW
N
507 80 M
502.66 80 L
S
GR
GS
[0.75 0 0 0.75 0 0] CT
0.149 GC
2 setlinecap
1 LJ
0.667 LW
N
507 31 M
502.66 31 L
S
GR
GS
[0.75 0 0 0.75 50.75 280.5] CT
0.149 GC
/Helvetica 13.333 F
GS
[1 0 0 1 0 0] CT
-8 5.5 moveto 
1 -1 scale
(2) t 
GR
GR
GS
[0.75 0 0 0.75 50.75 243.75] CT
0.149 GC
/Helvetica 13.333 F
GS
[1 0 0 1 0 0] CT
-19 5.5 moveto 
1 -1 scale
(2.2) t 
GR
GR
GS
[0.75 0 0 0.75 50.75 207] CT
0.149 GC
/Helvetica 13.333 F
GS
[1 0 0 1 0 0] CT
-19 5.5 moveto 
1 -1 scale
(2.4) t 
GR
GR
GS
[0.75 0 0 0.75 50.75 170.25] CT
0.149 GC
/Helvetica 13.333 F
GS
[1 0 0 1 0 0] CT
-19 5.5 moveto 
1 -1 scale
(2.6) t 
GR
GR
GS
[0.75 0 0 0.75 50.75 133.5] CT
0.149 GC
/Helvetica 13.333 F
GS
[1 0 0 1 0 0] CT
-19 5.5 moveto 
1 -1 scale
(2.8) t 
GR
GR
GS
[0.75 0 0 0.75 50.75 96.75] CT
0.149 GC
/Helvetica 13.333 F
GS
[1 0 0 1 0 0] CT
-8 5.5 moveto 
1 -1 scale
(3) t 
GR
GR
GS
[0.75 0 0 0.75 50.75 60] CT
0.149 GC
/Helvetica 13.333 F
GS
[1 0 0 1 0 0] CT
-19 5.5 moveto 
1 -1 scale
(3.2) t 
GR
GR
GS
[0.75 0 0 0.75 50.75 23.25] CT
0.149 GC
/Helvetica 13.333 F
GS
[1 0 0 1 0 0] CT
-19 5.5 moveto 
1 -1 scale
(3.4) t 
GR
GR
GS
[0 -0.75 0.75 0 33.5 151.87489] CT
0.149 GC
/Helvetica 14.667 F
GS
[1 0 0 1 0 0] CT
-35 -4 moveto 
1 -1 scale
(Range \(m\)) t 
GR
GR
GS
[0.75 0 0 0.75 54.75 21] CT
0.149 GC
N
1.906 -0.375 M
1.906 -0.469 1.969 -0.563 QT
4.672 -3.25 L
1.969 -5.953 L
1.906 -6.016 1.906 -6.125 QT
1.906 -6.219 1.984 -6.305 QT
2.063 -6.391 2.172 -6.391 QT
2.266 -6.391 2.375 -6.297 QT
5.063 -3.609 L
7.734 -6.297 L
7.844 -6.391 7.922 -6.391 QT
8.031 -6.391 8.109 -6.313 QT
8.188 -6.234 8.188 -6.125 QT
8.188 -6.016 8.125 -5.953 QT
5.422 -3.25 L
8.125 -0.563 L
8.188 -0.469 8.188 -0.375 QT
8.188 -0.266 8.109 -0.188 QT
8.031 -0.109 7.922 -0.109 QT
7.828 -0.109 7.734 -0.203 QT
5.063 -2.891 L
2.375 -0.203 L
2.266 -0.109 2.172 -0.109 QT
2.063 -0.109 1.984 -0.195 QT
1.906 -0.281 1.906 -0.375 QT
cp
f
GR
GS
[0.75 0 0 0.75 63 21] CT
0.149 GC
/Helvetica 13.333 F
GS
[1 0 0 1 0 0] CT
0 0 moveto 
1 -1 scale
(10) t 
GR
GR
GS
[0.75 0 0 0.75 74.25 16.5] CT
0.149 GC
/Helvetica 10.667 F
GS
[1 0 0 1 0 0] CT
0 0 moveto 
1 -1 scale
(7) t 
GR
GR
GS
[0.75 0 0 0.75 217.50021 21.18752] CT
/Helvetica-Bold 14.667 F
GS
[1 0 0 1 0 0] CT
-115.5 -4 moveto 
1 -1 scale
(PRN01 Range from NIST IGS Site) t 
GR
GR
GS
[0.75 0 0 0.75 0 0] CT
0 0.447 0.741 RC
1 LJ
0.667 LW
N
73 307.722 M
73.151 308.057 L
73.301 308.391 L
73.452 308.722 L
73.603 309.051 L
73.753 309.379 L
73.904 309.703 L
74.055 310.026 L
74.206 310.347 L
74.356 310.665 L
74.507 310.981 L
74.658 311.295 L
74.808 311.607 L
74.959 311.916 L
75.11 312.223 L
75.26 312.528 L
75.411 312.831 L
75.562 313.131 L
75.713 313.429 L
75.863 313.725 L
76.014 314.018 L
76.165 314.309 L
76.315 314.598 L
76.466 314.884 L
76.617 315.168 L
76.767 315.449 L
76.918 315.729 L
77.069 316.005 L
77.219 316.28 L
77.37 316.552 L
77.521 316.821 L
77.672 317.088 L
77.822 317.353 L
77.973 317.615 L
78.124 317.875 L
78.274 318.132 L
78.425 318.387 L
78.576 318.639 L
78.726 318.889 L
78.877 319.136 L
79.028 319.381 L
79.178 319.623 L
79.329 319.863 L
79.48 320.1 L
79.631 320.335 L
79.781 320.567 L
79.932 320.796 L
80.083 321.023 L
80.233 321.247 L
80.384 321.469 L
80.535 321.688 L
80.685 321.905 L
80.836 322.119 L
80.987 322.33 L
81.137 322.538 L
81.288 322.744 L
81.439 322.948 L
81.59 323.148 L
81.74 323.346 L
81.891 323.542 L
82.042 323.734 L
82.192 323.924 L
82.343 324.111 L
82.494 324.296 L
82.644 324.478 L
82.795 324.657 L
82.946 324.833 L
83.097 325.007 L
83.247 325.178 L
83.398 325.346 L
83.549 325.511 L
83.699 325.674 L
83.85 325.834 L
84.001 325.991 L
84.151 326.145 L
84.302 326.297 L
84.453 326.446 L
84.603 326.592 L
84.754 326.735 L
84.905 326.876 L
85.056 327.013 L
85.206 327.148 L
85.357 327.28 L
85.508 327.409 L
85.658 327.536 L
85.809 327.659 L
85.96 327.78 L
86.11 327.898 L
86.261 328.013 L
86.412 328.125 L
86.563 328.235 L
86.713 328.341 L
86.864 328.445 L
87.015 328.546 L
87.165 328.644 L
87.316 328.739 L
87.467 328.831 L
87.617 328.92 L
87.768 329.007 L
87.919 329.091 L
88.069 329.171 L
88.22 329.249 L
88.371 329.324 L
88.522 329.396 L
88.672 329.465 L
88.823 329.532 L
88.974 329.595 L
89.124 329.656 L
89.275 329.713 L
89.426 329.768 L
89.576 329.82 L
89.727 329.869 L
89.878 329.915 L
90.028 329.958 L
90.179 329.998 L
90.33 330.036 L
90.481 330.07 L
90.631 330.102 L
90.782 330.13 L
90.933 330.156 L
91.083 330.179 L
91.234 330.199 L
91.385 330.216 L
91.535 330.23 L
91.686 330.241 L
91.837 330.249 L
91.987 330.255 L
92.138 330.257 L
92.289 330.257 L
92.44 330.253 L
92.59 330.247 L
92.741 330.238 L
92.892 330.226 L
93.042 330.211 L
93.193 330.193 L
93.344 330.173 L
93.494 330.149 L
93.645 330.123 L
93.796 330.093 L
93.947 330.061 L
94.097 330.026 L
94.248 329.988 L
94.399 329.947 L
94.549 329.904 L
94.7 329.857 L
94.851 329.807 L
95.001 329.755 L
95.152 329.7 L
95.303 329.642 L
95.453 329.581 L
95.604 329.517 L
95.755 329.451 L
95.906 329.381 L
96.056 329.309 L
96.207 329.234 L
96.358 329.156 L
96.508 329.075 L
96.659 328.992 L
96.81 328.905 L
96.96 328.816 L
97.111 328.724 L
97.262 328.629 L
97.412 328.532 L
97.563 328.431 L
97.714 328.328 L
97.865 328.222 L
98.015 328.114 L
98.166 328.002 L
98.317 327.888 L
98.467 327.771 L
98.618 327.651 L
98.769 327.529 L
98.919 327.403 L
99.07 327.275 L
99.221 327.145 L
99.372 327.011 L
99.522 326.875 L
99.673 326.736 L
99.824 326.595 L
99.974 326.451 L
100.125 326.304 L
100.276 326.154 L
100.426 326.002 L
100.577 325.847 L
100.728 325.69 L
100.878 325.529 L
101.029 325.367 L
101.18 325.201 L
101.331 325.033 L
101.481 324.862 L
101.632 324.689 L
101.783 324.513 L
101.933 324.335 L
102.084 324.154 L
102.235 323.97 L
102.385 323.784 L
102.536 323.595 L
102.687 323.404 L
102.838 323.21 L
102.988 323.014 L
103.139 322.815 L
103.29 322.614 L
103.44 322.41 L
103.591 322.204 L
103.742 321.995 L
103.892 321.784 L
104.043 321.57 L
104.194 321.354 L
104.344 321.135 L
104.495 320.914 L
104.646 320.691 L
104.797 320.465 L
104.947 320.237 L
105.098 320.006 L
105.249 319.773 L
105.399 319.538 L
105.55 319.3 L
105.701 319.06 L
105.851 318.818 L
106.002 318.573 L
106.153 318.326 L
106.303 318.077 L
106.454 317.825 L
106.605 317.571 L
106.756 317.315 L
106.906 317.057 L
107.057 316.796 L
107.208 316.533 L
107.358 316.268 L
107.509 316.001 L
107.66 315.731 L
107.81 315.46 L
107.961 315.186 L
108.112 314.91 L
108.263 314.632 L
108.413 314.352 L
108.564 314.069 L
108.715 313.785 L
108.865 313.498 L
109.016 313.21 L
109.167 312.919 L
109.317 312.626 L
109.468 312.332 L
109.619 312.035 L
109.769 311.736 L
109.92 311.435 L
110.071 311.132 L
110.222 310.827 L
110.372 310.521 L
110.523 310.212 L
110.674 309.901 L
110.824 309.589 L
110.975 309.274 L
111.126 308.958 L
111.276 308.639 L
111.427 308.319 L
111.578 307.997 L
111.728 307.673 L
111.879 307.348 L
112.03 307.02 L
112.181 306.691 L
112.331 306.36 L
112.482 306.027 L
112.633 305.692 L
112.783 305.356 L
112.934 305.017 L
113.085 304.678 L
113.235 304.336 L
113.386 303.993 L
113.537 303.648 L
113.688 303.301 L
113.838 302.953 L
113.989 302.603 L
114.14 302.251 L
114.29 301.898 L
114.441 301.544 L
114.592 301.187 L
114.742 300.829 L
114.893 300.47 L
115.044 300.109 L
115.194 299.747 L
115.345 299.383 L
115.496 299.017 L
115.647 298.65 L
115.797 298.282 L
115.948 297.912 L
116.099 297.54 L
116.249 297.168 L
116.4 296.794 L
116.551 296.418 L
116.701 296.041 L
116.852 295.663 L
117.003 295.283 L
117.153 294.902 L
117.304 294.52 L
117.455 294.136 L
117.606 293.751 L
117.756 293.365 L
117.907 292.978 L
118.058 292.589 L
118.208 292.199 L
118.359 291.808 L
118.51 291.416 L
118.66 291.023 L
118.811 290.628 L
118.962 290.232 L
119.112 289.835 L
119.263 289.437 L
119.414 289.038 L
119.565 288.638 L
119.715 288.236 L
119.866 287.834 L
120.017 287.431 L
120.167 287.026 L
120.318 286.621 L
120.469 286.214 L
120.619 285.807 L
120.77 285.398 L
120.921 284.989 L
121.072 284.578 L
121.222 284.167 L
121.373 283.755 L
121.524 283.342 L
121.674 282.928 L
121.825 282.513 L
121.976 282.097 L
122.126 281.68 L
122.277 281.263 L
122.428 280.845 L
122.578 280.426 L
122.729 280.006 L
122.88 279.585 L
123.031 279.164 L
123.181 278.742 L
123.332 278.319 L
123.483 277.896 L
123.633 277.472 L
123.784 277.047 L
123.935 276.622 L
124.085 276.195 L
124.236 275.769 L
124.387 275.341 L
124.537 274.913 L
124.688 274.485 L
124.839 274.056 L
124.99 273.626 L
125.14 273.196 L
125.291 272.765 L
125.442 272.334 L
125.592 271.902 L
125.743 271.47 L
125.894 271.037 L
126.044 270.604 L
126.195 270.17 L
126.346 269.736 L
126.497 269.302 L
126.647 268.867 L
126.798 268.432 L
126.949 267.996 L
127.099 267.56 L
127.25 267.124 L
127.401 266.687 L
127.551 266.25 L
127.702 265.813 L
127.853 265.376 L
128.003 264.938 L
128.154 264.5 L
128.305 264.062 L
128.456 263.623 L
128.606 263.185 L
128.757 262.746 L
128.908 262.307 L
129.058 261.868 L
129.209 261.428 L
129.36 260.989 L
129.51 260.549 L
129.661 260.11 L
129.812 259.67 L
129.963 259.23 L
130.113 258.79 L
130.264 258.35 L
130.415 257.91 L
130.565 257.47 L
130.716 257.03 L
130.867 256.59 L
131.017 256.15 L
131.168 255.71 L
131.319 255.27 L
131.469 254.83 L
131.62 254.391 L
131.771 253.951 L
131.922 253.511 L
132.072 253.072 L
132.223 252.633 L
132.374 252.193 L
132.524 251.754 L
132.675 251.315 L
132.826 250.877 L
132.976 250.438 L
133.127 250 L
133.278 249.562 L
133.428 249.124 L
133.579 248.687 L
133.73 248.249 L
133.881 247.812 L
134.031 247.375 L
134.182 246.939 L
134.333 246.503 L
134.483 246.067 L
134.634 245.632 L
134.785 245.197 L
134.935 244.762 L
135.086 244.328 L
135.237 243.894 L
135.387 243.46 L
135.538 243.027 L
135.689 242.594 L
135.84 242.162 L
135.99 241.731 L
136.141 241.299 L
136.292 240.868 L
136.442 240.438 L
136.593 240.008 L
136.744 239.579 L
136.894 239.15 L
137.045 238.722 L
137.196 238.295 L
137.347 237.868 L
137.497 237.441 L
137.648 237.015 L
137.799 236.59 L
137.949 236.165 L
138.1 235.741 L
138.251 235.318 L
138.401 234.895 L
138.552 234.473 L
138.703 234.052 L
138.853 233.632 L
139.004 233.212 L
139.155 232.792 L
139.306 232.374 L
139.456 231.956 L
139.607 231.539 L
139.758 231.123 L
139.908 230.708 L
140.059 230.293 L
140.21 229.879 L
140.36 229.466 L
140.511 229.054 L
140.662 228.643 L
140.813 228.232 L
140.963 227.822 L
141.114 227.414 L
141.265 227.006 L
141.415 226.599 L
141.566 226.193 L
141.717 225.788 L
141.867 225.383 L
142.018 224.98 L
142.169 224.578 L
142.319 224.176 L
142.47 223.776 L
142.621 223.376 L
142.772 222.978 L
142.922 222.58 L
143.073 222.184 L
143.224 221.789 L
143.374 221.394 L
143.525 221.001 L
143.676 220.609 L
143.826 220.217 L
143.977 219.827 L
144.128 219.438 L
144.278 219.05 L
144.429 218.663 L
144.58 218.278 L
144.731 217.893 L
144.881 217.51 L
145.032 217.127 L
145.183 216.746 L
145.333 216.366 L
145.484 215.988 L
145.635 215.61 L
145.785 215.234 L
145.936 214.858 L
146.087 214.485 L
146.238 214.112 L
146.388 213.74 L
146.539 213.37 L
146.69 213.001 L
146.84 212.633 L
146.991 212.267 L
147.142 211.902 L
147.292 211.538 L
147.443 211.176 L
147.594 210.814 L
147.744 210.454 L
147.895 210.096 L
148.046 209.739 L
148.197 209.383 L
148.347 209.028 L
148.498 208.675 L
148.649 208.324 L
148.799 207.973 L
148.95 207.624 L
149.101 207.277 L
149.251 206.931 L
149.402 206.586 L
149.553 206.243 L
149.703 205.901 L
149.854 205.561 L
150.005 205.222 L
150.156 204.884 L
150.306 204.548 L
150.457 204.214 L
150.608 203.881 L
150.758 203.55 L
150.909 203.22 L
151.06 202.891 L
151.21 202.564 L
151.361 202.239 L
151.512 201.915 L
151.662 201.593 L
151.813 201.272 L
151.964 200.953 L
152.115 200.635 L
152.265 200.32 L
152.416 200.005 L
152.567 199.692 L
152.717 199.381 L
152.868 199.072 L
153.019 198.764 L
153.169 198.458 L
153.32 198.153 L
153.471 197.85 L
153.622 197.549 L
153.772 197.249 L
153.923 196.951 L
154.074 196.654 L
154.224 196.36 L
154.375 196.067 L
154.526 195.776 L
154.676 195.486 L
154.827 195.198 L
154.978 194.912 L
155.128 194.628 L
155.279 194.345 L
155.43 194.064 L
155.581 193.785 L
155.731 193.508 L
155.882 193.232 L
156.033 192.958 L
156.183 192.686 L
156.334 192.416 L
156.485 192.147 L
156.635 191.88 L
156.786 191.615 L
156.937 191.352 L
157.088 191.091 L
157.238 190.831 L
157.389 190.574 L
157.54 190.318 L
157.69 190.064 L
157.841 189.812 L
157.992 189.561 L
158.142 189.313 L
158.293 189.066 L
158.444 188.822 L
158.594 188.579 L
158.745 188.338 L
158.896 188.099 L
159.047 187.861 L
159.197 187.626 L
159.348 187.393 L
159.499 187.161 L
159.649 186.932 L
159.8 186.704 L
159.951 186.478 L
160.101 186.255 L
160.252 186.033 L
160.403 185.813 L
160.553 185.595 L
160.704 185.379 L
160.855 185.165 L
161.006 184.953 L
161.156 184.743 L
161.307 184.535 L
161.458 184.328 L
161.608 184.124 L
161.759 183.922 L
161.91 183.722 L
162.06 183.523 L
162.211 183.327 L
162.362 183.133 L
162.512 182.941 L
162.663 182.751 L
162.814 182.562 L
162.965 182.376 L
163.115 182.192 L
163.266 182.01 L
163.417 181.83 L
163.567 181.652 L
163.718 181.476 L
163.869 181.302 L
164.019 181.13 L
164.17 180.961 L
164.321 180.793 L
164.472 180.627 L
164.622 180.464 L
164.773 180.302 L
164.924 180.143 L
165.074 179.985 L
165.225 179.83 L
165.376 179.677 L
165.526 179.526 L
165.677 179.377 L
165.828 179.23 L
165.978 179.085 L
166.129 178.942 L
166.28 178.802 L
166.431 178.663 L
166.581 178.527 L
166.732 178.393 L
166.883 178.261 L
167.033 178.131 L
167.184 178.003 L
167.335 177.877 L
167.485 177.754 L
167.636 177.632 L
167.787 177.513 L
167.938 177.396 L
168.088 177.281 L
168.239 177.168 L
168.39 177.057 L
168.54 176.949 L
168.691 176.842 L
168.842 176.738 L
168.992 176.636 L
169.143 176.536 L
169.294 176.438 L
169.444 176.343 L
169.595 176.249 L
169.746 176.158 L
169.897 176.069 L
170.047 175.982 L
170.198 175.897 L
170.349 175.815 L
170.499 175.734 L
170.65 175.656 L
170.801 175.58 L
170.951 175.506 L
171.102 175.435 L
171.253 175.366 L
171.403 175.298 L
171.554 175.233 L
171.705 175.171 L
171.856 175.11 L
172.006 175.052 L
172.157 174.995 L
172.308 174.941 L
172.458 174.89 L
172.609 174.84 L
172.76 174.793 L
172.91 174.747 L
173.061 174.704 L
173.212 174.664 L
173.363 174.625 L
173.513 174.589 L
173.664 174.555 L
173.815 174.523 L
173.965 174.493 L
174.116 174.466 L
174.267 174.44 L
174.417 174.417 L
174.568 174.397 L
174.719 174.378 L
174.869 174.362 L
175.02 174.348 L
175.171 174.336 L
175.322 174.326 L
175.472 174.318 L
175.623 174.313 L
175.774 174.31 L
175.924 174.309 L
176.075 174.311 L
176.226 174.314 L
176.376 174.32 L
176.527 174.328 L
176.678 174.338 L
176.828 174.351 L
176.979 174.366 L
177.13 174.383 L
177.281 174.402 L
177.431 174.423 L
177.582 174.447 L
177.733 174.473 L
177.883 174.501 L
178.034 174.531 L
178.185 174.563 L
178.335 174.598 L
178.486 174.635 L
178.637 174.674 L
178.787 174.715 L
178.938 174.759 L
179.089 174.805 L
179.24 174.853 L
179.39 174.903 L
179.541 174.955 L
179.692 175.01 L
179.842 175.067 L
179.993 175.126 L
180.144 175.187 L
180.294 175.251 L
180.445 175.316 L
180.596 175.384 L
180.747 175.454 L
180.897 175.526 L
181.048 175.601 L
181.199 175.677 L
181.349 175.756 L
181.5 175.837 L
181.651 175.92 L
181.801 176.006 L
181.952 176.093 L
182.103 176.183 L
182.253 176.275 L
182.404 176.369 L
182.555 176.465 L
182.706 176.564 L
182.856 176.665 L
183.007 176.767 L
183.158 176.872 L
183.308 176.979 L
183.459 177.089 L
183.61 177.2 L
183.76 177.314 L
183.911 177.43 L
184.062 177.548 L
184.213 177.668 L
184.363 177.79 L
184.514 177.914 L
184.665 178.041 L
184.815 178.169 L
184.966 178.3 L
185.117 178.433 L
185.267 178.568 L
185.418 178.706 L
185.569 178.845 L
185.719 178.986 L
185.87 179.13 L
186.021 179.275 L
186.172 179.423 L
186.322 179.573 L
186.473 179.725 L
186.624 179.879 L
186.774 180.035 L
186.925 180.194 L
187.076 180.354 L
187.226 180.517 L
187.377 180.681 L
187.528 180.848 L
187.678 181.016 L
187.829 181.187 L
187.98 181.36 L
188.131 181.535 L
188.281 181.712 L
188.432 181.891 L
188.583 182.072 L
188.733 182.255 L
188.884 182.44 L
189.035 182.627 L
189.185 182.817 L
189.336 183.008 L
189.487 183.201 L
189.637 183.397 L
189.788 183.594 L
189.939 183.793 L
190.09 183.994 L
190.24 184.198 L
190.391 184.403 L
190.542 184.61 L
190.692 184.82 L
190.843 185.031 L
190.994 185.244 L
191.144 185.459 L
191.295 185.677 L
191.446 185.896 L
191.597 186.117 L
191.747 186.34 L
191.898 186.565 L
192.049 186.792 L
192.199 187.021 L
192.35 187.252 L
192.501 187.484 L
192.651 187.719 L
192.802 187.955 L
192.953 188.194 L
193.103 188.434 L
193.254 188.676 L
193.405 188.921 L
193.556 189.167 L
193.706 189.414 L
193.857 189.664 L
194.008 189.916 L
194.158 190.169 L
194.309 190.425 L
194.46 190.682 L
194.61 190.941 L
194.761 191.202 L
194.912 191.464 L
195.063 191.729 L
195.213 191.995 L
195.364 192.263 L
195.515 192.533 L
195.665 192.805 L
195.816 193.078 L
195.967 193.354 L
196.117 193.631 L
196.268 193.909 L
196.419 194.19 L
196.569 194.472 L
196.72 194.756 L
196.871 195.042 L
197.022 195.329 L
197.172 195.619 L
197.323 195.91 L
197.474 196.202 L
197.624 196.497 L
197.775 196.793 L
197.926 197.09 L
198.076 197.39 L
198.227 197.691 L
198.378 197.994 L
198.528 198.298 L
198.679 198.604 L
198.83 198.912 L
198.981 199.221 L
199.131 199.532 L
199.282 199.844 L
199.433 200.158 L
199.583 200.474 L
199.734 200.792 L
199.885 201.11 L
200.035 201.431 L
200.186 201.753 L
200.337 202.077 L
200.488 202.402 L
200.638 202.728 L
200.789 203.057 L
200.94 203.386 L
201.09 203.718 L
201.241 204.05 L
201.392 204.385 L
201.542 204.72 L
201.693 205.058 L
201.844 205.396 L
201.994 205.736 L
202.145 206.078 L
202.296 206.421 L
202.447 206.765 L
202.597 207.111 L
202.748 207.459 L
202.899 207.807 L
203.049 208.157 L
203.2 208.509 L
203.351 208.862 L
203.501 209.216 L
203.652 209.572 L
203.803 209.929 L
203.953 210.287 L
204.104 210.646 L
204.255 211.007 L
204.406 211.37 L
204.556 211.733 L
204.707 212.098 L
204.858 212.464 L
205.008 212.831 L
205.159 213.2 L
205.31 213.57 L
205.46 213.941 L
205.611 214.313 L
205.762 214.687 L
205.912 215.062 L
206.063 215.438 L
206.214 215.815 L
206.365 216.193 L
206.515 216.572 L
206.666 216.953 L
206.817 217.335 L
206.967 217.718 L
207.118 218.102 L
207.269 218.487 L
207.419 218.873 L
207.57 219.26 L
207.721 219.649 L
207.872 220.038 L
208.022 220.429 L
208.173 220.82 L
208.324 221.213 L
208.474 221.607 L
208.625 222.001 L
208.776 222.397 L
208.926 222.794 L
209.077 223.191 L
209.228 223.59 L
209.378 223.989 L
209.529 224.39 L
209.68 224.791 L
209.831 225.193 L
209.981 225.596 L
210.132 226.001 L
210.283 226.405 L
210.433 226.811 L
210.584 227.218 L
210.735 227.626 L
210.885 228.034 L
211.036 228.443 L
211.187 228.853 L
211.338 229.264 L
211.488 229.675 L
211.639 230.088 L
211.79 230.501 L
211.94 230.915 L
212.091 231.329 L
212.242 231.745 L
212.392 232.161 L
212.543 232.577 L
212.694 232.995 L
212.844 233.413 L
212.995 233.832 L
213.146 234.251 L
213.297 234.671 L
213.447 235.092 L
213.598 235.513 L
213.749 235.935 L
213.899 236.357 L
214.05 236.78 L
214.201 237.204 L
214.351 237.628 L
214.502 238.052 L
214.653 238.477 L
214.803 238.903 L
214.954 239.329 L
215.105 239.756 L
215.256 240.183 L
215.406 240.61 L
215.557 241.038 L
215.708 241.467 L
215.858 241.895 L
216.009 242.324 L
216.16 242.754 L
216.31 243.184 L
216.461 243.614 L
216.612 244.045 L
216.762 244.475 L
216.913 244.907 L
217.064 245.338 L
217.215 245.77 L
217.365 246.202 L
217.516 246.634 L
217.667 247.067 L
217.817 247.499 L
217.968 247.932 L
218.119 248.366 L
218.269 248.799 L
218.42 249.232 L
218.571 249.666 L
218.722 250.1 L
218.872 250.534 L
219.023 250.968 L
219.174 251.402 L
219.324 251.836 L
219.475 252.27 L
219.626 252.705 L
219.776 253.139 L
219.927 253.573 L
220.078 254.008 L
220.228 254.442 L
220.379 254.876 L
220.53 255.311 L
220.681 255.745 L
220.831 256.179 L
220.982 256.613 L
221.133 257.047 L
221.283 257.481 L
221.434 257.915 L
221.585 258.348 L
221.735 258.782 L
221.886 259.215 L
222.037 259.648 L
222.188 260.081 L
222.338 260.513 L
222.489 260.946 L
222.64 261.378 L
222.79 261.81 L
222.941 262.241 L
223.092 262.673 L
223.242 263.104 L
223.393 263.534 L
223.544 263.965 L
223.694 264.395 L
223.845 264.824 L
223.996 265.253 L
224.147 265.682 L
224.297 266.11 L
224.448 266.538 L
224.599 266.966 L
224.749 267.393 L
224.9 267.819 L
225.051 268.245 L
225.201 268.671 L
225.352 269.096 L
225.503 269.52 L
225.653 269.944 L
225.804 270.367 L
225.955 270.79 L
226.106 271.212 L
226.256 271.633 L
226.407 272.054 L
226.558 272.474 L
226.708 272.894 L
226.859 273.312 L
227.01 273.73 L
227.16 274.148 L
227.311 274.564 L
227.462 274.98 L
227.613 275.395 L
227.763 275.809 L
227.914 276.223 L
228.065 276.635 L
228.215 277.047 L
228.366 277.458 L
228.517 277.868 L
228.667 278.277 L
228.818 278.686 L
228.969 279.093 L
229.119 279.499 L
229.27 279.905 L
229.421 280.309 L
229.572 280.713 L
229.722 281.115 L
229.873 281.517 L
230.024 281.917 L
230.174 282.317 L
230.325 282.715 L
230.476 283.112 L
230.626 283.509 L
230.777 283.904 L
230.928 284.298 L
231.078 284.69 L
231.229 285.082 L
231.38 285.473 L
231.531 285.862 L
231.681 286.25 L
231.832 286.637 L
231.983 287.022 L
232.133 287.407 L
232.284 287.79 L
232.435 288.172 L
232.585 288.552 L
232.736 288.931 L
232.887 289.309 L
233.038 289.686 L
233.188 290.061 L
233.339 290.435 L
233.49 290.807 L
233.64 291.178 L
233.791 291.547 L
233.942 291.915 L
234.092 292.282 L
234.243 292.647 L
234.394 293.011 L
234.544 293.373 L
234.695 293.733 L
234.846 294.092 L
234.997 294.45 L
235.147 294.806 L
235.298 295.16 L
235.449 295.513 L
235.599 295.864 L
235.75 296.213 L
235.901 296.561 L
236.051 296.907 L
236.202 297.252 L
236.353 297.595 L
236.503 297.936 L
236.654 298.275 L
236.805 298.613 L
236.956 298.948 L
237.106 299.282 L
237.257 299.615 L
237.408 299.945 L
237.558 300.274 L
237.709 300.601 L
237.86 300.925 L
238.01 301.249 L
238.161 301.57 L
238.312 301.889 L
238.462 302.207 L
238.613 302.522 L
238.764 302.836 L
238.915 303.147 L
239.065 303.457 L
239.216 303.764 L
239.367 304.07 L
239.517 304.374 L
239.668 304.675 L
239.819 304.975 L
239.969 305.272 L
240.12 305.568 L
240.271 305.861 L
240.422 306.153 L
240.572 306.442 L
240.723 306.729 L
240.874 307.014 L
241.024 307.296 L
241.175 307.577 L
241.326 307.855 L
241.476 308.132 L
241.627 308.406 L
241.778 308.678 L
241.928 308.947 L
242.079 309.214 L
242.23 309.48 L
242.381 309.742 L
242.531 310.003 L
242.682 310.261 L
242.833 310.517 L
242.983 310.771 L
243.134 311.022 L
243.285 311.271 L
243.435 311.517 L
243.586 311.761 L
243.737 312.003 L
243.887 312.243 L
244.038 312.48 L
244.189 312.714 L
244.34 312.946 L
244.49 313.176 L
244.641 313.403 L
244.792 313.628 L
244.942 313.85 L
245.093 314.07 L
245.244 314.287 L
245.394 314.502 L
245.545 314.714 L
245.696 314.924 L
245.847 315.131 L
245.997 315.336 L
246.148 315.538 L
246.299 315.737 L
246.449 315.934 L
246.6 316.128 L
246.751 316.32 L
246.901 316.509 L
247.052 316.695 L
247.203 316.879 L
247.353 317.06 L
247.504 317.238 L
247.655 317.414 L
247.806 317.587 L
247.956 317.758 L
248.107 317.925 L
248.258 318.09 L
248.408 318.252 L
248.559 318.412 L
248.71 318.569 L
248.86 318.723 L
249.011 318.874 L
249.162 319.022 L
249.313 319.168 L
249.463 319.311 L
249.614 319.451 L
249.765 319.589 L
249.915 319.723 L
250.066 319.855 L
250.217 319.984 L
250.367 320.11 L
250.518 320.233 L
250.669 320.353 L
250.819 320.471 L
250.97 320.585 L
251.121 320.697 L
251.272 320.806 L
251.422 320.912 L
251.573 321.015 L
251.724 321.116 L
251.874 321.213 L
252.025 321.307 L
252.176 321.399 L
252.326 321.488 L
252.477 321.573 L
252.628 321.656 L
252.778 321.736 L
252.929 321.813 L
253.08 321.887 L
253.231 321.958 L
253.381 322.026 L
253.532 322.091 L
253.683 322.153 L
253.833 322.212 L
253.984 322.268 L
254.135 322.322 L
254.285 322.372 L
254.436 322.419 L
254.587 322.463 L
254.738 322.504 L
254.888 322.543 L
255.039 322.578 L
255.19 322.61 L
255.34 322.639 L
255.491 322.665 L
255.642 322.689 L
255.792 322.709 L
255.943 322.726 L
256.094 322.74 L
256.244 322.751 L
256.395 322.759 L
256.546 322.764 L
256.697 322.766 L
256.847 322.765 L
256.998 322.761 L
257.149 322.754 L
257.299 322.744 L
257.45 322.731 L
257.601 322.714 L
257.751 322.695 L
257.902 322.673 L
258.053 322.647 L
258.203 322.619 L
258.354 322.587 L
258.505 322.553 L
258.656 322.515 L
258.806 322.475 L
258.957 322.431 L
259.108 322.384 L
259.258 322.335 L
259.409 322.282 L
259.56 322.226 L
259.71 322.167 L
259.861 322.105 L
260.012 322.04 L
260.163 321.972 L
260.313 321.901 L
260.464 321.827 L
260.615 321.75 L
260.765 321.67 L
260.916 321.587 L
261.067 321.5 L
261.217 321.411 L
261.368 321.319 L
261.519 321.223 L
261.669 321.125 L
261.82 321.024 L
261.971 320.919 L
262.122 320.812 L
262.272 320.702 L
262.423 320.588 L
262.574 320.472 L
262.724 320.353 L
262.875 320.23 L
263.026 320.105 L
263.176 319.977 L
263.327 319.845 L
263.478 319.711 L
263.628 319.574 L
263.779 319.433 L
263.93 319.29 L
264.081 319.144 L
264.231 318.995 L
264.382 318.843 L
264.533 318.688 L
264.683 318.53 L
264.834 318.369 L
264.985 318.205 L
265.135 318.038 L
265.286 317.869 L
265.437 317.696 L
265.587 317.521 L
265.738 317.342 L
265.889 317.161 L
266.04 316.977 L
266.19 316.79 L
266.341 316.6 L
266.492 316.407 L
266.642 316.211 L
266.793 316.013 L
266.944 315.812 L
267.094 315.607 L
267.245 315.4 L
267.396 315.191 L
267.547 314.978 L
267.697 314.763 L
267.848 314.544 L
267.999 314.323 L
268.149 314.099 L
268.3 313.873 L
268.451 313.643 L
268.601 313.411 L
268.752 313.176 L
268.903 312.939 L
269.053 312.698 L
269.204 312.455 L
269.355 312.209 L
269.506 311.961 L
269.656 311.71 L
269.807 311.456 L
269.958 311.199 L
270.108 310.94 L
270.259 310.678 L
270.41 310.413 L
270.56 310.146 L
270.711 309.876 L
270.862 309.604 L
271.012 309.329 L
271.163 309.051 L
271.314 308.771 L
271.465 308.488 L
271.615 308.202 L
271.766 307.914 L
271.917 307.624 L
272.067 307.331 L
272.218 307.035 L
272.369 306.737 L
272.519 306.436 L
272.67 306.133 L
272.821 305.827 L
272.972 305.519 L
273.122 305.209 L
273.273 304.896 L
273.424 304.58 L
273.574 304.262 L
273.725 303.942 L
273.876 303.619 L
274.026 303.294 L
274.177 302.966 L
274.328 302.637 L
274.478 302.304 L
274.629 301.97 L
274.78 301.633 L
274.931 301.293 L
275.081 300.952 L
275.232 300.608 L
275.383 300.262 L
275.533 299.913 L
275.684 299.562 L
275.835 299.209 L
275.985 298.854 L
276.136 298.497 L
276.287 298.137 L
276.438 297.775 L
276.588 297.411 L
276.739 297.045 L
276.89 296.676 L
277.04 296.305 L
277.191 295.933 L
277.342 295.558 L
277.492 295.181 L
277.643 294.802 L
277.794 294.421 L
277.944 294.037 L
278.095 293.652 L
278.246 293.265 L
278.397 292.875 L
278.547 292.484 L
278.698 292.09 L
278.849 291.695 L
278.999 291.297 L
279.15 290.898 L
279.301 290.496 L
279.451 290.093 L
279.602 289.688 L
279.753 289.281 L
279.903 288.872 L
280.054 288.461 L
280.205 288.048 L
280.356 287.633 L
280.506 287.217 L
280.657 286.798 L
280.808 286.378 L
280.958 285.956 L
281.109 285.532 L
281.26 285.106 L
281.41 284.679 L
281.561 284.25 L
281.712 283.819 L
281.863 283.386 L
282.013 282.952 L
282.164 282.516 L
282.315 282.078 L
282.465 281.639 L
282.616 281.198 L
282.767 280.755 L
282.917 280.311 L
283.068 279.865 L
283.219 279.418 L
283.369 278.968 L
283.52 278.518 L
283.671 278.065 L
283.822 277.612 L
283.972 277.156 L
284.123 276.699 L
284.274 276.241 L
284.424 275.781 L
284.575 275.32 L
284.726 274.857 L
284.876 274.393 L
285.027 273.927 L
285.178 273.46 L
285.328 272.992 L
285.479 272.522 L
285.63 272.05 L
285.781 271.578 L
285.931 271.104 L
286.082 270.628 L
286.233 270.152 L
286.383 269.674 L
286.534 269.194 L
286.685 268.714 L
286.835 268.232 L
286.986 267.749 L
287.137 267.265 L
287.288 266.779 L
287.438 266.293 L
287.589 265.805 L
287.74 265.315 L
287.89 264.825 L
288.041 264.334 L
288.192 263.841 L
288.342 263.348 L
288.493 262.853 L
288.644 262.357 L
288.794 261.86 L
288.945 261.362 L
289.096 260.863 L
289.247 260.362 L
289.397 259.861 L
289.548 259.359 L
289.699 258.856 L
289.849 258.351 L
290 257.846 L
290.151 257.34 L
290.301 256.833 L
290.452 256.325 L
290.603 255.816 L
290.753 255.306 L
290.904 254.795 L
291.055 254.284 L
291.206 253.771 L
291.356 253.258 L
291.507 252.744 L
291.658 252.229 L
291.808 251.713 L
291.959 251.196 L
292.11 250.679 L
292.26 250.16 L
292.411 249.641 L
292.562 249.122 L
292.712 248.601 L
292.863 248.08 L
293.014 247.558 L
293.165 247.036 L
293.315 246.512 L
293.466 245.988 L
293.617 245.464 L
293.767 244.939 L
293.918 244.413 L
294.069 243.886 L
294.219 243.359 L
294.37 242.832 L
294.521 242.303 L
294.672 241.775 L
294.822 241.245 L
294.973 240.715 L
295.124 240.185 L
295.274 239.654 L
295.425 239.123 L
295.576 238.591 L
295.726 238.058 L
295.877 237.525 L
296.028 236.992 L
296.178 236.458 L
296.329 235.924 L
296.48 235.39 L
296.631 234.855 L
296.781 234.319 L
296.932 233.784 L
297.083 233.247 L
297.233 232.711 L
297.384 232.174 L
297.535 231.637 L
297.685 231.1 L
297.836 230.562 L
297.987 230.024 L
298.137 229.485 L
298.288 228.947 L
298.439 228.408 L
298.59 227.869 L
298.74 227.33 L
298.891 226.79 L
299.042 226.25 L
299.192 225.71 L
299.343 225.17 L
299.494 224.63 L
299.644 224.089 L
299.795 223.549 L
299.946 223.008 L
300.097 222.467 L
300.247 221.926 L
300.398 221.385 L
300.549 220.844 L
300.699 220.303 L
300.85 219.761 L
301.001 219.22 L
301.151 218.678 L
301.302 218.137 L
301.453 217.595 L
301.603 217.054 L
301.754 216.512 L
301.905 215.971 L
302.056 215.429 L
302.206 214.888 L
302.357 214.346 L
302.508 213.805 L
302.658 213.263 L
302.809 212.722 L
302.96 212.181 L
303.11 211.64 L
303.261 211.099 L
303.412 210.558 L
303.563 210.017 L
303.713 209.477 L
303.864 208.936 L
304.015 208.396 L
304.165 207.855 L
304.316 207.315 L
304.467 206.776 L
304.617 206.236 L
304.768 205.697 L
304.919 205.157 L
305.069 204.618 L
305.22 204.08 L
305.371 203.541 L
305.522 203.003 L
305.672 202.465 L
305.823 201.927 L
305.974 201.389 L
306.124 200.852 L
306.275 200.315 L
306.426 199.779 L
306.576 199.243 L
306.727 198.707 L
306.878 198.171 L
307.028 197.636 L
307.179 197.101 L
307.33 196.566 L
307.481 196.032 L
307.631 195.499 L
307.782 194.965 L
307.933 194.432 L
308.083 193.9 L
308.234 193.367 L
308.385 192.836 L
308.535 192.304 L
308.686 191.774 L
308.837 191.243 L
308.988 190.713 L
309.138 190.184 L
309.289 189.655 L
309.44 189.126 L
309.59 188.598 L
309.741 188.071 L
309.892 187.544 L
310.042 187.018 L
310.193 186.492 L
310.344 185.966 L
310.494 185.441 L
310.645 184.917 L
310.796 184.393 L
310.947 183.87 L
311.097 183.348 L
311.248 182.826 L
311.399 182.304 L
311.549 181.783 L
311.7 181.263 L
311.851 180.744 L
312.001 180.225 L
312.152 179.706 L
312.303 179.189 L
312.453 178.671 L
312.604 178.155 L
312.755 177.639 L
312.906 177.124 L
313.056 176.61 L
313.207 176.096 L
313.358 175.583 L
313.508 175.071 L
313.659 174.559 L
313.81 174.048 L
313.96 173.538 L
314.111 173.029 L
314.262 172.52 L
314.413 172.012 L
314.563 171.505 L
314.714 170.998 L
314.865 170.492 L
315.015 169.987 L
315.166 169.483 L
315.317 168.98 L
315.467 168.477 L
315.618 167.975 L
315.769 167.474 L
315.919 166.974 L
316.07 166.474 L
316.221 165.976 L
316.372 165.478 L
316.522 164.981 L
316.673 164.485 L
316.824 163.989 L
316.974 163.495 L
317.125 163.001 L
317.276 162.508 L
317.426 162.017 L
317.577 161.525 L
317.728 161.035 L
317.878 160.546 L
318.029 160.058 L
318.18 159.57 L
318.331 159.084 L
318.481 158.598 L
318.632 158.113 L
318.783 157.629 L
318.933 157.146 L
319.084 156.664 L
319.235 156.183 L
319.385 155.703 L
319.536 155.224 L
319.687 154.745 L
319.837 154.268 L
319.988 153.792 L
320.139 153.316 L
320.29 152.842 L
320.44 152.368 L
320.591 151.896 L
320.742 151.424 L
320.892 150.954 L
321.043 150.484 L
321.194 150.016 L
321.344 149.548 L
321.495 149.082 L
321.646 148.616 L
321.797 148.152 L
321.947 147.688 L
322.098 147.226 L
322.249 146.764 L
322.399 146.304 L
322.55 145.844 L
322.701 145.386 L
322.851 144.929 L
323.002 144.473 L
323.153 144.017 L
323.303 143.563 L
323.454 143.11 L
323.605 142.658 L
323.756 142.207 L
323.906 141.757 L
324.057 141.309 L
324.208 140.861 L
324.358 140.414 L
324.509 139.969 L
324.66 139.524 L
324.81 139.081 L
324.961 138.639 L
325.112 138.197 L
325.262 137.757 L
325.413 137.318 L
325.564 136.881 L
325.715 136.444 L
325.865 136.008 L
326.016 135.574 L
326.167 135.14 L
326.317 134.708 L
326.468 134.277 L
326.619 133.847 L
326.769 133.418 L
326.92 132.991 L
327.071 132.564 L
327.222 132.139 L
327.372 131.715 L
327.523 131.292 L
327.674 130.87 L
327.824 130.449 L
327.975 130.029 L
328.126 129.611 L
328.276 129.194 L
328.427 128.778 L
328.578 128.363 L
328.728 127.949 L
328.879 127.536 L
329.03 127.125 L
329.181 126.715 L
329.331 126.306 L
329.482 125.898 L
329.633 125.491 L
329.783 125.086 L
329.934 124.682 L
330.085 124.279 L
330.235 123.877 L
330.386 123.476 L
330.537 123.077 L
330.688 122.679 L
330.838 122.282 L
330.989 121.886 L
331.14 121.491 L
331.29 121.098 L
331.441 120.706 L
331.592 120.315 L
331.742 119.925 L
331.893 119.537 L
332.044 119.15 L
332.194 118.764 L
332.345 118.379 L
332.496 117.995 L
332.647 117.613 L
332.797 117.232 L
332.948 116.852 L
333.099 116.473 L
333.249 116.096 L
333.4 115.72 L
333.551 115.345 L
333.701 114.971 L
333.852 114.599 L
334.003 114.228 L
334.153 113.858 L
334.304 113.489 L
334.455 113.122 L
334.606 112.755 L
334.756 112.391 L
334.907 112.027 L
335.058 111.664 L
335.208 111.303 L
335.359 110.943 L
335.51 110.585 L
335.66 110.227 L
335.811 109.871 L
335.962 109.516 L
336.113 109.163 L
336.263 108.811 L
336.414 108.459 L
336.565 108.11 L
336.715 107.761 L
336.866 107.414 L
337.017 107.068 L
337.167 106.723 L
337.318 106.38 L
337.469 106.037 L
337.619 105.697 L
337.77 105.357 L
337.921 105.019 L
338.072 104.681 L
338.222 104.346 L
338.373 104.011 L
338.524 103.678 L
338.674 103.346 L
338.825 103.015 L
338.976 102.685 L
339.126 102.357 L
339.277 102.03 L
339.428 101.705 L
339.578 101.38 L
339.729 101.057 L
339.88 100.735 L
340.031 100.415 L
340.181 100.096 L
340.332 99.778 L
340.483 99.461 L
340.633 99.146 L
340.784 98.831 L
340.935 98.519 L
341.085 98.207 L
341.236 97.897 L
341.387 97.588 L
341.538 97.28 L
341.688 96.973 L
341.839 96.668 L
341.99 96.364 L
342.14 96.061 L
342.291 95.76 L
342.442 95.46 L
342.592 95.161 L
342.743 94.864 L
342.894 94.567 L
343.044 94.272 L
343.195 93.978 L
343.346 93.686 L
343.497 93.395 L
343.647 93.105 L
343.798 92.816 L
343.949 92.529 L
344.099 92.243 L
344.25 91.958 L
344.401 91.674 L
344.551 91.392 L
344.702 91.111 L
344.853 90.831 L
345.003 90.553 L
345.154 90.276 L
345.305 90 L
345.456 89.725 L
345.606 89.452 L
345.757 89.179 L
345.908 88.909 L
346.058 88.639 L
346.209 88.371 L
346.36 88.103 L
346.51 87.838 L
346.661 87.573 L
346.812 87.31 L
346.962 87.048 L
347.113 86.787 L
347.264 86.527 L
347.415 86.269 L
347.565 86.012 L
347.716 85.756 L
347.867 85.502 L
348.017 85.248 L
348.168 84.996 L
348.319 84.746 L
348.469 84.496 L
348.62 84.248 L
348.771 84.001 L
348.922 83.755 L
349.072 83.51 L
349.223 83.267 L
349.374 83.025 L
349.524 82.784 L
349.675 82.545 L
349.826 82.306 L
349.976 82.069 L
350.127 81.833 L
350.278 81.599 L
350.428 81.365 L
350.579 81.133 L
350.73 80.902 L
350.881 80.672 L
351.031 80.444 L
351.182 80.217 L
351.333 79.991 L
351.483 79.766 L
351.634 79.542 L
351.785 79.32 L
351.935 79.099 L
352.086 78.879 L
352.237 78.66 L
352.387 78.443 L
352.538 78.226 L
352.689 78.011 L
352.84 77.797 L
352.99 77.585 L
353.141 77.373 L
353.292 77.163 L
353.442 76.954 L
353.593 76.746 L
353.744 76.539 L
353.894 76.334 L
354.045 76.13 L
354.196 75.927 L
354.347 75.725 L
354.497 75.524 L
354.648 75.325 L
354.799 75.126 L
354.949 74.929 L
355.1 74.733 L
355.251 74.539 L
355.401 74.345 L
355.552 74.153 L
355.703 73.962 L
355.853 73.772 L
356.004 73.583 L
356.155 73.395 L
356.306 73.209 L
356.456 73.023 L
356.607 72.839 L
356.758 72.656 L
356.908 72.474 L
357.059 72.294 L
357.21 72.114 L
357.36 71.936 L
357.511 71.759 L
357.662 71.583 L
357.813 71.408 L
357.963 71.234 L
358.114 71.061 L
358.265 70.89 L
358.415 70.72 L
358.566 70.551 L
358.717 70.383 L
358.867 70.216 L
359.018 70.05 L
359.169 69.885 L
359.319 69.722 L
359.47 69.56 L
359.621 69.399 L
359.772 69.238 L
359.922 69.08 L
360.073 68.922 L
360.224 68.765 L
360.374 68.609 L
360.525 68.455 L
360.676 68.302 L
360.826 68.149 L
360.977 67.998 L
361.128 67.848 L
361.278 67.699 L
361.429 67.552 L
361.58 67.405 L
361.731 67.259 L
361.881 67.115 L
362.032 66.972 L
362.183 66.829 L
362.333 66.688 L
362.484 66.548 L
362.635 66.409 L
362.785 66.271 L
362.936 66.134 L
363.087 65.998 L
363.237 65.864 L
363.388 65.73 L
363.539 65.598 L
363.69 65.466 L
363.84 65.336 L
363.991 65.206 L
364.142 65.078 L
364.292 64.951 L
364.443 64.825 L
364.594 64.7 L
364.744 64.576 L
364.895 64.453 L
365.046 64.331 L
365.197 64.21 L
365.347 64.09 L
365.498 63.972 L
365.649 63.854 L
365.799 63.737 L
365.95 63.622 L
366.101 63.507 L
366.251 63.394 L
366.402 63.281 L
366.553 63.17 L
366.703 63.059 L
366.854 62.95 L
367.005 62.842 L
367.156 62.734 L
367.306 62.628 L
367.457 62.523 L
367.608 62.419 L
367.758 62.315 L
367.909 62.213 L
368.06 62.112 L
368.21 62.012 L
368.361 61.912 L
368.512 61.814 L
368.663 61.717 L
368.813 61.621 L
368.964 61.526 L
369.115 61.432 L
369.265 61.338 L
369.416 61.246 L
369.567 61.155 L
369.717 61.065 L
369.868 60.976 L
370.019 60.887 L
370.169 60.8 L
370.32 60.714 L
370.471 60.629 L
370.622 60.544 L
370.772 60.461 L
370.923 60.379 L
371.074 60.297 L
371.224 60.217 L
371.375 60.137 L
371.526 60.059 L
371.676 59.981 L
371.827 59.905 L
371.978 59.829 L
372.128 59.754 L
372.279 59.681 L
372.43 59.608 L
372.581 59.536 L
372.731 59.465 L
372.882 59.396 L
373.033 59.327 L
373.183 59.259 L
373.334 59.192 L
373.485 59.126 L
373.635 59.06 L
373.786 58.996 L
373.937 58.933 L
374.087 58.87 L
374.238 58.809 L
374.389 58.748 L
374.54 58.689 L
374.69 58.63 L
374.841 58.572 L
374.992 58.516 L
375.142 58.46 L
375.293 58.405 L
375.444 58.351 L
375.594 58.298 L
375.745 58.245 L
375.896 58.194 L
376.047 58.144 L
376.197 58.094 L
376.348 58.045 L
376.499 57.998 L
376.649 57.951 L
376.8 57.905 L
376.951 57.86 L
377.101 57.816 L
377.252 57.773 L
377.403 57.73 L
377.553 57.689 L
377.704 57.648 L
377.855 57.609 L
378.006 57.57 L
378.156 57.532 L
378.307 57.495 L
378.458 57.459 L
378.608 57.423 L
378.759 57.389 L
378.91 57.356 L
379.06 57.323 L
379.211 57.291 L
379.362 57.26 L
379.513 57.23 L
379.663 57.201 L
379.814 57.173 L
379.965 57.145 L
380.115 57.119 L
380.266 57.093 L
380.417 57.068 L
380.567 57.044 L
380.718 57.021 L
380.869 56.999 L
381.019 56.977 L
381.17 56.957 L
381.321 56.937 L
381.471 56.918 L
381.622 56.9 L
381.773 56.883 L
381.924 56.866 L
382.074 56.851 L
382.225 56.836 L
382.376 56.822 L
382.526 56.809 L
382.677 56.797 L
382.828 56.786 L
382.978 56.775 L
383.129 56.766 L
383.28 56.757 L
383.431 56.749 L
383.581 56.742 L
383.732 56.735 L
383.883 56.73 L
384.033 56.725 L
384.184 56.721 L
384.335 56.718 L
384.485 56.716 L
384.636 56.715 L
384.787 56.714 L
384.938 56.714 L
385.088 56.715 L
385.239 56.717 L
385.39 56.72 L
385.54 56.723 L
385.691 56.728 L
385.842 56.733 L
385.992 56.739 L
386.143 56.745 L
386.294 56.753 L
386.444 56.761 L
386.595 56.77 L
386.746 56.78 L
386.897 56.791 L
387.047 56.803 L
387.198 56.815 L
387.349 56.828 L
387.499 56.842 L
387.65 56.857 L
387.801 56.872 L
387.951 56.889 L
388.102 56.906 L
388.253 56.924 L
388.404 56.943 L
388.554 56.962 L
388.705 56.982 L
388.856 57.004 L
389.006 57.026 L
389.157 57.048 L
389.308 57.072 L
389.458 57.096 L
389.609 57.121 L
389.76 57.147 L
389.91 57.173 L
390.061 57.201 L
390.212 57.229 L
390.362 57.258 L
390.513 57.288 L
390.664 57.318 L
390.815 57.35 L
390.965 57.382 L
391.116 57.415 L
391.267 57.448 L
391.417 57.483 L
391.568 57.518 L
391.719 57.554 L
391.869 57.591 L
392.02 57.628 L
392.171 57.667 L
392.322 57.706 L
392.472 57.746 L
392.623 57.786 L
392.774 57.828 L
392.924 57.87 L
393.075 57.913 L
393.226 57.957 L
393.376 58.001 L
393.527 58.047 L
393.678 58.093 L
393.828 58.14 L
393.979 58.187 L
394.13 58.236 L
394.281 58.285 L
394.431 58.335 L
394.582 58.385 L
394.733 58.437 L
394.883 58.489 L
395.034 58.542 L
395.185 58.596 L
395.335 58.65 L
395.486 58.706 L
395.637 58.762 L
395.788 58.819 L
395.938 58.876 L
396.089 58.935 L
396.24 58.994 L
396.39 59.054 L
396.541 59.115 L
396.692 59.176 L
396.842 59.238 L
396.993 59.301 L
397.144 59.365 L
397.294 59.43 L
397.445 59.495 L
397.596 59.561 L
397.747 59.628 L
397.897 59.696 L
398.048 59.764 L
398.199 59.833 L
398.349 59.903 L
398.5 59.974 L
398.651 60.045 L
398.801 60.118 L
398.952 60.191 L
399.103 60.264 L
399.253 60.339 L
399.404 60.414 L
399.555 60.49 L
399.706 60.567 L
399.856 60.645 L
400.007 60.723 L
400.158 60.802 L
400.308 60.882 L
400.459 60.963 L
400.61 61.045 L
400.76 61.127 L
400.911 61.21 L
401.062 61.294 L
401.212 61.378 L
401.363 61.464 L
401.514 61.55 L
401.665 61.637 L
401.815 61.724 L
401.966 61.813 L
402.117 61.902 L
402.267 61.992 L
402.418 62.083 L
402.569 62.174 L
402.719 62.267 L
402.87 62.36 L
403.021 62.454 L
403.172 62.549 L
403.322 62.644 L
403.473 62.74 L
403.624 62.837 L
403.774 62.935 L
403.925 63.034 L
404.076 63.133 L
404.226 63.233 L
404.377 63.334 L
404.528 63.436 L
404.678 63.538 L
404.829 63.642 L
404.98 63.746 L
405.131 63.851 L
405.281 63.956 L
405.432 64.063 L
405.583 64.17 L
405.733 64.278 L
405.884 64.387 L
406.035 64.497 L
406.185 64.607 L
406.336 64.718 L
406.487 64.83 L
406.638 64.943 L
406.788 65.057 L
406.939 65.171 L
407.09 65.286 L
407.24 65.403 L
407.391 65.519 L
407.542 65.637 L
407.692 65.755 L
407.843 65.875 L
407.994 65.995 L
408.144 66.115 L
408.295 66.237 L
408.446 66.36 L
408.596 66.483 L
408.747 66.607 L
408.898 66.732 L
409.049 66.858 L
409.199 66.984 L
409.35 67.111 L
409.501 67.239 L
409.651 67.368 L
409.802 67.498 L
409.953 67.629 L
410.103 67.76 L
410.254 67.892 L
410.405 68.026 L
410.556 68.159 L
410.706 68.294 L
410.857 68.43 L
411.008 68.566 L
411.158 68.703 L
411.309 68.841 L
411.46 68.98 L
411.61 69.12 L
411.761 69.26 L
411.912 69.402 L
412.063 69.544 L
412.213 69.687 L
412.364 69.831 L
412.515 69.975 L
412.665 70.121 L
412.816 70.267 L
412.967 70.414 L
413.117 70.563 L
413.268 70.711 L
413.419 70.861 L
413.569 71.012 L
413.72 71.163 L
413.871 71.316 L
414.022 71.469 L
414.172 71.623 L
414.323 71.778 L
414.474 71.933 L
414.624 72.09 L
414.775 72.247 L
414.926 72.406 L
415.076 72.565 L
415.227 72.725 L
415.378 72.886 L
415.529 73.047 L
415.679 73.21 L
415.83 73.374 L
415.981 73.538 L
416.131 73.703 L
416.282 73.869 L
416.433 74.036 L
416.583 74.204 L
416.734 74.373 L
416.885 74.542 L
417.035 74.713 L
417.186 74.884 L
417.337 75.056 L
417.487 75.23 L
417.638 75.404 L
417.789 75.579 L
417.94 75.754 L
418.09 75.931 L
418.241 76.109 L
418.392 76.287 L
418.542 76.466 L
418.693 76.647 L
418.844 76.828 L
418.994 77.01 L
419.145 77.193 L
419.296 77.377 L
419.447 77.562 L
419.597 77.747 L
419.748 77.934 L
419.899 78.121 L
420.049 78.31 L
420.2 78.499 L
420.351 78.689 L
420.501 78.88 L
420.652 79.072 L
420.803 79.265 L
420.953 79.459 L
421.104 79.654 L
421.255 79.85 L
421.406 80.047 L
421.556 80.244 L
421.707 80.443 L
421.858 80.642 L
422.008 80.842 L
422.159 81.044 L
422.31 81.246 L
422.46 81.449 L
422.611 81.653 L
422.762 81.858 L
422.913 82.064 L
423.063 82.271 L
423.214 82.479 L
423.365 82.688 L
423.515 82.898 L
423.666 83.108 L
423.817 83.32 L
423.967 83.533 L
424.118 83.746 L
424.269 83.961 L
424.419 84.176 L
424.57 84.393 L
424.721 84.61 L
424.872 84.828 L
425.022 85.047 L
425.173 85.268 L
425.324 85.489 L
425.474 85.711 L
425.625 85.934 L
425.776 86.158 L
425.926 86.383 L
426.077 86.61 L
426.228 86.837 L
426.378 87.065 L
426.529 87.294 L
426.68 87.523 L
426.831 87.754 L
426.981 87.986 L
427.132 88.219 L
427.283 88.453 L
427.433 88.688 L
427.584 88.924 L
427.735 89.161 L
427.885 89.398 L
428.036 89.637 L
428.187 89.877 L
428.337 90.118 L
428.488 90.36 L
428.639 90.602 L
428.79 90.846 L
428.94 91.091 L
429.091 91.337 L
429.242 91.583 L
429.392 91.831 L
429.543 92.08 L
429.694 92.33 L
429.844 92.58 L
429.995 92.832 L
430.146 93.085 L
430.297 93.339 L
430.447 93.594 L
430.598 93.85 L
430.749 94.106 L
430.899 94.364 L
431.05 94.623 L
431.201 94.883 L
431.351 95.144 L
431.502 95.406 L
431.653 95.669 L
431.803 95.933 L
431.954 96.198 L
432.105 96.464 L
432.256 96.731 L
432.406 96.999 L
432.557 97.268 L
432.708 97.538 L
432.858 97.809 L
433.009 98.081 L
433.16 98.355 L
433.31 98.629 L
433.461 98.904 L
433.612 99.18 L
433.763 99.458 L
433.913 99.736 L
434.064 100.016 L
434.215 100.296 L
434.365 100.577 L
434.516 100.86 L
434.667 101.144 L
434.817 101.428 L
434.968 101.714 L
435.119 102.001 L
435.269 102.288 L
435.42 102.577 L
435.571 102.867 L
435.721 103.158 L
435.872 103.45 L
436.023 103.743 L
436.174 104.037 L
436.324 104.332 L
436.475 104.628 L
436.626 104.925 L
436.776 105.224 L
436.927 105.523 L
437.078 105.823 L
437.228 106.125 L
437.379 106.427 L
437.53 106.731 L
437.681 107.035 L
437.831 107.341 L
437.982 107.648 L
438.133 107.956 L
438.283 108.264 L
438.434 108.574 L
438.585 108.885 L
438.735 109.197 L
438.886 109.51 L
439.037 109.824 L
439.188 110.14 L
439.338 110.456 L
439.489 110.773 L
439.64 111.092 L
439.79 111.411 L
439.941 111.732 L
440.092 112.053 L
440.242 112.376 L
440.393 112.699 L
440.544 113.024 L
440.694 113.35 L
440.845 113.677 L
440.996 114.005 L
441.147 114.334 L
441.297 114.664 L
441.448 114.995 L
441.599 115.328 L
441.749 115.661 L
441.9 115.995 L
442.051 116.331 L
442.201 116.667 L
442.352 117.005 L
442.503 117.343 L
442.654 117.683 L
442.804 118.024 L
442.955 118.366 L
443.106 118.709 L
443.256 119.053 L
443.407 119.398 L
443.558 119.744 L
443.708 120.091 L
443.859 120.439 L
444.01 120.789 L
444.16 121.139 L
444.311 121.49 L
444.462 121.843 L
444.612 122.196 L
444.763 122.551 L
444.914 122.907 L
445.065 123.264 L
445.215 123.621 L
445.366 123.98 L
445.517 124.34 L
445.667 124.701 L
445.818 125.063 L
445.969 125.426 L
446.119 125.79 L
446.27 126.156 L
446.421 126.522 L
446.572 126.889 L
446.722 127.258 L
446.873 127.627 L
447.024 127.998 L
447.174 128.369 L
447.325 128.742 L
447.476 129.116 L
447.626 129.49 L
447.777 129.866 L
447.928 130.243 L
448.078 130.621 L
448.229 131 L
448.38 131.38 L
448.531 131.761 L
448.681 132.143 L
448.832 132.526 L
448.983 132.91 L
449.133 133.295 L
449.284 133.681 L
449.435 134.069 L
449.585 134.457 L
449.736 134.846 L
449.887 135.237 L
450.038 135.628 L
450.188 136.02 L
450.339 136.414 L
450.49 136.808 L
450.64 137.204 L
450.791 137.6 L
450.942 137.998 L
451.092 138.396 L
451.243 138.796 L
451.394 139.197 L
451.544 139.598 L
451.695 140.001 L
451.846 140.405 L
451.997 140.809 L
452.147 141.215 L
452.298 141.621 L
452.449 142.029 L
452.599 142.438 L
452.75 142.848 L
452.901 143.258 L
453.051 143.67 L
453.202 144.083 L
453.353 144.496 L
453.503 144.911 L
453.654 145.326 L
453.805 145.743 L
453.956 146.161 L
454.106 146.579 L
454.257 146.999 L
454.408 147.419 L
454.558 147.841 L
454.709 148.263 L
454.86 148.687 L
455.01 149.111 L
455.161 149.537 L
455.312 149.963 L
455.462 150.39 L
455.613 150.819 L
455.764 151.248 L
455.915 151.678 L
456.065 152.109 L
456.216 152.541 L
456.367 152.974 L
456.517 153.408 L
456.668 153.843 L
456.819 154.279 L
456.969 154.715 L
457.12 155.153 L
457.271 155.592 L
457.422 156.031 L
457.572 156.472 L
457.723 156.913 L
457.874 157.355 L
458.024 157.798 L
458.175 158.242 L
458.326 158.687 L
458.476 159.133 L
458.627 159.58 L
458.778 160.028 L
458.928 160.476 L
459.079 160.926 L
459.23 161.376 L
459.381 161.827 L
459.531 162.279 L
459.682 162.732 L
459.833 163.186 L
459.983 163.64 L
460.134 164.096 L
460.285 164.552 L
460.435 165.009 L
460.586 165.467 L
460.737 165.926 L
460.888 166.386 L
461.038 166.847 L
461.189 167.308 L
461.34 167.77 L
461.49 168.233 L
461.641 168.697 L
461.792 169.162 L
461.942 169.627 L
462.093 170.093 L
462.244 170.56 L
462.394 171.028 L
462.545 171.497 L
462.696 171.966 L
462.846 172.437 L
462.997 172.907 L
463.148 173.379 L
463.299 173.852 L
463.449 174.325 L
463.6 174.799 L
463.751 175.274 L
463.901 175.749 L
464.052 176.226 L
464.203 176.703 L
464.353 177.18 L
464.504 177.659 L
464.655 178.138 L
464.806 178.618 L
464.956 179.099 L
465.107 179.58 L
465.258 180.062 L
465.408 180.545 L
465.559 181.028 L
465.71 181.512 L
465.86 181.997 L
466.011 182.482 L
466.162 182.968 L
466.313 183.455 L
466.463 183.942 L
466.614 184.431 L
466.765 184.919 L
466.915 185.409 L
467.066 185.899 L
467.217 186.389 L
467.367 186.88 L
467.518 187.372 L
467.669 187.865 L
467.819 188.358 L
467.97 188.851 L
468.121 189.346 L
468.272 189.84 L
468.422 190.336 L
468.573 190.832 L
468.724 191.328 L
468.874 191.825 L
469.025 192.323 L
469.176 192.821 L
469.326 193.32 L
469.477 193.819 L
469.628 194.319 L
469.779 194.819 L
469.929 195.32 L
470.08 195.821 L
470.231 196.323 L
470.381 196.825 L
470.532 197.328 L
470.683 197.831 L
470.833 198.335 L
470.984 198.839 L
471.135 199.344 L
471.285 199.849 L
471.436 200.355 L
471.587 200.861 L
471.737 201.367 L
471.888 201.874 L
472.039 202.381 L
472.19 202.889 L
472.34 203.397 L
472.491 203.905 L
472.642 204.414 L
472.792 204.923 L
472.943 205.433 L
473.094 205.943 L
473.244 206.453 L
473.395 206.964 L
473.546 207.475 L
473.697 207.986 L
473.847 208.497 L
473.998 209.009 L
474.149 209.521 L
474.299 210.034 L
474.45 210.547 L
474.601 211.06 L
474.751 211.573 L
474.902 212.087 L
475.053 212.601 L
475.203 213.115 L
475.354 213.629 L
475.505 214.144 L
475.656 214.658 L
475.806 215.173 L
475.957 215.689 L
476.108 216.204 L
476.258 216.72 L
476.409 217.235 L
476.56 217.751 L
476.71 218.267 L
476.861 218.784 L
477.012 219.3 L
477.163 219.816 L
477.313 220.333 L
477.464 220.85 L
477.615 221.367 L
477.765 221.884 L
477.916 222.401 L
478.067 222.918 L
478.217 223.435 L
478.368 223.952 L
478.519 224.469 L
478.669 224.987 L
478.82 225.504 L
478.971 226.022 L
479.122 226.539 L
479.272 227.056 L
479.423 227.574 L
479.574 228.091 L
479.724 228.608 L
479.875 229.126 L
480.026 229.643 L
480.176 230.16 L
480.327 230.677 L
480.478 231.194 L
480.628 231.711 L
480.779 232.228 L
480.93 232.745 L
481.081 233.262 L
481.231 233.778 L
481.382 234.295 L
481.533 234.811 L
481.683 235.327 L
481.834 235.843 L
481.985 236.359 L
482.135 236.874 L
482.286 237.389 L
482.437 237.905 L
482.587 238.419 L
482.738 238.934 L
482.889 239.449 L
483.04 239.963 L
483.19 240.477 L
483.341 240.99 L
483.492 241.504 L
483.642 242.017 L
483.793 242.529 L
483.944 243.042 L
484.094 243.554 L
484.245 244.066 L
484.396 244.577 L
484.547 245.088 L
484.697 245.599 L
484.848 246.109 L
484.999 246.619 L
485.149 247.129 L
485.3 247.638 L
485.451 248.146 L
485.601 248.655 L
485.752 249.162 L
485.903 249.67 L
486.053 250.177 L
486.204 250.683 L
486.355 251.189 L
486.506 251.694 L
486.656 252.199 L
486.807 252.703 L
486.958 253.207 L
487.108 253.71 L
487.259 254.213 L
487.41 254.715 L
487.56 255.216 L
487.711 255.717 L
487.862 256.217 L
488.013 256.717 L
488.163 257.216 L
488.314 257.714 L
488.465 258.212 L
488.615 258.709 L
488.766 259.205 L
488.917 259.701 L
489.067 260.195 L
489.218 260.69 L
489.369 261.183 L
489.519 261.676 L
489.67 262.168 L
489.821 262.659 L
489.971 263.149 L
490.122 263.639 L
490.273 264.127 L
490.424 264.615 L
490.574 265.102 L
490.725 265.589 L
490.876 266.074 L
491.026 266.559 L
491.177 267.042 L
491.328 267.525 L
491.478 268.007 L
491.629 268.488 L
491.78 268.968 L
491.931 269.447 L
492.081 269.925 L
492.232 270.402 L
492.383 270.878 L
492.533 271.353 L
492.684 271.827 L
492.835 272.3 L
492.985 272.772 L
493.136 273.243 L
493.287 273.713 L
493.438 274.182 L
493.588 274.65 L
493.739 275.117 L
493.89 275.582 L
494.04 276.047 L
494.191 276.51 L
494.342 276.972 L
494.492 277.433 L
494.643 277.893 L
494.794 278.352 L
494.944 278.809 L
495.095 279.266 L
495.246 279.721 L
495.397 280.174 L
495.547 280.627 L
495.698 281.078 L
495.849 281.528 L
495.999 281.977 L
496.15 282.424 L
496.301 282.87 L
496.451 283.315 L
496.602 283.759 L
496.753 284.201 L
496.904 284.641 L
497.054 285.081 L
497.205 285.519 L
497.356 285.955 L
497.506 286.39 L
497.657 286.824 L
497.808 287.256 L
497.958 287.687 L
498.109 288.116 L
498.26 288.544 L
498.41 288.97 L
498.561 289.395 L
498.712 289.818 L
498.862 290.24 L
499.013 290.66 L
499.164 291.079 L
499.315 291.496 L
499.465 291.911 L
499.616 292.325 L
499.767 292.737 L
499.917 293.148 L
500.068 293.557 L
500.219 293.964 L
500.369 294.37 L
500.52 294.774 L
500.671 295.176 L
500.822 295.577 L
500.972 295.976 L
501.123 296.373 L
501.274 296.768 L
501.424 297.162 L
501.575 297.554 L
501.726 297.944 L
501.876 298.332 L
502.027 298.719 L
502.178 299.104 L
502.328 299.487 L
502.479 299.868 L
502.63 300.247 L
502.781 300.624 L
502.931 301 L
503.082 301.373 L
503.233 301.745 L
503.383 302.115 L
503.534 302.482 L
503.685 302.848 L
503.835 303.212 L
503.986 303.574 L
504.137 303.934 L
504.288 304.292 L
504.438 304.648 L
504.589 305.002 L
504.74 305.354 L
504.89 305.704 L
505.041 306.052 L
505.192 306.398 L
505.342 306.742 L
505.493 307.083 L
505.644 307.423 L
505.794 307.76 L
505.945 308.096 L
506.096 308.429 L
506.247 308.76 L
506.397 309.089 L
506.548 309.416 L
506.699 309.741 L
506.849 310.063 L
507 310.383 L
S
GR
%%Trailer
%%Pages: 1
%%EOF
