%!PS-Adobe-3.0 EPSF-3.0
%%Creator: (MATLAB, The Mathworks, Inc. Version 9.9.0.1467703 \(R2020b\). Operating System: Windows 10)
%%Title: C:/Users/timji/Documents/School/Colorado/ASEN5090/asen-5090/Homework4/plots/prn01_nist_azimuth.eps
%%CreationDate: 2020-10-05T20:41:21
%%Pages: (atend)
%%BoundingBox:     0     0   420   315
%%LanguageLevel: 3
%%EndComments
%%BeginProlog
%%BeginResource: procset (Apache XML Graphics Std ProcSet) 1.2 0
%%Version: 1.2 0
%%Copyright: (Copyright 2001-2003,2010 The Apache Software Foundation. License terms: http://www.apache.org/licenses/LICENSE-2.0)
/bd{bind def}bind def
/ld{load def}bd
/GR/grestore ld
/GS/gsave ld
/RM/rmoveto ld
/C/curveto ld
/t/show ld
/L/lineto ld
/ML/setmiterlimit ld
/CT/concat ld
/f/fill ld
/N/newpath ld
/S/stroke ld
/CC/setcmykcolor ld
/A/ashow ld
/cp/closepath ld
/RC/setrgbcolor ld
/LJ/setlinejoin ld
/GC/setgray ld
/LW/setlinewidth ld
/M/moveto ld
/re {4 2 roll M
1 index 0 rlineto
0 exch rlineto
neg 0 rlineto
cp } bd
/_ctm matrix def
/_tm matrix def
/BT { _ctm currentmatrix pop matrix _tm copy pop 0 0 moveto } bd
/ET { _ctm setmatrix } bd
/iTm { _ctm setmatrix _tm concat } bd
/Tm { _tm astore pop iTm 0 0 moveto } bd
/ux 0.0 def
/uy 0.0 def
/F {
  /Tp exch def
  /Tf exch def
  Tf findfont Tp scalefont setfont
  /cf Tf def  /cs Tp def
} bd
/ULS {currentpoint /uy exch def /ux exch def} bd
/ULE {
  /Tcx currentpoint pop def
  gsave
  newpath
  cf findfont cs scalefont dup
  /FontMatrix get 0 get /Ts exch def /FontInfo get dup
  /UnderlinePosition get Ts mul /To exch def
  /UnderlineThickness get Ts mul /Tt exch def
  ux uy To add moveto  Tcx uy To add lineto
  Tt setlinewidth stroke
  grestore
} bd
/OLE {
  /Tcx currentpoint pop def
  gsave
  newpath
  cf findfont cs scalefont dup
  /FontMatrix get 0 get /Ts exch def /FontInfo get dup
  /UnderlinePosition get Ts mul /To exch def
  /UnderlineThickness get Ts mul /Tt exch def
  ux uy To add cs add moveto Tcx uy To add cs add lineto
  Tt setlinewidth stroke
  grestore
} bd
/SOE {
  /Tcx currentpoint pop def
  gsave
  newpath
  cf findfont cs scalefont dup
  /FontMatrix get 0 get /Ts exch def /FontInfo get dup
  /UnderlinePosition get Ts mul /To exch def
  /UnderlineThickness get Ts mul /Tt exch def
  ux uy To add cs 10 mul 26 idiv add moveto Tcx uy To add cs 10 mul 26 idiv add lineto
  Tt setlinewidth stroke
  grestore
} bd
/QT {
/Y22 exch store
/X22 exch store
/Y21 exch store
/X21 exch store
currentpoint
/Y21 load 2 mul add 3 div exch
/X21 load 2 mul add 3 div exch
/X21 load 2 mul /X22 load add 3 div
/Y21 load 2 mul /Y22 load add 3 div
/X22 load /Y22 load curveto
} bd
/SSPD {
dup length /d exch dict def
{
/v exch def
/k exch def
currentpagedevice k known {
/cpdv currentpagedevice k get def
v cpdv ne {
/upd false def
/nullv v type /nulltype eq def
/nullcpdv cpdv type /nulltype eq def
nullv nullcpdv or
{
/upd true def
} {
/sametype v type cpdv type eq def
sametype {
v type /arraytype eq {
/vlen v length def
/cpdvlen cpdv length def
vlen cpdvlen eq {
0 1 vlen 1 sub {
/i exch def
/obj v i get def
/cpdobj cpdv i get def
obj cpdobj ne {
/upd true def
exit
} if
} for
} {
/upd true def
} ifelse
} {
v type /dicttype eq {
v {
/dv exch def
/dk exch def
/cpddv cpdv dk get def
dv cpddv ne {
/upd true def
exit
} if
} forall
} {
/upd true def
} ifelse
} ifelse
} if
} ifelse
upd true eq {
d k v put
} if
} if
} if
} forall
d length 0 gt {
d setpagedevice
} if
} bd
/RE { % /NewFontName [NewEncodingArray] /FontName RE -
  findfont dup length dict begin
  {
    1 index /FID ne
    {def} {pop pop} ifelse
  } forall
  /Encoding exch def
  /FontName 1 index def
  currentdict definefont pop
  end
} bind def
%%EndResource
%%BeginResource: procset (Apache XML Graphics EPS ProcSet) 1.0 0
%%Version: 1.0 0
%%Copyright: (Copyright 2002-2003 The Apache Software Foundation. License terms: http://www.apache.org/licenses/LICENSE-2.0)
/BeginEPSF { %def
/b4_Inc_state save def         % Save state for cleanup
/dict_count countdictstack def % Count objects on dict stack
/op_count count 1 sub def      % Count objects on operand stack
userdict begin                 % Push userdict on dict stack
/showpage { } def              % Redefine showpage, { } = null proc
0 setgray 0 setlinecap         % Prepare graphics state
1 setlinewidth 0 setlinejoin
10 setmiterlimit [ ] 0 setdash newpath
/languagelevel where           % If level not equal to 1 then
{pop languagelevel             % set strokeadjust and
1 ne                           % overprint to their defaults.
{false setstrokeadjust false setoverprint
} if
} if
} bd
/EndEPSF { %def
count op_count sub {pop} repeat            % Clean up stacks
countdictstack dict_count sub {end} repeat
b4_Inc_state restore
} bd
%%EndResource
%FOPBeginFontDict
%%IncludeResource: font Courier-Oblique
%%IncludeResource: font Courier-BoldOblique
%%IncludeResource: font Courier-Bold
%%IncludeResource: font ZapfDingbats
%%IncludeResource: font Symbol
%%IncludeResource: font Helvetica
%%IncludeResource: font Helvetica-Oblique
%%IncludeResource: font Helvetica-Bold
%%IncludeResource: font Helvetica-BoldOblique
%%IncludeResource: font Times-Roman
%%IncludeResource: font Times-Italic
%%IncludeResource: font Times-Bold
%%IncludeResource: font Times-BoldItalic
%%IncludeResource: font Courier
%FOPEndFontDict
%%BeginResource: encoding WinAnsiEncoding
/WinAnsiEncoding [
/.notdef /.notdef /.notdef /.notdef /.notdef
/.notdef /.notdef /.notdef /.notdef /.notdef
/.notdef /.notdef /.notdef /.notdef /.notdef
/.notdef /.notdef /.notdef /.notdef /.notdef
/.notdef /.notdef /.notdef /.notdef /.notdef
/.notdef /.notdef /.notdef /.notdef /.notdef
/.notdef /.notdef /space /exclam /quotedbl
/numbersign /dollar /percent /ampersand /quotesingle
/parenleft /parenright /asterisk /plus /comma
/hyphen /period /slash /zero /one
/two /three /four /five /six
/seven /eight /nine /colon /semicolon
/less /equal /greater /question /at
/A /B /C /D /E
/F /G /H /I /J
/K /L /M /N /O
/P /Q /R /S /T
/U /V /W /X /Y
/Z /bracketleft /backslash /bracketright /asciicircum
/underscore /quoteleft /a /b /c
/d /e /f /g /h
/i /j /k /l /m
/n /o /p /q /r
/s /t /u /v /w
/x /y /z /braceleft /bar
/braceright /asciitilde /bullet /Euro /bullet
/quotesinglbase /florin /quotedblbase /ellipsis /dagger
/daggerdbl /circumflex /perthousand /Scaron /guilsinglleft
/OE /bullet /Zcaron /bullet /bullet
/quoteleft /quoteright /quotedblleft /quotedblright /bullet
/endash /emdash /asciitilde /trademark /scaron
/guilsinglright /oe /bullet /zcaron /Ydieresis
/space /exclamdown /cent /sterling /currency
/yen /brokenbar /section /dieresis /copyright
/ordfeminine /guillemotleft /logicalnot /sfthyphen /registered
/macron /degree /plusminus /twosuperior /threesuperior
/acute /mu /paragraph /middot /cedilla
/onesuperior /ordmasculine /guillemotright /onequarter /onehalf
/threequarters /questiondown /Agrave /Aacute /Acircumflex
/Atilde /Adieresis /Aring /AE /Ccedilla
/Egrave /Eacute /Ecircumflex /Edieresis /Igrave
/Iacute /Icircumflex /Idieresis /Eth /Ntilde
/Ograve /Oacute /Ocircumflex /Otilde /Odieresis
/multiply /Oslash /Ugrave /Uacute /Ucircumflex
/Udieresis /Yacute /Thorn /germandbls /agrave
/aacute /acircumflex /atilde /adieresis /aring
/ae /ccedilla /egrave /eacute /ecircumflex
/edieresis /igrave /iacute /icircumflex /idieresis
/eth /ntilde /ograve /oacute /ocircumflex
/otilde /odieresis /divide /oslash /ugrave
/uacute /ucircumflex /udieresis /yacute /thorn
/ydieresis
] def
%%EndResource
%FOPBeginFontReencode
/Courier-Oblique findfont
dup length dict begin
  {1 index /FID ne {def} {pop pop} ifelse} forall
  /Encoding WinAnsiEncoding def
  currentdict
end
/Courier-Oblique exch definefont pop
/Courier-BoldOblique findfont
dup length dict begin
  {1 index /FID ne {def} {pop pop} ifelse} forall
  /Encoding WinAnsiEncoding def
  currentdict
end
/Courier-BoldOblique exch definefont pop
/Courier-Bold findfont
dup length dict begin
  {1 index /FID ne {def} {pop pop} ifelse} forall
  /Encoding WinAnsiEncoding def
  currentdict
end
/Courier-Bold exch definefont pop
/Helvetica findfont
dup length dict begin
  {1 index /FID ne {def} {pop pop} ifelse} forall
  /Encoding WinAnsiEncoding def
  currentdict
end
/Helvetica exch definefont pop
/Helvetica-Oblique findfont
dup length dict begin
  {1 index /FID ne {def} {pop pop} ifelse} forall
  /Encoding WinAnsiEncoding def
  currentdict
end
/Helvetica-Oblique exch definefont pop
/Helvetica-Bold findfont
dup length dict begin
  {1 index /FID ne {def} {pop pop} ifelse} forall
  /Encoding WinAnsiEncoding def
  currentdict
end
/Helvetica-Bold exch definefont pop
/Helvetica-BoldOblique findfont
dup length dict begin
  {1 index /FID ne {def} {pop pop} ifelse} forall
  /Encoding WinAnsiEncoding def
  currentdict
end
/Helvetica-BoldOblique exch definefont pop
/Times-Roman findfont
dup length dict begin
  {1 index /FID ne {def} {pop pop} ifelse} forall
  /Encoding WinAnsiEncoding def
  currentdict
end
/Times-Roman exch definefont pop
/Times-Italic findfont
dup length dict begin
  {1 index /FID ne {def} {pop pop} ifelse} forall
  /Encoding WinAnsiEncoding def
  currentdict
end
/Times-Italic exch definefont pop
/Times-Bold findfont
dup length dict begin
  {1 index /FID ne {def} {pop pop} ifelse} forall
  /Encoding WinAnsiEncoding def
  currentdict
end
/Times-Bold exch definefont pop
/Times-BoldItalic findfont
dup length dict begin
  {1 index /FID ne {def} {pop pop} ifelse} forall
  /Encoding WinAnsiEncoding def
  currentdict
end
/Times-BoldItalic exch definefont pop
/Courier findfont
dup length dict begin
  {1 index /FID ne {def} {pop pop} ifelse} forall
  /Encoding WinAnsiEncoding def
  currentdict
end
/Courier exch definefont pop
%FOPEndFontReencode
%%EndProlog
%%Page: 1 1
%%PageBoundingBox: 0 0 420 315
%%BeginPageSetup
[1 0 0 -1 0 315] CT
%%EndPageSetup
GS
[0.75 0 0 0.75 0 0] CT
1 GC
N
0 0 560 420 re
f
GR
GS
[0.75 0 0 0.75 0 0] CT
1 GC
N
0 0 560 420 re
f
GR
GS
[0.75 0 0 0.75 0 0] CT
1 GC
N
73 374 M
507 374 L
507 31 L
73 31 L
cp
f
GR
GS
[0.75 0 0 0.75 0 0] CT
0.149 GC
2 setlinecap
1 LJ
0.667 LW
N
73 374 M
507 374 L
S
GR
GS
[0.75 0 0 0.75 0 0] CT
0.149 GC
2 setlinecap
1 LJ
0.667 LW
N
73 31 M
507 31 L
S
GR
GS
[0.75 0 0 0.75 0 0] CT
0.149 GC
2 setlinecap
1 LJ
0.667 LW
N
73 374 M
73 369.66 L
S
GR
GS
[0.75 0 0 0.75 0 0] CT
0.149 GC
2 setlinecap
1 LJ
0.667 LW
N
163.417 374 M
163.417 369.66 L
S
GR
GS
[0.75 0 0 0.75 0 0] CT
0.149 GC
2 setlinecap
1 LJ
0.667 LW
N
253.833 374 M
253.833 369.66 L
S
GR
GS
[0.75 0 0 0.75 0 0] CT
0.149 GC
2 setlinecap
1 LJ
0.667 LW
N
344.25 374 M
344.25 369.66 L
S
GR
GS
[0.75 0 0 0.75 0 0] CT
0.149 GC
2 setlinecap
1 LJ
0.667 LW
N
434.667 374 M
434.667 369.66 L
S
GR
GS
[0.75 0 0 0.75 0 0] CT
0.149 GC
2 setlinecap
1 LJ
0.667 LW
N
73 31 M
73 35.34 L
S
GR
GS
[0.75 0 0 0.75 0 0] CT
0.149 GC
2 setlinecap
1 LJ
0.667 LW
N
163.417 31 M
163.417 35.34 L
S
GR
GS
[0.75 0 0 0.75 0 0] CT
0.149 GC
2 setlinecap
1 LJ
0.667 LW
N
253.833 31 M
253.833 35.34 L
S
GR
GS
[0.75 0 0 0.75 0 0] CT
0.149 GC
2 setlinecap
1 LJ
0.667 LW
N
344.25 31 M
344.25 35.34 L
S
GR
GS
[0.75 0 0 0.75 0 0] CT
0.149 GC
2 setlinecap
1 LJ
0.667 LW
N
434.667 31 M
434.667 35.34 L
S
GR
GS
[0.75 0 0 0.75 54.75 284.50001] CT
0.149 GC
/Helvetica 13.333 F
GS
[1 0 0 1 0 0] CT
-4 14 moveto 
1 -1 scale
(0) t 
GR
GR
GS
[0.75 0 0 0.75 122.5625 284.50001] CT
0.149 GC
/Helvetica 13.333 F
GS
[1 0 0 1 0 0] CT
-4 14 moveto 
1 -1 scale
(5) t 
GR
GR
GS
[0.75 0 0 0.75 190.375 284.50001] CT
0.149 GC
/Helvetica 13.333 F
GS
[1 0 0 1 0 0] CT
-7.5 14 moveto 
1 -1 scale
(10) t 
GR
GR
GS
[0.75 0 0 0.75 258.1875 284.50001] CT
0.149 GC
/Helvetica 13.333 F
GS
[1 0 0 1 0 0] CT
-7.5 14 moveto 
1 -1 scale
(15) t 
GR
GR
GS
[0.75 0 0 0.75 325.99999 284.50001] CT
0.149 GC
/Helvetica 13.333 F
GS
[1 0 0 1 0 0] CT
-7.5 14 moveto 
1 -1 scale
(20) t 
GR
GR
GS
[0.75 0 0 0.75 217.50016 298.24999] CT
0.149 GC
/Helvetica 14.667 F
GS
[1 0 0 1 0 0] CT
-57.5 15 moveto 
1 -1 scale
(Time into day \(hr\)) t 
GR
GR
GS
[0.75 0 0 0.75 0 0] CT
0.149 GC
2 setlinecap
1 LJ
0.667 LW
N
73 374 M
73 31 L
S
GR
GS
[0.75 0 0 0.75 0 0] CT
0.149 GC
2 setlinecap
1 LJ
0.667 LW
N
507 374 M
507 31 L
S
GR
GS
[0.75 0 0 0.75 0 0] CT
0.149 GC
2 setlinecap
1 LJ
0.667 LW
N
73 345.417 M
77.34 345.417 L
S
GR
GS
[0.75 0 0 0.75 0 0] CT
0.149 GC
2 setlinecap
1 LJ
0.667 LW
N
73 297.778 M
77.34 297.778 L
S
GR
GS
[0.75 0 0 0.75 0 0] CT
0.149 GC
2 setlinecap
1 LJ
0.667 LW
N
73 250.139 M
77.34 250.139 L
S
GR
GS
[0.75 0 0 0.75 0 0] CT
0.149 GC
2 setlinecap
1 LJ
0.667 LW
N
73 202.5 M
77.34 202.5 L
S
GR
GS
[0.75 0 0 0.75 0 0] CT
0.149 GC
2 setlinecap
1 LJ
0.667 LW
N
73 154.861 M
77.34 154.861 L
S
GR
GS
[0.75 0 0 0.75 0 0] CT
0.149 GC
2 setlinecap
1 LJ
0.667 LW
N
73 107.222 M
77.34 107.222 L
S
GR
GS
[0.75 0 0 0.75 0 0] CT
0.149 GC
2 setlinecap
1 LJ
0.667 LW
N
73 59.583 M
77.34 59.583 L
S
GR
GS
[0.75 0 0 0.75 0 0] CT
0.149 GC
2 setlinecap
1 LJ
0.667 LW
N
507 345.417 M
502.66 345.417 L
S
GR
GS
[0.75 0 0 0.75 0 0] CT
0.149 GC
2 setlinecap
1 LJ
0.667 LW
N
507 297.778 M
502.66 297.778 L
S
GR
GS
[0.75 0 0 0.75 0 0] CT
0.149 GC
2 setlinecap
1 LJ
0.667 LW
N
507 250.139 M
502.66 250.139 L
S
GR
GS
[0.75 0 0 0.75 0 0] CT
0.149 GC
2 setlinecap
1 LJ
0.667 LW
N
507 202.5 M
502.66 202.5 L
S
GR
GS
[0.75 0 0 0.75 0 0] CT
0.149 GC
2 setlinecap
1 LJ
0.667 LW
N
507 154.861 M
502.66 154.861 L
S
GR
GS
[0.75 0 0 0.75 0 0] CT
0.149 GC
2 setlinecap
1 LJ
0.667 LW
N
507 107.222 M
502.66 107.222 L
S
GR
GS
[0.75 0 0 0.75 0 0] CT
0.149 GC
2 setlinecap
1 LJ
0.667 LW
N
507 59.583 M
502.66 59.583 L
S
GR
GS
[0.75 0 0 0.75 50.75 259.06249] CT
0.149 GC
/Helvetica 13.333 F
GS
[1 0 0 1 0 0] CT
-27 5.5 moveto 
1 -1 scale
(-150) t 
GR
GR
GS
[0.75 0 0 0.75 50.75 223.33333] CT
0.149 GC
/Helvetica 13.333 F
GS
[1 0 0 1 0 0] CT
-27 5.5 moveto 
1 -1 scale
(-100) t 
GR
GR
GS
[0.75 0 0 0.75 50.75 187.60416] CT
0.149 GC
/Helvetica 13.333 F
GS
[1 0 0 1 0 0] CT
-20 5.5 moveto 
1 -1 scale
(-50) t 
GR
GR
GS
[0.75 0 0 0.75 50.75 151.875] CT
0.149 GC
/Helvetica 13.333 F
GS
[1 0 0 1 0 0] CT
-8 5.5 moveto 
1 -1 scale
(0) t 
GR
GR
GS
[0.75 0 0 0.75 50.75 116.14584] CT
0.149 GC
/Helvetica 13.333 F
GS
[1 0 0 1 0 0] CT
-15 5.5 moveto 
1 -1 scale
(50) t 
GR
GR
GS
[0.75 0 0 0.75 50.75 80.41667] CT
0.149 GC
/Helvetica 13.333 F
GS
[1 0 0 1 0 0] CT
-23 5.5 moveto 
1 -1 scale
(100) t 
GR
GR
GS
[0.75 0 0 0.75 50.75 44.6875] CT
0.149 GC
/Helvetica 13.333 F
GS
[1 0 0 1 0 0] CT
-23 5.5 moveto 
1 -1 scale
(150) t 
GR
GR
GS
[0 -0.75 0.75 0 27.5 151.87487] CT
0.149 GC
/Helvetica 14.667 F
GS
[1 0 0 1 0 0] CT
-66 -4 moveto 
1 -1 scale
(Azimuth angle \(deg\)) t 
GR
GR
GS
[0.75 0 0 0.75 217.50021 21.1875] CT
/Helvetica-Bold 14.667 F
GS
[1 0 0 1 0 0] CT
-144.5 -4 moveto 
1 -1 scale
(PRN01 Azimuth Angle from NIST IGS Site) t 
GR
GR
GS
[0.75 0 0 0.75 0 0] CT
0 0.447 0.741 RC
1 LJ
0.667 LW
N
73 247.348 M
73.151 247.486 L
73.301 247.624 L
73.452 247.764 L
73.603 247.906 L
73.753 248.049 L
73.904 248.194 L
74.055 248.34 L
74.206 248.487 L
74.356 248.636 L
74.507 248.787 L
74.658 248.939 L
74.808 249.093 L
74.959 249.248 L
75.11 249.405 L
75.26 249.563 L
75.411 249.723 L
75.562 249.884 L
75.713 250.047 L
75.863 250.212 L
76.014 250.378 L
76.165 250.546 L
76.315 250.715 L
76.466 250.886 L
76.617 251.058 L
76.767 251.232 L
76.918 251.408 L
77.069 251.585 L
77.219 251.764 L
77.37 251.944 L
77.521 252.126 L
77.672 252.31 L
77.822 252.495 L
77.973 252.682 L
78.124 252.871 L
78.274 253.061 L
78.425 253.252 L
78.576 253.446 L
78.726 253.641 L
78.877 253.837 L
79.028 254.036 L
79.178 254.236 L
79.329 254.437 L
79.48 254.64 L
79.631 254.845 L
79.781 255.052 L
79.932 255.26 L
80.083 255.469 L
80.233 255.681 L
80.384 255.894 L
80.535 256.108 L
80.685 256.324 L
80.836 256.542 L
80.987 256.762 L
81.137 256.983 L
81.288 257.206 L
81.439 257.43 L
81.59 257.656 L
81.74 257.884 L
81.891 258.113 L
82.042 258.343 L
82.192 258.576 L
82.343 258.81 L
82.494 259.045 L
82.644 259.282 L
82.795 259.521 L
82.946 259.761 L
83.097 260.003 L
83.247 260.247 L
83.398 260.491 L
83.549 260.738 L
83.699 260.986 L
83.85 261.235 L
84.001 261.486 L
84.151 261.739 L
84.302 261.993 L
84.453 262.248 L
84.603 262.505 L
84.754 262.764 L
84.905 263.023 L
85.056 263.285 L
85.206 263.547 L
85.357 263.811 L
85.508 264.077 L
85.658 264.344 L
85.809 264.612 L
85.96 264.882 L
86.11 265.153 L
86.261 265.425 L
86.412 265.698 L
86.563 265.973 L
86.713 266.249 L
86.864 266.527 L
87.015 266.805 L
87.165 267.085 L
87.316 267.366 L
87.467 267.649 L
87.617 267.932 L
87.768 268.216 L
87.919 268.502 L
88.069 268.789 L
88.22 269.077 L
88.371 269.366 L
88.522 269.656 L
88.672 269.947 L
88.823 270.239 L
88.974 270.532 L
89.124 270.826 L
89.275 271.121 L
89.426 271.416 L
89.576 271.713 L
89.727 272.011 L
89.878 272.309 L
90.028 272.608 L
90.179 272.908 L
90.33 273.209 L
90.481 273.51 L
90.631 273.813 L
90.782 274.115 L
90.933 274.419 L
91.083 274.723 L
91.234 275.028 L
91.385 275.333 L
91.535 275.639 L
91.686 275.946 L
91.837 276.253 L
91.987 276.56 L
92.138 276.868 L
92.289 277.177 L
92.44 277.485 L
92.59 277.794 L
92.741 278.104 L
92.892 278.414 L
93.042 278.724 L
93.193 279.034 L
93.344 279.345 L
93.494 279.655 L
93.645 279.966 L
93.796 280.277 L
93.947 280.589 L
94.097 280.9 L
94.248 281.211 L
94.399 281.523 L
94.549 281.834 L
94.7 282.145 L
94.851 282.457 L
95.001 282.768 L
95.152 283.079 L
95.303 283.39 L
95.453 283.701 L
95.604 284.012 L
95.755 284.323 L
95.906 284.633 L
96.056 284.943 L
96.207 285.253 L
96.358 285.562 L
96.508 285.871 L
96.659 286.18 L
96.81 286.488 L
96.96 286.796 L
97.111 287.104 L
97.262 287.411 L
97.412 287.718 L
97.563 288.024 L
97.714 288.33 L
97.865 288.635 L
98.015 288.939 L
98.166 289.243 L
98.317 289.547 L
98.467 289.849 L
98.618 290.151 L
98.769 290.453 L
98.919 290.753 L
99.07 291.053 L
99.221 291.353 L
99.372 291.651 L
99.522 291.949 L
99.673 292.246 L
99.824 292.542 L
99.974 292.838 L
100.125 293.132 L
100.276 293.426 L
100.426 293.719 L
100.577 294.011 L
100.728 294.302 L
100.878 294.592 L
101.029 294.881 L
101.18 295.169 L
101.331 295.457 L
101.481 295.743 L
101.632 296.028 L
101.783 296.313 L
101.933 296.596 L
102.084 296.878 L
102.235 297.16 L
102.385 297.44 L
102.536 297.719 L
102.687 297.997 L
102.838 298.275 L
102.988 298.551 L
103.139 298.826 L
103.29 299.1 L
103.44 299.372 L
103.591 299.644 L
103.742 299.915 L
103.892 300.184 L
104.043 300.453 L
104.194 300.72 L
104.344 300.986 L
104.495 301.251 L
104.646 301.515 L
104.797 301.777 L
104.947 302.039 L
105.098 302.299 L
105.249 302.558 L
105.399 302.816 L
105.55 303.073 L
105.701 303.329 L
105.851 303.583 L
106.002 303.837 L
106.153 304.089 L
106.303 304.34 L
106.454 304.589 L
106.605 304.838 L
106.756 305.086 L
106.906 305.332 L
107.057 305.577 L
107.208 305.821 L
107.358 306.064 L
107.509 306.305 L
107.66 306.545 L
107.81 306.785 L
107.961 307.023 L
108.112 307.26 L
108.263 307.495 L
108.413 307.73 L
108.564 307.963 L
108.715 308.195 L
108.865 308.426 L
109.016 308.656 L
109.167 308.885 L
109.317 309.113 L
109.468 309.339 L
109.619 309.564 L
109.769 309.789 L
109.92 310.012 L
110.071 310.234 L
110.222 310.454 L
110.372 310.674 L
110.523 310.893 L
110.674 311.11 L
110.824 311.327 L
110.975 311.542 L
111.126 311.756 L
111.276 311.969 L
111.427 312.181 L
111.578 312.392 L
111.728 312.602 L
111.879 312.811 L
112.03 313.018 L
112.181 313.225 L
112.331 313.431 L
112.482 313.635 L
112.633 313.839 L
112.783 314.042 L
112.934 314.243 L
113.085 314.444 L
113.235 314.643 L
113.386 314.842 L
113.537 315.039 L
113.688 315.236 L
113.838 315.431 L
113.989 315.626 L
114.14 315.82 L
114.29 316.012 L
114.441 316.204 L
114.592 316.395 L
114.742 316.585 L
114.893 316.774 L
115.044 316.962 L
115.194 317.149 L
115.345 317.335 L
115.496 317.521 L
115.647 317.705 L
115.797 317.888 L
115.948 318.071 L
116.099 318.253 L
116.249 318.434 L
116.4 318.614 L
116.551 318.793 L
116.701 318.972 L
116.852 319.149 L
117.003 319.326 L
117.153 319.502 L
117.304 319.677 L
117.455 319.851 L
117.606 320.025 L
117.756 320.198 L
117.907 320.37 L
118.058 320.541 L
118.208 320.711 L
118.359 320.881 L
118.51 321.05 L
118.66 321.218 L
118.811 321.386 L
118.962 321.553 L
119.112 321.719 L
119.263 321.884 L
119.414 322.049 L
119.565 322.213 L
119.715 322.376 L
119.866 322.539 L
120.017 322.701 L
120.167 322.862 L
120.318 323.022 L
120.469 323.182 L
120.619 323.342 L
120.77 323.5 L
120.921 323.659 L
121.072 323.816 L
121.222 323.973 L
121.373 324.129 L
121.524 324.285 L
121.674 324.44 L
121.825 324.594 L
121.976 324.748 L
122.126 324.901 L
122.277 325.054 L
122.428 325.206 L
122.578 325.358 L
122.729 325.509 L
122.88 325.66 L
123.031 325.81 L
123.181 325.959 L
123.332 326.108 L
123.483 326.257 L
123.633 326.405 L
123.784 326.553 L
123.935 326.7 L
124.085 326.846 L
124.236 326.992 L
124.387 327.138 L
124.537 327.283 L
124.688 327.428 L
124.839 327.572 L
124.99 327.716 L
125.14 327.859 L
125.291 328.002 L
125.442 328.145 L
125.592 328.287 L
125.743 328.429 L
125.894 328.57 L
126.044 328.711 L
126.195 328.852 L
126.346 328.992 L
126.497 329.132 L
126.647 329.271 L
126.798 329.41 L
126.949 329.549 L
127.099 329.687 L
127.25 329.825 L
127.401 329.963 L
127.551 330.1 L
127.702 330.237 L
127.853 330.374 L
128.003 330.51 L
128.154 330.647 L
128.305 330.782 L
128.456 330.918 L
128.606 331.053 L
128.757 331.188 L
128.908 331.322 L
129.058 331.457 L
129.209 331.591 L
129.36 331.725 L
129.51 331.858 L
129.661 331.991 L
129.812 332.124 L
129.963 332.257 L
130.113 332.39 L
130.264 332.522 L
130.415 332.654 L
130.565 332.786 L
130.716 332.917 L
130.867 333.049 L
131.017 333.18 L
131.168 333.311 L
131.319 333.442 L
131.469 333.572 L
131.62 333.703 L
131.771 333.833 L
131.922 333.963 L
132.072 334.093 L
132.223 334.223 L
132.374 334.352 L
132.524 334.482 L
132.675 334.611 L
132.826 334.74 L
132.976 334.869 L
133.127 334.998 L
133.278 335.126 L
133.428 335.255 L
133.579 335.383 L
133.73 335.512 L
133.881 335.64 L
134.031 335.768 L
134.182 335.896 L
134.333 336.024 L
134.483 336.151 L
134.634 336.279 L
134.785 336.406 L
134.935 336.534 L
135.086 336.661 L
135.237 336.789 L
135.387 336.916 L
135.538 337.043 L
135.689 337.17 L
135.84 337.297 L
135.99 337.424 L
136.141 337.551 L
136.292 337.678 L
136.442 337.805 L
136.593 337.931 L
136.744 338.058 L
136.894 338.185 L
137.045 338.312 L
137.196 338.438 L
137.347 338.565 L
137.497 338.692 L
137.648 338.818 L
137.799 338.945 L
137.949 339.071 L
138.1 339.198 L
138.251 339.324 L
138.401 339.451 L
138.552 339.578 L
138.703 339.704 L
138.853 339.831 L
139.004 339.957 L
139.155 340.084 L
139.306 340.211 L
139.456 340.337 L
139.607 340.464 L
139.758 340.591 L
139.908 340.718 L
140.059 340.845 L
140.21 340.972 L
140.36 341.099 L
140.511 341.226 L
140.662 341.353 L
140.813 341.48 L
140.963 341.607 L
141.114 341.734 L
141.265 341.861 L
141.415 341.989 L
141.566 342.116 L
141.717 342.244 L
141.867 342.371 L
142.018 342.499 L
142.169 342.627 L
142.319 342.755 L
142.47 342.883 L
142.621 343.011 L
142.772 343.139 L
142.922 343.267 L
143.073 343.396 L
143.224 343.524 L
143.374 343.653 L
143.525 343.781 L
143.676 343.91 L
143.826 344.039 L
143.977 344.168 L
144.128 344.297 L
144.278 344.426 L
144.429 344.556 L
144.58 344.685 L
144.731 344.815 L
144.881 344.945 L
145.032 345.075 L
145.183 345.205 L
145.333 345.335 L
145.484 345.466 L
145.635 345.596 L
145.785 345.727 L
145.936 345.858 L
146.087 345.989 L
146.238 346.12 L
146.388 346.251 L
146.539 346.383 L
146.69 346.514 L
146.84 346.646 L
146.991 346.778 L
147.142 346.91 L
147.292 347.042 L
147.443 347.175 L
147.594 347.308 L
147.744 347.44 L
147.895 347.573 L
148.046 347.707 L
148.197 347.84 L
148.347 347.974 L
148.498 348.107 L
148.649 348.241 L
148.799 348.375 L
148.95 348.51 L
149.101 348.644 L
149.251 348.779 L
149.402 348.914 L
149.553 349.049 L
149.703 349.185 L
149.854 349.32 L
150.005 349.456 L
150.156 349.592 L
150.306 349.728 L
150.457 349.864 L
150.608 350.001 L
150.758 350.138 L
150.909 350.275 L
151.06 350.412 L
151.21 350.549 L
151.361 350.687 L
151.512 350.825 L
151.662 350.963 L
151.813 351.101 L
151.964 351.24 L
152.115 351.379 L
152.265 351.518 L
152.416 351.657 L
152.567 351.797 L
152.717 351.936 L
152.868 352.076 L
153.019 352.216 L
153.169 352.357 L
153.32 352.498 L
153.471 352.638 L
153.622 352.78 L
153.772 352.921 L
153.923 353.062 L
154.074 353.204 L
154.224 353.346 L
154.375 353.489 L
154.526 353.631 L
154.676 353.774 L
154.827 353.917 L
154.978 354.06 L
155.128 354.204 L
155.279 354.348 L
155.43 354.492 L
155.581 354.636 L
155.731 354.781 L
155.882 354.925 L
156.033 355.07 L
156.183 355.216 L
156.334 355.361 L
156.485 355.507 L
156.635 355.653 L
156.786 355.799 L
156.937 355.946 L
157.088 356.093 L
157.238 356.24 L
157.389 356.387 L
157.54 356.534 L
157.69 356.682 L
157.841 356.83 L
157.992 356.978 L
158.142 357.127 L
158.293 357.276 L
158.444 357.425 L
158.594 357.574 L
158.745 357.724 L
158.896 357.873 L
159.047 358.023 L
159.197 358.174 L
159.348 358.324 L
159.499 358.475 L
159.649 358.626 L
159.8 358.777 L
159.951 358.929 L
160.101 359.081 L
160.252 359.233 L
160.403 359.385 L
160.553 359.538 L
160.704 359.69 L
160.855 359.843 L
161.006 359.997 L
161.156 360.15 L
161.307 360.304 L
161.458 360.458 L
161.608 360.612 L
161.759 360.767 L
161.91 360.922 L
162.06 361.077 L
162.211 361.232 L
162.362 361.387 L
162.512 361.543 L
162.663 361.699 L
162.814 361.855 L
162.965 362.012 L
163.115 362.168 L
163.266 362.325 L
163.417 362.482 L
163.567 362.639 L
163.718 362.797 L
163.869 362.955 L
164.019 363.113 L
164.17 363.271 L
164.321 363.43 L
164.472 363.588 L
164.622 363.747 L
164.773 363.906 L
164.924 364.066 L
165.074 364.225 L
165.225 364.385 L
165.376 364.545 L
165.526 364.706 L
165.677 364.866 L
165.828 365.027 L
165.978 365.188 L
166.129 365.349 L
166.28 365.51 L
166.431 365.671 L
166.581 365.833 L
166.732 365.995 L
166.883 366.157 L
167.033 366.319 L
167.184 366.482 L
167.335 366.645 L
167.485 366.807 L
167.636 366.971 L
167.787 367.134 L
167.938 367.297 L
168.088 367.461 L
168.239 367.625 L
168.39 367.789 L
168.54 367.953 L
168.691 368.117 L
168.842 368.282 L
168.992 368.446 L
169.143 368.611 L
169.294 368.776 L
169.444 368.942 L
169.595 369.107 L
169.746 369.272 L
169.897 369.438 L
170.047 369.604 L
170.198 369.77 L
170.349 369.936 L
170.499 370.102 L
170.65 370.269 L
170.801 370.435 L
170.951 370.602 L
171.102 370.769 L
171.253 370.936 L
171.403 371.103 L
171.554 371.27 L
171.705 371.438 L
171.856 371.605 L
172.006 371.773 L
172.157 371.941 L
172.308 372.109 L
172.458 372.277 L
172.609 372.445 L
172.76 372.613 L
172.91 372.781 L
173.061 372.95 L
173.212 373.118 L
173.363 373.287 L
173.513 373.456 L
173.664 373.624 L
173.815 373.793 L
173.965 373.962 L
174.116 31.132 L
174.267 31.301 L
174.417 31.47 L
174.568 31.639 L
174.719 31.809 L
174.869 31.978 L
175.02 32.148 L
175.171 32.318 L
175.322 32.487 L
175.472 32.657 L
175.623 32.827 L
175.774 32.997 L
175.924 33.167 L
176.075 33.337 L
176.226 33.507 L
176.376 33.677 L
176.527 33.847 L
176.678 34.017 L
176.828 34.187 L
176.979 34.358 L
177.13 34.528 L
177.281 34.698 L
177.431 34.869 L
177.582 35.039 L
177.733 35.209 L
177.883 35.38 L
178.034 35.55 L
178.185 35.72 L
178.335 35.891 L
178.486 36.061 L
178.637 36.232 L
178.787 36.402 L
178.938 36.573 L
179.089 36.743 L
179.24 36.913 L
179.39 37.084 L
179.541 37.254 L
179.692 37.425 L
179.842 37.595 L
179.993 37.765 L
180.144 37.936 L
180.294 38.106 L
180.445 38.276 L
180.596 38.446 L
180.747 38.616 L
180.897 38.787 L
181.048 38.957 L
181.199 39.127 L
181.349 39.297 L
181.5 39.467 L
181.651 39.636 L
181.801 39.806 L
181.952 39.976 L
182.103 40.146 L
182.253 40.315 L
182.404 40.485 L
182.555 40.655 L
182.706 40.824 L
182.856 40.993 L
183.007 41.163 L
183.158 41.332 L
183.308 41.501 L
183.459 41.67 L
183.61 41.839 L
183.76 42.008 L
183.911 42.177 L
184.062 42.345 L
184.213 42.514 L
184.363 42.682 L
184.514 42.851 L
184.665 43.019 L
184.815 43.187 L
184.966 43.355 L
185.117 43.523 L
185.267 43.691 L
185.418 43.859 L
185.569 44.027 L
185.719 44.194 L
185.87 44.362 L
186.021 44.529 L
186.172 44.696 L
186.322 44.863 L
186.473 45.03 L
186.624 45.197 L
186.774 45.363 L
186.925 45.53 L
187.076 45.696 L
187.226 45.862 L
187.377 46.028 L
187.528 46.194 L
187.678 46.36 L
187.829 46.526 L
187.98 46.691 L
188.131 46.857 L
188.281 47.022 L
188.432 47.187 L
188.583 47.352 L
188.733 47.516 L
188.884 47.681 L
189.035 47.845 L
189.185 48.01 L
189.336 48.174 L
189.487 48.338 L
189.637 48.501 L
189.788 48.665 L
189.939 48.828 L
190.09 48.992 L
190.24 49.155 L
190.391 49.318 L
190.542 49.481 L
190.692 49.643 L
190.843 49.806 L
190.994 49.968 L
191.144 50.13 L
191.295 50.292 L
191.446 50.453 L
191.597 50.615 L
191.747 50.776 L
191.898 50.937 L
192.049 51.098 L
192.199 51.259 L
192.35 51.42 L
192.501 51.58 L
192.651 51.74 L
192.802 51.9 L
192.953 52.06 L
193.103 52.22 L
193.254 52.379 L
193.405 52.539 L
193.556 52.698 L
193.706 52.857 L
193.857 53.015 L
194.008 53.174 L
194.158 53.332 L
194.309 53.49 L
194.46 53.648 L
194.61 53.806 L
194.761 53.963 L
194.912 54.121 L
195.063 54.278 L
195.213 54.435 L
195.364 54.592 L
195.515 54.748 L
195.665 54.905 L
195.816 55.061 L
195.967 55.217 L
196.117 55.373 L
196.268 55.528 L
196.419 55.684 L
196.569 55.839 L
196.72 55.994 L
196.871 56.149 L
197.022 56.303 L
197.172 56.458 L
197.323 56.612 L
197.474 56.766 L
197.624 56.92 L
197.775 57.074 L
197.926 57.227 L
198.076 57.38 L
198.227 57.534 L
198.378 57.686 L
198.528 57.839 L
198.679 57.992 L
198.83 58.144 L
198.981 58.296 L
199.131 58.448 L
199.282 58.6 L
199.433 58.751 L
199.583 58.903 L
199.734 59.054 L
199.885 59.205 L
200.035 59.356 L
200.186 59.507 L
200.337 59.657 L
200.488 59.807 L
200.638 59.957 L
200.789 60.107 L
200.94 60.257 L
201.09 60.407 L
201.241 60.556 L
201.392 60.705 L
201.542 60.854 L
201.693 61.003 L
201.844 61.152 L
201.994 61.301 L
202.145 61.449 L
202.296 61.597 L
202.447 61.745 L
202.597 61.893 L
202.748 62.041 L
202.899 62.188 L
203.049 62.336 L
203.2 62.483 L
203.351 62.63 L
203.501 62.777 L
203.652 62.924 L
203.803 63.071 L
203.953 63.217 L
204.104 63.363 L
204.255 63.51 L
204.406 63.656 L
204.556 63.802 L
204.707 63.947 L
204.858 64.093 L
205.008 64.238 L
205.159 64.384 L
205.31 64.529 L
205.46 64.674 L
205.611 64.819 L
205.762 64.964 L
205.912 65.109 L
206.063 65.253 L
206.214 65.398 L
206.365 65.542 L
206.515 65.686 L
206.666 65.83 L
206.817 65.974 L
206.967 66.118 L
207.118 66.262 L
207.269 66.406 L
207.419 66.549 L
207.57 66.693 L
207.721 66.836 L
207.872 66.979 L
208.022 67.122 L
208.173 67.266 L
208.324 67.409 L
208.474 67.551 L
208.625 67.694 L
208.776 67.837 L
208.926 67.98 L
209.077 68.122 L
209.228 68.265 L
209.378 68.407 L
209.529 68.55 L
209.68 68.692 L
209.831 68.834 L
209.981 68.976 L
210.132 69.119 L
210.283 69.261 L
210.433 69.403 L
210.584 69.545 L
210.735 69.687 L
210.885 69.829 L
211.036 69.97 L
211.187 70.112 L
211.338 70.254 L
211.488 70.396 L
211.639 70.538 L
211.79 70.679 L
211.94 70.821 L
212.091 70.963 L
212.242 71.104 L
212.392 71.246 L
212.543 71.388 L
212.694 71.529 L
212.844 71.671 L
212.995 71.813 L
213.146 71.954 L
213.297 72.096 L
213.447 72.238 L
213.598 72.379 L
213.749 72.521 L
213.899 72.663 L
214.05 72.804 L
214.201 72.946 L
214.351 73.088 L
214.502 73.23 L
214.653 73.372 L
214.803 73.514 L
214.954 73.656 L
215.105 73.798 L
215.256 73.94 L
215.406 74.082 L
215.557 74.224 L
215.708 74.367 L
215.858 74.509 L
216.009 74.651 L
216.16 74.794 L
216.31 74.936 L
216.461 75.079 L
216.612 75.222 L
216.762 75.365 L
216.913 75.508 L
217.064 75.651 L
217.215 75.794 L
217.365 75.937 L
217.516 76.08 L
217.667 76.224 L
217.817 76.368 L
217.968 76.511 L
218.119 76.655 L
218.269 76.799 L
218.42 76.943 L
218.571 77.088 L
218.722 77.232 L
218.872 77.377 L
219.023 77.522 L
219.174 77.666 L
219.324 77.811 L
219.475 77.957 L
219.626 78.102 L
219.776 78.248 L
219.927 78.394 L
220.078 78.54 L
220.228 78.686 L
220.379 78.832 L
220.53 78.979 L
220.681 79.125 L
220.831 79.272 L
220.982 79.42 L
221.133 79.567 L
221.283 79.715 L
221.434 79.862 L
221.585 80.011 L
221.735 80.159 L
221.886 80.307 L
222.037 80.456 L
222.188 80.605 L
222.338 80.755 L
222.489 80.904 L
222.64 81.054 L
222.79 81.204 L
222.941 81.355 L
223.092 81.505 L
223.242 81.656 L
223.393 81.808 L
223.544 81.959 L
223.694 82.111 L
223.845 82.263 L
223.996 82.416 L
224.147 82.569 L
224.297 82.722 L
224.448 82.875 L
224.599 83.029 L
224.749 83.183 L
224.9 83.338 L
225.051 83.492 L
225.201 83.648 L
225.352 83.803 L
225.503 83.959 L
225.653 84.115 L
225.804 84.272 L
225.955 84.429 L
226.106 84.586 L
226.256 84.744 L
226.407 84.902 L
226.558 85.061 L
226.708 85.22 L
226.859 85.379 L
227.01 85.539 L
227.16 85.699 L
227.311 85.86 L
227.462 86.021 L
227.613 86.183 L
227.763 86.345 L
227.914 86.507 L
228.065 86.67 L
228.215 86.834 L
228.366 86.998 L
228.517 87.162 L
228.667 87.327 L
228.818 87.492 L
228.969 87.658 L
229.119 87.824 L
229.27 87.991 L
229.421 88.158 L
229.572 88.326 L
229.722 88.494 L
229.873 88.663 L
230.024 88.832 L
230.174 89.002 L
230.325 89.173 L
230.476 89.344 L
230.626 89.515 L
230.777 89.687 L
230.928 89.86 L
231.078 90.033 L
231.229 90.207 L
231.38 90.381 L
231.531 90.556 L
231.681 90.732 L
231.832 90.908 L
231.983 91.085 L
232.133 91.262 L
232.284 91.44 L
232.435 91.619 L
232.585 91.798 L
232.736 91.978 L
232.887 92.158 L
233.038 92.339 L
233.188 92.521 L
233.339 92.703 L
233.49 92.886 L
233.64 93.07 L
233.791 93.255 L
233.942 93.44 L
234.092 93.625 L
234.243 93.812 L
234.394 93.999 L
234.544 94.187 L
234.695 94.375 L
234.846 94.564 L
234.997 94.754 L
235.147 94.945 L
235.298 95.136 L
235.449 95.328 L
235.599 95.521 L
235.75 95.714 L
235.901 95.909 L
236.051 96.104 L
236.202 96.299 L
236.353 96.496 L
236.503 96.693 L
236.654 96.891 L
236.805 97.09 L
236.956 97.289 L
237.106 97.49 L
237.257 97.691 L
237.408 97.893 L
237.558 98.095 L
237.709 98.299 L
237.86 98.503 L
238.01 98.708 L
238.161 98.914 L
238.312 99.12 L
238.462 99.328 L
238.613 99.536 L
238.764 99.745 L
238.915 99.955 L
239.065 100.166 L
239.216 100.377 L
239.367 100.589 L
239.517 100.802 L
239.668 101.016 L
239.819 101.231 L
239.969 101.447 L
240.12 101.663 L
240.271 101.881 L
240.422 102.099 L
240.572 102.318 L
240.723 102.538 L
240.874 102.758 L
241.024 102.98 L
241.175 103.202 L
241.326 103.425 L
241.476 103.649 L
241.627 103.874 L
241.778 104.1 L
241.928 104.327 L
242.079 104.554 L
242.23 104.783 L
242.381 105.012 L
242.531 105.242 L
242.682 105.473 L
242.833 105.704 L
242.983 105.937 L
243.134 106.17 L
243.285 106.405 L
243.435 106.64 L
243.586 106.876 L
243.737 107.113 L
243.887 107.35 L
244.038 107.589 L
244.189 107.828 L
244.34 108.068 L
244.49 108.309 L
244.641 108.551 L
244.792 108.794 L
244.942 109.037 L
245.093 109.282 L
245.244 109.527 L
245.394 109.773 L
245.545 110.02 L
245.696 110.267 L
245.847 110.516 L
245.997 110.765 L
246.148 111.015 L
246.299 111.265 L
246.449 111.517 L
246.6 111.769 L
246.751 112.022 L
246.901 112.276 L
247.052 112.531 L
247.203 112.786 L
247.353 113.042 L
247.504 113.299 L
247.655 113.556 L
247.806 113.814 L
247.956 114.073 L
248.107 114.333 L
248.258 114.593 L
248.408 114.854 L
248.559 115.116 L
248.71 115.378 L
248.86 115.641 L
249.011 115.905 L
249.162 116.169 L
249.313 116.434 L
249.463 116.7 L
249.614 116.966 L
249.765 117.232 L
249.915 117.5 L
250.066 117.768 L
250.217 118.036 L
250.367 118.305 L
250.518 118.574 L
250.669 118.844 L
250.819 119.115 L
250.97 119.386 L
251.121 119.657 L
251.272 119.929 L
251.422 120.202 L
251.573 120.474 L
251.724 120.748 L
251.874 121.021 L
252.025 121.295 L
252.176 121.57 L
252.326 121.845 L
252.477 122.12 L
252.628 122.395 L
252.778 122.671 L
252.929 122.947 L
253.08 123.224 L
253.231 123.5 L
253.381 123.777 L
253.532 124.054 L
253.683 124.332 L
253.833 124.609 L
253.984 124.887 L
254.135 125.165 L
254.285 125.443 L
254.436 125.721 L
254.587 126 L
254.738 126.278 L
254.888 126.557 L
255.039 126.835 L
255.19 127.114 L
255.34 127.392 L
255.491 127.671 L
255.642 127.95 L
255.792 128.228 L
255.943 128.507 L
256.094 128.785 L
256.244 129.064 L
256.395 129.342 L
256.546 129.62 L
256.697 129.898 L
256.847 130.176 L
256.998 130.454 L
257.149 130.731 L
257.299 131.009 L
257.45 131.286 L
257.601 131.563 L
257.751 131.839 L
257.902 132.115 L
258.053 132.391 L
258.203 132.667 L
258.354 132.942 L
258.505 133.217 L
258.656 133.491 L
258.806 133.765 L
258.957 134.039 L
259.108 134.312 L
259.258 134.585 L
259.409 134.857 L
259.56 135.129 L
259.71 135.4 L
259.861 135.671 L
260.012 135.941 L
260.163 136.211 L
260.313 136.48 L
260.464 136.748 L
260.615 137.016 L
260.765 137.283 L
260.916 137.55 L
261.067 137.816 L
261.217 138.081 L
261.368 138.345 L
261.519 138.609 L
261.669 138.872 L
261.82 139.134 L
261.971 139.395 L
262.122 139.656 L
262.272 139.916 L
262.423 140.175 L
262.574 140.433 L
262.724 140.69 L
262.875 140.947 L
263.026 141.202 L
263.176 141.457 L
263.327 141.711 L
263.478 141.964 L
263.628 142.216 L
263.779 142.467 L
263.93 142.717 L
264.081 142.966 L
264.231 143.214 L
264.382 143.461 L
264.533 143.707 L
264.683 143.952 L
264.834 144.196 L
264.985 144.439 L
265.135 144.681 L
265.286 144.922 L
265.437 145.162 L
265.587 145.4 L
265.738 145.638 L
265.889 145.875 L
266.04 146.11 L
266.19 146.344 L
266.341 146.577 L
266.492 146.809 L
266.642 147.04 L
266.793 147.27 L
266.944 147.498 L
267.094 147.725 L
267.245 147.952 L
267.396 148.176 L
267.547 148.4 L
267.697 148.623 L
267.848 148.844 L
267.999 149.064 L
268.149 149.283 L
268.3 149.5 L
268.451 149.717 L
268.601 149.932 L
268.752 150.146 L
268.903 150.358 L
269.053 150.57 L
269.204 150.78 L
269.355 150.989 L
269.506 151.196 L
269.656 151.402 L
269.807 151.607 L
269.958 151.811 L
270.108 152.013 L
270.259 152.215 L
270.41 152.414 L
270.56 152.613 L
270.711 152.81 L
270.862 153.006 L
271.012 153.201 L
271.163 153.394 L
271.314 153.586 L
271.465 153.777 L
271.615 153.966 L
271.766 154.154 L
271.917 154.341 L
272.067 154.526 L
272.218 154.71 L
272.369 154.893 L
272.519 155.074 L
272.67 155.255 L
272.821 155.433 L
272.972 155.611 L
273.122 155.787 L
273.273 155.962 L
273.424 156.136 L
273.574 156.308 L
273.725 156.479 L
273.876 156.649 L
274.026 156.817 L
274.177 156.984 L
274.328 157.15 L
274.478 157.314 L
274.629 157.477 L
274.78 157.639 L
274.931 157.799 L
275.081 157.958 L
275.232 158.116 L
275.383 158.273 L
275.533 158.428 L
275.684 158.582 L
275.835 158.735 L
275.985 158.886 L
276.136 159.036 L
276.287 159.185 L
276.438 159.333 L
276.588 159.479 L
276.739 159.624 L
276.89 159.768 L
277.04 159.91 L
277.191 160.052 L
277.342 160.192 L
277.492 160.33 L
277.643 160.468 L
277.794 160.604 L
277.944 160.739 L
278.095 160.873 L
278.246 161.005 L
278.397 161.136 L
278.547 161.266 L
278.698 161.395 L
278.849 161.523 L
278.999 161.649 L
279.15 161.774 L
279.301 161.898 L
279.451 162.021 L
279.602 162.142 L
279.753 162.262 L
279.903 162.382 L
280.054 162.5 L
280.205 162.616 L
280.356 162.732 L
280.506 162.846 L
280.657 162.959 L
280.808 163.071 L
280.958 163.182 L
281.109 163.292 L
281.26 163.401 L
281.41 163.508 L
281.561 163.614 L
281.712 163.719 L
281.863 163.823 L
282.013 163.926 L
282.164 164.028 L
282.315 164.128 L
282.465 164.228 L
282.616 164.326 L
282.767 164.424 L
282.917 164.52 L
283.068 164.615 L
283.219 164.709 L
283.369 164.802 L
283.52 164.893 L
283.671 164.984 L
283.822 165.074 L
283.972 165.162 L
284.123 165.25 L
284.274 165.336 L
284.424 165.421 L
284.575 165.506 L
284.726 165.589 L
284.876 165.671 L
285.027 165.752 L
285.178 165.833 L
285.328 165.912 L
285.479 165.99 L
285.63 166.067 L
285.781 166.143 L
285.931 166.218 L
286.082 166.292 L
286.233 166.365 L
286.383 166.437 L
286.534 166.508 L
286.685 166.578 L
286.835 166.647 L
286.986 166.715 L
287.137 166.782 L
287.288 166.848 L
287.438 166.914 L
287.589 166.978 L
287.74 167.041 L
287.89 167.103 L
288.041 167.165 L
288.192 167.225 L
288.342 167.285 L
288.493 167.343 L
288.644 167.401 L
288.794 167.457 L
288.945 167.513 L
289.096 167.568 L
289.247 167.622 L
289.397 167.675 L
289.548 167.727 L
289.699 167.778 L
289.849 167.829 L
290 167.878 L
290.151 167.926 L
290.301 167.974 L
290.452 168.021 L
290.603 168.067 L
290.753 168.112 L
290.904 168.156 L
291.055 168.199 L
291.206 168.242 L
291.356 168.283 L
291.507 168.324 L
291.658 168.364 L
291.808 168.403 L
291.959 168.441 L
292.11 168.478 L
292.26 168.515 L
292.411 168.55 L
292.562 168.585 L
292.712 168.619 L
292.863 168.652 L
293.014 168.685 L
293.165 168.716 L
293.315 168.747 L
293.466 168.777 L
293.617 168.806 L
293.767 168.835 L
293.918 168.862 L
294.069 168.889 L
294.219 168.915 L
294.37 168.94 L
294.521 168.965 L
294.672 168.988 L
294.822 169.011 L
294.973 169.033 L
295.124 169.054 L
295.274 169.075 L
295.425 169.095 L
295.576 169.114 L
295.726 169.132 L
295.877 169.15 L
296.028 169.167 L
296.178 169.183 L
296.329 169.198 L
296.48 169.212 L
296.631 169.226 L
296.781 169.239 L
296.932 169.252 L
297.083 169.263 L
297.233 169.274 L
297.384 169.285 L
297.535 169.294 L
297.685 169.303 L
297.836 169.311 L
297.987 169.318 L
298.137 169.325 L
298.288 169.331 L
298.439 169.336 L
298.59 169.341 L
298.74 169.345 L
298.891 169.348 L
299.042 169.35 L
299.192 169.352 L
299.343 169.353 L
299.494 169.354 L
299.644 169.353 L
299.795 169.352 L
299.946 169.351 L
300.097 169.348 L
300.247 169.346 L
300.398 169.342 L
300.549 169.338 L
300.699 169.333 L
300.85 169.327 L
301.001 169.321 L
301.151 169.314 L
301.302 169.306 L
301.453 169.298 L
301.603 169.289 L
301.754 169.28 L
301.905 169.27 L
302.056 169.259 L
302.206 169.247 L
302.357 169.235 L
302.508 169.223 L
302.658 169.209 L
302.809 169.195 L
302.96 169.181 L
303.11 169.166 L
303.261 169.15 L
303.412 169.133 L
303.563 169.116 L
303.713 169.098 L
303.864 169.08 L
304.015 169.061 L
304.165 169.042 L
304.316 169.021 L
304.467 169.001 L
304.617 168.979 L
304.768 168.957 L
304.919 168.935 L
305.069 168.912 L
305.22 168.888 L
305.371 168.863 L
305.522 168.839 L
305.672 168.813 L
305.823 168.787 L
305.974 168.76 L
306.124 168.733 L
306.275 168.705 L
306.426 168.676 L
306.576 168.647 L
306.727 168.618 L
306.878 168.587 L
307.028 168.556 L
307.179 168.525 L
307.33 168.493 L
307.481 168.461 L
307.631 168.427 L
307.782 168.394 L
307.933 168.359 L
308.083 168.325 L
308.234 168.289 L
308.385 168.253 L
308.535 168.217 L
308.686 168.18 L
308.837 168.142 L
308.988 168.104 L
309.138 168.065 L
309.289 168.025 L
309.44 167.986 L
309.59 167.945 L
309.741 167.904 L
309.892 167.863 L
310.042 167.82 L
310.193 167.778 L
310.344 167.735 L
310.494 167.691 L
310.645 167.646 L
310.796 167.602 L
310.947 167.556 L
311.097 167.51 L
311.248 167.464 L
311.399 167.417 L
311.549 167.369 L
311.7 167.321 L
311.851 167.272 L
312.001 167.223 L
312.152 167.174 L
312.303 167.123 L
312.453 167.072 L
312.604 167.021 L
312.755 166.969 L
312.906 166.917 L
313.056 166.864 L
313.207 166.811 L
313.358 166.757 L
313.508 166.702 L
313.659 166.647 L
313.81 166.591 L
313.96 166.535 L
314.111 166.479 L
314.262 166.422 L
314.413 166.364 L
314.563 166.306 L
314.714 166.247 L
314.865 166.188 L
315.015 166.128 L
315.166 166.068 L
315.317 166.007 L
315.467 165.946 L
315.618 165.884 L
315.769 165.821 L
315.919 165.759 L
316.07 165.695 L
316.221 165.631 L
316.372 165.567 L
316.522 165.502 L
316.673 165.437 L
316.824 165.371 L
316.974 165.304 L
317.125 165.237 L
317.276 165.17 L
317.426 165.102 L
317.577 165.033 L
317.728 164.964 L
317.878 164.895 L
318.029 164.825 L
318.18 164.754 L
318.331 164.683 L
318.481 164.611 L
318.632 164.539 L
318.783 164.467 L
318.933 164.394 L
319.084 164.32 L
319.235 164.246 L
319.385 164.171 L
319.536 164.096 L
319.687 164.02 L
319.837 163.944 L
319.988 163.868 L
320.139 163.79 L
320.29 163.713 L
320.44 163.635 L
320.591 163.556 L
320.742 163.477 L
320.892 163.397 L
321.043 163.317 L
321.194 163.236 L
321.344 163.155 L
321.495 163.073 L
321.646 162.991 L
321.797 162.908 L
321.947 162.825 L
322.098 162.741 L
322.249 162.657 L
322.399 162.573 L
322.55 162.487 L
322.701 162.402 L
322.851 162.315 L
323.002 162.229 L
323.153 162.141 L
323.303 162.054 L
323.454 161.965 L
323.605 161.877 L
323.756 161.787 L
323.906 161.697 L
324.057 161.607 L
324.208 161.516 L
324.358 161.425 L
324.509 161.333 L
324.66 161.241 L
324.81 161.148 L
324.961 161.055 L
325.112 160.961 L
325.262 160.867 L
325.413 160.772 L
325.564 160.677 L
325.715 160.581 L
325.865 160.484 L
326.016 160.387 L
326.167 160.29 L
326.317 160.192 L
326.468 160.094 L
326.619 159.995 L
326.769 159.896 L
326.92 159.796 L
327.071 159.695 L
327.222 159.594 L
327.372 159.493 L
327.523 159.391 L
327.674 159.288 L
327.824 159.185 L
327.975 159.082 L
328.126 158.978 L
328.276 158.873 L
328.427 158.768 L
328.578 158.663 L
328.728 158.557 L
328.879 158.45 L
329.03 158.343 L
329.181 158.235 L
329.331 158.127 L
329.482 158.018 L
329.633 157.909 L
329.783 157.799 L
329.934 157.689 L
330.085 157.578 L
330.235 157.467 L
330.386 157.355 L
330.537 157.243 L
330.688 157.13 L
330.838 157.017 L
330.989 156.903 L
331.14 156.788 L
331.29 156.673 L
331.441 156.558 L
331.592 156.442 L
331.742 156.325 L
331.893 156.208 L
332.044 156.09 L
332.194 155.972 L
332.345 155.854 L
332.496 155.734 L
332.647 155.615 L
332.797 155.494 L
332.948 155.373 L
333.099 155.252 L
333.249 155.13 L
333.4 155.008 L
333.551 154.885 L
333.701 154.761 L
333.852 154.637 L
334.003 154.512 L
334.153 154.387 L
334.304 154.261 L
334.455 154.135 L
334.606 154.008 L
334.756 153.881 L
334.907 153.753 L
335.058 153.624 L
335.208 153.495 L
335.359 153.366 L
335.51 153.235 L
335.66 153.105 L
335.811 152.973 L
335.962 152.841 L
336.113 152.709 L
336.263 152.576 L
336.414 152.442 L
336.565 152.308 L
336.715 152.173 L
336.866 152.038 L
337.017 151.902 L
337.167 151.766 L
337.318 151.629 L
337.469 151.491 L
337.619 151.353 L
337.77 151.214 L
337.921 151.075 L
338.072 150.935 L
338.222 150.794 L
338.373 150.653 L
338.524 150.512 L
338.674 150.369 L
338.825 150.226 L
338.976 150.083 L
339.126 149.939 L
339.277 149.794 L
339.428 149.649 L
339.578 149.503 L
339.729 149.357 L
339.88 149.209 L
340.031 149.062 L
340.181 148.913 L
340.332 148.764 L
340.483 148.615 L
340.633 148.465 L
340.784 148.314 L
340.935 148.163 L
341.085 148.011 L
341.236 147.858 L
341.387 147.705 L
341.538 147.551 L
341.688 147.396 L
341.839 147.241 L
341.99 147.085 L
342.14 146.929 L
342.291 146.771 L
342.442 146.614 L
342.592 146.455 L
342.743 146.296 L
342.894 146.136 L
343.044 145.976 L
343.195 145.815 L
343.346 145.653 L
343.497 145.491 L
343.647 145.328 L
343.798 145.164 L
343.949 145 L
344.099 144.835 L
344.25 144.669 L
344.401 144.503 L
344.551 144.336 L
344.702 144.168 L
344.853 143.999 L
345.003 143.83 L
345.154 143.66 L
345.305 143.49 L
345.456 143.319 L
345.606 143.147 L
345.757 142.974 L
345.908 142.801 L
346.058 142.627 L
346.209 142.452 L
346.36 142.276 L
346.51 142.1 L
346.661 141.923 L
346.812 141.745 L
346.962 141.567 L
347.113 141.388 L
347.264 141.208 L
347.415 141.027 L
347.565 140.846 L
347.716 140.664 L
347.867 140.481 L
348.017 140.297 L
348.168 140.112 L
348.319 139.927 L
348.469 139.741 L
348.62 139.554 L
348.771 139.367 L
348.922 139.179 L
349.072 138.989 L
349.223 138.8 L
349.374 138.609 L
349.524 138.417 L
349.675 138.225 L
349.826 138.032 L
349.976 137.838 L
350.127 137.643 L
350.278 137.448 L
350.428 137.251 L
350.579 137.054 L
350.73 136.856 L
350.881 136.657 L
351.031 136.457 L
351.182 136.256 L
351.333 136.055 L
351.483 135.853 L
351.634 135.649 L
351.785 135.445 L
351.935 135.24 L
352.086 135.034 L
352.237 134.828 L
352.387 134.62 L
352.538 134.411 L
352.689 134.202 L
352.84 133.992 L
352.99 133.78 L
353.141 133.568 L
353.292 133.355 L
353.442 133.141 L
353.593 132.926 L
353.744 132.71 L
353.894 132.493 L
354.045 132.275 L
354.196 132.056 L
354.347 131.837 L
354.497 131.616 L
354.648 131.394 L
354.799 131.171 L
354.949 130.948 L
355.1 130.723 L
355.251 130.497 L
355.401 130.27 L
355.552 130.043 L
355.703 129.814 L
355.853 129.584 L
356.004 129.353 L
356.155 129.121 L
356.306 128.888 L
356.456 128.654 L
356.607 128.419 L
356.758 128.183 L
356.908 127.946 L
357.059 127.707 L
357.21 127.468 L
357.36 127.227 L
357.511 126.985 L
357.662 126.742 L
357.813 126.498 L
357.963 126.253 L
358.114 126.007 L
358.265 125.76 L
358.415 125.511 L
358.566 125.261 L
358.717 125.01 L
358.867 124.758 L
359.018 124.505 L
359.169 124.25 L
359.319 123.994 L
359.47 123.737 L
359.621 123.479 L
359.772 123.219 L
359.922 122.959 L
360.073 122.697 L
360.224 122.433 L
360.374 122.169 L
360.525 121.903 L
360.676 121.635 L
360.826 121.367 L
360.977 121.097 L
361.128 120.826 L
361.278 120.553 L
361.429 120.279 L
361.58 120.004 L
361.731 119.727 L
361.881 119.449 L
362.032 119.17 L
362.183 118.889 L
362.333 118.607 L
362.484 118.323 L
362.635 118.038 L
362.785 117.751 L
362.936 117.463 L
363.087 117.173 L
363.237 116.882 L
363.388 116.589 L
363.539 116.295 L
363.69 116 L
363.84 115.702 L
363.991 115.404 L
364.142 115.103 L
364.292 114.801 L
364.443 114.498 L
364.594 114.193 L
364.744 113.886 L
364.895 113.578 L
365.046 113.268 L
365.197 112.956 L
365.347 112.643 L
365.498 112.328 L
365.649 112.011 L
365.799 111.693 L
365.95 111.372 L
366.101 111.05 L
366.251 110.727 L
366.402 110.401 L
366.553 110.074 L
366.703 109.745 L
366.854 109.414 L
367.005 109.082 L
367.156 108.747 L
367.306 108.411 L
367.457 108.073 L
367.608 107.732 L
367.758 107.39 L
367.909 107.047 L
368.06 106.701 L
368.21 106.353 L
368.361 106.003 L
368.512 105.651 L
368.663 105.298 L
368.813 104.942 L
368.964 104.584 L
369.115 104.224 L
369.265 103.863 L
369.416 103.499 L
369.567 103.133 L
369.717 102.765 L
369.868 102.394 L
370.019 102.022 L
370.169 101.648 L
370.32 101.271 L
370.471 100.892 L
370.622 100.511 L
370.772 100.128 L
370.923 99.743 L
371.074 99.355 L
371.224 98.965 L
371.375 98.573 L
371.526 98.178 L
371.676 97.782 L
371.827 97.383 L
371.978 96.981 L
372.128 96.577 L
372.279 96.171 L
372.43 95.763 L
372.581 95.352 L
372.731 94.939 L
372.882 94.523 L
373.033 94.105 L
373.183 93.685 L
373.334 93.262 L
373.485 92.836 L
373.635 92.408 L
373.786 91.978 L
373.937 91.545 L
374.087 91.11 L
374.238 90.672 L
374.389 90.231 L
374.54 89.788 L
374.69 89.343 L
374.841 88.895 L
374.992 88.444 L
375.142 87.991 L
375.293 87.535 L
375.444 87.076 L
375.594 86.615 L
375.745 86.152 L
375.896 85.685 L
376.047 85.217 L
376.197 84.745 L
376.348 84.271 L
376.499 83.794 L
376.649 83.314 L
376.8 82.832 L
376.951 82.347 L
377.101 81.86 L
377.252 81.37 L
377.403 80.877 L
377.553 80.382 L
377.704 79.884 L
377.855 79.383 L
378.006 78.88 L
378.156 78.374 L
378.307 77.865 L
378.458 77.354 L
378.608 76.84 L
378.759 76.323 L
378.91 75.804 L
379.06 75.283 L
379.211 74.758 L
379.362 74.232 L
379.513 73.702 L
379.663 73.17 L
379.814 72.636 L
379.965 72.099 L
380.115 71.559 L
380.266 71.017 L
380.417 70.473 L
380.567 69.926 L
380.718 69.377 L
380.869 68.825 L
381.019 68.271 L
381.17 67.714 L
381.321 67.156 L
381.471 66.595 L
381.622 66.031 L
381.773 65.466 L
381.924 64.898 L
382.074 64.328 L
382.225 63.756 L
382.376 63.182 L
382.526 62.606 L
382.677 62.028 L
382.828 61.448 L
382.978 60.866 L
383.129 60.282 L
383.28 59.696 L
383.431 59.109 L
383.581 58.519 L
383.732 57.928 L
383.883 57.335 L
384.033 56.741 L
384.184 56.145 L
384.335 55.548 L
384.485 54.949 L
384.636 54.349 L
384.787 53.747 L
384.938 53.144 L
385.088 52.54 L
385.239 51.935 L
385.39 51.328 L
385.54 50.721 L
385.691 50.112 L
385.842 49.503 L
385.992 48.892 L
386.143 48.281 L
386.294 47.669 L
386.444 47.057 L
386.595 46.443 L
386.746 45.83 L
386.897 45.215 L
387.047 44.601 L
387.198 43.986 L
387.349 43.37 L
387.499 42.755 L
387.65 42.139 L
387.801 41.523 L
387.951 40.907 L
388.102 40.291 L
388.253 39.675 L
388.404 39.059 L
388.554 38.444 L
388.705 37.829 L
388.856 37.214 L
389.006 36.599 L
389.157 35.986 L
389.308 35.372 L
389.458 34.759 L
389.609 34.147 L
389.76 33.536 L
389.91 32.925 L
390.061 32.316 L
390.212 31.707 L
390.362 31.099 L
390.513 373.492 L
390.664 372.886 L
390.815 372.282 L
390.965 371.679 L
391.116 371.076 L
391.267 370.476 L
391.417 369.876 L
391.568 369.278 L
391.719 368.682 L
391.869 368.087 L
392.02 367.493 L
392.171 366.901 L
392.322 366.311 L
392.472 365.723 L
392.623 365.136 L
392.774 364.551 L
392.924 363.968 L
393.075 363.387 L
393.226 362.807 L
393.376 362.23 L
393.527 361.654 L
393.678 361.081 L
393.828 360.51 L
393.979 359.94 L
394.13 359.373 L
394.281 358.808 L
394.431 358.245 L
394.582 357.684 L
394.733 357.126 L
394.883 356.57 L
395.034 356.016 L
395.185 355.464 L
395.335 354.915 L
395.486 354.368 L
395.637 353.823 L
395.788 353.281 L
395.938 352.741 L
396.089 352.204 L
396.24 351.669 L
396.39 351.136 L
396.541 350.606 L
396.692 350.078 L
396.842 349.553 L
396.993 349.03 L
397.144 348.51 L
397.294 347.992 L
397.445 347.477 L
397.596 346.964 L
397.747 346.454 L
397.897 345.946 L
398.048 345.441 L
398.199 344.938 L
398.349 344.438 L
398.5 343.94 L
398.651 343.445 L
398.801 342.952 L
398.952 342.462 L
399.103 341.974 L
399.253 341.489 L
399.404 341.006 L
399.555 340.526 L
399.706 340.048 L
399.856 339.573 L
400.007 339.1 L
400.158 338.63 L
400.308 338.162 L
400.459 337.697 L
400.61 337.234 L
400.76 336.773 L
400.911 336.315 L
401.062 335.859 L
401.212 335.406 L
401.363 334.955 L
401.514 334.507 L
401.665 334.061 L
401.815 333.617 L
401.966 333.176 L
402.117 332.737 L
402.267 332.3 L
402.418 331.866 L
402.569 331.434 L
402.719 331.004 L
402.87 330.577 L
403.021 330.151 L
403.172 329.728 L
403.322 329.308 L
403.473 328.889 L
403.624 328.473 L
403.774 328.059 L
403.925 327.647 L
404.076 327.237 L
404.226 326.83 L
404.377 326.424 L
404.528 326.021 L
404.678 325.62 L
404.829 325.221 L
404.98 324.824 L
405.131 324.429 L
405.281 324.036 L
405.432 323.645 L
405.583 323.256 L
405.733 322.869 L
405.884 322.485 L
406.035 322.102 L
406.185 321.721 L
406.336 321.342 L
406.487 320.965 L
406.638 320.59 L
406.788 320.216 L
406.939 319.845 L
407.09 319.476 L
407.24 319.108 L
407.391 318.742 L
407.542 318.378 L
407.692 318.016 L
407.843 317.656 L
407.994 317.297 L
408.144 316.941 L
408.295 316.586 L
408.446 316.232 L
408.596 315.881 L
408.747 315.531 L
408.898 315.183 L
409.049 314.837 L
409.199 314.492 L
409.35 314.149 L
409.501 313.807 L
409.651 313.467 L
409.802 313.129 L
409.953 312.793 L
410.103 312.457 L
410.254 312.124 L
410.405 311.792 L
410.556 311.462 L
410.706 311.133 L
410.857 310.806 L
411.008 310.48 L
411.158 310.156 L
411.309 309.833 L
411.46 309.512 L
411.61 309.192 L
411.761 308.874 L
411.912 308.557 L
412.063 308.241 L
412.213 307.927 L
412.364 307.614 L
412.515 307.303 L
412.665 306.993 L
412.816 306.685 L
412.967 306.378 L
413.117 306.072 L
413.268 305.767 L
413.419 305.464 L
413.569 305.162 L
413.72 304.862 L
413.871 304.563 L
414.022 304.265 L
414.172 303.968 L
414.323 303.672 L
414.474 303.378 L
414.624 303.085 L
414.775 302.794 L
414.926 302.503 L
415.076 302.214 L
415.227 301.926 L
415.378 301.639 L
415.529 301.354 L
415.679 301.069 L
415.83 300.786 L
415.981 300.504 L
416.131 300.223 L
416.282 299.943 L
416.433 299.664 L
416.583 299.387 L
416.734 299.11 L
416.885 298.835 L
417.035 298.56 L
417.186 298.287 L
417.337 298.015 L
417.487 297.744 L
417.638 297.474 L
417.789 297.205 L
417.94 296.938 L
418.09 296.671 L
418.241 296.405 L
418.392 296.14 L
418.542 295.877 L
418.693 295.614 L
418.844 295.352 L
418.994 295.092 L
419.145 294.832 L
419.296 294.573 L
419.447 294.316 L
419.597 294.059 L
419.748 293.803 L
419.899 293.548 L
420.049 293.294 L
420.2 293.041 L
420.351 292.79 L
420.501 292.538 L
420.652 292.288 L
420.803 292.039 L
420.953 291.791 L
421.104 291.544 L
421.255 291.297 L
421.406 291.052 L
421.556 290.807 L
421.707 290.563 L
421.858 290.32 L
422.008 290.078 L
422.159 289.837 L
422.31 289.597 L
422.46 289.357 L
422.611 289.119 L
422.762 288.881 L
422.913 288.644 L
423.063 288.408 L
423.214 288.173 L
423.365 287.938 L
423.515 287.705 L
423.666 287.472 L
423.817 287.24 L
423.967 287.009 L
424.118 286.779 L
424.269 286.549 L
424.419 286.32 L
424.57 286.092 L
424.721 285.865 L
424.872 285.639 L
425.022 285.413 L
425.173 285.188 L
425.324 284.964 L
425.474 284.741 L
425.625 284.519 L
425.776 284.297 L
425.926 284.076 L
426.077 283.855 L
426.228 283.636 L
426.378 283.417 L
426.529 283.199 L
426.68 282.982 L
426.831 282.765 L
426.981 282.549 L
427.132 282.334 L
427.283 282.12 L
427.433 281.906 L
427.584 281.693 L
427.735 281.48 L
427.885 281.269 L
428.036 281.058 L
428.187 280.848 L
428.337 280.638 L
428.488 280.429 L
428.639 280.221 L
428.79 280.014 L
428.94 279.807 L
429.091 279.601 L
429.242 279.395 L
429.392 279.191 L
429.543 278.987 L
429.694 278.783 L
429.844 278.58 L
429.995 278.378 L
430.146 278.177 L
430.297 277.976 L
430.447 277.776 L
430.598 277.576 L
430.749 277.377 L
430.899 277.179 L
431.05 276.982 L
431.201 276.785 L
431.351 276.588 L
431.502 276.393 L
431.653 276.198 L
431.803 276.003 L
431.954 275.809 L
432.105 275.616 L
432.256 275.424 L
432.406 275.232 L
432.557 275.04 L
432.708 274.85 L
432.858 274.66 L
433.009 274.47 L
433.16 274.281 L
433.31 274.093 L
433.461 273.905 L
433.612 273.718 L
433.763 273.532 L
433.913 273.346 L
434.064 273.16 L
434.215 272.976 L
434.365 272.792 L
434.516 272.608 L
434.667 272.425 L
434.817 272.243 L
434.968 272.061 L
435.119 271.88 L
435.269 271.699 L
435.42 271.519 L
435.571 271.34 L
435.721 271.161 L
435.872 270.982 L
436.023 270.805 L
436.174 270.627 L
436.324 270.451 L
436.475 270.275 L
436.626 270.099 L
436.776 269.924 L
436.927 269.75 L
437.078 269.576 L
437.228 269.403 L
437.379 269.23 L
437.53 269.058 L
437.681 268.886 L
437.831 268.715 L
437.982 268.544 L
438.133 268.374 L
438.283 268.205 L
438.434 268.036 L
438.585 267.868 L
438.735 267.7 L
438.886 267.532 L
439.037 267.366 L
439.188 267.199 L
439.338 267.034 L
439.489 266.869 L
439.64 266.704 L
439.79 266.54 L
439.941 266.376 L
440.092 266.213 L
440.242 266.051 L
440.393 265.889 L
440.544 265.727 L
440.694 265.566 L
440.845 265.406 L
440.996 265.246 L
441.147 265.087 L
441.297 264.928 L
441.448 264.769 L
441.599 264.612 L
441.749 264.454 L
441.9 264.297 L
442.051 264.141 L
442.201 263.985 L
442.352 263.83 L
442.503 263.675 L
442.654 263.521 L
442.804 263.367 L
442.955 263.214 L
443.106 263.061 L
443.256 262.909 L
443.407 262.758 L
443.558 262.606 L
443.708 262.456 L
443.859 262.305 L
444.01 262.156 L
444.16 262.006 L
444.311 261.858 L
444.462 261.71 L
444.612 261.562 L
444.763 261.415 L
444.914 261.268 L
445.065 261.122 L
445.215 260.976 L
445.366 260.831 L
445.517 260.686 L
445.667 260.542 L
445.818 260.398 L
445.969 260.255 L
446.119 260.112 L
446.27 259.969 L
446.421 259.828 L
446.572 259.686 L
446.722 259.546 L
446.873 259.405 L
447.024 259.265 L
447.174 259.126 L
447.325 258.987 L
447.476 258.849 L
447.626 258.711 L
447.777 258.573 L
447.928 258.436 L
448.078 258.3 L
448.229 258.164 L
448.38 258.028 L
448.531 257.893 L
448.681 257.759 L
448.832 257.625 L
448.983 257.491 L
449.133 257.358 L
449.284 257.225 L
449.435 257.093 L
449.585 256.961 L
449.736 256.83 L
449.887 256.699 L
450.038 256.569 L
450.188 256.439 L
450.339 256.31 L
450.49 256.181 L
450.64 256.053 L
450.791 255.925 L
450.942 255.798 L
451.092 255.671 L
451.243 255.544 L
451.394 255.418 L
451.544 255.293 L
451.695 255.168 L
451.846 255.043 L
451.997 254.919 L
452.147 254.795 L
452.298 254.672 L
452.449 254.549 L
452.599 254.427 L
452.75 254.305 L
452.901 254.184 L
453.051 254.063 L
453.202 253.943 L
453.353 253.823 L
453.503 253.704 L
453.654 253.585 L
453.805 253.466 L
453.956 253.348 L
454.106 253.231 L
454.257 253.114 L
454.408 252.997 L
454.558 252.881 L
454.709 252.765 L
454.86 252.65 L
455.01 252.536 L
455.161 252.421 L
455.312 252.307 L
455.462 252.194 L
455.613 252.081 L
455.764 251.969 L
455.915 251.857 L
456.065 251.746 L
456.216 251.635 L
456.367 251.524 L
456.517 251.414 L
456.668 251.304 L
456.819 251.195 L
456.969 251.087 L
457.12 250.979 L
457.271 250.871 L
457.422 250.764 L
457.572 250.657 L
457.723 250.551 L
457.874 250.445 L
458.024 250.339 L
458.175 250.235 L
458.326 250.13 L
458.476 250.026 L
458.627 249.923 L
458.778 249.82 L
458.928 249.717 L
459.079 249.615 L
459.23 249.513 L
459.381 249.412 L
459.531 249.312 L
459.682 249.211 L
459.833 249.112 L
459.983 249.013 L
460.134 248.914 L
460.285 248.815 L
460.435 248.718 L
460.586 248.62 L
460.737 248.523 L
460.888 248.427 L
461.038 248.331 L
461.189 248.236 L
461.34 248.141 L
461.49 248.046 L
461.641 247.952 L
461.792 247.858 L
461.942 247.765 L
462.093 247.673 L
462.244 247.581 L
462.394 247.489 L
462.545 247.398 L
462.696 247.307 L
462.846 247.217 L
462.997 247.127 L
463.148 247.038 L
463.299 246.949 L
463.449 246.861 L
463.6 246.773 L
463.751 246.685 L
463.901 246.599 L
464.052 246.512 L
464.203 246.426 L
464.353 246.341 L
464.504 246.256 L
464.655 246.171 L
464.806 246.087 L
464.956 246.004 L
465.107 245.921 L
465.258 245.838 L
465.408 245.756 L
465.559 245.675 L
465.71 245.594 L
465.86 245.513 L
466.011 245.433 L
466.162 245.354 L
466.313 245.274 L
466.463 245.196 L
466.614 245.118 L
466.765 245.04 L
466.915 244.963 L
467.066 244.886 L
467.217 244.81 L
467.367 244.735 L
467.518 244.659 L
467.669 244.585 L
467.819 244.511 L
467.97 244.437 L
468.121 244.364 L
468.272 244.291 L
468.422 244.219 L
468.573 244.147 L
468.724 244.076 L
468.874 244.006 L
469.025 243.936 L
469.176 243.866 L
469.326 243.797 L
469.477 243.728 L
469.628 243.66 L
469.779 243.593 L
469.929 243.526 L
470.08 243.459 L
470.231 243.393 L
470.381 243.328 L
470.532 243.263 L
470.683 243.198 L
470.833 243.134 L
470.984 243.071 L
471.135 243.008 L
471.285 242.945 L
471.436 242.883 L
471.587 242.822 L
471.737 242.761 L
471.888 242.701 L
472.039 242.641 L
472.19 242.582 L
472.34 242.523 L
472.491 242.465 L
472.642 242.407 L
472.792 242.35 L
472.943 242.294 L
473.094 242.238 L
473.244 242.182 L
473.395 242.127 L
473.546 242.073 L
473.697 242.019 L
473.847 241.966 L
473.998 241.913 L
474.149 241.861 L
474.299 241.809 L
474.45 241.758 L
474.601 241.707 L
474.751 241.657 L
474.902 241.608 L
475.053 241.559 L
475.203 241.511 L
475.354 241.463 L
475.505 241.415 L
475.656 241.369 L
475.806 241.323 L
475.957 241.277 L
476.108 241.232 L
476.258 241.188 L
476.409 241.144 L
476.56 241.101 L
476.71 241.058 L
476.861 241.016 L
477.012 240.974 L
477.163 240.933 L
477.313 240.893 L
477.464 240.853 L
477.615 240.814 L
477.765 240.776 L
477.916 240.737 L
478.067 240.7 L
478.217 240.663 L
478.368 240.627 L
478.519 240.591 L
478.669 240.556 L
478.82 240.522 L
478.971 240.488 L
479.122 240.455 L
479.272 240.422 L
479.423 240.39 L
479.574 240.359 L
479.724 240.328 L
479.875 240.298 L
480.026 240.268 L
480.176 240.24 L
480.327 240.211 L
480.478 240.184 L
480.628 240.157 L
480.779 240.13 L
480.93 240.104 L
481.081 240.079 L
481.231 240.055 L
481.382 240.031 L
481.533 240.008 L
481.683 239.985 L
481.834 239.963 L
481.985 239.942 L
482.135 239.921 L
482.286 239.901 L
482.437 239.882 L
482.587 239.864 L
482.738 239.846 L
482.889 239.828 L
483.04 239.812 L
483.19 239.796 L
483.341 239.781 L
483.492 239.766 L
483.642 239.752 L
483.793 239.739 L
483.944 239.726 L
484.094 239.714 L
484.245 239.703 L
484.396 239.693 L
484.547 239.683 L
484.697 239.674 L
484.848 239.666 L
484.999 239.658 L
485.149 239.651 L
485.3 239.645 L
485.451 239.639 L
485.601 239.635 L
485.752 239.631 L
485.903 239.627 L
486.053 239.625 L
486.204 239.623 L
486.355 239.622 L
486.506 239.621 L
486.656 239.622 L
486.807 239.623 L
486.958 239.625 L
487.108 239.628 L
487.259 239.631 L
487.41 239.635 L
487.56 239.64 L
487.711 239.646 L
487.862 239.652 L
488.013 239.66 L
488.163 239.668 L
488.314 239.676 L
488.465 239.686 L
488.615 239.696 L
488.766 239.708 L
488.917 239.72 L
489.067 239.733 L
489.218 239.746 L
489.369 239.761 L
489.519 239.776 L
489.67 239.792 L
489.821 239.809 L
489.971 239.827 L
490.122 239.845 L
490.273 239.865 L
490.424 239.885 L
490.574 239.906 L
490.725 239.928 L
490.876 239.951 L
491.026 239.975 L
491.177 239.999 L
491.328 240.025 L
491.478 240.051 L
491.629 240.078 L
491.78 240.106 L
491.931 240.135 L
492.081 240.165 L
492.232 240.196 L
492.383 240.228 L
492.533 240.26 L
492.684 240.294 L
492.835 240.328 L
492.985 240.364 L
493.136 240.4 L
493.287 240.437 L
493.438 240.475 L
493.588 240.514 L
493.739 240.554 L
493.89 240.595 L
494.04 240.637 L
494.191 240.68 L
494.342 240.724 L
494.492 240.769 L
494.643 240.815 L
494.794 240.862 L
494.944 240.91 L
495.095 240.958 L
495.246 241.008 L
495.397 241.059 L
495.547 241.111 L
495.698 241.164 L
495.849 241.218 L
495.999 241.273 L
496.15 241.329 L
496.301 241.386 L
496.451 241.444 L
496.602 241.503 L
496.753 241.563 L
496.904 241.625 L
497.054 241.687 L
497.205 241.751 L
497.356 241.815 L
497.506 241.881 L
497.657 241.947 L
497.808 242.015 L
497.958 242.084 L
498.109 242.154 L
498.26 242.225 L
498.41 242.298 L
498.561 242.371 L
498.712 242.446 L
498.862 242.522 L
499.013 242.599 L
499.164 242.677 L
499.315 242.756 L
499.465 242.836 L
499.616 242.918 L
499.767 243.001 L
499.917 243.085 L
500.068 243.17 L
500.219 243.256 L
500.369 243.344 L
500.52 243.433 L
500.671 243.523 L
500.822 243.614 L
500.972 243.707 L
501.123 243.8 L
501.274 243.895 L
501.424 243.992 L
501.575 244.089 L
501.726 244.188 L
501.876 244.288 L
502.027 244.39 L
502.178 244.493 L
502.328 244.597 L
502.479 244.702 L
502.63 244.809 L
502.781 244.917 L
502.931 245.026 L
503.082 245.137 L
503.233 245.249 L
503.383 245.362 L
503.534 245.477 L
503.685 245.593 L
503.835 245.71 L
503.986 245.829 L
504.137 245.949 L
504.288 246.071 L
504.438 246.194 L
504.589 246.318 L
504.74 246.444 L
504.89 246.571 L
505.041 246.7 L
505.192 246.83 L
505.342 246.962 L
505.493 247.095 L
505.644 247.229 L
505.794 247.365 L
505.945 247.502 L
506.096 247.641 L
506.247 247.782 L
506.397 247.923 L
506.548 248.067 L
506.699 248.212 L
506.849 248.358 L
507 248.506 L
S
GR
%%Trailer
%%Pages: 1
%%EOF
